%!PS-Adobe-1.0
%%Creator: terry (Theresa L. Gedenberg)
%%Title: 288001.pos
%%CreationDate: Wed Sep  7 07:32:00 1988
%%Pages: (atend)
%%DocumentFonts: (atend)
%%EndComments
save
/FF {findfont} def
/SF {scalefont} def
/GS {gsave} def
/GR {grestore} def
/MF {makefont} def
/S {0 rmoveto} def
/L {0 exch rmoveto} def
/R {setlinewidth 0 rlineto stroke} def
/m {moveto} def
/l {lineto} def
/s {setfont} def
/revflag 0 def
/adjustdict 6 dict def
/setclip {
    newpath
    /endy exch def
    /endx exch def
    /starty exch def
    /startx exch def
    startx starty moveto
    endx starty lineto
    endx endy lineto
    startx endy lineto
    closepath
} def
/bbox {
    /width exch def
    currentpoint
    /cury exch def
    /curx exch def
    newpath
    curx cury m
    0 above rlineto
    width 0 rlineto
    0 above below add neg rlineto
    width neg 0 rlineto
    closepath fill curx cury m
} def
/T {
    adjustdict begin
    /adjust exch def
    /charct exch def
    /curstring exch def
    1 revflag eq {adjust bbox 1 setgray} if
    adjust curstring stringwidth pop sub charct div 0 curstring ashow
    1 revflag eq {0 setgray} if
    end
} def
/doa4tray{
    /brandname 21 string def
    statusdict begin brandname printername pop statusdict end
    (Dataproducts LZR 2665) brandname eq
        {statusdict begin a4tray statusdict end} if
} def
 
/leaderdict 10 dict def
/F {
    leaderdict begin
        /ldrstring exch def
        /adjust exch def
        /hole exch def
        1 revflag eq {hole bbox 1 setgray} if
        /holex currentpoint pop def
        /endgap
            holex hole add
            holex hole add ldrstring stringwidth pop adjust add div truncate
            ldrstring stringwidth pop adjust add mul
            sub
        def
        /hole hole endgap sub def
        /frontgap
            hole
            hole ldrstring stringwidth pop adjust add div truncate
            ldrstring stringwidth pop adjust add mul
            sub
        def
        /hole hole frontgap sub def
        /repct
            hole ldrstring stringwidth pop adjust add div round cvi def
        frontgap 0 rmoveto
        repct {adjust 0 ldrstring ashow} repeat
        endgap 0 rmoveto
        1 revflag eq {0 setgray} if
    end
} def
%%Page: 0 1
/f1 {/Helvetica FF 23.9 SF} def
f1 s 68.8 747.6 m (Software)8 93.8 T 68.8 723.7 m (Product)7 81.9 T 68.8 
699.8 m (Description)11 118.9 T 68.8 682.8 m -2.4 L GS 476.3 5 R GR  476.3 S 
2.4 L /f2 {/Helvetica-Bold FF 9 SF} def
f2 s 68.8 657.2 m (PRODUCT)7 44 T  4.5 S (NAME:)5 29.1 T /f3 
{/Helvetica-Bold FF 12 SF} def
f3 s 152.4 657.2 m (VAX)3 24.6 T  6 S (Distributed)11 62.7 T  6 S (Queuing)7 
48.4 T  6 S (Service,)8 45.6 T  6 S f2 s (Version)7 32.8 T  4.5 S (1.1)3 
12.5 T 487.2 657.2 m (SPD)3 18.4 T  4.5 S (28.80.01)8 35 T 67.9 618.3 m (DESC\
RIPTION)11 61 T /f4 {/Helvetica FF 9 SF} def
f4 s 67.9 603.3 m (The)3 15.4 T  3.5 S (standard)8 34.9 T  3.6 S (VMS)3 19.4 
T  3.6 S (queue)5 25 T  3.6 S (system)6 28.4 T  3.6 S (enables)7 31.4 T  3.6 
S (users)5 21.9 T  3.6 S (to)2 7.5 T  3.6 S (use)3 14.5 T 67.9 593.3 m 
(the)3 12.5 T  2.5 S (VMS)3 19.4 T  2.5 S (PRINT)5 26.7 T  2.6 S (command)7 
39.3 T  2.6 S (to)2 7.5 T  2.6 S (print)5 17.3 T  2.6 S (files)5 15.8 T  2.6 
S (on)2 10 T  2.6 S (output)6 25 T  2.6 S (devices)7 30.4 T 67.9 583.3 m (tha\
t)4 15 T  4.5 S (are)3 12.9 T  4.5 S (attached)8 34.5 T  4.5 S (to)2 7.5 T  
4.5 S (their)5 17.3 T  4.5 S (local)5 18.3 T  4.5 S (VMS)3 19.4 T  4.5 S (nod\
e.)5 22.5 T 67.9 568.3 m (The)3 15.4 T  3 S (VAX)3 18 T  3 S (Distributed)11 
42.6 T  3.1 S (Queuing)7 33.9 T  3.1 S (Service)7 29.8 T  3.1 S (\(DQS\))5 
25.2 T  3.1 S (uses)4 19 T  3.1 S (DEC-)4 21.7 T 67.9 558.3 m (net)3 12.5 T  
2.8 S (to)2 7.5 T  2.8 S (extend)6 27 T  2.8 S (the)3 12.5 T  2.8 S (standard\
)8 34.9 T  2.8 S (VMS)3 19.4 T  2.8 S (queue)5 25 T  2.9 S (system)6 28.4 T  
2.9 S (to)2 7.5 T  2.9 S (enable)6 26.9 T 67.9 548.3 m (users)5 21.9 T  4.5 
S (to:)3 10 T /f5 {/Symbol FF 12 SF} def
f5 s 67.9 533.3 m (\267)1 5.5 T f4 s 79.9 533.3 m (Print)5 18.3 T  2.6 S (job\
s)4 16.4 T  2.6 S (on)2 10 T  2.6 S (printers)8 29.7 T  2.6 S (connected)9 
41.5 T  2.6 S (to)2 7.5 T  2.6 S (systems)7 32.9 T  2.6 S (other)5 20.4 T  
2.7 S (than)4 17.5 T 79.9 522.5 m (their)5 17.3 T  4.5 S (own.)4 18.9 T f5 s 
67.9 507.5 m (\267)1 5.5 T f4 s 79.9 507.5 m (Show)4 22.4 T  4.5 S (the)3 
12.5 T  4.5 S (status)6 24 T  4.5 S (of)2 7.5 T  4.5 S (jobs)4 16.4 T  4.5 S 
(on)2 10 T  4.5 S (those)5 22 T  4.5 S (systems.)8 35.4 T f5 s 67.9 491.7 m (\
\267)1 5.5 T f4 s 79.9 491.7 m (Cancel)6 27.8 T  4.5 S (their)5 17.3 T  4.5 
S (jobs)4 16.4 T  4.5 S (from)4 17.8 T  4.5 S (those)5 22 T  4.5 S (systems.)
8 35.4 T f5 s 67.9 475.9 m (\267)1 5.5 T f4 s 79.9 475.9 m (Change)6 31.4 T  
6.3 S (the)3 12.5 T  6.3 S (specifications)14 53.7 T  6.3 S (of)2 7.5 T  6.3 
S (their)5 17.3 T  6.3 S (jobs)4 16.4 T  6.4 S (on)2 10 T  6.4 S (those)5 22 
T 79.9 465.1 m (systems.)8 35.4 T 67.9 450.1 m (Any)3 15.5 T  4.6 S (node)4 
20 T  4.6 S (where)5 24.3 T  4.6 S (a)1 5 T  4.6 S (print)5 17.3 T  4.6 S (re\
quest)7 29.9 T  4.6 S (originates)10 38.7 T  4.7 S (is)2 6.4 T  4.7 S (called\
)6 23.3 T  4.7 S (a)1 5 T 67.9 440.1 m (client.)7 23.3 T  4 S (Any)3 15.5 T  
4 S (node)4 20 T  4.1 S (with)4 15.8 T  4.1 S (an)2 10 T  4.1 S (attached)8 
34.5 T  4.1 S (printer)7 25.2 T  4.1 S (that)4 15 T  4.1 S (performs)8 35.2 
T 67.9 430.1 m (the)3 12.5 T  3.5 S (printing)8 29.2 T  3.5 S (is)2 6.4 T  
3.5 S (called)6 23.3 T  3.5 S (a)1 5 T  3.5 S (server.)7 27.3 T  3.5 S 
(Any)3 15.5 T  3.5 S (node)4 20 T  3.6 S (with)4 15.8 T  3.6 S (DQS)3 19.4 T 
 3.6 S (soft-)5 17.4 T 67.9 420.1 m (ware)4 19.3 T  3.1 S (can)3 14.5 T  3.1 
S (be)2 10 T  3.1 S (configured)10 41.8 T  3.1 S (to)2 7.5 T  3.1 S (operate)
7 30.4 T  3.1 S (as)2 9.5 T  3.1 S (only)4 16.4 T  3.2 S (a)1 5 T  3.2 S (cli\
ent)6 20.8 T  3.2 S (or)2 7.9 T  3.2 S (as)2 9.5 T 67.9 410.1 m (both)4 17.5 
T  5.7 S (a)1 5 T  5.7 S (client)6 20.8 T  5.7 S (and)3 15 T  5.7 S (a)1 5 T 
 5.7 S (server.)7 27.3 T  5.7 S (DQS)3 19.4 T  5.7 S (does)4 19.5 T  5.7 S (n\
ot)3 12.5 T  5.7 S (limit)5 15.6 T  5.7 S (the)3 12.5 T 67.9 400.1 m (number)
6 30.3 T  3 S (of)2 7.5 T  3 S (client)6 20.8 T  3 S (or)2 7.9 T  3.1 S (serv\
er)6 24.8 T  3.1 S (nodes)5 24.5 T  3.1 S (or)2 7.9 T  3.1 S (queues.)7 32 T 
 3.1 S (The)3 15.4 T  3.1 S (system)6 28.4 T 67.9 390.1 m (manager)7 35.3 T  
3.5 S (creates)7 29.4 T  3.5 S (the)3 12.5 T  3.5 S (queues)6 29.5 T  3.6 S (\
and)3 15 T  3.6 S (establishes)11 44.8 T  3.6 S (the)3 12.5 T  3.6 S (corre-)
6 23.2 T 67.9 380.1 m (spondence)9 44 T  2.8 S (between)7 33.9 T  2.8 S (clie\
nt)6 20.8 T  2.8 S (queues)6 29.5 T  2.8 S (and)3 15 T  2.8 S (queues)6 29.5 
T  2.8 S (on)2 10 T  2.8 S (server)6 24.8 T 67.9 370.1 m (nodes.)6 27 T  3.4 
S (A)1 6 T  3.4 S (queue)5 25 T  3.4 S (on)2 10 T  3.4 S (a)1 5 T  3.4 S (ser\
ver)6 24.8 T  3.4 S (node)4 20 T  3.4 S (can)3 14.5 T  3.4 S (accept)6 26.5 
T  3.4 S (jobs)4 16.4 T  3.5 S (from)4 17.8 T 67.9 360.1 m (queues)6 29.5 T  
4.5 S (on)2 10 T  4.5 S (multiple)8 30.6 T  4.5 S (client)6 20.8 T  4.5 S (no\
des.)6 27 T 67.9 345.1 m (DQS)3 19.4 T  4.9 S (provides)8 33.8 T  4.9 S (a)1 
5 T  4.9 S (high)4 16.9 T  4.9 S (degree)6 27.9 T  4.9 S (of)2 7.5 T  4.9 S (\
compatibility)13 49 T  4.9 S (with)4 15.8 T  5 S (the)3 12.5 T 67.9 335.1 m (\
corresponding)13 56.7 T  4.7 S (single)6 23.3 T  4.7 S (node)4 20 T  4.7 S (c\
ommands)8 43.8 T  4.7 S (and)3 15 T  4.8 S (features)8 32.4 T  4.8 S (of)2 
7.5 T 67.9 325.1 m (VMS.)4 21.9 T /f6 {/Helvetica-BoldOblique FF 9 SF} def
f6 s 67.9 310.1 m (Features)8 37.2 T f4 s 67.9 295.1 m (The)3 15.4 T  3.8 S (\
following)9 34.6 T  3.8 S (is)2 6.4 T  3.8 S (a)1 5 T  3.8 S (summary)7 36.7 
T  3.8 S (of)2 7.5 T  3.8 S (features)8 32.4 T  3.9 S (available)9 35.2 T  
3.9 S (in)2 6.9 T  3.9 S (the)3 12.5 T 67.9 285.1 m (VAX)3 18 T  4.5 S (Distr\
ibuted)11 42.6 T  4.5 S (Queuing)7 33.9 T  4.5 S (Service)7 29.8 T  4.5 S (so\
ftware:)9 36.3 T f5 s 67.9 270.1 m (\267)1 5.5 T f4 s 79.9 270.1 m (Provides)
8 34.8 T  2.7 S (an)2 10 T  2.7 S (easy)4 19 T  2.7 S (means)5 26.9 T  2.7 S 
(of)2 7.5 T  2.8 S (printing)8 29.2 T  2.8 S (from)4 17.8 T  2.8 S 
(systems)7 32.9 T  2.8 S (that)4 15 T 79.9 259.3 m (do)2 10 T  4.5 S (not)3 
12.5 T  4.5 S (have)4 19.5 T  4.5 S (printers.)9 32.2 T f5 s 67.9 244.3 m 
(\267)1 5.5 T f4 s 79.9 244.3 m (Provides)8 34.8 T  4.5 S (completely)10 
42.7 T  4.5 S (transparent)11 45.3 T  4.5 S (support)7 29.9 T  4.5 S (for)3 
10.4 T  4.6 S (the)3 12.5 T  4.6 S (fol-)4 12.3 T 79.9 233.5 m (lowing)6 
25.2 T  4.5 S (qualifiers)10 35.6 T  4.5 S (of)2 7.5 T  4.5 S (the)3 12.5 T  
4.5 S (VMS)3 19.4 T  4.5 S (PRINT)5 26.7 T  4.5 S (command:)8 41.8 T 79.9 
218.5 m (/BACKUP,)8 41.8 T  11.7 S (/BEFORE,)8 41.8 T  11.7 S (/BURST,)7 
35.2 T  11.7 S (/BY__OWNER,)11 61.2 T 79.9 208.5 m (/CONFIRM,)9 46.5 T 79.9 
193.5 m (/CHARACTERISTICS,)17 89.2 T  7.2 S (/COPIES,)8 38.9 T  7.2 S (/CREAT\
ED,)9 47.6 T  7.2 S (/DE-)4 17.8 T 79.9 183.5 m (VICE,)5 23.4 T 79.9 168.5 m 
(/EXCLUDE,)9 47.2 T  5.2 S (/EXPIRED,)9 44.3 T  5.2 S (/FEED,)6 28.8 T  5.2 
S (/FLAG,)6 28.4 T  5.2 S (/IDENTIFY,)10 45.6 T 79.9 158.5 m (/JOB_)5 25 T 
330.9 618.3 m (COUNT,)6 34.1 T  13.1 S (/LOWERCASE,)11 62.2 T  13.1 S (/MODIF\
IED,)10 48.6 T  13.2 S (/NAME,)6 30.8 T 330.9 608.3 m (/NOTE,)6 29.8 T  4.5 
S (/QUEUE,)7 36.8 T 330.9 593.3 m (/REMOTE,)8 49.6 T  6.2 S (/RESTART,)9 
53.8 T  6.2 S (/PAGES,)7 41.6 T  6.3 S (/PASSALL,)9 52.2 T 330.9 583.3 m (/SE\
TUP,)7 34.8 T 330.9 568.3 m (/SINCE,)7 32.3 T  4.5 S (/SPACE,)7 35.4 T  4.5 
S (/TRAILER,)9 42.7 T  4.5 S (and)3 15 T  4.5 S (/USER.)6 29.8 T 318.9 553.3 
m (All)3 9.8 T  2.9 S (other)5 20.4 T  2.9 S (VMS)3 19.4 T  2.9 S (PRINT)5 
26.7 T  2.9 S (qualifiers)10 35.6 T  2.9 S (are)3 12.9 T  2.9 S 
(supported,)10 42.4 T  2.9 S (with)4 15.8 T  3 S (slight)6 20.8 T 318.9 
543.3 m (differences)11 43.8 T  5.6 S (that)4 15 T  5.6 S (reflect)7 24.3 T  
5.6 S (the)3 12.5 T  5.6 S (distributed)11 41.2 T  5.6 S (environment)11 
49.2 T  5.6 S (of)2 7.5 T 318.9 533.3 m (DQS.)4 21.9 T f5 s 318.9 518.3 m 
(\267)1 5.5 T f4 s 330.9 518.3 m (DQS)3 19.4 T  2.5 S (allows)6 24.7 T  2.5 
S (multiple)8 30.6 T  2.5 S (VMS)3 19.4 T  2.5 S (systems)7 32.9 T  2.6 S (to\
)2 7.5 T  2.6 S (share)5 22.4 T  2.6 S (expensive)9 40.4 T 330.9 507.5 m (or)
2 7.9 T  4.5 S (unique)6 26.9 T  4.5 S (printers.)9 32.2 T f5 s 318.9 492.5 
m (\267)1 5.5 T f4 s 330.9 492.5 m (If)2 5 T  5.4 S (the)3 12.5 T  5.4 S (DQS\
)3 19.4 T  5.4 S (server)6 24.8 T  5.4 S (is)2 6.4 T  5.4 S (not)3 12.5 T  
5.5 S (accessible)10 41.8 T  5.5 S (when)4 21.4 T  5.5 S (a)1 5 T  5.5 S (pri\
nt)5 17.3 T 330.9 481.7 m (command)7 39.3 T  3.6 S (is)2 6.4 T  3.6 S (issued\
,)7 28.4 T  3.6 S (DQS)3 19.4 T  3.7 S (will)4 12.1 T  3.7 S (attempt)7 29.9 
T  3.7 S (to)2 7.5 T  3.7 S (transfer)8 30.3 T  3.7 S (the)3 12.5 T 330.9 
471.7 m (job)3 11.9 T  3.6 S (for)3 10.4 T  3.6 S (printing)8 29.2 T  3.6 S (\
after)5 17.9 T  3.6 S (the)3 12.5 T  3.6 S (server)6 24.8 T  3.6 S (again)5 
21.9 T  3.6 S (becomes)7 36.4 T  3.7 S (avail-)6 21.2 T 330.9 461.7 m (able.)
5 19.4 T f5 s 318.9 446.7 m (\267)1 5.5 T f4 s 330.9 446.7 m (If)2 5 T  4.4 
S (a)1 5 T  4.4 S (printer)7 25.2 T  4.4 S (becomes)7 36.4 T  4.4 S (unavaila\
ble,)12 47.7 T  4.5 S (the)3 12.5 T  4.5 S (corresponding)13 56.7 T 330.9 
435.9 m (DQS)3 19.4 T  4.1 S (server)6 24.8 T  4.1 S (queue)5 25 T  4.1 S (ca\
n)3 14.5 T  4.1 S (be)2 10 T  4.1 S (configured)10 41.8 T  4.1 S (to)2 7.5 T 
 4.2 S (direct)6 21.8 T  4.2 S (print)5 17.3 T 330.9 425.9 m (jobs)4 16.4 T  
9.6 S (to)2 7.5 T  9.6 S (a)1 5 T  9.6 S (different)9 32.3 T  9.6 S (DQS)3 
19.4 T  9.6 S (server)6 24.8 T  9.7 S (queue)5 25 T  9.7 S (\(i.e.,)6 17.3 T 
330.9 415.9 m (daisy-chaining\))15 60 T f5 s 318.9 400.9 m (\267)1 5.5 T f4 
s 330.9 400.9 m (DQS)3 19.4 T  2.9 S (can)3 14.5 T  2.9 S (send)4 19.5 T  
2.9 S (notification)12 42.7 T  2.9 S (to)2 7.5 T  2.9 S (the)3 12.5 T  3 S (u\
ser)4 17.4 T  3 S (after)5 17.9 T  3 S (a)1 5 T  3 S (print)5 17.3 T  3 S (jo\
b)3 11.9 T 330.9 390.1 m (has)3 14.5 T  4.5 S (been)4 20 T  4.5 S (completed.\
)10 43.8 T f5 s 318.9 375.1 m (\267)1 5.5 T f4 s 330.9 375.1 m (DQS)3 19.4 T 
 2.7 S (does)4 19.5 T  2.7 S (not)3 12.5 T  2.7 S (limit)5 15.6 T  2.7 S (the\
)3 12.5 T  2.7 S (user's)6 23.8 T  2.7 S (choice)6 25.9 T  2.7 S (of)2 7.5 T 
 2.7 S (printing)8 29.2 T  2.8 S (equip-)6 24.8 T 330.9 364.3 m (ment)4 19.9 
T  2.7 S (as)2 9.5 T  2.7 S (it)2 4.4 T  2.8 S (can)3 14.5 T  2.8 S (work)4 
18.8 T  2.8 S (with)4 15.8 T  2.8 S (standard)8 34.9 T  2.8 S (DIGITAL)7 
34.8 T  2.8 S (symbionts)9 40.3 T 330.9 354.3 m (and)3 15 T  4.5 S (most)4 
19.4 T  4.5 S (user)4 17.4 T  4.5 S (written)7 26.2 T  4.5 S (or)2 7.9 T  
4.5 S (user)4 17.4 T  4.5 S (modified)8 33.7 T  4.5 S (symbionts.)10 42.8 T 
f5 s 318.9 339.3 m (\267)1 5.5 T f4 s 330.9 339.3 m (DQS)3 19.4 T  3.6 S (can\
)3 14.5 T  3.6 S (be)2 10 T  3.6 S (used)4 19.5 T  3.6 S (in)2 6.9 T  3.6 S (\
any)3 14.5 T  3.6 S (DECnet)6 31.3 T  3.6 S (environment.)12 51.7 T  3.6 S (B\
oth)4 18.5 T 330.9 328.5 m (Local)5 21.4 T  4.7 S (Area)4 18.9 T  4.7 S (Netw\
orks)8 37.2 T  4.7 S (and)3 15 T  4.8 S (Wide)4 20.3 T  4.8 S (Area)4 18.9 T 
 4.8 S (Networks)8 37.2 T  4.8 S (are)3 12.9 T 330.9 318.5 m (supported.)10 
42.4 T f5 s 318.9 303.5 m (\267)1 5.5 T f4 s 330.9 303.5 m (Additional)10 
39.2 T  2.8 S (queues)6 29.5 T  2.8 S (can)3 14.5 T  2.9 S (be)2 10 T  2.9 S 
(added)5 25 T  2.9 S (and)3 15 T  2.9 S (queue)5 25 T  2.9 S (attributes)10 
36.8 T 330.9 292.7 m (changed)7 34.5 T  4.5 S (without)7 28.3 T  4.5 S (reins\
talling)12 42.5 T  4.5 S (DQS.)4 21.9 T f5 s 318.9 277.7 m (\267)1 5.5 T f4 
s 330.9 277.7 m (Additional)10 39.2 T  4.3 S (DQS)3 19.4 T  4.3 S (nodes)5 
24.5 T  4.3 S (can)3 14.5 T  4.3 S (be)2 10 T  4.3 S (added)5 25 T  4.4 S (to\
)2 7.5 T  4.4 S (an)2 10 T  4.4 S (existing)8 30.3 T 330.9 266.9 m 
(network)7 31.3 T  4.5 S (of)2 7.5 T  4.5 S (DQS)3 19.4 T  4.5 S (nodes)5 
24.5 T  4.5 S (without)7 28.3 T  4.5 S (reinstalling)12 42.5 T  4.6 S (the)3 
12.5 T  4.6 S (soft-)5 17.4 T 330.9 256.9 m (ware)4 19.3 T  4.5 S (on)2 10 T 
 4.5 S (the)3 12.5 T  4.5 S (existing)8 30.3 T  4.5 S (nodes.)6 27 T f5 s 
318.9 241.9 m (\267)1 5.5 T f4 s 330.9 241.9 m (DQS)3 19.4 T  4.5 S (can)3 
14.5 T  4.5 S (be)2 10 T  4.5 S (configured)10 41.8 T  4.5 S (to)2 7.5 T  
4.5 S (limit)5 15.6 T  4.5 S (access)6 28 T  4.5 S (to)2 7.5 T  4.5 S (server\
s.)8 31.8 T f5 s 318.9 226.1 m (\267)1 5.5 T f4 s 330.9 226.1 m (DQS)3 19.4 
T  4.5 S (can)3 14.5 T  4.5 S (be)2 10 T  4.5 S (configured)10 41.8 T  4.5 S 
(to)2 7.5 T  4.5 S (keep)4 19.5 T  4.5 S (records)7 29.8 T  4.5 S (of)2 7.5 
T  4.5 S (use.)4 17 T f5 s 318.9 210.3 m (\267)1 5.5 T f4 s 330.9 210.3 m (Th\
e)3 15.4 T  6.4 S (DQS)3 19.4 T  6.4 S (commands)8 43.8 T  6.4 S (can)3 14.5 
T  6.5 S (be)2 10 T  6.5 S (used)4 19.5 T  6.5 S (on)2 10 T  6.5 S 
(non-DQS)7 37.3 T 330.9 199.5 m (queues.)7 32 T f2 s 318.9 184.5 m (HARDWARE)
8 52.8 T  4.5 S (REQUIREMENTS)12 71.9 T f4 s 318.9 169.5 m (VAX,)4 20.5 T  
2.6 S (MicroVAX,)9 42.2 T  2.7 S (or)2 7.9 T  2.7 S (VAXstation)10 44.4 T  
2.7 S (configuration)13 51.2 T  2.7 S (as)2 9.5 T  2.7 S (specified)9 35.3 T 
318.9 159.5 m (in)2 6.9 T  4.5 S (the)3 12.5 T  4.5 S (System)6 29.9 T  4.5 
S (Support)7 31.4 T  4.5 S (Addendum)8 43.4 T  4.5 S (\(SSA)4 20.9 T  4.5 S (\
28.80.01-x\).)12 47.8 T 67.8 113.2 m  435.8 S f2 s (July)4 17.9 T  4.5 S (198\
8)4 20 T 67.8 98.3 m  419.8 S (AE-KS63B-TE)11 58.4 T 
% SPD (8.5*11") 'software' logo.
% Aidan Killian ESDC Galway 14/05/86.
% Amended to position logo to left margin on 12-Aug-1986
% at ESDC Galway (AK/MS).

save						% Save current environment

/digital-font /Helvetica-Bold findfont 
[35 34 div .65 mul 0 0 .75 0 0] makefont def

/box-width 35 34 div .405 mul def
/box-pitch box-width .85 div def

/digital-box { 
  gsave 
    box-pitch box-width sub 2 div -.225 rmoveto
    box-width 0 rlineto 
    0 1 rlineto box-width neg 0 rlineto 
    closepath fill 
  grestore 
  gsave
    dup stringwidth pop box-pitch exch sub 2 div 0 rmoveto 
    1 setgray 
    show
  grestore
  box-pitch 0 rmoveto
} def 

/digital_logo {
  % draws digital logo with left baseline point at current point with
  % specified height using current color for boxes and white letters 
  % and moves current point in x direction by about 3.433 times height

  dup scale 
  digital-font setfont 
  0 1 6 {(digital) exch 1 getinterval digital-box} for 
} def 

/sw 1 def					% Stroke width / 2

/std 68 def					% Start Displ.

/bl 60 def					% Char Levels
/cbl bl sw add def
/ol bl 18.4 add def
/xl bl 36.8 add def
/cxl xl sw sub def
/wl xl sw add sw add def
/tl bl 59.5 add def
/ctl tl sw sub def
/dl xl 10.5 add def
/rll bl 14 sub def

/cr ol bl sub sw sub def			% Sub-char Radii
/s1r 10 def
/s2r 8 def
/fr 9.1 def
/rr 12.4 def

/el bl 19.3 add def				% Sub-char Levels
/e2l bl 10.3 add def
/s1l cbl s1r add def
/s2l cxl s2r sub def
/s3l bl 19.8 add def

/sd std s1r add sw add def			% Char Displ.
/od std 42.5 add def
/fd std 66 add def
/td std 86.5 add def
/wd std 102 add def
/ad std 168 add def
/rd std 194 add def
/ed std 221.3 add def
/end cr cr add ed add def

/f2d fd 6 sub def				% Sub-char Displ.
/t2d td 7.7 sub def
/w2d wd 26 add def
/w3d wd 52 add def
/a2d ad cr add 0.4 sub def

/dsz 15.9 def
/bsw 18 def
/bd wd 375.5 add def

sw sw add setlinewidth

newpath
sd s2l s2r 0 180 arc 
sd s2r sub s2l 5 sub sd 3.6 sub s3l 1 add sd s3l curveto 
sd 3.6 add s3l 1 sub sd s1r add s1l 5 add sd s1r add s1l curveto 
sd s1l s1r 0 180 arcn stroke

od ol cr 0 360 arc stroke

fd cbl moveto 
fd ctl td ctl fr arcto pop pop pop pop 
f2d cxl moveto 
fd fr add cxl lineto stroke

td bl 1 add moveto 
td tl lineto 
t2d cxl moveto 
td fr add cxl lineto stroke

gsave
  td cbl moveto 
  td xl lineto 
  ad xl lineto 
  ad cbl lineto clip newpath

  wd xl moveto 
  wd cbl lineto 
  w2d wl lineto 
  w2d cbl lineto 
  w3d wl lineto stroke
grestore

gsave
  a2d bl moveto 
  a2d xl lineto 
  wd xl lineto 
  wd bl lineto clip newpath

  ad ol cr 0 365 arc stroke
grestore

gsave
  a2d sw add cbl moveto 
  a2d sw sub cbl lineto 
  ad ol cr 300 60 arc 
  a2d sw sub xl lineto 
  a2d sw add xl lineto clip newpath

  a2d cbl moveto 
  a2d xl lineto stroke
grestore

rd cbl moveto 
rd xl lineto 
rd cbl moveto 
rd cxl ed cxl rr arcto pop pop pop pop stroke

gsave
  rd bl moveto 
  rd xl lineto 
  end xl lineto 
  end el sw sub lineto
  ed el sw sub lineto 
  ed e2l lineto 
  end e2l lineto 
  end bl lineto clip newpath

  ed ol cr 0 360 arc 
  ed cr sub el moveto 
  ed cr add el lineto stroke
grestore

gsave
  wd sw sub dl moveto dsz digital_logo
grestore

bsw setlinewidth

wd sw sub rll moveto 
bd rll lineto stroke

restore						% Restore previous environment
showpage
%%Page: 1 2
487.6 98.3 m f2 s 67.8 721 m (VAX)3 18.4 T  4.5 S (Distributed)11 46.9 T  
4.5 S (Queuing)7 36.1 T  4.5 S (Service,)8 34.5 T  4.5 S (Version)7 32.8 T  
4.5 S (1.1)3 12.5 T  216.6 S (SPD)3 18.4 T  4.5 S (28.80.01)8 35 T 67.8 
701.4 m (OPTIONAL)8 46.1 T  4.5 S (HARDWARE)8 52.8 T f4 s 67.8 686.4 m 
(Any)3 15.5 T  4.5 S (printer)7 25.2 T  4.5 S (supported)9 39.9 T  4.5 S (by)
2 9.5 T  4.5 S (VMS)3 19.4 T f2 s 67.8 671.4 m (SOFTWARE)8 51 T  4.5 S (REQUI\
REMENTS*)13 75.4 T f4 s 67.8 656.4 m (VMS)3 19.4 T  4.5 S (Operating)9 39.3 
T  4.5 S (System)6 29.9 T  4.5 S (or)2 7.9 T 67.8 646.4 m (MicroVMS)8 41.1 T 
 4.5 S (Operating)9 39.3 T  4.5 S (System)6 29.9 T 67.8 631.4 m 
(DECnet-VAX)10 52.2 T 67.8 616.4 m (*)1 3.5 T 79.8 616.4 m (Refer)5 21.8 T  
3.3 S (to)2 7.5 T  3.3 S (the)3 12.5 T  3.3 S (System)6 29.9 T  3.3 S (Suppor\
t)7 31.4 T  3.3 S (Addendum)8 43.4 T  3.3 S (for)3 10.4 T  3.4 S (availabil-)
10 35 T 79.8 606.4 m (ity)3 8.9 T  3.8 S (and)3 15 T  3.8 S (required)8 32.7 
T  3.8 S (versions)8 33.3 T  3.8 S (of)2 7.5 T  3.8 S (Required)8 36.2 T  
3.9 S (software)8 33.8 T  3.9 S (\(SSA)4 20.9 T 79.8 596.4 m 
(28.80.01-x\).)12 47.8 T f2 s 67.8 581.4 m (OPTIONAL)8 46.1 T  4.5 S (SOFTWAR\
E)8 51 T f4 s 67.8 566.4 m (None)4 21.4 T f2 s 67.8 551.4 m (ORDERING)8 48.1 
T  4.5 S (INFORMATION)11 62.8 T f4 s 67.8 536.4 m (Software)8 35.3 T  4.5 S (\
Licenses:)9 37.9 T  4.5 S (QL-VENA*-**)11 52.7 T 67.8 526.4 m (Software)8 
35.3 T  4.5 S (Media:)6 26.8 T  4.5 S (QA-VENA*-**)11 53.7 T 67.8 516.4 m (So\
ftware)8 35.3 T  4.5 S (Documentation:)14 62.7 T  4.5 S (QA-VENAA-GZ)11 61.6 
T 67.8 506.4 m (Software)8 35.3 T  4.5 S (Product)7 30.9 T  4.5 S (Services:)
9 36.8 T  4.5 S (QT-VENA*-**)11 53.1 T 67.8 491.4 m (*)1 3.5 T 79.8 491.4 m (\
Denotes)7 33.4 T  4.3 S (variant)7 26.8 T  4.3 S (fields.)7 23.3 T  4.3 S (Fo\
r)3 13.3 T  4.3 S (additional)10 38.2 T  4.4 S (information)11 44.1 T  4.4 S 
(on)2 10 T 79.8 481.4 m (available)9 35.2 T  4.6 S (licenses,)9 34.8 T  4.6 
S (services)8 32.8 T  4.6 S (and)3 15 T  4.6 S (media,)6 26.8 T  4.6 S (refer\
)5 18.3 T  4.6 S (to)2 7.5 T  4.6 S (the)3 12.5 T 79.8 471.4 m 
(appropriate)11 45.2 T  4.5 S (price)5 19.3 T  4.5 S (book.)5 22 T f2 s 67.8 
456.4 m (SOFTWARE)8 51 T  4.5 S (WARRANTY)8 51.8 T f4 s 67.8 441.4 m (Warrant\
y)8 36.2 T  7.5 S (for)3 10.4 T  7.5 S (this)4 13.9 T  7.5 S (software)8 
33.8 T  7.5 S (product)7 29.9 T  7.5 S (is)2 6.4 T  7.6 S (provided)8 34.3 T 
 7.6 S (by)2 9.5 T 67.8 431.4 m (DIGITAL)7 34.8 T  3.7 S (with)4 15.8 T  3.7 
S (the)3 12.5 T  3.8 S (purchase)8 36.9 T  3.8 S (of)2 7.5 T  3.8 S (a)1 5 T 
 3.8 S (license)7 27.8 T  3.8 S (for)3 10.4 T  3.8 S (the)3 12.5 T  3.8 S (pr\
oduct)7 29.9 T 318.8 701.4 m (as)2 9.5 T  4 S (defined)7 29.4 T  4 S (in)2 
6.9 T  4 S (the)3 12.5 T  4.1 S (Software)8 35.3 T  4.1 S (Warranty)8 36.2 T 
 4.1 S (Addendum)8 43.4 T  4.1 S (of)2 7.5 T  4.1 S (this)4 13.9 T 318.8 
691.4 m (SPD.)4 20.9 T f2 s 318.8 676.4 m (SOFTWARE)8 51 T  4.5 S (LICENSING)
9 48.6 T f4 s 318.8 661.4 m (Warranty)8 36.2 T  7.5 S (for)3 10.4 T  7.5 S (t\
his)4 13.9 T  7.5 S (software)8 33.8 T  7.5 S (product)7 29.9 T  7.5 S (is)2 
6.4 T  7.6 S (provided)8 34.3 T  7.6 S (by)2 9.5 T 318.8 651.4 m (DIGITAL)7 
34.8 T  3.7 S (with)4 15.8 T  3.7 S (the)3 12.5 T  3.8 S (purchase)8 36.9 T  
3.8 S (of)2 7.5 T  3.8 S (a)1 5 T  3.8 S (license)7 27.8 T  3.8 S (for)3 
10.4 T  3.8 S (the)3 12.5 T  3.8 S (product)7 29.9 T 318.8 641.4 m (as)2 9.5 
T  4 S (defined)7 29.4 T  4 S (in)2 6.9 T  4 S (the)3 12.5 T  4.1 S (Software\
)8 35.3 T  4.1 S (Warranty)8 36.2 T  4.1 S (Addendum)8 43.4 T  4.1 S (of)2 
7.5 T  4.1 S (this)4 13.9 T 318.8 631.4 m (SPD.)4 20.9 T f2 s 318.8 616.4 m (\
License)7 33.3 T  4.5 S (Management)10 54.5 T  4.5 S (Facility)8 30.8 T  4.5 
S (Support)7 34 T f4 s 318.8 601.4 m (This)4 16.8 T  2.6 S (layered)7 29.3 T 
 2.6 S (product)7 29.9 T  2.6 S (supports)8 34.4 T  2.7 S (the)3 12.5 T  2.7 
S (VMS)3 19.4 T  2.7 S (License)7 30.9 T  2.7 S (manage-)7 35.3 T 318.8 
591.4 m (ment)4 19.9 T  3 S (Facility.)9 30.1 T  3 S (License)7 30.9 T  3 S (\
units)5 18.9 T  3 S (for)3 10.4 T  3.1 S (this)4 13.9 T  3.1 S (product)7 
29.9 T  3.1 S (are)3 12.9 T  3.1 S (allocated)9 35.8 T 318.8 581.4 m (on)2 
10 T  4.5 S (a)1 5 T  4.5 S (CPU-capacity)12 54.6 T  4.5 S (basis.)6 23.4 T 
318.8 566.4 m (For)3 13.3 T  2.8 S (more)4 20.3 T  2.9 S (information)11 
44.1 T  2.9 S (on)2 10 T  2.9 S (the)3 12.5 T  2.9 S (License)7 30.9 T  2.9 
S (Management)10 52.3 T  2.9 S (Facili-)7 23.5 T 318.8 556.4 m (ty,)3 9.5 T  
3 S (refer)5 18.3 T  3 S (to)2 7.5 T  3 S (the)3 12.5 T  3.1 S (VMS)3 19.4 T 
 3.1 S (Operating)9 39.3 T  3.1 S (System)6 29.9 T  3.1 S (Software)8 35.3 T 
 3.1 S (Product)7 30.9 T 318.8 546.4 m (Description)11 44.6 T  7.5 S (\
\(SPD)4 21.3 T  7.5 S (25.01.xx\))9 36.9 T  7.5 S (or)2 7.9 T  7.5 S (the)3 
12.5 T  7.6 S (VMS)3 19.4 T  7.6 S (Operating)9 39.3 T 318.8 536.4 m (System)
6 29.9 T  4.5 S (documentation)13 58.8 T  4.5 S (set.)4 14.5 T 318.8 521.4 m 
(For)3 13.3 T  5.2 S (more)4 20.3 T  5.2 S (information)11 44.1 T  5.2 S (on)
2 10 T  5.2 S (DIGITAL's)9 41.2 T  5.2 S (licensing)9 34.7 T  5.3 S (policies\
,)9 32.2 T 318.8 511.4 m (contact)7 29 T  4.5 S (your)4 17.4 T  4.5 S (local)
5 18.3 T  4.5 S (DIGITAL)7 34.8 T  4.5 S (office.)7 23.9 T f2 s 318.8 496.4 
m (SOFTWARE)8 51 T  4.5 S (PRODUCT)7 44 T  4.5 S (SERVICES)8 45.3 T f4 s 
318.8 481.4 m (A)1 6 T  5.7 S (variety)7 26.3 T  5.7 S (of)2 7.5 T  5.7 S (se\
rvice)7 28.3 T  5.7 S (options)7 28.9 T  5.7 S (are)3 12.9 T  5.8 S (availabl\
e.)10 37.7 T  5.8 S (For)3 13.3 T  5.8 S (more)4 20.3 T 318.8 471.4 m (inform\
ation)11 44.1 T  4.5 S (on)2 10 T  4.5 S (these)5 22 T  4.6 S (or)2 7.9 T  
4.6 S (other)5 20.4 T  4.6 S (services,)9 35.3 T  4.6 S (please)6 26.4 T  
4.6 S (contact)7 29 T 318.8 461.4 m (your)4 17.4 T  4.5 S (local)5 18.3 T  
4.5 S (DIGITAL)7 34.8 T  4.5 S (office.)7 23.9 T 67.8 44.6 m  229.2 S f2 s (-\
)1 2.9 T  4.5 S (2)1 5 T  4.5 S (-)1 2.9 T  229.2 S showpage
535.2 44.6 m  restore
%%Pages: 2
