%!PS-Adobe-1.0

%%Title: GEM02D$:[DUNCAN.WPSPLUS]000207SPD8.TMS;1

%%Creator: DECpage V3.0

%%CreationDate:  7-NOV-1989 15:36:43.76

%%Pages: (at end)

%%DocumentFonts: (atend)

%%EndComments

statusdict begin 0 setjobtimeout end

/CF /currentfont load def

/CP /currentpoint load def

/FF /findfont load def

/GR /grestore load def 

/GS /gsave load def

/LI /lineto load def

/MF /makefont load def 

/MO /moveto load def

/RL /rlineto load def

/RM /rmoveto load def

/RO /rotate load def

/SC /scale load def

/SD /setdash load def

/SE /setfont load def

/SF /scalefont load def

/SH /show load def

/ST /stroke load def

/SW /setlinewidth load def

/TR /translate load def



/BD {bind def} bind def

/DPT {FF exch SF SE}BD

/HTD{/ht exch def pop pop pop}BD

/MTCFP{false charpath flattenpath pathbbox}BD

/TCFP{true charpath flattenpath pathbbox}BD

  

% partial line up

/PLU {

 /CURSCAL CF /FontMatrix get 3 get 1000 mul def

  0 CURSCAL .5 mul RM

}BD

  

% partial line down

/PLD {

 /CURSCAL CF /FontMatrix get 3 get 1000 mul def

 0 CURSCAL -0.5 mul RM

}BD

  

/SavedX 0 def  

/SavedY 0 def  

/SavedString () def

/ShowInit

    {CP /SavedY exch def /SavedX exch def}BD

/bold

    {dup /SavedString exch def

    400 CF /FontMatrix get 3 get mul -12000 div 0 RM SH

    SavedX SavedY MO

    800 CF /FontMatrix get 3 get mul -12000 div 0 RM 

    SavedString SH

    SavedX SavedY MO

    SavedString SH

    }BD

/D1 

    {ShowInit bold}BD



% show string bold

/DPJB{

 /st 1 string def 

 /x exch def

 {st 0 3 -1 roll put st ( ) eq{x 0 RM}{st D1}ifelse}forall

}BD

% show string

/DPJ{( ) stringwidth pop sub 0 32 4 -1 roll widthshow}BD  



/DPF1

    {CP TR

    .5 .5 SC

    0 .6 DPFX mul MO SH

    .6 DPFX mul 0 MO SH

    0 0 MO 1.2 DPFX mul 1.2 DPFX mul LI ST

    GR

    .6 DPFX mul 0 RM

    }BD

  

% show fraction mono

/MDPF

    {exch

    GS

    /DPFX CF /FontMatrix get 3 get def

    DPF1

    }BD

/DPF1B

    {CP TR

    .5 .5 SC

    0 .6 DPFX mul MO D1

    .6 DPFX mul 0 MO D1

    0 0 MO 1.2 DPFX mul 1.2 DPFX mul LI ST

    GR

    .6 DPFX mul 0 RM

    }BD

  

% show fraction mono

/MDPFB

    {exch

    GS

    /DPFX CF /FontMatrix get 3 get def

    DPF1B

    }BD

  

% show fraction

/DPF{

 /CURSCAL CF /FontMatrix get 3 get 1000 mul def

 /den exch def

 /num exch def

 /regf CF def

 /frf CF [.65 0 0 .6 0 0] MF def

 GS newpath 0 0 MO /Symbol FF CURSCAL SF SE (\244) TCFP HTD GR 

 0 .4 ht mul RM frf SE num SH 0 .4 ht mul neg RM 

 /Symbol FF CURSCAL SF SE (\244) SH 

 frf SE den SH regf SE

}BD

  

% show sup/inf

/DPIS{

 /regf CF def

 /sy CP exch pop def

 /supinf CF [.65 0 0 .6 0 0] MF def 

 GS newpath 0 0 MO TCFP HTD GR 0 exch ht mul RM supinf SE SH regf SE 

 CP pop sy MO

}BD

  

% show sup

/DPS{.40 (I) DPIS}BD

  

%show inf

/DPI{dup -.15 exch DPIS}BD

  

% show mono sup

/MDPS{

 GS newpath 0 0 MO (1) MTCFP HTD GR 

 0 ht .5 mul RM SH

 0 ht -.5 mul RM

}BD

  

%show mono inf

/MDPI{

 GS newpath 0 0 MO (1) MTCFP HTD GR 

 0 ht -.5 mul RM SH

 0 ht .5 mul RM

}BD

% show mono sup

/MDPSB{

 GS newpath 0 0 MO (1) MTCFP HTD GR 

 0 ht .5 mul RM D1

 0 ht -.5 mul RM

}BD

  

%show mono inf

/MDPIB{

 GS newpath 0 0 MO (1) MTCFP HTD GR 

 0 ht -.5 mul RM D1

 0 ht .5 mul RM

}BD

  

/reencodedict 12 dict def

/ReEncode

  { reencodedict begin

    /newencoding exch def

    /newfontname exch def

    /basefontname exch def

    /basefontdict basefontname FF def

    /newfont basefontdict maxlength dict def

    basefontdict

    	{ exch dup /FID ne 

    	    {dup /Encoding eq

    		{exch dup length array copy 

    		    newfont 3 1 roll put}

	  	{ exch newfont 3 1 roll put }

	     ifelse

    	    }

	    { pop pop }

    	    ifelse

       } forall

  newfont /FontName newfontname put

  newencoding aload pop

  newencoding length 2 idiv

    {newfont /Encoding get 3 1 roll put}

    repeat

  newfontname newfont definefont pop

  end

 }BD

  

/DPMCS [

% DEC Supplemental side:

160 /.notdef

161 /exclamdown 

162 /cent 

163 /sterling 

164 /fraction 

165 /yen 

166 /.notdef

167 /section 

168 /currency 

169 /copyright 

170 /ordfeminine 

171 /guillemotleft 

172 /.notdef

173 /.notdef

174 /.notdef

175 /.notdef

176 /.notdef  % degree

177 /.notdef  % plus/minus

178 /.notdef  % superscript 2

179 /.notdef  % superscript 3

180 /.notdef

181 /.notdef  % micro

182 /paragraph 

183 /periodcentered 

184 /.notdef

185 /.notdef  % superscript 1

186 /ordmasculine 

187 /guillemotright 

188 /.notdef  % 1/4

189 /.notdef  % 1/2

190 /.notdef

191 /questiondown 

192 /Agrave 

193 /Aacute 

194 /Acircumflex 

195 /Atilde 

196 /Adieresis 

197 /Aring 

%198 /.notdef  % /AE 

198 /AE 

199 /Ccedilla 

200 /Egrave 

201 /Eacute 

202 /Ecircumflex 

203 /Edieresis 

204 /Igrave 

205 /Iacute 

206 /Icircumflex 

207 /Idieresis 

208 /.notdef

209 /Ntilde 

210 /Ograve 

211 /Oacute 

212 /Ocircumflex 

213 /Otilde 

214 /Odieresis 

%215 /.notdef  % /OE 

215 /OE 

216 /Oslash 

217 /Ugrave 

218 /Uacute 

219 /Ucircumflex 

220 /Udieresis 

221 /Ydieresis 

222 /.notdef

223 /germandbls 

224 /agrave 

225 /aacute 

226 /acircumflex 

227 /atilde 

228 /adieresis 

229 /aring 

%230 /.notdef %ae

230 /ae

231 /ccedilla 

232 /egrave 

233 /eacute 

234 /ecircumflex 

235 /edieresis 

236 /igrave 

237 /iacute 

238 /icircumflex 

239 /idieresis 

240 /.notdef

241 /ntilde 

242 /ograve 

243 /oacute 

244 /ocircumflex 

245 /otilde 

246 /odieresis 

%247 /.notdef %oe

247 /oe 

248 /oslash 

249 /ugrave 

250 /uacute 

251 /ucircumflex 

252 /udieresis 

253 /ydieresis 

254 /.notdef 

  

129 /grave 

130 /acute 

131 /circumflex 

132 /tilde 

133 /dieresis 

134 /ring 

135 /cedilla 

136 /dotlessi 

137 /macron

138 /breve

139 /dotaccent

140 /hungarumlaut

141 /ogonek

142 /caron

143 /endash

144 /emdash

145 /dagger

146 /daggerdbl

147 /bullet

148 /fi

149 /fl

150 /quotedblleft

151 /quotedblright

152 /registered

153 /trademark

154 /quotedblbase

] def

  

/cvc

{ 

( )

dup

0 

4 -1 roll

put

}BD

  

/Courier /CourierExtended DPMCS ReEncode

/ExtendedEncoding /CourierExtended FF /Encoding get def

/SymbolEncoding /Symbol FF /Encoding get def

  

/ExtendedDecoding ExtendedEncoding length dict def

ExtendedDecoding begin

0 1 ExtendedEncoding length 1 sub

{ 

dup

ExtendedEncoding exch get

exch def

}for

end

/SymbolDecoding SymbolEncoding length dict def

SymbolDecoding begin

0 1 SymbolEncoding length 1 sub

{ 

dup

SymbolEncoding exch get

exch def

}for

end

  

/BBox [0 -.25 .6 .75] def

  

/superscript

{/CourierExtended FF SE

.6667 .6667 SC

0 .2667 MO

SH

}BD

  

/diphthong

{ 

{/CourierExtended FF [.6667 0 .1786 1 0 0] MF SE}

{/CourierExtended FF [.66666667 0 0 1 0 0] MF SE}

ifelse

0 0 MO

CP TR

SH

/CourierExtended FF

[.6667 0 0 1 0 0] MF SE

.26 0 MO

SH

}BD

  

/ctrl

{/CourierExtended FF SE

.8333 .8333 SC

0 .3 MO

SH

.1371 -.3 MO

SH

}BD

  

/fraction

{/CourierExtended FF SE

.5 .5 SC

0 .6 MO

SH

.6 0 MO

SH

0 0 MO

1.2 1.2 LI

ST

}BD

  

/McsEncoding ExtendedEncoding def

McsEncoding

dup 169 /copyrightsans put

dup 176 /degree put

dup 177 /plusminus put

dup 178 /twosuper put

dup 179 /threesuper put

dup 181 /mu put

dup 185 /onesuper put

dup 188 /onefourth put

dup 189 /onehalf put

dup 198 /AE put

dup 215 /OE put

dup 230 /ae put

dup 247 /oe put

pop

  

/TcsEncoding  256 array def

32 1 94 {TcsEncoding exch dup McsEncoding exch get put} for

TcsEncoding

dup 95 /space put

dup 96 /diamond put

dup 97 /blob put

dup 98 /HT put

dup 99 /FF put

dup 100 /CR put

dup 101 /LF put

dup 102 /degree put

dup 103 /plusminus put

dup 104 /NL put

dup 105 /VT put

dup 106 /crnlr put

dup 107 /crnur put

dup 108 /crnul put

dup 109 /crnll put

dup 110 /cross put

dup 111 /scan1 put

dup 112 /scan3 put

dup 113 /scan5 put

dup 114 /scan7 put

dup 115 /scan9 put

dup 116 /tl put

dup 117 /tr put

dup 118 /tb put

dup 119 /tt put

dup 120 /vertical put

dup 121 /lessequal put

dup 122 /greaterequal put

dup 123 /pi put

dup 124 /notequal put

dup 125 /sterling put

dup 126 /periodcentered put

pop

TcsEncoding

dup 161 /radicalleft put

dup 162 /radicallefttp put

dup 163 /horizontalext put

dup 164 /integraltp put

dup 165 /integralbt put

dup 166 /verticalext put

dup 167 /bracketlefttp put

dup 168 /bracketleftbt put

dup 169 /bracketrighttp put

dup 170 /bracketrightbt put

dup 171 /bracelefttp put

dup 172 /braceleftbt put

dup 173 /bracerighttp put

dup 174 /bracerightbt put

dup 175 /braceleftmid put

dup 176 /bracerightmid put

dup 177 /sumtpleft put

dup 178 /sumbtleft put

dup 179 /sumtpvert put

dup 180 /sumbtvert put

dup 181 /sumtpright put

dup 182 /sumbtright put

dup 183 /sumrightmid put

dup 184 /questionreverse put

dup 185 /questionreverse put

dup 186 /questionreverse put

dup 187 /questionreverse put

dup 188 /lessequal put

dup 189 /notequal put

dup 190 /greaterequal put

dup 191 /integral put

dup 192 /therefore put

dup 193 /proportional put

dup 194 /infinity put

dup 195 /divide put

dup 196 /Delta put

dup 197 /gradient put

dup 198 /Phi put

dup 199 /Gamma put

dup 200 /similar put

dup 201 /approxequal put

dup 202 /Theta put

dup 203 /multiply put

dup 204 /Lambda put

dup 205 /arrowdblboth put

dup 206 /arrowdblright put

dup 207 /equivalence put

dup 208 /Pi put

dup 209 /Psi put

dup 210 /questionreverse put

dup 211 /Sigma put

dup 212 /questionreverse put

dup 213 /questionreverse put

dup 214 /radical put

dup 215 /Omega put

dup 216 /Xi put

dup 217 /Upsilon1 put

dup 218 /propersubset put

dup 219 /propersuperset put

dup 220 /intersection put

dup 221 /union put

dup 222 /logicaland put

dup 223 /logicalor put

dup 224 /logicalnot put

dup 225 /alpha put

dup 226 /beta put

dup 227 /chi put

dup 228 /delta put

dup 229 /epsilon put

dup 230 /phi put

dup 231 /gamma put

dup 232 /eta put

dup 233 /iota put

dup 234 /theta put

dup 235 /kappa put

dup 236 /lambda put

dup 237 /questionreverse put

dup 238 /nu put

dup 239 /partialdiff put

dup 240 /pi put

dup 241 /psi put

dup 242 /rho put

dup 243 /sigma put

dup 244 /tau put

dup 245 /questionreverse put

dup 246 /florin put

dup 247 /omega put

dup 248 /xi put

dup 249 /upsilon put

dup 250 /zeta put

dup 251 /arrowleft put

dup 252 /arrowup put

dup 253 /arrowright put

dup 254 /arrowdown put

pop

  

/CharStrings 61 dict def

CharStrings begin

/crnlr

{0 .25 MO

.3 .25 LI

.3 .75 LI

ST

}BD

/crnur

{0 .25 MO

.3 .25 LI

.3 -.25 LI

ST

}BD

/crnul

{.6 .25 MO

.3 .25 LI

.3 -.25 LI

ST

}BD

/crnll

{.6 .25 MO

.3 .25 LI

.3 .75 LI

ST

}BD

/cross

{0 .25 MO

.6 .25 LI

.3 .75 MO

.3 -.25 LI

ST

}BD

/scan9

{0 -.15 MO

.6 -.15 LI

ST

}BD

/scan7

{0 .05 MO

.6 .05 LI

ST

}BD

/scan5

{0 .25 MO

.6 .25 LI

ST

}BD

/scan3

{0 .45 MO

.6 .45 LI

ST

}BD

/scan1

{0 .65 MO

.6 .65 LI

ST

}BD

/tl

{.3 .75 MO

.3 -.25 LI

.6 .25 MO

.3 .25 LI

ST

}BD

/tr

{.3 .75 MO

.3 -.25 LI

0 .25 MO

.3 .25 LI

ST

}BD

/tb

{0 .25 MO

.6 .25 LI

.3 .75 MO

.3 .25 LI

ST

}BD

/tt

{0 .25 MO

.6 .25 LI

.3 -.25 MO

.3 .25 LI

ST

}BD

/vertical

{.3 .75 MO

.3 -.25 LI

ST

}BD

/radicalleft

{.3 .75 MO

.3 -.25 LI

0 .25 LI

ST

}BD

/radicallefttp

{.6 .25 MO

.3 .25 LI

.3 -.25 LI

ST

}BD

/horizontalext

{0 .25 MO

.6 .25 LI

ST

}BD

/integraltp

{.3 -.25 MO

.3 .75 .45 .75 .25 arcto pop pop pop pop

ST

.53 .67 .1 0 360 arc

fill

}BD

/integralbt

{.3 .75 MO

.3 -.25 .15 -.25 .25 arcto pop pop pop pop

ST

.08 -.17 .1 0 360 arc

fill

}BD

/verticalext

{.3 .75 MO

.3 -.25 LI

ST

}BD

/bracketlefttp

{.6 .75 MO

.3 .75 LI

.3 -.25 LI

ST

}BD

/bracketleftbt

{.3 .75 MO

.3 -.25 LI

.6 -.25 LI

ST

}BD

/bracketrighttp

{0 .75 MO

.3 .75 LI

.3 -.25 LI

ST

}BD

/bracketrightbt

{.3 .75 MO

.3 -.25 LI

0 -.25 LI

ST

}BD

/bracelefttp

{.3 -.25 MO

.3 .75 .6 .75 .5 arcto pop pop pop pop

ST

}BD

/braceleftbt

{.3 .75 MO

.3 -.25 .6 -.25 .5 arcto pop pop pop pop

ST

}BD

/bracerighttp

{.3 -.25 MO

.3 .75 0 .75 .5 arcto pop pop pop pop

ST

}BD

/bracerightbt

{.3 .75 MO

.3 -.25 0 -.25 .5 arcto pop pop pop pop

ST

}BD

/braceleftmid

{.3 .75 MO

.3 .25 .15 .25 .15 arcto pop pop pop pop

.3 -.25 MO

.3 .25 .15 .25 .15 arcto pop pop pop pop

ST

}BD

/bracerightmid

{.3 .75 MO

.3 .25 .45 .25 .15 arcto pop pop pop pop

.3 -.25 MO

.3 .25 .45 .25 .15 arcto pop pop pop pop

ST

}BD

/sumtpleft

{.6 .25 MO

.3 .25 LI

.6 -.25 LI

ST

}BD

/sumbtleft

{.6 .25 MO

.3 .25 LI

.6 .75 LI

ST

}BD

/sumtpvert

{0 .75 MO

.6 -.25 LI

ST

}BD

/sumbtvert

{0 -.25 MO

.6 .75 LI

ST

}BD

/sumtpright

{0 .25 MO

.6 .25 LI

.6 -.25 LI

ST

}BD

/sumbtright

{0 .25 MO

.6 .25 LI

.6 .75 LI

ST

}BD

/sumrightmid

{0 .75 MO

.3 .25 LI

0 -.25 LI

ST

}BD

/arrowdblboth

{.1 .1 MO

.5 .1 LI

.1 .25 MO

.5 .25 LI

.175 .325 MO

0 .175 LI

.175 .025 LI

.425 .325 MO

.6 .175 LI

.425 .025 LI

ST

}BD

/arrowdblright

{.1 .1 MO

.5 .1 LI

.1 .25 MO

.5 .25 LI

.425 .325 MO

.6 .175 LI

.425 .025 LI

ST

}BD

/arrowleft

{0 .25 MO

.6 .25 LI

.15 .4 MO

0 .25 LI

.15 .1 LI

ST

}BD

/arrowup

{.3 .5 MO

.3 0 LI

.15 .35 MO

.3 .5 LI

.45 .35 LI

ST

}BD

/arrowright

{0 .25 MO

.6 .25 LI

.45 .4 MO

.6 .25 LI

.45 .1 LI

ST

}BD

/arrowdown

{.3 .5 MO

.3 0 LI

.15 .15 MO

.3 0 LI

.45 .15 LI

ST

}BD

/blob

{0 -.25 TR

CharWidth 1 SC

6 10

false

[6 0 0 -10 0 10]

{<55 AA>}

imagemask

}BD

/questionreverse

{/CourierExtended FF SE

.6 0 MO

-1 1 SC

(?) SH

}BD

/onesuper {(1) superscript}BD

/twosuper {(2) superscript}BD

/threesuper {(3) superscript}BD

/AE {(E) (A) true diphthong}BD

/OE {(E) (O) false diphthong}BD

/ae {(e) (a) false diphthong}BD

/oe {(e) (o) false diphthong}BD

/HT {(T) (H) ctrl}BD

/FF {(F) (F) ctrl}BD

/CR {(R) (C) ctrl}BD

/LF {(F) (L) ctrl}BD

/NL {(L) (N) ctrl}BD

/VT {(T) (V) ctrl}BD

/onehalf {(2) (1) fraction}BD

/onefourth {(4) (1) fraction}BD

end

  

/BuildCharDict 3 dict def

/BuildChar

{ 

BuildCharDict begin

/char exch def

/fontdict exch def

/charname fontdict /Encoding get char get def

fontdict begin

CharWidth 0

FontBBox aload pop

setcachedevice

CharStrings charname known

{.05 SW CharStrings charname get

exec

} 

{ExtendedDecoding charname known

{/CourierExtended FF SE

ExtendedDecoding charname get

} 

{/Symbol FF SE

.8 .8 SC

SymbolDecoding charname get

} 

ifelse

cvc

0 0 MO

SH

} 

ifelse

end

end

}BD

  

/Courier-MCS 11 dict dup begin

/FontType 3 def

/FontBBox BBox def

/BuildChar /BuildChar load def

/Encoding McsEncoding def

/CharWidth .6 def

/FontMatrix [1 0 0 1 0 0] def

/UnderlineThickness 75 def

/UnderlinePosition 250 def

/StrikethroughThickness 75 def

/StrikethroughPosition -275 def

end definefont pop

  

/Courier-TECH 11 dict dup begin

/FontType 3 def

/FontBBox BBox def

/BuildChar /BuildChar load def

/Encoding TcsEncoding def

/CharWidth .6 def

/FontMatrix [1 0 0 1 0 0] def

/UnderlineThickness 75 def

/UnderlinePosition 250 def

/StrikethroughThickness 75 def

/StrikethroughPosition -275 def

end definefont pop

%%EndProlog

 /Helvetica-Bold /Helvetica-Bold-DPMCS DPMCS ReEncode /Helvetica /Helvetica-DPMCS DPMCS ReEncode /Helvetica-Oblique /Helvetica-Oblique-DPMCS DPMCS ReEncode% SPD (8.5*11") 'software' logo.

% Aidan Killian ESDC Galway 14/05/86.

% Amended to position logo to left margin on 12-Aug-1986

% at ESDC Galway (AK/MS).

/LOGO8A {

save						% Save current environment



/digital-font /Helvetica-Bold findfont 

[35 34 div .65 mul 0 0 .75 0 0] makefont def



/box-width 35 34 div .405 mul def

/box-pitch box-width .85 div def



/digital-box { 

  gsave 

    box-pitch box-width sub 2 div -.225 rmoveto

    box-width 0 rlineto 

    0 1 rlineto box-width neg 0 rlineto 

    closepath fill 

  grestore 

  gsave

    dup stringwidth pop box-pitch exch sub 2 div 0 rmoveto 

    1 setgray 

    show

  grestore

  box-pitch 0 rmoveto

} def 



/digital_logo {

  % draws digital logo with left baseline point at current point with

  % specified height using current color for boxes and white letters 

  % and moves current point in x direction by about 3.433 times height



  dup scale 

  digital-font setfont 

  0 1 6 {(digital) exch 1 getinterval digital-box} for 

} def 



/sw 1 def					% Stroke width / 2



/std 68 def					% Start Displ.



/bl 60 def					% Char Levels

/cbl bl sw add def

/ol bl 18.4 add def

/xl bl 36.8 add def

/cxl xl sw sub def

/wl xl sw add sw add def

/tl bl 59.5 add def

/ctl tl sw sub def

/dl xl 10.5 add def

/rll bl 14 sub def



/cr ol bl sub sw sub def			% Sub-char Radii

/s1r 10 def

/s2r 8 def

/fr 9.1 def

/rr 12.4 def



/el bl 19.3 add def				% Sub-char Levels

/e2l bl 10.3 add def

/s1l cbl s1r add def

/s2l cxl s2r sub def

/s3l bl 19.8 add def



/sd std s1r add sw add def			% Char Displ.

/od std 42.5 add def

/fd std 66 add def

/td std 86.5 add def

/wd std 102 add def

/ad std 168 add def

/rd std 194 add def

/ed std 221.3 add def

/end cr cr add ed add def



/f2d fd 6 sub def				% Sub-char Displ.

/t2d td 7.7 sub def

/w2d wd 26 add def

/w3d wd 52 add def

/a2d ad cr add 0.4 sub def



/dsz 15.9 def

/bsw 18 def

/bd wd 375.5 add def



sw sw add setlinewidth

} def

/LOGO8B {

newpath

sd s2l s2r 0 180 arc 

sd s2r sub s2l 5 sub sd 3.6 sub s3l 1 add sd s3l curveto 

sd 3.6 add s3l 1 sub sd s1r add s1l 5 add sd s1r add s1l curveto 

sd s1l s1r 0 180 arcn stroke



od ol cr 0 360 arc stroke



fd cbl moveto 

fd ctl td ctl fr arcto pop pop pop pop 

f2d cxl moveto 

fd fr add cxl lineto stroke



td bl 1 add moveto 

td tl lineto 

t2d cxl moveto 

td fr add cxl lineto stroke



gsave

  td cbl moveto 

  td xl lineto 

  ad xl lineto 

  ad cbl lineto clip newpath



  wd xl moveto 

  wd cbl lineto 

  w2d wl lineto 

  w2d cbl lineto 

  w3d wl lineto stroke

grestore



gsave

  a2d bl moveto 

  a2d xl lineto 

  wd xl lineto 

  wd bl lineto clip newpath



  ad ol cr 0 365 arc stroke

grestore



gsave

  a2d sw add cbl moveto 

  a2d sw sub cbl lineto 

  ad ol cr 300 60 arc 

  a2d sw sub xl lineto 

  a2d sw add xl lineto clip newpath



  a2d cbl moveto 

  a2d xl lineto stroke

grestore



rd cbl moveto 

rd xl lineto 

rd cbl moveto 

rd cxl ed cxl rr arcto pop pop pop pop stroke



gsave

  rd bl moveto 

  rd xl lineto 

  end xl lineto 

  end el sw sub lineto

  ed el sw sub lineto 

  ed e2l lineto 

  end e2l lineto 

  end bl lineto clip newpath



  ed ol cr 0 360 arc 

  ed cr sub el moveto 

  ed cr add el lineto stroke

grestore



gsave

  wd sw sub dl moveto dsz digital_logo

grestore



bsw setlinewidth



wd sw sub rll moveto 

bd rll lineto stroke



restore						% Restore previous environment

} def

/LOGO8 { LOGO8A LOGO8B} def

 save

%%Page: 1 1



0 657.04 MO
 10.00 /Courier-MCS DPT

 /save-pc$postscript-graphic save def 

56.78 654.59 TR 

 0 95.64 490.16 512.00 div 96.00 mul  sub  2  div  TR 490.16 512.00 div 490.16 512.00 div  SC 

0.00 -1 mul  634.00 -1 mul  TR 

 /showpage {} def /initmatrix {} def /initgraphics {} def /initclip {} def /erasepage {} def /copypage {} def /exitserver {} def /letter {} def /note {} def /legal {} def

%!PS-Adobe-2.0 EPSF-1.2


%%Creator:Cricket Draw 1.1


%%Title:ssa8top.ps


%%CreationDate:11/11/88   4:34 PM


%%DocumentFonts: Helvetica


%%BoundingBox:0 634 512 730 


%%Pages:0


%%EndComments


/vmstate save def


/$cricket 210 dict def


$cricket begin 1 -1 scale


0 -730  translate


2 setlinecap


/d /def load def


/b {bind d}bind d


/l {load d}b


/e /exch l


/x {e d}b


/C /closepath l


/CP /currentpoint l


/SH /show l


/g /gsave l


/G /grestore l


/i /if l


/I /ifelse l


/v /getinterval l


/V /putinterval l


/W /stringwidth l


/SG /setgray l


/N /newpath l


/M /moveto l


/L /lineto l


/R /rlineto l


/T /translate l


/D /dup l


/* /mul l


/+ /add l


/- /sub l


/? /div l


/ma {* +}b 


/h {D * e D ma sqrt}d


systemdict D /setpacking known D {/packstate currentpacking d D setpacking}i /pack? x


begin /settransfer load /setscreen load end 


/setscreen x /settransfer x


/dt [ currenttransfer ] cvx d 


/ds [ currentscreen D [ e ] cvx /devSpot x ] cvx d 


/jp {e [ 3 1 roll aload pop counttomark -1 roll aload pop ] cvx}b 


/settransfer {dt jp settransfer}b 


/macvec dup where not { 256 array d 


macvec 0 StandardEncoding


0 128 getinterval putinterval


macvec 16#27 /quotesingle put


macvec 16#60 /grave put


/Adieresis /Aring /Ccedilla /Eacute /Ntilde /Odieresis /Udieresis /aacute


/agrave /acircumflex /adieresis /atilde /aring /ccedilla /eacute /egrave


/ecircumflex /edieresis /iacute /igrave /icircumflex /idieresis /ntilde /oacute


/ograve /ocircumflex /odieresis /otilde /uacute /ugrave /ucircumflex /udieresis


/dagger /degree /cent /sterling /section /bullet /paragraph /germandbls


/registersans /copyrightsans /trademarksans /acute /dieresis /notequal /AE /Oslash


/infinity /plusminus /lessequal /greaterequal /yen /mu /partialdiff /summation


/product /pi /integral /ordfeminine /ordmasculine /Omega /ae /oslash


/questiondown /exclamdown /logicalnot /radical /florin /approxequal /Delta /guillemotleft


/guillemotright /ellipsis /space /Aacute /Atilde /Otilde /OE /oe


/endash /emdash /quotedblleft /quotedblright /quoteleft /quoteright /divide /lozenge


/ydieresis /Ydieresis /fraction /currency /guilsinglleft /guilsinglright /fi /fl


/daggerdbl /periodcentered /quotesinglbase /quotedblbase /perthousand


/Acircumflex /Ecircumflex /Agrave


/Edieresis /Egrave /Iacute /Icircumflex /Idieresis /Igrave /Oacute /Ocircumflex


/apple /Ograve /Uacute /Ucircumflex /Ugrave /dotlessi /circumflex /tilde


/macron /breve /dotaccent /ring /cedilla /hungarumlaut /ogonek /caron


macvec 128 128 v astore pop}{pop pop}I


/ad {+ d}b 


/sd {- d}b 


/td {* d}b 


/dd {? d}b


/c {2 ? e 2 ? e}b 


/n0 {D 0 eq {pop}}b


/m1 matrix d /m2 matrix d /m3 matrix d


/ct 0 d 


/s+ 0 d 


/po 0 d 


/ts 40 string d


/s1 (|______) d


ts 0 s1 V


/sp ( ) d


/SM {/m3 m3 currentmatrix d}b 


/RM {m3 setmatrix}b 


/dpi 72 0 matrix defaultmatrix dtransform h d


/inch {72 *}b


/cm {28.3465 *}b


/pi 3.1415923 d


/fs 256 string d 


/sh {m1 m2 copy 2 3 -1 roll sin put m2 concat}b 


/fc {T n0 {rotate}I scale n0 {sh}I}b 


/a {/ea x /sa x SM -1 * scale 0 0 1 sa ea 2 copy gt {arcn}{arc}I RM}b 


/cn {SM T x1 y1 scale 0 0 1 ct 90 * D 90 + arc /ct ct 1 ad RM}b 


/rr {/y1 x /x1 x /ct 0 d c y1 - /yr x x1 - /xr x N xr yr cn xr neg yr cn xr neg yr neg cn xr yr neg cn C}b 


/dg 


{/lc x clip rotate T /dy x /dx x


0 eq {N 


1 eq {1 10 lc ? 10{log dy * 0 e neg M dx 0 R}for lc 10 gt{dy 0 e neg M dx 0 R}i}


{lc 1 eq {0 0 e neg M dx 0 R}{/st dy lc 1 - dd 0 1 lc 1 - {st * 0 e neg M dx 0 R}for}I}I


stroke}


{1 eq {/st 0 d /inc 10 lc 1 + dd dx dy lt {/rd dx d}{/rd dy d}I


1 1 lc {/di st 1 + log 10 log ? rd td N dx di - dy di - 0 360 a C stroke /st st inc ad}for} 


{dx dy lt {/st dx lc dd}{/st dy lc dd}I lc {N dx dy 0 360 a C stroke /dx dx st sd /dy dy st sd}repeat} I


}I}b


/sb {/ea x /ia x /sa x /yr x /xr x ea sa lt{/ia ia neg d}i N sa ia ea{D /x1 e cos xr td /y1 e sin yr * neg d x1 y1 M 0 0 L}for}b


/bm {/y1 x /x1 x bitgray SG x1 y1 /md where {pop md /invertflag get not}{true}I 


[x1 0 0 y1 0 0] {currentfile picstring readhexstring pop}imagemask}b


/c1 .166667 d /c2 .833333 d /c3 .5 d


/p3 {+ c3 *}b 


/dc{/y2 x /x2 x x0 c1 * x1 c2 ma y0 c1 * y1 c2 ma x1 c2 * x2 c1 ma y1 c2 * y2 c1 ma x1 x2 p3 y1 y2 p3 curveto}b 


/mp {/x0 x1 d /y0 y1 d /x1 x2 d /y1 y2 d}b


/SPOLY_INIT


{/SPOLY_SAVE save d /cls x


/M {2 copy /y0 x /x0 x moveto /M /moveto load d}d


/L {/y1 x /x1 x x0 x1 p3 y0 y1 p3


cls {/yy y1 d /xx x1 d /C {mp xx yy dc systemdict /closepath get exec}d M}


{lineto}I /L {{dc mp}stopped {/L {pop pop}d /noerr false d}i}d}d}d


/SPOLY_END {SPOLY_SAVE restore}b


/ah {g 2 copy T 3 -1 roll - 3 1 roll e - atan rotate os 0 M hl hw R 0 hw 2 * neg R C fill G}b


/da 


{g stroke G 


g currentlinewidth D -10 * D /hl x -2 ? /os x 2 * /hw x /bp x /ep x


.2 setlinewidth 0 setlinejoin 


g flattenpath {}{}{}{} pathforall 


count 8 eq {8 4 roll}i


count 8 gt {count 4 roll mark count 8 - 1 roll cleartomark}i 


count 6 eq {6 2 roll 2 copy 8 2 roll}i


count 4 eq {4 copy}i G


N bp {4 2 roll ah}{pop pop pop pop}I ep {ah}{clear}I G}b 


/tp {sm0 transform}b 


/sfp {} d 


/op {{tp moveto}{tp lineto}{3{tp 6 2 roll}repeat curveto}{C} pathforall sfp stroke}b 


/sm0 matrix d /sm1 matrix d


/so 


{SG /eg x /tg x /yt x /xt x 


xt 0 ne yt 0 ne or {


xt abs yt abs gt {/tt xt abs d}{/tt yt abs d}I


tt 144 gt {/ct dpi 2 dd /sfp{g eofill G}d}


{tt 72 gt {/ct dpi 4 dd /sfp{g eofill G}d}


{/ct dpi 4 dd}I}I


/ig tg eg - ct ? neg d


/x1 xt ct ? neg d /y1 yt ct dd 


1 0 0 1 xt yt sm0 astore pop 


1 0 0 1 x1 y1 neg sm1 astore pop


g op G


1 1 ct{g ig * tg + SG sm0 D sm1 e concatmatrix pop op G}for}i}b


/css {T 0 0 M xsp 0 32 Txt widthshow}b


/sc 


{g /xsp x /tg x /eg x /sg x /y1 x /x1 x /Txt x


/sst dpi 4 dd /y2 y1 sst dd /x2 x1 neg sst dd


eg sg eq {/sg sg .001 sd}i


/ig eg sg - sst ? neg d 


g tg SG x1 y1 neg css 


eg ig + ig sg {SG x2 y2 css}for G 


x2 y2 css G}b 


/gbb {pathbbox /y1 x /x1 x /y2 x /x2 x /x3 x1 x2 sd /y3 y1 y2 sd}b 


/radf 


{/dn dpi 300 ? 8 * 24 ad /ig rg 255 ? dn dd


sg 255 ? SG eoclip gbb 


x2 x3 2 ? + y2 y3 2 ? + T N


x3 y3 h 2 ? D dn ? neg 1 


{0 0 3 -1 roll 0 360 arc C fill currentgray ig + SG}for}b


/dof 


{/ff x 


eoclip 180 - rotate gbb


x1 y1 T 180 rotate x3 y3 scale


0 1 255 {fs e D 255 ? ff rg * sg + round cvi put}for


1 256 8 [1 0 0 256 0 0] fs image}b


/gft {radf {{} dof}{{1 e - 9 * 1 + log 1 e -}dof}}b


/df 


{g 2 copy eq {SG clear fill}{255 * e 255 * e 1 index - /rg x /sg x /gft load e get exec}I G}b 


/oc


{/tl x /ju x /di 0 d 


g flattenpath


{/y1 x /x1 x}{/y2 x /x2 x /dx x2 x1 sd /dy y2 y1 sd /di dx D * dy D ma sqrt di ad /x1 x2 d /y1 y2 d}


{}{/y2 x /x2 x /dx x2 x1 sd /dy y2 y1 sd /di dx D * dy D ma sqrt d}pathforall


ju 0 eq{/po 0 store}i


ju 1 eq{/po di tl - 2 ? store}i


ju 2 eq{/po di tl - store}i G}b


/pt {/FM true d /os x /sr x /os os sr 0 1 v W pop 2 ? ad /pd 0 d /sl os d /ct 0 d g flattenpath {mtp}{ltp}{ctp}{cpp}pathforall G}b


/mtp {/y1 x /x1 x /x2 x1 d /y2 y1 d /ovr FM {os /FM false d}{0}I d x1 y1 transform /cpy x /cpx x}b


/ltp 


{/x3 x1 d /y3 y1 d /y1 x /x1 x /dx x1 x3 sd /dy y1 y3 sd /di dx D * dy D ma sqrt d 


/di 0 ne


{/dsx dx di ? ovr td /dsy dy di ? ovr td x3 dsx + y3 dsy + transform


/cpy x /cpx x /pd pd di ad {sl pd le {ct sr length lt{sch}{exit}I}{/ovr sl pd sd exit}I}loop}i}b


/ctp {}b 


/cpp {x2 y2 ltp x2 y2 mtp}b 


/sch 


{/ch sr ct 1 v d /ct ct 1 ad


/cw ch W pop 2 dd 


g cpx cpy itransform T dy dx atan rotate cw neg 0 M ch SH


ct sr length lt{sr ct 1 v W pop 2 ? 0 rmoveto}i


CP transform /cpy x /cpx x G


/sl sl cw ad /po po cw 2 ma store ct sr length lt{/sl sl sr ct 1 v W pop 2 ? ad}i}b


/cpd {/newslots x D length newslots + dict D 3 1 roll begin {1 index /FID ne {def}i}forall pop pop end}b


/of 


{/ui 0 d 


/pw 1000 24 dd 


/nn x 


/bn x 


ui 0 eq 


{/ui bn findfont


dup /UniqueID known 


{/UniqueID get 1 add}{pop 1}ifelse


def} if


/bfd bn findfont def 


/ct bfd maxlength 1 ad 


bfd /UniqueID known not


{/ct ct 1 ad} if


/ofd ct dict def 


bfd


{ exch dup /FID ne


{exch ofd 3 1 roll put}


{pop pop} ifelse


}forall


ofd /FontName nn put


ofd /PaintType 2 put


ofd /StrokeWidth pw put


ofd /UniqueID ui put


nn ofd definefont pop}b


/uf 


{20 dict begin


/ui x 


e /BaseFont e findfont d


ui 0 eq 


{/ui BaseFont D /UniqueID known 


{/UniqueID get 1 +}{pop 1}I d}i


/FontType 3 d


/Upos BaseFont /FontInfo 2 copy known


{get /UnderlinePosition 2 copy known


{get}{pop pop -100 }I}{ pop pop -100 }I d


/Uwid BaseFont /FontInfo 2 copy known


{get /UnderlineThickness 2 copy known


{get}{pop pop 50}I}


{pop pop 50}I d


/FontMatrix BaseFont /FontMatrix get d


/FontBBox BaseFont /FontBBox get


D 1 get Upos gt {D 1 Upos put}i d


/Encoding BaseFont /Encoding get d


/theChar 1 string d


/BuildChar


{e begin


theChar 0 3 -1 roll put


BaseFont 1000 scalefont setfont


theChar W FontBBox setcachedevice


0 0 M


theChar show


0 Upos rmoveto 0 Upos L


Uwid setlinewidth stroke


end}d


currentdict 


end


definefont pop}b


/ns {g CP m3 currentmatrix nulldevice setmatrix T 0 0 M Txt CP pop G}b 


/ft {/ftsave save d CP 3 1 roll + e T 0 0 M /show /myshow l Txt ftsave restore}b 


/ls {/Txt x 0 ft}b 


/cs {/Txt x ns 2 ? neg ft}b 


/rs {/Txt x ns neg ft}b 


/slp {/sproc x /sr x 0 1 sr length 1 - {sr e 1 v sproc}for}b 


/ss 


{/Txt x /fsave save d


CP 2 copy T 0 0 M 


/ffsave save d pop - /lw x ns /tw x /wsp lw tw sd /nsp 0 d


/show {nsp e {sp eq {1 +}i}slp /nsp x}b 


Txt 0 nsp 0 gt {wsp nsp ? +}i ffsave restore /s+ x


/myshow load D systemdict /show get ne


{D D length 1 - get cvlit /charshadow eq {[ e aload pop e pop s+ e ] cvx}i}


{pop {s+ 0 32 4 -1 roll widthshow}}I


/show x Txt fsave restore}b


/cf{D /fn x length 7 + string /ts x ts 0 s1 V ts 7 fn V /fnm ts cvn d 


FontDirectory fnm known not {fn cvn findfont 0 cpd /nfd x nfd D /FontName fnm put /Encoding macvec put fnm nfd definefont pop}i}b


 


/JoinProcs {jp}d


/fixcoordinates {fc}d


/doarc {a}d


/doroundrect {rr}d


/dograte {dg}d


/dorgrate {drg}d


/pathoffset {po}d


/pathtext {pt}d


/dostarburst {sb}d


/dobitmap {bm}d


/strokearrow {da}d


/shadow {so}d


/charshadow {sc}d


/fountain {df}d


/offsetcalc {oc}d


/MakeOutlineFont {of}d


/MakeUnderlineFont {uf}d


/leftshow {ls}d


/rightshow {rs}d


/centershow {cs}d


/fullshow {ss}d


/coordinatefont {cf}d


 


 


%-----------------------------------


%Encode PS Fonts to match Mac Fonts


(Helvetica) coordinatefont


%-----------------------------------





%----- Begin Main Program -----%





gsave  % Text Block


0.000 1  -1  0.000 108.999 47.499  fixcoordinates


/myshow /show load def


0 setgray 


-106 25 moveto


/|______Helvetica findfont 24 scalefont setfont


{


(System) show


} leftshow


-106 0 moveto


{


(Support) show


} leftshow


-106 -25 moveto


{


(Addendum) show


} leftshow


grestore





gsave % Line


0.000 1  1  0.000 257.997 92.499  fixcoordinates


newpath


-252.000 0.000  moveto


252.000 0.000 lineto


3.000 setlinewidth 0 setgray stroke


grestore





gsave % Line


0.000 1  1  0.000 257.999 85.499  fixcoordinates


newpath


-250.501 0.000  moveto


250.501 0.000 lineto


5.000 setlinewidth 0 setgray stroke


grestore





%------ End Main Program ------%





end


vmstate restore





%%Trailer





%%Pages:1







 save-pc$postscript-graphic restore



0 638.54 MO
 60.00 0 RM 9.00 /Helvetica-Bold-DPMCS DPT

 (PRODUCT NAME:) 3.60 DPJ

0 638.54 MO
 146.59 0 RM 12.00 /Helvetica-Bold-DPMCS DPT

 (VAX) 50.33 DPJ 3.60 0 RM (FMS,) 50.33 DPJ 3.60 0 RM (Version) 50.33 DPJ 3.60 0 RM (2.4) 50.33 DPJ 186.94 0 RM (SSA) 50.33 DPJ 3.60 0 RM (26.10.12-B) 50.33 DPJ

0 611.04 MO
 60.00 0 RM 9.00 /Helvetica-Bold-DPMCS DPT

 (HARDWARE REQUIREMENTS) 3.60 DPJ

0 611.04 MO
 312.00 0 RM 9.00 /Helvetica-DPMCS DPT

 (For MicroVAX 3500/3600 and VAXserver 3500/3600/) 6.58 DPJ

0 601.04 MO
 312.00 0 RM (3602 Systems:) 3.60 DPJ

0 594.79 MO
 60.00 0 RM 9.00 /Helvetica-Oblique-DPMCS DPT

 (Processors Supported) 3.60 DPJ

0 585.54 MO
 312.00 0 RM 9.00 /Helvetica-DPMCS DPT

 (\223) 3.60 DPJ

0 585.54 MO
 324.37 0 RM 9.00 /Helvetica-DPMCS DPT

 (One TK70 tape drive for installation of the software) 4.63 DPJ

0 577.54 MO
 60.00 0 RM (VAX:) 4.63 DPJ

0 577.54 MO
 103.30 0 RM (VAX 6000 Model 200 Series) 3.60 DPJ

0 569.79 MO
 312.00 0 RM (For MicroVAX and VAXstation Systems:) 3.60 DPJ

0 567.54 MO
 103.30 0 RM (VAX 6000 Model 300 Series) 3.60 DPJ

0 557.54 MO
 103.30 0 RM (VAX 6000 Model 400 Series) 3.60 DPJ

0 554.04 MO
 312.00 0 RM 9.00 /Helvetica-DPMCS DPT

 (\223) 3.60 DPJ

0 554.04 MO
 324.37 0 RM 9.00 /Helvetica-DPMCS DPT

 (One TK50 tape drive for installation of the software) 4.63 DPJ

0 541.04 MO
 103.30 0 RM (VAX 8200, VAX 8250, VAX 8300, VAX 8350,) 3.79 DPJ

0 538.04 MO
 312.00 0 RM (For all other VAX Systems:) 3.60 DPJ

0 531.04 MO
 103.30 0 RM (VAX 8500, VAX 8530, VAX 8550, VAX 8600,) 3.79 DPJ

0 522.29 MO
 312.00 0 RM 9.00 /Helvetica-DPMCS DPT

 (\223) 3.79 DPJ

0 522.29 MO
 324.37 0 RM 9.00 /Helvetica-DPMCS DPT

 (One 9-track 1600 BPI magnetic tape unit for installa-) 3.82 DPJ

0 521.04 MO
 103.30 0 RM (VAX 8650, VAX 8700, VAX 8800, VAX 8810,) 3.79 DPJ

0 512.29 MO
 324.37 0 RM (tion of the software) 3.60 DPJ

0 511.04 MO
 103.30 0 RM (VAX 8820, VAX 8830, VAX 8840, VAX 8842,) 3.80 DPJ

0 501.04 MO
 103.30 0 RM (VAX 8974, VAX 8978) 3.60 DPJ

0 496.54 MO
 312.00 0 RM 9.00 /Helvetica-Bold-DPMCS DPT

 (Terminal Requirements) 3.60 DPJ

0 484.54 MO
 60.00 0 RM 9.00 /Helvetica-DPMCS DPT

 (VAX-11/730, VAX-11/750, VAX-11/780, VAX-11/785) 3.60 DPJ

0 480.79 MO
 312.00 0 RM 9.00 /Helvetica-Oblique-DPMCS DPT

 (Digital Terminal Support) 3.60 DPJ

0 468.04 MO
 60.00 0 RM 9.00 /Helvetica-DPMCS DPT

 (MicroVAX:) 3.60 DPJ

0 468.04 MO
 118.77 0 RM (MicroVAX II, MicroVAX 2000, MicroVAX) 5.79 DPJ

0 465.04 MO
 312.00 0 RM (A VT100, VT200, or VT300-compatible terminal is re-) 5.34 DPJ

0 458.04 MO
 118.77 0 RM (3100, MicroVAX 3300, MicroVAX 3400,) 6.41 DPJ

0 455.04 MO
 312.00 0 RM (quired for the creation of forms of up to 23 lines using the) 2.86 DPJ

0 448.04 MO
 118.77 0 RM (MicroVAX 3500, MicroVAX 3600,) 16.06 DPJ

0 445.04 MO
 312.00 0 RM (interactive form editing facility. A VAXstation is required) 4.13 DPJ

0 438.04 MO
 118.77 0 RM (MicroVAX 3800, MicroVAX 3900) 3.60 DPJ

0 435.04 MO
 312.00 0 RM (for the creation of long forms of up to 54 lines in 80-) 4.70 DPJ

0 425.04 MO
 312.00 0 RM (column mode or 63 lines in 132-column mode using the) 3.71 DPJ

0 421.54 MO
 60.00 0 RM (VAXstation:) 3.71 DPJ

0 421.54 MO
 118.77 0 RM (VAXstation II, VAXstation 2000,) 18.05 DPJ

0 415.04 MO
 312.00 0 RM (interactive form editing facility. Forms of up to 254 lines in) 2.79 DPJ

0 411.54 MO
 118.77 0 RM (VAXstation 3100 Series, VAXstation 3200,) 3.41 DPJ

0 405.04 MO
 312.00 0 RM (length can be created on any terminal with the Form) 5.21 DPJ

0 401.54 MO
 118.77 0 RM (VAXstation 3500, VAXstation 3520,) 13.05 DPJ

0 395.04 MO
 312.00 0 RM (Language. The form test facility and application programs) 2.91 DPJ

0 391.54 MO
 118.77 0 RM (VAXstation 3540) 3.60 DPJ

0 385.04 MO
 312.00 0 RM (that use VAX FMS can execute on VT52, VT100, VT200,) 3.04 DPJ

0 375.04 MO
 60.00 0 RM (VAXserver:) 3.04 DPJ

0 375.04 MO
 118.77 0 RM (VAXserver 3100, VAXserver 3300,) 14.05 DPJ

0 375.04 MO
 312.00 0 RM (and VT300-compatible terminals. Long forms of up to 54) 3.42 DPJ

0 365.04 MO
 118.77 0 RM (VAXserver 3400, VAXserver 3500,) 14.05 DPJ

0 365.04 MO
 312.00 0 RM (lines in 80-column mode and 63 lines in 132-column) 5.55 DPJ

0 355.04 MO
 118.77 0 RM (VAXserver 3600, VAXserver 3602,) 14.05 DPJ

0 355.04 MO
 312.00 0 RM (mode can only be displayed on VAXstations. Long forms) 3.30 DPJ

0 345.04 MO
 118.77 0 RM (VAXserver 3800, VAXserver 3900,) 14.06 DPJ

0 345.04 MO
 312.00 0 RM (of greater than 63 lines cannot be displayed on any ter-) 3.69 DPJ

0 335.04 MO
 118.77 0 RM (VAXserver 6000-210, VAXserver 6000-) 7.89 DPJ

0 335.04 MO
 312.00 0 RM (minal, but may be printed. Refer to the following table for) 3.14 DPJ

0 325.04 MO
 118.77 0 RM (310, VAXserver 6000-410, VAXserver) 9.72 DPJ

0 325.04 MO
 312.00 0 RM (restrictions specific to each supported terminal, where) 5.40 DPJ

0 315.04 MO
 118.77 0 RM (6000-420) 5.40 DPJ

0 315.04 MO
 312.00 0 RM (applicable.) 5.40 DPJ

0 299.04 MO
 312.00 0 RM 9.00 /Helvetica-Oblique-DPMCS DPT

 (IBM 3270-Compatible Terminal Support) 3.60 DPJ

0 298.54 MO
 60.00 0 RM (Processors Not Supported) 3.60 DPJ

0 283.04 MO
 312.00 0 RM 9.00 /Helvetica-DPMCS DPT

 (When used in conjunction with the DECnet/SNA VMS) 5.13 DPJ

0 282.04 MO
 60.00 0 RM (VAX:) 5.13 DPJ

0 282.04 MO
 87.84 0 RM (VAX-11/725, VAX-11/782) 3.60 DPJ

0 273.04 MO
 312.00 0 RM (Distributed Host Command Facility \(DHCF\), VAX FMS) 5.08 DPJ

0 265.54 MO
 60.00 0 RM (MicroVAX:) 5.08 DPJ

0 265.54 MO
 118.77 0 RM (MicroVAX I) 3.60 DPJ

0 263.04 MO
 312.00 0 RM (can be used, with restrictions, to provide video forms) 5.30 DPJ

0 253.04 MO
 312.00 0 RM (support on any IBM 3270-compatible terminal supported) 3.81 DPJ

0 249.04 MO
 60.00 0 RM (VAXstation:) 3.81 DPJ

0 249.04 MO
 118.77 0 RM (VAXstation I, VAXstation 8000) 3.60 DPJ

0 243.04 MO
 312.00 0 RM (by DHCF. The VAX FMS interactive forms editor cannot) 3.68 DPJ

0 233.04 MO
 312.00 0 RM (be used from a 3270-compatible terminal for the creation) 3.23 DPJ

0 232.54 MO
 60.00 0 RM 9.00 /Helvetica-Bold-DPMCS DPT

 (Other Hardware Required) 3.60 DPJ

0 223.04 MO
 312.00 0 RM 9.00 /Helvetica-DPMCS DPT

 (or modification of video forms. Creation of VAX FMS) 5.43 DPJ

0 216.04 MO
 60.00 0 RM (A minimum of one megabyte of memory is required on) 4.21 DPJ

0 213.04 MO
 312.00 0 RM (video forms from a 3270-compatible terminal can only be) 3.17 DPJ

0 206.04 MO
 60.00 0 RM (MicroVAX and VAXstation processors. If performance is) 3.98 DPJ

0 203.04 MO
 312.00 0 RM (accomplished by using a text editor and the VAX FMS) 4.38 DPJ

0 196.04 MO
 60.00 0 RM (a significant consideration, additional memory is) 10.68 DPJ

0 193.04 MO
 312.00 0 RM (Form Language Translator. Additional hardware including) 3.08 DPJ

0 186.04 MO
 60.00 0 RM (recommended.) 3.08 DPJ

0 183.04 MO
 312.00 0 RM (a valid DECnet connection to a DECnet/SNA Gateway is) 3.30 DPJ

0 173.04 MO
 312.00 0 RM (required. Consult the DECnet/SNA VMS Distributed Host) 3.32 DPJ

0 169.54 MO


0 163.04 MO
 312.00 0 RM (Command Facility Software Product Description \(SPD) 5.89 DPJ

0 153.04 MO


0 153.04 MO
 312.00 0 RM (26.71.xx\) for exact hardware and software requirements.) 3.56 DPJ

0 98.54 MO
 479.28 0 RM 9.00 /Helvetica-Bold-DPMCS DPT

 (November) 421.98 DPJ 2.70 0 RM (1989) 421.98 DPJ

0 88.54 MO
 488.50 0 RM (AE-LT12D-TE) 421.98 DPJ

0 78.54 MO


0 68.54 MO


0 58.54 MO


0 48.54 MO


0 38.54 MO


0 28.54 MO
 60.00 0 RM %%LOGO8

 LOGO8

0 28.54 MO
 0 -84.00 RM

 showpage

 restore

 save

%%Page: 2 2



0 746.54 MO
 60.00 0 RM 9.00 /Helvetica-Bold-DPMCS DPT

 (VAX) 84.36 DPJ 2.70 0 RM (FMS,) 84.36 DPJ 2.70 0 RM (Version) 84.36 DPJ 2.70 0 RM (2.4) 84.36 DPJ 326.65 0 RM (SSA) 84.36 DPJ 2.70 0 RM (26.10.12-B) 84.36 DPJ

0 710.54 MO
 102.29 0 RM (VAX FMS Terminal Support Table) 3.60 DPJ

0 710.54 MO
 319.36 0 RM 9.00 /Helvetica-DPMCS DPT

 (5) 3.60 DPJ

0 710.54 MO
 324.37 0 RM (.) 3.60 DPJ

0 710.54 MO
 339.83 0 RM (The VT131 terminal is supported in VT100 mode) 3.94 DPJ

0 700.54 MO
 339.83 0 RM (only.) 3.94 DPJ

0 685.04 MO
 319.36 0 RM (6) 3.94 DPJ

0 685.04 MO
 324.37 0 RM (.) 3.94 DPJ

0 685.04 MO
 339.83 0 RM (VT200s and VT300s are supported in VT100 and) 3.65 DPJ

0 675.04 MO
 339.83 0 RM (VT200/VT300 7- and 8-bit modes. VAX FMS) 6.93 DPJ

0 671.54 MO


0 671.54 MO
 140.42 0 RM 9.00 /Helvetica-Bold-DPMCS DPT

 (For) 6.93 DPJ

0 671.54 MO
 220.86 0 RM (For) 6.93 DPJ

0 665.04 MO
 339.83 0 RM 9.00 /Helvetica-DPMCS DPT

 (cannot override user lockout features of the VT200) 2.79 DPJ

0 661.54 MO
 140.42 0 RM 9.00 /Helvetica-Bold-DPMCS DPT

 (Application) 2.79 DPJ

0 661.54 MO
 220.86 0 RM (Form) 2.79 DPJ

0 655.04 MO
 339.83 0 RM 9.00 /Helvetica-DPMCS DPT

 (and VT300-series terminals. VT100 optional alter-) 3.62 DPJ

0 651.54 MO
 60.00 0 RM 9.00 /Helvetica-Bold-DPMCS DPT

 (Terminal) 3.62 DPJ

0 651.54 MO
 140.42 0 RM (Execution) 3.62 DPJ

0 651.54 MO
 220.86 0 RM (Development) 3.62 DPJ

0 645.04 MO
 339.83 0 RM 9.00 /Helvetica-DPMCS DPT

 (nate character set ROMs are not available on) 5.80 DPJ

0 635.04 MO
 339.83 0 RM (VT200 and VT300-series terminals. Therefore,) 7.15 DPJ

0 633.54 MO
 60.00 0 RM (VT52) 7.15 DPJ

0 633.54 MO
 140.42 0 RM (See Note 1) 3.60 DPJ

0 633.54 MO
 220.86 0 RM (See Note 2) 3.60 DPJ

0 625.04 MO
 339.83 0 RM (VAX FMS character sets SET1 and SET2 are not) 3.45 DPJ

0 623.54 MO
 60.00 0 RM (VT100) 3.45 DPJ

0 623.54 MO
 140.42 0 RM (See Note 1) 3.60 DPJ

0 623.54 MO
 220.86 0 RM (See Note 3) 3.60 DPJ

0 615.04 MO
 339.83 0 RM (supported on VT200 and VT300-series terminals.) 4.01 DPJ

0 613.54 MO
 60.00 0 RM (VT100 w/AVO) 3.60 DPJ

0 613.54 MO
 140.42 0 RM (See Note 1) 3.60 DPJ

0 613.54 MO
 220.86 0 RM (See Note 3) 3.60 DPJ

0 605.04 MO
 339.83 0 RM (The UK character set is not available on VT200) 4.45 DPJ

0 603.54 MO
 60.00 0 RM (VK100 \(VT52\)) 3.60 DPJ

0 603.54 MO
 140.42 0 RM (See Note 1) 3.60 DPJ

0 603.54 MO
 220.86 0 RM (See Note 2) 3.60 DPJ

0 595.04 MO
 339.83 0 RM (and VT300-series terminals when they are used in) 3.01 DPJ

0 593.54 MO
 60.00 0 RM (VK100 \(ANSI\)) 3.60 DPJ

0 593.54 MO
 140.42 0 RM (See Note 3) 3.60 DPJ

0 593.54 MO
 220.86 0 RM (See Note 2) 3.60 DPJ

0 585.04 MO
 339.83 0 RM (VT200 or VT300 mode \(as applicable\). On VT200) 3.37 DPJ

0 583.54 MO
 60.00 0 RM (VT101) 3.37 DPJ

0 583.54 MO
 140.42 0 RM (See Note 1) 3.60 DPJ

0 583.54 MO
 220.86 0 RM (See Note 3) 3.60 DPJ

0 575.04 MO
 339.83 0 RM (and VT300-series terminals, the actual character) 4.52 DPJ

0 573.54 MO
 60.00 0 RM (VT102) 4.52 DPJ

0 573.54 MO
 140.42 0 RM (See Note 1) 3.60 DPJ

0 573.54 MO
 220.86 0 RM (See Note 3) 3.60 DPJ

0 565.04 MO
 339.83 0 RM (set displayed/used by VAX FMS depends on ter-) 3.94 DPJ

0 563.54 MO
 60.00 0 RM (VT103) 3.94 DPJ

0 563.54 MO
 140.42 0 RM (See Note 1) 3.60 DPJ

0 563.54 MO
 220.86 0 RM (See Note 3) 3.60 DPJ

0 555.04 MO
 339.83 0 RM (minal setup and cannot be changed or selected by) 2.88 DPJ

0 553.54 MO
 60.00 0 RM (VT125) 2.88 DPJ

0 553.54 MO
 140.42 0 RM (See Note 1) 3.60 DPJ

0 553.54 MO
 220.86 0 RM (See Note 3) 3.60 DPJ

0 545.04 MO
 339.83 0 RM (VAX FMS.) 3.60 DPJ

0 543.54 MO
 60.00 0 RM (VT131) 3.60 DPJ

0 543.54 MO
 140.42 0 RM (See note 5) 3.60 DPJ

0 543.54 MO
 220.86 0 RM (See Note 5) 3.60 DPJ

0 533.54 MO
 60.00 0 RM (VT180) 3.60 DPJ

0 533.54 MO
 140.42 0 RM (See Note 1) 3.60 DPJ

0 533.54 MO
 220.86 0 RM (See Note 3) 3.60 DPJ

0 529.54 MO


0 529.54 MO
 339.83 0 RM (VAX FMS applications with forms designed for use) 2.80 DPJ

0 523.54 MO
 60.00 0 RM (VT220) 2.80 DPJ

0 523.54 MO
 140.42 0 RM (See Note 6) 3.60 DPJ

0 523.54 MO
 220.86 0 RM (See Note 6) 3.60 DPJ

0 519.54 MO
 339.83 0 RM (on VT100-series terminals may require code modi-) 2.85 DPJ

0 513.54 MO
 60.00 0 RM (VT240) 2.85 DPJ

0 513.54 MO
 140.42 0 RM (See Note 6,7) 3.60 DPJ

0 513.54 MO
 220.86 0 RM (See Note 6,7) 3.60 DPJ

0 509.54 MO
 339.83 0 RM (fications when used on VT200 or VT300-series) 5.35 DPJ

0 503.54 MO
 60.00 0 RM (VT241) 5.35 DPJ

0 503.54 MO
 140.42 0 RM (See Note 6,7,8) 3.60 DPJ

0 503.54 MO
 220.86 0 RM (See Note 6,7,8) 3.60 DPJ

0 499.54 MO
 339.83 0 RM (terminals because of the increased number of) 6.10 DPJ

0 493.54 MO
 60.00 0 RM (VT320) 6.10 DPJ

0 493.54 MO
 140.42 0 RM (See Note 6,12) 3.60 DPJ

0 493.54 MO
 220.86 0 RM (See Note 6,12) 3.60 DPJ

0 489.54 MO
 339.83 0 RM (function keys available on the keyboards and the) 3.86 DPJ

0 483.54 MO
 60.00 0 RM (VT330) 3.86 DPJ

0 483.54 MO
 140.42 0 RM (See Note 6,12) 3.60 DPJ

0 483.54 MO
 220.86 0 RM (See Note 6,12) 3.60 DPJ

0 479.54 MO
 339.83 0 RM (potential use of 8-bit characters.) 3.60 DPJ

0 473.54 MO
 60.00 0 RM (VT340) 3.60 DPJ

0 473.54 MO
 140.42 0 RM (See Note 6,8,12) 3.60 DPJ

0 473.54 MO
 220.86 0 RM (See Note 6,8,12) 5.55 DPJ

0 463.79 MO
 319.36 0 RM (7) 5.55 DPJ

0 463.79 MO
 324.37 0 RM (.) 5.55 DPJ

0 463.79 MO
 339.83 0 RM (The use of blinking, double-wide, and/or double-) 4.51 DPJ

0 463.54 MO
 60.00 0 RM (VAXstation I) 3.60 DPJ

0 463.54 MO
 140.42 0 RM (See Note 9) 3.60 DPJ

0 463.54 MO
 220.86 0 RM (See Note 9) 3.60 DPJ

0 453.79 MO
 339.83 0 RM (sized lines in VAX FMS forms displayed on a) 5.64 DPJ

0 453.54 MO
 60.00 0 RM (VAXstation II) 3.60 DPJ

0 453.54 MO
 140.42 0 RM (See Note 9) 3.60 DPJ

0 453.54 MO
 220.86 0 RM (See Note 9) 3.60 DPJ

0 443.79 MO
 339.83 0 RM (VT240 terminal can result in substantially reduced) 3.35 DPJ

0 443.54 MO
 60.00 0 RM (VAXstation 2000) 3.60 DPJ

0 443.54 MO
 140.42 0 RM (See Note 9) 3.60 DPJ

0 443.54 MO
 220.86 0 RM (See Note 9) 3.60 DPJ

0 433.79 MO
 339.83 0 RM (performance.) 3.60 DPJ

0 433.54 MO
 60.00 0 RM (VAXstation 3200) 3.60 DPJ

0 433.54 MO
 140.42 0 RM (See Note 9) 3.60 DPJ

0 433.54 MO
 220.86 0 RM (See Note 9) 3.60 DPJ

0 423.54 MO
 60.00 0 RM (VAXstation 3500) 3.60 DPJ

0 423.54 MO
 140.42 0 RM (See Note 9) 3.60 DPJ

0 423.54 MO
 220.86 0 RM (See Note 9) 3.60 DPJ

0 418.29 MO
 319.36 0 RM (8) 3.60 DPJ

0 418.29 MO
 324.37 0 RM (.) 3.60 DPJ

0 418.29 MO
 339.83 0 RM (Use of color is not supported on these terminals.) 3.88 DPJ

0 413.54 MO
 60.00 0 RM (PC100) 3.88 DPJ

0 413.54 MO
 140.42 0 RM (See Note 10) 3.60 DPJ

0 413.54 MO
 220.86 0 RM (See Note 10) 3.60 DPJ

0 403.54 MO
 60.00 0 RM (PC350) 3.60 DPJ

0 403.54 MO
 140.42 0 RM (See Note 10) 3.60 DPJ

0 403.54 MO
 220.86 0 RM (See Note 10) 3.60 DPJ

0 402.79 MO
 319.36 0 RM (9) 3.60 DPJ

0 402.79 MO
 324.37 0 RM (.) 3.60 DPJ

0 402.79 MO
 339.83 0 RM (VAXstations are supported in VT terminal-) 9.72 DPJ

0 393.54 MO
 60.00 0 RM (PC380) 9.72 DPJ

0 393.54 MO
 140.42 0 RM (See Note 10) 3.60 DPJ

0 393.54 MO
 220.86 0 RM (See Note 10) 3.60 DPJ

0 392.79 MO
 339.83 0 RM (emulation mode only with the following additional) 4.01 DPJ

0 383.54 MO
 60.00 0 RM (3270-Compatible) 4.01 DPJ

0 383.54 MO
 140.42 0 RM (See Note 11) 3.60 DPJ

0 383.54 MO
 220.86 0 RM (See Note 11) 3.60 DPJ

0 382.79 MO
 339.83 0 RM (feature. Long forms of up to 54 lines in 80-column) 3.17 DPJ

0 372.79 MO
 339.83 0 RM (mode or 63 lines in 132-column mode may be) 5.20 DPJ

0 365.54 MO
 60.00 0 RM 9.00 /Helvetica-Bold-DPMCS DPT

 (Notes:) 5.20 DPJ

0 362.79 MO
 339.83 0 RM 9.00 /Helvetica-DPMCS DPT

 (used in application execution and may be created) 3.44 DPJ

0 352.79 MO
 339.83 0 RM (and modified using the interactive form editor in) 4.65 DPJ

0 344.54 MO
 67.37 0 RM (1) 4.65 DPJ

0 344.54 MO
 72.37 0 RM (.) 4.65 DPJ

0 344.54 MO
 87.83 0 RM (Application execution using forms of up to 23 lines) 3.01 DPJ

0 342.79 MO
 339.83 0 RM (form development.) 3.60 DPJ

0 334.54 MO
 87.83 0 RM (in length is fully supported.) 3.60 DPJ

0 327.04 MO
 314.36 0 RM (10) 3.60 DPJ

0 327.04 MO
 324.37 0 RM (.) 3.60 DPJ

0 327.04 MO
 339.83 0 RM (The PC100, PC350, and PC380 are supported in) 3.72 DPJ

0 317.04 MO
 339.83 0 RM (VT102 mode. The PC350 is also supported in 8-) 3.94 DPJ

0 316.54 MO
 67.36 0 RM (2) 3.94 DPJ

0 316.54 MO
 72.37 0 RM (.) 3.94 DPJ

0 316.54 MO
 87.83 0 RM (The interactive form editor cannot be used on this) 3.32 DPJ

0 307.04 MO
 339.83 0 RM (bit mode.) 3.60 DPJ

0 306.54 MO
 87.83 0 RM (terminal. Forms of any length up to 254 lines can) 3.56 DPJ

0 296.54 MO
 87.83 0 RM (be created and modified only with the Form) 7.01 DPJ

0 291.54 MO
 314.36 0 RM (11) 7.01 DPJ

0 291.54 MO
 324.37 0 RM (.) 7.01 DPJ

0 291.54 MO
 339.83 0 RM (These terminals are supported subject to re-) 7.10 DPJ

0 286.54 MO
 87.83 0 RM (Language.) 7.10 DPJ

0 281.54 MO
 339.83 0 RM (strictions enumerated elsewhere in this document.) 3.32 DPJ

0 271.54 MO
 339.83 0 RM (Additional hardware and software are required to) 4.09 DPJ

0 268.54 MO
 67.36 0 RM (3) 4.09 DPJ

0 268.54 MO
 72.37 0 RM (.) 4.09 DPJ

0 268.54 MO
 87.83 0 RM (Forms of up to 23 lines can be created and modi-) 3.31 DPJ

0 261.54 MO
 339.83 0 RM (use VAX FMS with 3270-compatible terminals.) 6.22 DPJ

0 258.54 MO
 87.83 0 RM (fied with either the interactive form editing facility) 4.01 DPJ

0 251.54 MO
 339.83 0 RM (Consult the DECnet/SNA VMS Distributed Host) 5.52 DPJ

0 248.54 MO
 87.83 0 RM (or with the Form Language. Forms of greater than) 3.13 DPJ

0 241.54 MO
 339.83 0 RM (Command Facility Software Product Description) 5.78 DPJ

0 238.54 MO
 87.83 0 RM (23 lines and up to 254 lines can be created and) 4.00 DPJ

0 231.54 MO
 339.83 0 RM (\(SPD 26.71.xx\) for exact hardware and software) 4.51 DPJ

0 228.54 MO
 87.83 0 RM (modified only with the Form Language.) 3.60 DPJ

0 221.54 MO
 339.83 0 RM (requirements and any additional restrictions.) 3.60 DPJ

0 210.54 MO
 67.37 0 RM (4) 3.60 DPJ

0 210.54 MO
 72.37 0 RM (.) 3.60 DPJ

0 210.54 MO
 87.83 0 RM (Forms to be displayed on a VK100 cannot use the) 3.00 DPJ

0 206.04 MO
 314.36 0 RM (12) 3.00 DPJ

0 206.04 MO
 324.37 0 RM (.) 3.00 DPJ

0 206.04 MO
 339.83 0 RM (The 25th Status Line is not supported on any) 5.63 DPJ

0 200.54 MO
 87.83 0 RM (following VAX FMS features:) 3.60 DPJ

0 196.04 MO
 339.83 0 RM (VT300-series terminal. The mouse is not sup-) 6.18 DPJ

0 186.04 MO
 339.83 0 RM (ported on the VT330 and VT340.) 3.60 DPJ

0 182.54 MO
 87.84 0 RM (-) 3.60 DPJ

0 182.54 MO
 103.30 0 RM (Wide forms \(132 columns\)) 3.60 DPJ

0 172.54 MO
 87.84 0 RM (-) 3.60 DPJ

0 172.54 MO
 103.30 0 RM (Bold video attribute) 3.60 DPJ

0 170.29 MO
 312.00 0 RM 9.00 /Helvetica-Oblique-DPMCS DPT

 (Block Space Requirements \(Block Cluster Size = 1\)) 3.60 DPJ

0 154.54 MO
 87.84 0 RM 9.00 /Helvetica-DPMCS DPT

 (The visual effects will differ because the blinking) 4.22 DPJ

0 154.54 MO
 312.00 0 RM (VAX FMS may be installed with or without the Sample) 4.38 DPJ

0 144.54 MO
 87.84 0 RM (and underline video characteristics on VK100 ter-) 3.76 DPJ

0 144.54 MO
 312.00 0 RM (Application Program \(SAMP\). The following table lists the) 3.06 DPJ

0 134.54 MO
 87.84 0 RM (minals are different from those on VT100) 9.35 DPJ

0 134.54 MO
 312.00 0 RM (approximate quantities of disk space used during and) 5.27 DPJ

0 124.54 MO
 87.84 0 RM (terminals.) 5.27 DPJ

0 124.54 MO
 312.00 0 RM (after installation of VAX FMS \(block cluster size = 1\).) 3.60 DPJ

0 26.54 MO
 296.00 0 RM 9.00 /Helvetica-Bold-DPMCS DPT

 (2) 3.60 DPJ

 showpage

 restore

 save

%%Page: 3 3



0 746.54 MO
 60.00 0 RM 9.00 /Helvetica-Bold-DPMCS DPT

 (VAX) 84.36 DPJ 2.70 0 RM (FMS,) 84.36 DPJ 2.70 0 RM (Version) 84.36 DPJ 2.70 0 RM (2.4) 84.36 DPJ 326.65 0 RM (SSA) 84.36 DPJ 2.70 0 RM (26.10.12-B) 84.36 DPJ

0 710.54 MO
 149.71 0 RM (For) 84.36 DPJ

0 710.54 MO
 227.04 0 RM (For Use) 3.60 DPJ

0 710.54 MO
 312.00 0 RM 9.00 /Helvetica-DPMCS DPT

 (For more information on VMS classes and tailoring, refer) 3.30 DPJ

0 700.54 MO
 149.71 0 RM 9.00 /Helvetica-Bold-DPMCS DPT

 (Installation) 3.30 DPJ

0 700.54 MO
 227.04 0 RM (\(permanent\)) 3.30 DPJ

0 700.54 MO
 312.00 0 RM 9.00 /Helvetica-DPMCS DPT

 (to the VMS Operating System Software Product) 9.40 DPJ

0 690.54 MO
 312.00 0 RM (Description \(SPD 25.01.xx\).) 3.60 DPJ

0 684.54 MO
 60.00 0 RM (VAX FMS \(with SAMP\):) 3.60 DPJ

0 674.79 MO
 312.00 0 RM 9.00 /Helvetica-Bold-DPMCS DPT

 (OPTIONAL SOFTWARE) 3.60 DPJ

0 668.54 MO
 149.71 0 RM 9.00 /Helvetica-DPMCS DPT

 (3,000 blocks) 3.60 DPJ

0 668.54 MO
 227.04 0 RM (2,650 blocks) 3.60 DPJ

0 658.79 MO
 312.00 0 RM (DECnet/SNA VMS Distributed Host Command Facility) 5.79 DPJ

0 658.54 MO
 149.71 0 RM (\(1,536K bytes\)) 3.60 DPJ

0 658.54 MO
 227.04 0 RM (\(1,357K bytes\)) 3.60 DPJ

0 648.79 MO
 312.00 0 RM (V1.2) 3.60 DPJ

0 642.54 MO
 60.00 0 RM (VAX FMS \(without SAMP\):) 3.60 DPJ

0 638.79 MO
 312.00 0 RM (VAX ACMS V3.1) 3.60 DPJ

0 628.79 MO
 312.00 0 RM (VAX BASIC V3.3) 3.60 DPJ

0 626.54 MO
 149.71 0 RM (1,850 blocks) 3.60 DPJ

0 626.54 MO
 227.04 0 RM (1,300 blocks) 3.60 DPJ

0 618.79 MO
 312.00 0 RM (VAX BLISS-32 Implementation Language V4.5) 3.60 DPJ

0 616.54 MO
 149.71 0 RM (\(948K bytes\)) 3.60 DPJ

0 616.54 MO
 227.04 0 RM (\(666K bytes\)) 3.60 DPJ

0 608.79 MO
 312.00 0 RM (VAX C V3.0) 3.60 DPJ

0 600.54 MO
 60.00 0 RM (FMS Form Driver only:) 3.60 DPJ

0 598.79 MO
 312.00 0 RM (VAX COBOL V4.2) 3.60 DPJ

0 588.79 MO
 312.00 0 RM (VAX DATATRIEVE V4.1 - V4.2) 3.60 DPJ

0 584.54 MO
 149.71 0 RM (350 blocks) 3.60 DPJ

0 584.54 MO
 227.04 0 RM (300 blocks) 3.60 DPJ

0 578.79 MO
 312.00 0 RM (VAX DSM V5.1) 3.60 DPJ

0 574.54 MO
 149.71 0 RM (\(180K bytes\)) 3.60 DPJ

0 574.54 MO
 227.04 0 RM (\(154K bytes\)) 3.60 DPJ

0 568.79 MO
 312.00 0 RM (VAX FORTRAN V4.8 - V5.3) 3.60 DPJ

0 558.79 MO
 312.00 0 RM (VAX PASCAL V3.7 - V3.9) 3.60 DPJ

0 558.54 MO
 60.00 0 RM (These counts refer to the disk space required on the) 5.15 DPJ

0 548.79 MO
 312.00 0 RM (VAX PL/I V3.3) 3.60 DPJ

0 548.54 MO
 60.00 0 RM (system disk. The sizes are approximate; actual sizes may) 2.80 DPJ

0 538.54 MO
 60.00 0 RM (vary depending on the user's system environment, con-) 4.06 DPJ

0 533.04 MO
 312.00 0 RM (Application programs that call VAX DBMS through the) 4.91 DPJ

0 528.54 MO
 60.00 0 RM (figuration, and software options selected.) 3.60 DPJ

0 523.04 MO
 312.00 0 RM (Standard Call Interface can use VAX FMS. VAX CDD/) 4.55 DPJ

0 513.04 MO
 312.00 0 RM (Plus may be used in application programs that call VAX) 3.71 DPJ

0 512.54 MO
 60.00 0 RM 9.00 /Helvetica-Bold-DPMCS DPT

 (OPTIONAL HARDWARE) 3.60 DPJ

0 503.04 MO
 312.00 0 RM 9.00 /Helvetica-DPMCS DPT

 (FMS. However, storage of VAX FMS form definitions in) 4.05 DPJ

0 496.54 MO
 60.00 0 RM (Additional terminals as specified in the ) 6.49 DPJ 9.00 /Helvetica-Oblique-DPMCS DPT

 (HARDWARE) 6.49 DPJ

0 493.04 MO
 312.00 0 RM 9.00 /Helvetica-DPMCS DPT

 (the VAX CDD/Plus is not supported by VAX FMS.) 3.60 DPJ

0 486.54 MO
 60.00 0 RM 9.00 /Helvetica-Oblique-DPMCS DPT

 (REQUIREMENTS ) 3.60 DPJ 9.00 /Helvetica-DPMCS DPT

 (section.) 3.60 DPJ

0 477.04 MO
 312.00 0 RM (User Action Routines may not be written in VAX) 7.68 DPJ

0 470.54 MO
 60.00 0 RM (Any printer supported by the host operating system.) 3.60 DPJ

0 467.04 MO
 312.00 0 RM (DATATRIEVE.) 3.60 DPJ

0 454.54 MO
 60.00 0 RM 9.00 /Helvetica-Bold-DPMCS DPT

 (CLUSTER ENVIRONMENT) 3.60 DPJ

0 451.04 MO
 312.00 0 RM (GROWTH CONSIDERATIONS) 3.60 DPJ

0 438.54 MO
 60.00 0 RM 9.00 /Helvetica-DPMCS DPT

 (This layered product is fully supported when installed on) 3.55 DPJ

0 435.29 MO
 312.00 0 RM (The minimum hardware/software requirements for any) 5.68 DPJ

0 428.54 MO
 60.00 0 RM (any valid and licensed VAXcluster* configuration without) 3.81 DPJ

0 425.29 MO
 312.00 0 RM (future version of this product may be different from the) 4.26 DPJ

0 418.54 MO
 60.00 0 RM (restrictions. The ) 3.11 DPJ 9.00 /Helvetica-Oblique-DPMCS DPT

 (HARDWARE REQUIREMENTS ) 3.11 DPJ 9.00 /Helvetica-DPMCS DPT

 (sections) 3.11 DPJ

0 415.29 MO
 312.00 0 RM (minimum requirements for the current version.) 3.60 DPJ

0 408.54 MO
 60.00 0 RM (of this product's Software Product Description and) 7.90 DPJ

0 399.29 MO
 312.00 0 RM 9.00 /Helvetica-Bold-DPMCS DPT

 (DISTRIBUTION MEDIA) 3.60 DPJ

0 398.54 MO
 60.00 0 RM 9.00 /Helvetica-DPMCS DPT

 (System Support Addendum detail any special hardware) 4.23 DPJ

0 388.54 MO
 60.00 0 RM (required by this product.) 3.60 DPJ

0 383.79 MO
 312.00 0 RM (Tape:) 3.60 DPJ

0 383.79 MO
 339.84 0 RM (9-track 1600 BPI Magtape \(PE\), TK50 Streaming) 4.01 DPJ

0 373.79 MO
 339.84 0 RM (Tape) 4.01 DPJ

0 372.54 MO
 60.00 0 RM (*) 4.01 DPJ

0 372.54 MO
 72.37 0 RM (V5.x VAXcluster configurations are fully described in) 4.34 DPJ

0 362.54 MO
 72.37 0 RM (the VAXcluster Software Product Description) 12.76 DPJ

0 357.79 MO
 312.00 0 RM 9.00 /Helvetica-Bold-DPMCS DPT

 (ORDERING INFORMATION) 3.60 DPJ

0 352.54 MO
 72.37 0 RM 9.00 /Helvetica-DPMCS DPT

 (\(29.78.xx\) and include CI, Ethernet and Mixed) 8.59 DPJ

0 342.54 MO
 72.37 0 RM (Interconnect configurations.) 3.60 DPJ

0 342.04 MO
 312.00 0 RM 9.00 /Helvetica-Oblique-DPMCS DPT

 (Full Development and Run-time System:) 3.60 DPJ

0 326.54 MO
 60.00 0 RM 9.00 /Helvetica-Bold-DPMCS DPT

 (SOFTWARE REQUIREMENTS) 3.60 DPJ

0 326.04 MO
 312.00 0 RM 9.00 /Helvetica-DPMCS DPT

 (Software Licenses: QL-VD7A*-**) 3.60 DPJ

0 316.04 MO
 312.00 0 RM (Software Media: QA-VD7A*-**) 3.60 DPJ

0 310.54 MO
 60.00 0 RM (VMS Operating System V5.0 - V5.2) 3.60 DPJ

0 306.04 MO
 312.00 0 RM (Software Documentation: QA-VD7AA-GZ) 3.60 DPJ

0 296.04 MO
 312.00 0 RM (Software Product Services: QT-VD7A*-**) 3.60 DPJ

0 294.54 MO
 60.00 0 RM (VMS Workstation Software V3.0 - V4.0 \(for terminal emu-) 2.93 DPJ

0 284.54 MO
 60.00 0 RM (lation in VWS environments\)) 3.60 DPJ

0 280.04 MO
 312.00 0 RM 9.00 /Helvetica-Oblique-DPMCS DPT

 (Run-time-Only System:) 3.60 DPJ

0 268.54 MO
 60.00 0 RM (VMS Tailoring) 3.60 DPJ

0 264.29 MO
 312.00 0 RM 9.00 /Helvetica-DPMCS DPT

 (Software Licenses: QL-VD8A*-**) 3.60 DPJ

0 254.29 MO
 312.00 0 RM (Software Media: QA-VD8A*-**) 3.60 DPJ

0 252.54 MO
 60.00 0 RM (For VMS V5.x, the following VMS classes are required) 4.43 DPJ

0 242.54 MO
 60.00 0 RM (for full functionality of this layered product:) 3.60 DPJ

0 238.54 MO
 312.00 0 RM (*) 3.60 DPJ

0 238.54 MO
 324.37 0 RM (Denotes variant fields. For additional information on) 4.84 DPJ

0 228.54 MO
 324.37 0 RM (available licenses, services and media, refer to the) 5.08 DPJ

0 226.54 MO
 60.00 0 RM 9.00 /Helvetica-DPMCS DPT

 (\223) 5.08 DPJ

0 226.54 MO
 72.37 0 RM 9.00 /Helvetica-DPMCS DPT

 (VMS Required Saveset) 3.60 DPJ

0 218.54 MO
 324.37 0 RM (appropriate price book.) 3.60 DPJ

0 210.54 MO
 60.00 0 RM 9.00 /Helvetica-DPMCS DPT

 (\223) 3.60 DPJ

0 210.54 MO
 72.37 0 RM 9.00 /Helvetica-DPMCS DPT

 (Programming Support) 3.60 DPJ

0 202.79 MO
 312.00 0 RM (The above information is valid at time of release. Please) 3.43 DPJ

0 194.54 MO
 60.00 0 RM 9.00 /Helvetica-DPMCS DPT

 (\223) 3.43 DPJ

0 194.54 MO
 72.37 0 RM 9.00 /Helvetica-DPMCS DPT

 (Utilities) 3.43 DPJ

0 192.79 MO
 312.00 0 RM (contact your local Digital office for the most up-to-date) 4.61 DPJ

0 182.79 MO
 312.00 0 RM (information.) 4.61 DPJ

0 167.79 MO
 60.00 0 RM 7.00 /Helvetica-DPMCS DPT

 (__________________) 4.61 DPJ

0 153.79 MO
 0 4.00 RM 0 -4.00 RM

0 153.79 MO
 72.00 0 RM 7.00 /Symbol DPT

 (\342) 2.80 DPJ 7.00 /Helvetica-DPMCS DPT

 ( The DIGITAL Logo is a registered trademark of Digital Equipment Corporation.) 2.80 DPJ

0 145.79 MO
 72.00 0 RM 7.00 /Symbol DPT

 (\344) 2.55 DPJ 7.00 /Helvetica-DPMCS DPT

 ( DECnet, FMS, VAX C, VAX DATATRIEVE, VAX DSM, VAX FORTRAN, VAX, MicroVAX, VAXstation, VAXserver, and VT are trademarks of Digital) 2.55 DPJ

0 137.79 MO
 72.00 0 RM (Equipment Corporation.) 2.80 DPJ

0 26.54 MO
 296.00 0 RM 9.00 /Helvetica-Bold-DPMCS DPT

 (3) 2.80 DPJ 0 -36.00 RM

 showpage

 restore

%%Trailer

%%Pages: 3

%%DocumentFonts: Courier-MCS %LOGO8 Helvetica-DPMCS Helvetica-Bold-DPMCS Helvetica-Oblique-DPMCS Symbol 

%!Font Name                     Font No   Charset

%!/Courier-MCS                  1         ASCII

%!%%LOGO8                       108       ASCII

%!/Helvetica-DPMCS              200       ASCII

%!/Helvetica-Bold-DPMCS         220       ASCII

%!/Helvetica-Oblique-DPMCS      240       ASCII

%!/Symbol                       5         PUBL

%!/Helvetica-DPMCS              200       PUBL


