%!PS-Adobe-1.0
%%Creator: terry (Theresa L. Gedenberg)
%%Title: 275203.pos
%%CreationDate: Mon Feb 27 02:27:51 1989
%%Pages: (atend)
%%DocumentFonts: (atend)
%%EndComments
save
/FF {findfont} def
/SF {scalefont} def
/GS {gsave} def
/GR {grestore} def
/MF {makefont} def
/S {0 rmoveto} def
/L {0 exch rmoveto} def
/R {setlinewidth 0 rlineto stroke} def
/m {moveto} def
/l {lineto} def
/s {setfont} def
/revflag 0 def
/adjustdict 6 dict def
/setclip {
    newpath
    /endy exch def
    /endx exch def
    /starty exch def
    /startx exch def
    startx starty moveto
    endx starty lineto
    endx endy lineto
    startx endy lineto
    closepath
} def
/bbox {
    /width exch def
    currentpoint
    /cury exch def
    /curx exch def
    newpath
    curx cury m
    0 above rlineto
    width 0 rlineto
    0 above below add neg rlineto
    width neg 0 rlineto
    closepath fill curx cury m
} def
/T {
    adjustdict begin
    /adjust exch def
    /charct exch def
    /curstring exch def
    1 revflag eq {adjust bbox 1 setgray} if
    adjust curstring stringwidth pop sub charct div 0 curstring ashow
    1 revflag eq {0 setgray} if
    end
} def
/doa4tray{
    /brandname 21 string def
    statusdict begin brandname printername pop statusdict end
    (Dataproducts LZR 2665) brandname eq
        {statusdict begin a4tray statusdict end} if
} def
 
/leaderdict 10 dict def
/F {
    leaderdict begin
        /ldrstring exch def
        /adjust exch def
        /hole exch def
        1 revflag eq {hole bbox 1 setgray} if
        /holex currentpoint pop def
        /endgap
            holex hole add
            holex hole add ldrstring stringwidth pop adjust add div truncate
            ldrstring stringwidth pop adjust add mul
            sub
        def
        /hole hole endgap sub def
        /frontgap
            hole
            hole ldrstring stringwidth pop adjust add div truncate
            ldrstring stringwidth pop adjust add mul
            sub
        def
        /hole hole frontgap sub def
        /repct
            hole ldrstring stringwidth pop adjust add div round cvi def
        frontgap 0 rmoveto
        repct {adjust 0 ldrstring ashow} repeat
        endgap 0 rmoveto
        1 revflag eq {0 setgray} if
    end
} def
%%Page: 0 1
/f1 {/Helvetica FF 23.9 SF} def
f1 s 68.8 747.6 m (Software)8 93.8 T 68.8 723.7 m (Product)7 81.9 T 68.8 
699.8 m (Description)11 118.9 T 68.8 682.8 m -2.4 L GS 476.3 5 R GR  476.3 S 
2.4 L /f2 {/Helvetica-Bold FF 9 SF} def
f2 s 68.8 657.2 m (PRODUCT)7 44 T  4.5 S (NAME:)5 29.1 T /f3 
{/Helvetica-Bold FF 12 SF} def
f3 s 152.4 657.2 m (VAX)3 24.6 T  6 S (Software)8 50.2 T  6 S (Project)7 
40.3 T  6 S (Manager,)8 52.2 T  6 S f2 s (Version)7 32.8 T  4.5 S (1.2)3 
12.5 T 487.2 657.2 m (SPD)3 18.4 T  4.5 S (27.52.03)8 35 T 67.9 618.3 m (DESC\
RIPTION)11 61 T /f4 {/Helvetica FF 9 SF} def
f4 s 67.9 603.3 m (The)3 15.4 T  2.7 S (VAX)3 18 T  2.7 S (Software)8 35.3 T 
 2.7 S (Project)7 27.8 T  2.7 S (Manager)7 35.3 T  2.7 S (is)2 6.4 T  2.7 S (\
a)1 5 T  2.8 S (project)7 26.8 T  2.8 S (manage-)7 35.3 T 67.9 593.3 m (ment)
4 19.9 T  5.3 S (system)6 28.4 T  5.3 S (that)4 15 T  5.4 S (is)2 6.4 T  5.4 
S (designed)8 36.4 T  5.4 S (to)2 7.5 T  5.4 S (facilitate)10 32.7 T  5.4 S (\
estimating,)11 43.2 T 67.9 583.3 m (planning,)9 36.3 T  3.2 S (and)3 15 T  
3.2 S (controlling)11 40.6 T  3.3 S (software)8 33.8 T  3.3 S 
(development)11 51.3 T  3.3 S (projects.)9 33.8 T 67.9 568.3 m (The)3 15.4 T 
 3.6 S (estimation)10 40.7 T  3.6 S (activity)8 27.3 T  3.6 S (provides)8 
33.8 T  3.7 S (a)1 5 T  3.7 S (projection)10 38.7 T  3.7 S (of)2 7.5 T  3.7 
S (the)3 12.5 T  3.7 S (total)5 16.9 T 67.9 558.3 m (effort,)7 22.9 T  2.6 S 
(development)11 51.3 T  2.6 S (time,)5 19.3 T  2.6 S (and)3 15 T  2.6 S (staf\
f)5 17 T  2.6 S (levels)6 22.8 T  2.6 S (required)8 32.7 T  2.6 S (to)2 7.5 
T  2.7 S (do)2 10 T  2.7 S (a)1 5 T 67.9 548.3 m (software)8 33.8 T  3.4 S (p\
roject.)8 29.3 T  3.4 S (Planning)8 34.8 T  3.5 S (provides)8 33.8 T  3.5 S (\
task-level)10 37.7 T  3.5 S (schedules)9 40.4 T 67.9 538.3 m (to)2 7.5 T  
2.6 S (which)5 22.8 T  2.6 S (projects)8 31.3 T  2.7 S (``commit.'')11 38.8 
T  2.7 S (Both)4 18.5 T  2.7 S (estimation)10 40.7 T  2.7 S (and)3 15 T  2.7 
S (planning)8 33.8 T 67.9 528.3 m (provide)7 29.3 T  3.2 S (the)3 12.5 T  
3.2 S (software)8 33.8 T  3.2 S (project)7 26.8 T  3.3 S (manager)7 35.3 T  
3.3 S (and)3 15 T  3.3 S (project)7 26.8 T  3.3 S (leader)6 24.8 T 67.9 
518.3 m (with)4 15.8 T  2.7 S (information)11 44.1 T  2.7 S (to)2 7.5 T  2.7 
S (do)2 10 T  2.7 S (``what)6 22.7 T  2.7 S (if'')4 8.2 T  2.7 S (analysis)8 
32.3 T  2.7 S (at)2 7.5 T  2.8 S (differing)9 31.7 T  2.8 S (levels)6 22.8 T 
67.9 508.3 m (of)2 7.5 T  4.5 S (detail)6 21.3 T  4.5 S (and)3 15 T  4.5 S (i\
ncreasing)10 40.7 T  4.5 S (levels)6 22.8 T  4.5 S (of)2 7.5 T  4.5 S (confid\
ence.)11 45.9 T 67.9 493.3 m (Control)7 28.7 T  2.6 S (is)2 6.4 T  2.6 S 
(a)1 5 T  2.6 S (process)7 31.4 T  2.6 S (of)2 7.5 T  2.6 S (comparing,)10 
44.2 T  2.6 S (measuring)9 41.7 T  2.7 S (and)3 15 T  2.7 S (report-)7 26.2 
T 67.9 483.3 m (ing)3 11.9 T  4.4 S (progress)8 34.8 T  4.4 S (against)7 
28.9 T  4.4 S (plan)4 16.9 T  4.5 S (at)2 7.5 T  4.5 S (the)3 12.5 T  4.5 S (\
project)7 26.8 T  4.5 S (and)3 15 T  4.5 S (individual)10 37.1 T 67.9 473.3 
m (contributor)11 42.2 T  5.3 S (levels.)7 25.3 T  5.3 S (It)2 5 T  5.3 S (pr\
ovides)8 33.8 T  5.3 S (the)3 12.5 T  5.3 S (information)11 44.1 T  5.4 S (to\
)2 7.5 T  5.4 S (track)5 19.4 T 67.9 463.3 m (project)7 26.8 T  4.6 S (status\
,)7 26.5 T  4.6 S (determine)9 39.7 T  4.6 S (progress)8 34.8 T  4.6 S (trend\
s,)7 27.4 T  4.6 S (and)3 15 T  4.7 S (to)2 7.5 T  4.7 S (take)4 17 T 67.9 
453.3 m (corrective)10 38.7 T  4.5 S (action)6 23.9 T  4.5 S (if)2 4.4 T  
4.5 S (necessary.)10 43.4 T 67.9 438.3 m (In)2 7.5 T  3 S (providing)9 36.2 
T  3 S (these)5 22 T  3 S (capabilities,)13 46.6 T  3 S (the)3 12.5 T  3 S (V\
AX)3 18 T  3.1 S (Software)8 35.3 T  3.1 S (Project)7 27.8 T 67.9 428.3 m (Ma\
nager)7 35.3 T  3.5 S (employs)7 33.3 T  3.5 S (two)3 13.9 T  3.5 S (fundamen\
tal)11 49.3 T  3.5 S (styles)6 22.9 T  3.6 S (of)2 7.5 T  3.6 S (interaction:\
)12 43.7 T 67.9 418.3 m (a)1 5 T  4.2 S (menu-oriented)13 57.6 T  4.2 S (mode\
)4 22.4 T  4.3 S (and)3 15 T  4.3 S (a)1 5 T  4.3 S (DCL-style)9 39.1 T  4.3 
S (command)7 39.3 T  4.3 S (line)4 13.8 T 67.9 408.3 m (mode.)5 24.9 T  2.8 
S (The)3 15.4 T  2.8 S (menu-oriented)13 57.6 T  2.8 S (mode)4 22.4 T  2.8 S 
(promotes)8 37.3 T  2.8 S (ease)4 19.5 T  2.9 S (of)2 7.5 T  2.9 S (learn-)6 
22.7 T 67.9 398.3 m (ing)3 11.9 T  3.1 S (and)3 15 T  3.1 S (ease)4 19.5 T  
3.1 S (of)2 7.5 T  3.1 S (use)3 14.5 T  3.1 S (through)7 30.4 T  3.2 S (highl\
y)6 23.3 T  3.2 S (graphical)9 36.2 T  3.2 S (interaction.)12 43.7 T 67.9 
388.3 m (The)3 15.4 T  2.5 S (product)7 29.9 T  2.6 S (visually)8 29.2 T  
2.6 S (presents)8 34.4 T  2.6 S (software)8 33.8 T  2.6 S (project)7 26.8 T  
2.6 S (data)4 17.5 T  2.6 S (in)2 6.9 T  2.6 S (the)3 12.5 T 67.9 378.3 m (fo\
rm)4 17.8 T  2.5 S (of)2 7.5 T  2.5 S (trees,)6 22.4 T  2.5 S (nodes,)6 27 T 
 2.5 S (graphs,)7 29.9 T  2.5 S (and)3 15 T  2.5 S (charts.)7 26.9 T  2.5 S (\
In)2 7.5 T  2.6 S (turn,)5 17.9 T  2.6 S (the)3 12.5 T  2.6 S (user)4 17.4 T 
67.9 368.3 m (specifies)9 34.8 T  3.5 S (actions)7 28.4 T  3.5 S (through)7 
30.4 T  3.6 S (pointing)8 31.3 T  3.6 S (at)2 7.5 T  3.6 S (objects)7 28.4 T 
 3.6 S (and)3 15 T  3.6 S (select-)7 26.3 T 67.9 358.3 m (ing)3 11.9 T  4.8 
S (features)8 32.4 T  4.8 S (through)7 30.4 T  4.9 S (menus.)6 29.4 T  4.9 S 
(The)3 15.4 T  4.9 S (DCL-style)9 39.1 T  4.9 S (command)7 39.3 T 67.9 348.3 
m (line)4 13.8 T  5.1 S (mode)4 22.4 T  5.1 S (permits)7 29.2 T  5.1 S (succi\
nct)8 32.4 T  5.1 S (expression)10 43.3 T  5.1 S (for)3 10.4 T  5.2 S (the)3 
12.5 T  5.2 S (experi-)7 27.2 T 67.9 338.3 m (enced)5 24.5 T  5 S (user)4 
17.4 T  5 S (and)3 15 T  5 S (the)3 12.5 T  5 S (ability)7 22.7 T  5 S (to)2 
7.5 T  5 S (perform)7 30.7 T  5 S (all)3 8.8 T  5.1 S (functions)9 35.9 T  
5.1 S (in)2 6.9 T 67.9 328.3 m (``batch'')9 29.6 T  5.1 S (mode.)5 24.9 T  
5.1 S (During)6 26.2 T  5.1 S (a)1 5 T  5.1 S (single)6 23.3 T  5.1 S (sessio\
n,)8 32.9 T  5.1 S (the)3 12.5 T  5.1 S (user)4 17.4 T  5.1 S (can)3 14.5 T 
67.9 318.3 m (move)4 21.9 T  4.9 S (readily)7 26.2 T  4.9 S (between)7 33.9 
T  4.9 S (the)3 12.5 T  4.9 S (two)3 13.9 T  5 S (modes)5 26.9 T  5 S (and)3 
15 T  5 S (all)3 8.8 T  5 S (actions)7 28.4 T 67.9 308.3 m (performed)9 40.7 
T  4.9 S (on)2 10 T  4.9 S (the)3 12.5 T  4.9 S (software)8 33.8 T  4.9 S (pr\
oject)7 26.8 T  5 S (database,)9 39.5 T  5 S (in)2 6.9 T  5 S (either)6 22.3 
T 67.9 298.3 m (mode,)5 24.9 T  4.5 S (are)3 12.9 T  4.5 S (immediately)11 
47.5 T  4.5 S (reflected.)10 36.8 T 67.9 283.3 m (Using)5 22.8 T  2.9 S (eith\
er)6 22.3 T  2.9 S (of)2 7.5 T  2.9 S (the)3 12.5 T  2.9 S (two)3 13.9 T  3 
S (styles)6 22.9 T  3 S (of)2 7.5 T  3 S (interaction,)12 43.7 T  3 S (the)3 
12.5 T  3 S (user)4 17.4 T  3 S (can)3 14.5 T 67.9 273.3 m (input,)6 21.9 T  
5.4 S (manipulate)10 43.7 T  5.4 S (and)3 15 T  5.4 S (view)4 17.8 T  5.4 S (\
variable)8 31.2 T  5.5 S (amounts)7 34.4 T  5.5 S (of)2 7.5 T  5.5 S (data)4 
17.5 T 67.9 263.3 m (based)5 24.5 T  2.5 S (on)2 10 T  2.5 S (the)3 12.5 T  
2.5 S (needs)5 24.5 T  2.5 S (of)2 7.5 T  2.5 S (a)1 5 T  2.5 S (software)8 
33.8 T  2.5 S (project)7 26.8 T  2.5 S (and)3 15 T  2.5 S (the)3 12.5 T  2.6 
S (amount)6 29.9 T 67.9 253.3 m (of)2 7.5 T  3.3 S (subsequent)10 46.5 T  
3.3 S (control)7 26.8 T  3.4 S (and)3 15 T  3.4 S (reporting)9 35.2 T  3.4 S 
(information)11 44.1 T  3.4 S (desired.)8 31.8 T 67.9 243.3 m (The)3 15.4 T  
4.3 S (capabilities)12 44.1 T  4.3 S (provided)8 34.3 T  4.3 S (by)2 9.5 T  
4.3 S (the)3 12.5 T  4.3 S (VAX)3 18 T  4.3 S (Software)8 35.3 T  4.4 S (Proj\
ect)7 27.8 T 67.9 233.3 m (Manager)7 35.3 T  4.5 S (can)3 14.5 T  4.5 S 
(be)2 10 T  4.5 S (divided)7 28.3 T  4.5 S (into)4 14.4 T  4.5 S (four)4 
15.4 T  4.5 S (groups)6 27.4 T  4.5 S (of)2 7.5 T  4.5 S (tools:)6 21.4 T 
/f5 {/Symbol FF 12 SF} def
f5 s 67.9 218.3 m (\267)1 5.5 T f4 s 79.9 218.3 m (Planning)8 34.8 T f5 s 
67.9 202.5 m (\267)1 5.5 T f4 s 79.9 202.5 m (Control)7 28.7 T f5 s 67.9 
186.7 m (\267)1 5.5 T f4 s 79.9 186.7 m (Estimation)10 41.7 T f5 s 67.9 
170.9 m (\267)1 5.5 T f4 s 79.9 170.9 m (Environment)11 50.2 T /f6 
{/Helvetica-Oblique FF 9 SF} def
f6 s 318.9 618.3 m (The)3 15.4 T  4.5 S (Planning)8 34.8 T  4.5 S (Tools)5 
21.8 T f4 s 318.9 603.3 m (The)3 15.4 T  2.6 S (planning)8 33.8 T  2.6 S (of)
2 7.5 T  2.6 S (a)1 5 T  2.6 S (software)8 33.8 T  2.6 S (project)7 26.8 T  
2.6 S (involves)8 32.3 T  2.6 S (the)3 12.5 T  2.7 S (manipula-)9 39.1 T 
318.9 593.3 m (tion)4 14.4 T  5.1 S (and)3 15 T  5.1 S (analysis)8 32.3 T  
5.1 S (of)2 7.5 T  5.1 S (large)5 19.8 T  5.1 S (amounts)7 34.4 T  5.1 S (of)
2 7.5 T  5.2 S (data,)5 20 T  5.2 S (including)9 35.2 T 318.9 583.3 m (inform\
ation)11 44.1 T  2.8 S (about)5 22.5 T  2.8 S (the)3 12.5 T  2.8 S 
(project)7 26.8 T  2.8 S (as)2 9.5 T  2.9 S (a)1 5 T  2.9 S (whole,)6 25.8 T 
 2.9 S (individual)10 37.1 T  2.9 S (tasks)5 21 T 318.9 573.3 m (to)2 7.5 T  
3.4 S (be)2 10 T  3.4 S (performed,)10 43.2 T  3.4 S (milestones)10 42.7 T  
3.5 S (\(critical)9 28 T  3.5 S (points)6 23.9 T  3.5 S (in)2 6.9 T  3.5 S (t\
ime\),)6 22.2 T  3.5 S (and)3 15 T 318.9 563.3 m (resources)9 39.3 T  4.6 S (\
to)2 7.5 T  4.6 S (perform)7 30.7 T  4.7 S (tasks.)6 23.5 T  4.7 S (Using)5 
22.8 T  4.7 S (a)1 5 T  4.7 S (Work)4 20.8 T  4.7 S (Breakdown)9 44.8 T 
318.9 553.3 m (Structure)9 36.3 T  4.6 S (\(WBS\))5 26.2 T  4.6 S 
(composer)8 39.3 T  4.6 S (tool,)5 16.9 T  4.7 S (the)3 12.5 T  4.7 S 
(user)4 17.4 T  4.7 S (constructs)10 40.9 T  4.7 S (a)1 5 T 318.9 543.3 m (gr\
aphical,)10 38.7 T  3.6 S (hierarchical)12 45.5 T  3.6 S (representation)14 
57.2 T  3.6 S (of)2 7.5 T  3.7 S (project)7 26.8 T  3.7 S (tasks.)6 23.5 T  
3.7 S (A)1 6 T 318.9 533.3 m (WBS)3 20.4 T  3.8 S (is)2 6.4 T  3.8 S (an)2 
10 T  3.8 S (enumeration)11 49.7 T  3.9 S (of)2 7.5 T  3.9 S (everything)10 
41.3 T  3.9 S (that)4 15 T  3.9 S (needs)5 24.5 T  3.9 S (to)2 7.5 T  3.9 S (\
be)2 10 T 318.9 523.3 m (done)4 20 T  4.5 S (on)2 10 T  4.5 S (a)1 5 T  4.5 
S (project.)8 29.3 T 318.9 508.3 m (Visually,)9 33.2 T  3.5 S (it)2 4.4 T  
3.6 S (is)2 6.4 T  3.6 S (tree-structured)15 58.1 T  3.6 S (with)4 15.8 T  
3.6 S (each)4 19.5 T  3.6 S (``leaf'')8 22 T  3.6 S (of)2 7.5 T  3.6 S 
(the)3 12.5 T  3.6 S (tree)4 15.4 T 318.9 498.3 m (representing)12 49.7 T  
3.6 S (an)2 10 T  3.6 S (activity)8 27.3 T  3.6 S (to)2 7.5 T  3.6 S (be)2 
10 T  3.6 S (performed)9 40.7 T  3.6 S (during)6 24.8 T  3.6 S (the)3 12.5 T 
 3.6 S (pro-)4 15.8 T 318.9 488.3 m (ject.)5 16.4 T  4.1 S (Tasks)5 23.9 T  
4.1 S (that)4 15 T  4.1 S (are)3 12.9 T  4.1 S (at)2 7.5 T  4.1 S (the)3 
12.5 T  4.2 S (lowest)6 25.3 T  4.2 S (level)5 18.3 T  4.2 S (in)2 6.9 T  
4.2 S (each)4 19.5 T  4.2 S (branch)6 27.4 T 318.9 478.3 m (\(hence)6 27.4 T 
 3.3 S (leaf)4 14.4 T  3.3 S (nodes\))6 27.4 T  3.3 S (are)3 12.9 T  3.3 S (a\
ctivities)10 34.2 T  3.3 S (that)4 15 T  3.4 S (the)3 12.5 T  3.4 S (user)4 
17.4 T  3.4 S (may)3 16.9 T  3.4 S (want)4 18.9 T 318.9 468.3 m (to)2 7.5 T  
4.5 S (explicitly)10 33.6 T  4.5 S (schedule.)9 38.4 T 318.9 453.3 m (The)3 
15.4 T  4.5 S (second)6 29 T  4.5 S (major)5 22.2 T  4.5 S (planning)8 33.8 
T  4.5 S (tool)4 14.4 T  4.5 S (is)2 6.4 T  4.5 S (the)3 12.5 T  4.6 S (Sched\
uler)9 40.3 T  4.6 S (tool.)5 16.9 T 318.9 443.3 m (While)5 22.2 T  3.3 S (th\
e)3 12.5 T  3.3 S (WBS)3 20.4 T  3.3 S (shows)5 25.4 T  3.3 S (the)3 12.5 T  
3.3 S (structure)9 34.8 T  3.3 S (of)2 7.5 T  3.3 S (a)1 5 T  3.3 S (project)
7 26.8 T  3.4 S (or)2 7.9 T  3.4 S (what)4 18.9 T 318.9 433.3 m (needs)5 
24.5 T  3.4 S (to)2 7.5 T  3.4 S (be)2 10 T  3.5 S (done,)5 22.5 T  3.5 S (th\
e)3 12.5 T  3.5 S (scheduler)9 38.8 T  3.5 S (tool)4 14.4 T  3.5 S (allows)6 
24.7 T  3.5 S (the)3 12.5 T  3.5 S (user)4 17.4 T  3.5 S (to)2 7.5 T 318.9 
423.3 m (show)4 20.9 T  3.4 S (the)3 12.5 T  3.4 S (dependencies)12 55.9 T  
3.4 S (among)5 27.4 T  3.4 S (tasks)5 21 T  3.4 S (and)3 15 T  3.4 S (milesto\
nes)10 42.7 T  3.4 S (or)2 7.9 T 318.9 413.3 m (the)3 12.5 T  4.1 S (order)5 
20.8 T  4.1 S (in)2 6.9 T  4.1 S (which)5 22.8 T  4.1 S (tasks)5 21 T  4.1 S 
(must)4 19.4 T  4.2 S (be)2 10 T  4.2 S (done.)5 22.5 T  4.2 S (By)2 10.5 T  
4.2 S (connecting)10 43.4 T 318.9 403.3 m (the)3 12.5 T  5.6 S (graphical)9 
36.2 T  5.6 S (representations)15 61.7 T  5.6 S (of)2 7.5 T  5.6 S (tasks)5 
21 T  5.6 S (defined)7 29.4 T  5.7 S (in)2 6.9 T  5.7 S (the)3 12.5 T 318.9 
393.3 m (Work)4 20.8 T  5.5 S (Breakdown)9 44.8 T  5.5 S (Structure,)10 38.8 
T  5.5 S (a)1 5 T  5.5 S (precedence)10 46.9 T  5.5 S (network)7 31.3 T  5.6 
S (is)2 6.4 T 318.9 383.3 m (defined)7 29.4 T  3.9 S (which)5 22.8 T  3.9 S (\
visually)8 29.2 T  4 S (shows)5 25.4 T  4 S (which)5 22.8 T  4 S (task)4 
16.5 T  4 S (must)4 19.4 T  4 S (be)2 10 T  4 S (com-)4 19.8 T 318.9 373.3 m 
(pleted)6 24.4 T  4.4 S (before)6 25.4 T  4.4 S (another)7 30.4 T  4.4 S (tas\
k)4 16.5 T  4.4 S (may)3 16.9 T  4.4 S (begin.)6 24.4 T  4.4 S (In)2 7.5 T  
4.4 S (addition,)9 33.8 T  4.5 S (the)3 12.5 T 318.9 363.3 m (scheduler)9 
38.8 T  5.9 S (tool)4 14.4 T  5.9 S (allows)6 24.7 T  5.9 S (the)3 12.5 T  
5.9 S (user)4 17.4 T  6 S (to)2 7.5 T  6 S (produce)7 32.4 T  6 S (a)1 5 T  
6 S (project)7 26.8 T 318.9 353.3 m (schedule.)9 38.4 T  2.8 S (Depending)9 
43.3 T  2.8 S (on)2 10 T  2.9 S (the)3 12.5 T  2.9 S (scheduling)10 42.8 T  
2.9 S (algorithm)9 36.6 T  2.9 S (select-)7 26.3 T 318.9 343.3 m (ed,)3 12.5 
T  4.5 S (the)3 12.5 T  4.5 S (scheduling)10 42.8 T  4.5 S (tool)4 14.4 T  
4.5 S (takes)5 21.5 T  4.5 S (into)4 14.4 T  4.5 S (account:)8 34 T f5 s 
318.9 328.3 m (\267)1 5.5 T f4 s 330.9 328.3 m (The)3 15.4 T  4.5 S (preceden\
ce)10 46.9 T  4.5 S (of)2 7.5 T  4.5 S (the)3 12.5 T  4.5 S (tasks.)6 23.5 T 
f5 s 318.9 312.5 m (\267)1 5.5 T f4 s 330.9 312.5 m (The)3 15.4 T  4.5 S (eff\
orts)7 24.9 T  4.5 S (associated)10 42.9 T  4.5 S (with)4 15.8 T  4.5 S (the)
3 12.5 T  4.5 S (tasks.)6 23.5 T f5 s 318.9 296.7 m (\267)1 5.5 T f4 s 330.9 
296.7 m (The)3 15.4 T  4.2 S (work/non-work)13 58 T  4.2 S (dates)5 22 T  
4.2 S (occuring)8 33.8 T  4.2 S (in)2 6.9 T  4.2 S (the)3 12.5 T  4.3 S (unde\
rlying)10 41.2 T 330.9 285.9 m (project)7 26.8 T  4.5 S (calendar.)9 36.8 T 
f5 s 318.9 270.9 m (\267)1 5.5 T f4 s 330.9 270.9 m (The)3 15.4 T  4.5 S (res\
ources)9 39.3 T  4.5 S (assigned)8 35.9 T  4.5 S (to)2 7.5 T  4.5 S (the)3 
12.5 T  4.5 S (tasks.)6 23.5 T f5 s 318.9 255.1 m (\267)1 5.5 T f4 s 330.9 
255.1 m (The)3 15.4 T  4.5 S (percent)7 29.9 T  4.5 S (of)2 7.5 T  4.5 S (tim\
e)4 16.8 T  4.5 S (these)5 22 T  4.5 S (resources)9 39.3 T  4.5 S (are)3 
12.9 T  4.5 S (available.)10 37.7 T f5 s 318.9 239.3 m (\267)1 5.5 T f4 s 
330.9 239.3 m (The)3 15.4 T  2.7 S (availability)12 41 T  2.7 S (of)2 7.5 T  
2.7 S (these)5 22 T  2.7 S (resources)9 39.3 T  2.7 S (as)2 9.5 T  2.8 S (ref\
lected)9 34.3 T  2.8 S (in)2 6.9 T  2.8 S (their)5 17.3 T 330.9 228.5 m (indi\
vidual)10 37.1 T  4.5 S (calendars.)10 41.3 T 318.9 213.5 m (In)2 7.5 T  4.7 
S (addition)8 31.3 T  4.8 S (to)2 7.5 T  4.8 S (the)3 12.5 T  4.8 S (WBS)3 
20.4 T  4.8 S (composer)8 39.3 T  4.8 S (and)3 15 T  4.8 S (the)3 12.5 T  
4.8 S (scheduling)10 42.8 T 318.9 203.5 m (tool,)5 16.9 T  4.5 S (the)3 12.5 
T  4.5 S (planning)8 33.8 T  4.5 S (tools)5 18.9 T  4.5 S (include:)8 30.8 T 
f5 s 318.9 188.5 m (\267)1 5.5 T f4 s 330.9 188.5 m (Loading)7 31.9 T  2.5 S 
(Chart)5 21.8 T  2.5 S (Tool)4 17.3 T  2.5 S (-)1 2.9 T  2.5 S (Bar)3 13.9 T 
 2.6 S (chart)5 19.9 T  2.6 S (view)4 17.8 T  2.6 S (of)2 7.5 T  2.6 S (resou\
rces,)10 41.8 T  2.6 S (their)5 17.3 T 330.9 177.7 m (assigned)8 35.9 T  6.9 
S (activities,)11 36.7 T  6.9 S (and)3 15 T  6.9 S (schedule)8 35.9 T  7 S (d\
ata)4 17.5 T  7 S (for)3 10.4 T  7 S (those)5 22 T 330.9 167.7 m (activities.\
)11 36.7 T 67.8 113.2 m  427.4 S f2 s (March)5 26.3 T  4.5 S (1989)4 20 T 
67.8 98.3 m  419.4 S (AE-KN24D-TE)11 58.8 T 
% SPD (8.5*11") 'software' logo.
% Aidan Killian ESDC Galway 14/05/86.
% Amended to position logo to left margin on 12-Aug-1986
% at ESDC Galway (AK/MS).

save						% Save current environment

/digital-font /Helvetica-Bold findfont 
[35 34 div .65 mul 0 0 .75 0 0] makefont def

/box-width 35 34 div .405 mul def
/box-pitch box-width .85 div def

/digital-box { 
  gsave 
    box-pitch box-width sub 2 div -.225 rmoveto
    box-width 0 rlineto 
    0 1 rlineto box-width neg 0 rlineto 
    closepath fill 
  grestore 
  gsave
    dup stringwidth pop box-pitch exch sub 2 div 0 rmoveto 
    1 setgray 
    show
  grestore
  box-pitch 0 rmoveto
} def 

/digital_logo {
  % draws digital logo with left baseline point at current point with
  % specified height using current color for boxes and white letters 
  % and moves current point in x direction by about 3.433 times height

  dup scale 
  digital-font setfont 
  0 1 6 {(digital) exch 1 getinterval digital-box} for 
} def 

/sw 1 def					% Stroke width / 2

/std 68 def					% Start Displ.

/bl 60 def					% Char Levels
/cbl bl sw add def
/ol bl 18.4 add def
/xl bl 36.8 add def
/cxl xl sw sub def
/wl xl sw add sw add def
/tl bl 59.5 add def
/ctl tl sw sub def
/dl xl 10.5 add def
/rll bl 14 sub def

/cr ol bl sub sw sub def			% Sub-char Radii
/s1r 10 def
/s2r 8 def
/fr 9.1 def
/rr 12.4 def

/el bl 19.3 add def				% Sub-char Levels
/e2l bl 10.3 add def
/s1l cbl s1r add def
/s2l cxl s2r sub def
/s3l bl 19.8 add def

/sd std s1r add sw add def			% Char Displ.
/od std 42.5 add def
/fd std 66 add def
/td std 86.5 add def
/wd std 102 add def
/ad std 168 add def
/rd std 194 add def
/ed std 221.3 add def
/end cr cr add ed add def

/f2d fd 6 sub def				% Sub-char Displ.
/t2d td 7.7 sub def
/w2d wd 26 add def
/w3d wd 52 add def
/a2d ad cr add 0.4 sub def

/dsz 15.9 def
/bsw 18 def
/bd wd 375.5 add def

sw sw add setlinewidth

newpath
sd s2l s2r 0 180 arc 
sd s2r sub s2l 5 sub sd 3.6 sub s3l 1 add sd s3l curveto 
sd 3.6 add s3l 1 sub sd s1r add s1l 5 add sd s1r add s1l curveto 
sd s1l s1r 0 180 arcn stroke

od ol cr 0 360 arc stroke

fd cbl moveto 
fd ctl td ctl fr arcto pop pop pop pop 
f2d cxl moveto 
fd fr add cxl lineto stroke

td bl 1 add moveto 
td tl lineto 
t2d cxl moveto 
td fr add cxl lineto stroke

gsave
  td cbl moveto 
  td xl lineto 
  ad xl lineto 
  ad cbl lineto clip newpath

  wd xl moveto 
  wd cbl lineto 
  w2d wl lineto 
  w2d cbl lineto 
  w3d wl lineto stroke
grestore

gsave
  a2d bl moveto 
  a2d xl lineto 
  wd xl lineto 
  wd bl lineto clip newpath

  ad ol cr 0 365 arc stroke
grestore

gsave
  a2d sw add cbl moveto 
  a2d sw sub cbl lineto 
  ad ol cr 300 60 arc 
  a2d sw sub xl lineto 
  a2d sw add xl lineto clip newpath

  a2d cbl moveto 
  a2d xl lineto stroke
grestore

rd cbl moveto 
rd xl lineto 
rd cbl moveto 
rd cxl ed cxl rr arcto pop pop pop pop stroke

gsave
  rd bl moveto 
  rd xl lineto 
  end xl lineto 
  end el sw sub lineto
  ed el sw sub lineto 
  ed e2l lineto 
  end e2l lineto 
  end bl lineto clip newpath

  ed ol cr 0 360 arc 
  ed cr sub el moveto 
  ed cr add el lineto stroke
grestore

gsave
  wd sw sub dl moveto dsz digital_logo
grestore

bsw setlinewidth

wd sw sub rll moveto 
bd rll lineto stroke

restore						% Restore previous environment
showpage
%%Page: 1 2
487.2 98.3 m f2 s 67.8 721 m (VAX)3 18.4 T  4.5 S (Software)8 37.7 T  4.5 S (\
Project)7 30.3 T  4.5 S (Manager,)8 39.2 T  4.5 S (Version)7 32.8 T  4.5 S (1\
.2)3 12.5 T  226.9 S (SPD)3 18.4 T  4.5 S (27.52.03)8 35 T f5 s 67.8 691.1 m 
(\267)1 5.5 T f4 s 79.8 691.1 m (Calendar)8 36.2 T  4.1 S (Tool)4 17.3 T  
4.1 S (-)1 2.9 T  4.1 S (Allow)5 21.2 T  4.1 S (specification)13 49.2 T  4.2 
S (of)2 7.5 T  4.2 S (calendar)8 34.3 T  4.2 S (data)4 17.5 T 79.8 680.3 m 
(\(work/non-work)14 60.9 T  4.5 S (day)3 14.5 T  4.5 S (specification\).)15 
54.6 T f5 s 67.8 665.3 m (\267)1 5.5 T f4 s 79.8 665.3 m (Gantt)5 22 T  4.2 
S (Tool)4 17.3 T  4.2 S (-)1 2.9 T  4.2 S (Bar)3 13.9 T  4.2 S (chart)5 19.9 
T  4.2 S (view)4 17.8 T  4.2 S (of)2 7.5 T  4.2 S (project)7 26.8 T  4.2 S (a\
ctivities)10 34.2 T  4.2 S (and)3 15 T 79.8 654.5 m (their)5 17.3 T  4.5 S (s\
chedule)8 35.9 T  4.5 S (data.)5 20 T f6 s 67.8 639.5 m (The)3 15.4 T  4.5 S 
(Control)7 28.7 T  4.5 S (Tools)5 21.8 T f4 s 67.8 624.5 m (Control)7 28.7 T 
 2.6 S (is)2 6.4 T  2.6 S (a)1 5 T  2.6 S (process)7 31.4 T  2.6 S (of)2 7.5 
T  2.6 S (comparing,)10 44.2 T  2.6 S (measuring)9 41.7 T  2.7 S (and)3 15 T 
 2.7 S (report-)7 26.2 T 67.8 614.5 m (ing)3 11.9 T  4.4 S (progress)8 34.8 
T  4.4 S (against)7 28.9 T  4.4 S (plan)4 16.9 T  4.5 S (at)2 7.5 T  4.5 S (t\
he)3 12.5 T  4.5 S (project)7 26.8 T  4.5 S (and)3 15 T  4.5 S 
(individual)10 37.1 T 67.8 604.5 m (contributor)11 42.2 T  5.3 S (levels.)7 
25.3 T  5.3 S (It)2 5 T  5.3 S (provides)8 33.8 T  5.3 S (the)3 12.5 T  5.3 
S (information)11 44.1 T  5.4 S (to)2 7.5 T  5.4 S (track)5 19.4 T 67.8 
594.5 m (project)7 26.8 T  4.6 S (status,)7 26.5 T  4.6 S (determine)9 39.7 
T  4.6 S (progress)8 34.8 T  4.6 S (trends,)7 27.4 T  4.6 S (and)3 15 T  4.7 
S (to)2 7.5 T  4.7 S (take)4 17 T 67.8 584.5 m (corrective)10 38.7 T  7.1 S (\
action)6 23.9 T  7.1 S (if)2 4.4 T  7.1 S (necessary.)10 43.4 T  7.1 S (Such)
4 20.5 T  7.1 S (project)7 26.8 T  7.1 S (control)7 26.8 T 67.8 574.5 m (invo\
lves)8 32.3 T  6 S (maintaining)11 45.6 T  6 S (data)4 17.5 T  6 S (pertainin\
g)10 39.2 T  6 S (to)2 7.5 T  6.1 S (actual)6 23.9 T  6.1 S (efforts)7 24.9 
T 67.8 564.5 m (expended)8 39.5 T  4.5 S (and)3 15 T  4.5 S (extracting)10 
38.8 T  4.5 S (project)7 26.8 T  4.5 S (data)4 17.5 T  4.5 S (into)4 14.4 T  
4.6 S (a)1 5 T  4.6 S (variety)7 26.3 T  4.6 S (of)2 7.5 T 67.8 554.5 m (form\
ats,)8 32.3 T  2.6 S (such)4 19 T  2.7 S (as)2 9.5 T  2.7 S (Gantt)5 22 T  
2.7 S (charts)6 24.4 T  2.7 S (and)3 15 T  2.7 S (precedence)10 46.9 T  2.7 
S (diagrams,)9 39.2 T 67.8 544.5 m (to)2 7.5 T  4.3 S (track)5 19.4 T  4.3 S 
(project)7 26.8 T  4.3 S (status)6 24 T  4.3 S (and)3 15 T  4.3 S (view)4 
17.8 T  4.3 S (actual)6 23.9 T  4.3 S (versus)6 26.4 T  4.3 S (planned)7 
31.9 T 67.8 534.5 m (progress.)9 37.3 T 67.8 519.5 m (VAX)3 18 T  3.7 S (Soft\
ware)8 35.3 T  3.7 S (Project)7 27.8 T  3.7 S (Manager)7 35.3 T  3.7 S (provi\
des)8 33.8 T  3.8 S (capabilities)12 44.1 T  3.8 S (for)3 10.4 T 67.8 509.5 
m (comparing,)10 44.2 T  4 S (accessing,)10 42.4 T  4 S (and)3 15 T  4 S (mea\
suring)9 41.7 T  4 S (progress)8 34.8 T  4.1 S (against)7 28.9 T 67.8 499.5 
m (plan)4 16.9 T  4.8 S (at)2 7.5 T  4.9 S (both)4 17.5 T  4.9 S (the)3 12.5 
T  4.9 S (project)7 26.8 T  4.9 S (and)3 15 T  4.9 S (the)3 12.5 T  4.9 S (in\
dividual)10 37.1 T  4.9 S (contributor)11 42.2 T 67.8 489.5 m (levels.)7 
25.3 T  4.5 S (Specific)8 31.3 T  4.5 S (controlling)11 40.6 T  4.5 S (tools)
5 18.9 T  4.5 S (include:)8 30.8 T f5 s 67.8 474.5 m (\267)1 5.5 T f4 s 79.8 
474.5 m (Status)6 25.5 T  2.9 S (Updating)8 35.8 T  2.9 S (-)1 2.9 T  2.9 S (\
Allows)6 25.7 T  2.9 S (viewing)7 29.7 T  2.9 S (and)3 15 T  2.9 S (entering)
8 32.3 T  2.9 S (of)2 7.5 T  2.9 S (data)4 17.5 T 79.8 463.7 m 
(pertaining)10 39.2 T  4.5 S (to)2 7.5 T  4.5 S (actual)6 23.9 T  4.5 S (effo\
rts)7 24.9 T  4.5 S (expended.)9 42 T f5 s 67.8 448.7 m (\267)1 5.5 T f4 s 
79.8 448.7 m (Rate)4 18.9 T  7.1 S (Charting)8 33.7 T  7.1 S (-)1 2.9 T  7.1 
S (Provides)8 34.8 T  7.1 S (viewing)7 29.7 T  7.1 S (of)2 7.5 T  7.2 S (prog\
ress)8 34.8 T  7.2 S (-)1 2.9 T 79.8 437.9 m (planned)7 31.9 T  4.5 S (vs.)3 
11.5 T  4.5 S (actual.)7 26.4 T f5 s 67.8 422.9 m (\267)1 5.5 T f4 s 79.8 
422.9 m (Reporting)9 38.7 T  4.8 S (-)1 2.9 T  4.8 S (Generates)9 41.9 T  
4.9 S (a)1 5 T  4.9 S (variety)7 26.3 T  4.9 S (of)2 7.5 T  4.9 S (textual)7 
26.4 T  4.9 S (displays)8 32.3 T 79.8 412.1 m (and)3 15 T  3.8 S (hardcopy)8 
36.9 T  3.8 S (reports)7 27.8 T  3.8 S (of)2 7.5 T  3.8 S (project)7 26.8 T  
3.8 S (data.)5 20 T  3.9 S (The)3 15.4 T  3.9 S (User)4 18.8 T  3.9 S 
(For-)4 16.2 T 79.8 402.1 m (matted)6 27.4 T  3.7 S (Report)6 26.8 T  3.7 S (\
allows)6 24.7 T  3.7 S (you)3 14.5 T  3.7 S (to)2 7.5 T  3.7 S (define)6 
24.4 T  3.8 S (reports)7 27.8 T  3.8 S (choosing)8 35.9 T 79.8 392.1 m (from)
4 17.8 T  4.3 S (information)11 44.1 T  4.3 S (in)2 6.9 T  4.3 S (the)3 12.5 
T  4.3 S (project)7 26.8 T  4.3 S (database,)9 39.5 T  4.3 S (which)5 22.8 T 
 4.4 S (can)3 14.5 T 79.8 382.1 m (then)4 17.5 T  4.5 S (be)2 10 T  4.5 S (sa\
ved)5 24 T  4.5 S (and)3 15 T  4.5 S (used)4 19.5 T  4.5 S (in)2 6.9 T  4.5 
S (future)6 22.9 T  4.5 S (reporting)9 35.2 T  4.5 S (cycles.)7 27.4 T f6 s 
67.8 367.1 m (The)3 15.4 T  4.5 S (Estimation)10 41.7 T  4.5 S (Tool)4 17.3 
T f4 s 67.8 352.1 m (The)3 15.4 T  3.6 S (VAX)3 18 T  3.6 S (Software)8 35.3 
T  3.6 S (Project)7 27.8 T  3.6 S (Manager)7 35.3 T  3.6 S (provides)8 33.8 
T  3.6 S (a)1 5 T  3.6 S (detailed)8 31.3 T 67.8 342.1 m (implementation)14 
60.5 T  3.2 S (of)2 7.5 T  3.2 S (COCOMO,)7 43.7 T  3.2 S (a)1 5 T  3.2 S (wi\
dely)6 24.7 T  3.2 S (accepted)8 36.5 T  3.3 S (method)6 29.9 T 67.8 332.1 m 
(for)3 10.4 T  2.6 S (estimating)10 40.7 T  2.6 S (the)3 12.5 T  2.6 S (total\
)5 16.9 T  2.6 S (effort,)7 22.9 T  2.6 S (development)11 51.3 T  2.7 S (time\
,)5 19.3 T  2.7 S (and)3 15 T  2.7 S (staff)5 17 T 67.8 322.1 m (levels)6 
22.8 T  2.5 S (required)8 32.7 T  2.5 S (to)2 7.5 T  2.6 S (do)2 10 T  2.6 S 
(a)1 5 T  2.6 S (software)8 33.8 T  2.6 S (project.)8 29.3 T  2.6 S 
(COCOMO)6 41.2 T  2.6 S (\(COn-)5 24.2 T 67.8 312.1 m (structive)9 33.3 T  
3.2 S (COst)4 20.4 T  3.2 S (MOdel\))6 29.2 T  3.2 S (is)2 6.4 T  3.2 S (a)1 
5 T  3.2 S (cost)4 16.5 T  3.2 S (\(effort)7 23.3 T  3.3 S (and)3 15 T  3.3 
S (time\))5 19.7 T  3.3 S (estima-)7 29.2 T 67.8 302.1 m (tion)4 14.4 T  6.2 
S (technique)9 38.9 T  6.2 S (first)5 14.3 T  6.2 S (presented)9 39.9 T  6.3 
S (in)2 6.9 T  6.3 S (1981)4 20 T  6.3 S (by)2 9.5 T  6.3 S (Dr.)3 11.8 T  
6.3 S (Barry)5 21.3 T 67.8 292.1 m (Boehm)5 28.4 T  4.4 S (in)2 6.9 T  4.4 S 
(his)3 11.4 T  4.4 S (book)4 19.5 T  4.4 S (``Software)10 39.1 T  4.4 S (Engi\
neering)11 47.7 T  4.5 S (Economics'')11 47.6 T 67.8 282.1 m (\(Prentice-Hall\
,1981\).)21 81.7 T  6.6 S (Since)5 22.4 T  6.6 S (that)4 15 T  6.6 S (time)4 
16.8 T  6.7 S (the)3 12.5 T  6.7 S (model)5 24.3 T  6.7 S (has)3 14.5 T 67.8 
272.1 m (received)8 33.8 T  6.4 S (widespread)10 45.7 T  6.5 S 
(acceptance)10 46 T  6.5 S (in)2 6.9 T  6.5 S (government)10 47.3 T  6.5 S (a\
nd)3 15 T 67.8 262.1 m (industry)8 31.3 T  3.6 S (as)2 9.5 T  3.6 S (a)1 5 T 
 3.6 S (reliable)8 28.6 T  3.6 S (predictor)9 34.7 T  3.6 S (of)2 7.5 T  3.6 
S (schedule)8 35.9 T  3.7 S (and)3 15 T  3.7 S (cost)4 16.5 T  3.7 S (for)3 
10.4 T 67.8 252.1 m (software)8 33.8 T  3.7 S (projects)8 31.3 T  3.7 S (give\
n)5 21.4 T  3.7 S (only)4 16.4 T  3.8 S (a)1 5 T  3.8 S (size)4 15.9 T  3.8 
S (estimate)8 33.8 T  3.8 S (\(in)3 9.8 T  3.8 S (lines)5 18.3 T  3.8 S 
(of)2 7.5 T 67.8 242.1 m (code\))5 22.4 T  4.5 S (and)3 15 T  4.5 S (salient)
7 25.8 T  4.5 S (project)7 26.8 T  4.5 S (characteristics.)16 59.6 T 67.8 
227.1 m (Projections)11 44.2 T  5 S (for)3 10.4 T  5 S (effort,)7 22.9 T  5 
S (time,)5 19.3 T  5 S (and)3 15 T  5 S (staff)5 17 T  5 S (levels)6 22.8 T  
5.1 S (are)3 12.9 T  5.1 S (made)4 22.4 T 67.8 217.1 m (using)5 21.4 T  2.6 
S (the)3 12.5 T  2.6 S (estimated)9 38.8 T  2.6 S (size)4 15.9 T  2.6 S 
(of)2 7.5 T  2.6 S (the)3 12.5 T  2.6 S (project)7 26.8 T  2.6 S (and)3 15 T 
 2.6 S (``cost)6 20.3 T  2.6 S (drivers,'')10 33 T 67.8 207.1 m (such)4 19 T 
 3.4 S (as)2 9.5 T  3.4 S (programmer)10 48.5 T  3.5 S (capability,)11 39.7 
T  3.5 S (product)7 29.9 T  3.5 S (complexity,)11 44.7 T  3.5 S (and)3 15 T 
67.8 197.1 m (the)3 12.5 T  6.5 S (programming)11 52.5 T  6.5 S (environment.\
)12 51.7 T  6.5 S (The)3 15.4 T  6.5 S (accuracy)8 35.9 T  6.5 S (of)2 7.5 T 
 6.6 S (the)3 12.5 T 67.8 187.1 m (model)5 24.3 T  3 S (can)3 14.5 T  3 S (be\
)2 10 T  3 S (enhanced)8 39.5 T  3 S (through)7 30.4 T  3 S (modification)12 
47.6 T  3.1 S (of)2 7.5 T  3.1 S (the)3 12.5 T  3.1 S (cost)4 16.5 T 67.8 
177.1 m (drivers)7 26.7 T  3.2 S (to)2 7.5 T  3.2 S (more)4 20.3 T  3.2 S (cl\
osely)7 27.3 T  3.3 S (reflect)7 24.3 T  3.3 S (recent)6 24.9 T  3.3 S (histo\
rical)10 35.1 T  3.3 S (data)4 17.5 T  3.3 S (spe-)4 17.4 T 67.8 167.1 m (cif\
ic)5 15.3 T  4.5 S (to)2 7.5 T  4.5 S (a)1 5 T  4.5 S (user's)6 23.8 T  4.5 
S (environment.)12 51.7 T 67.8 152.1 m (The)3 15.4 T  4.5 S (user)4 17.4 T  
4.5 S (inputs)6 23.9 T  4.5 S (to)2 7.5 T  4.5 S (the)3 12.5 T  4.5 S (estima\
tion)10 40.7 T  4.5 S (tool:)5 16.9 T f5 s 67.8 137.1 m (\267)1 5.5 T f4 s 
79.8 137.1 m (An)2 11 T  4.5 S (estimation)10 40.7 T  4.5 S (hierarchy)9 
36.7 T f5 s 67.8 121.3 m (\267)1 5.5 T f4 s 79.8 121.3 m (Cost)4 18.4 T  4.5 
S (driver)6 22.2 T  4.5 S (values)6 25.9 T f5 s 67.8 105.5 m (\267)1 5.5 T 
f4 s 79.8 105.5 m (Estimates)9 39.3 T  4.5 S (of)2 7.5 T  4.5 S (lines)5 
18.3 T  4.5 S (of)2 7.5 T  4.5 S (code)4 19.5 T f5 s 67.8 89.7 m (\267)1 5.5 
T f4 s 79.8 89.7 m (Cost)4 18.4 T  4.5 S (per)3 12.9 T  4.5 S (phase)5 24.5 
T 318.8 691.1 m (The)3 15.4 T  5 S (estimation)10 40.7 T  5 S (tool)4 14.4 T 
 5 S (provides)8 33.8 T  5 S (the)3 12.5 T  5 S (following)9 34.6 T  5.1 S (f\
or)3 10.4 T  5.1 S (the)3 12.5 T  5.1 S (the)3 12.5 T 318.8 681.1 m (developm\
ent)11 51.3 T  4.5 S (phases)6 29 T  4.5 S (of)2 7.5 T  4.5 S (the)3 12.5 T  
4.5 S (project:)8 29.3 T f5 s 318.8 666.1 m (\267)1 5.5 T f4 s 330.8 666.1 m 
(Effort)6 21.4 T f5 s 318.8 650.3 m (\267)1 5.5 T f4 s 330.8 650.3 m (Schedul\
e)8 37.4 T f5 s 318.8 634.5 m (\267)1 5.5 T f4 s 330.8 634.5 m (Cost)4 18.4 
T f5 s 318.8 618.7 m (\267)1 5.5 T f4 s 330.8 618.7 m (Staffing)8 30.4 T  
4.5 S (levels)6 22.8 T 318.8 602.9 m (Summaries)9 45.1 T  4.5 S (are)3 12.9 
T  4.5 S (provided)8 34.3 T  4.5 S (for)3 10.4 T  4.5 S (each)4 19.5 T  4.5 
S (phase.)6 27 T f6 s 318.8 587.9 m (Setting)7 27.9 T  4.5 S (The)3 15.4 T  
4.5 S (Environment)11 50.2 T f4 s 318.8 572.9 m (The)3 15.4 T  4.5 S (user)4 
17.4 T  4.5 S (must)4 19.4 T  4.5 S (set)3 12 T  4.5 S (the)3 12.5 T  4.6 S (\
environment)11 49.2 T  4.6 S (in)2 6.9 T  4.6 S (which)5 22.8 T  4.6 S 
(the)3 12.5 T  4.6 S (VAX)3 18 T 318.8 562.9 m (Software)8 35.3 T  4 S (Proje\
ct)7 27.8 T  4 S (Manager)7 35.3 T  4 S (operates,)9 37.4 T  4 S (such)4 19 
T  4 S (as)2 9.5 T  4 S (what)4 18.9 T  4.1 S (pro-)4 15.8 T 318.8 552.9 m (j\
ect)4 13.9 T  3.6 S (database)8 37 T  3.6 S (is)2 6.4 T  3.6 S (to)2 7.5 T  
3.7 S (be)2 10 T  3.7 S (used)4 19.5 T  3.7 S (and)3 15 T  3.7 S (who)3 16.4 
T  3.7 S (the)3 12.5 T  3.7 S (resources)9 39.3 T  3.7 S (are)3 12.9 T 318.8 
542.9 m (on)2 10 T  2.8 S (a)1 5 T  2.8 S (project,)8 29.3 T  2.8 S (capabili\
ties,)13 46.6 T  2.8 S (associated)10 42.9 T  2.8 S (costs,)6 23.5 T  2.9 S (\
and)3 15 T  2.9 S (availabil-)10 35 T 318.8 532.9 m (ity)3 8.9 T  4.5 S 
(at)2 7.5 T  4.5 S (various)7 28.8 T  4.5 S (points)6 23.9 T  4.5 S (in)2 
6.9 T  4.5 S (time.)5 19.3 T 318.8 517.9 m (Specific)8 31.3 T  6.3 S 
(tools)5 18.9 T  6.3 S (that)4 15 T  6.3 S (help)4 16.9 T  6.3 S (you)3 14.5 
T  6.4 S (define)6 24.4 T  6.4 S (the)3 12.5 T  6.4 S (environment)11 49.2 T 
318.8 507.9 m (include:)8 30.8 T f5 s 318.8 492.9 m (\267)1 5.5 T f4 s 330.8 
492.9 m (Resources)9 42.8 T  8.3 S (Tool)4 17.3 T  8.3 S (-)1 2.9 T  8.3 S (A\
llowing)8 33.1 T  8.3 S (specification)13 49.2 T  8.3 S (of)2 7.5 T  8.3 S (t\
he)3 12.5 T 330.8 482.1 m (resources)9 39.3 T  2.9 S (to)2 7.5 T  2.9 S 
(be)2 10 T  2.9 S (employed)8 38.8 T  3 S (in)2 6.9 T  3 S (performing)10 
42.6 T  3 S (the)3 12.5 T  3 S (work)4 18.8 T  3 S (and)3 15 T 330.8 472.1 m 
(their)5 17.3 T  4.5 S (attributes)10 36.8 T  4.5 S (\(e.g.,)6 20.4 T  4.5 S 
(cost\).)6 21.9 T f5 s 318.8 457.1 m (\267)1 5.5 T f4 s 330.8 457.1 m 
(User)4 18.8 T  4.7 S (Preferences)11 48.3 T  4.7 S (Tool)4 17.3 T  4.8 S (-)
1 2.9 T  4.8 S (Providing)9 37.2 T  4.8 S (the)3 12.5 T  4.8 S 
(capability)10 37.2 T  4.8 S (to)2 7.5 T 330.8 446.3 m (tailor)6 19.2 T  4.5 
S (the)3 12.5 T  4.5 S (operation)9 37.3 T  4.5 S (of)2 7.5 T  4.5 S (the)3 
12.5 T  4.5 S (product.)8 32.4 T f5 s 318.8 431.3 m (\267)1 5.5 T f4 s 330.8 
431.3 m (Projects)8 32.3 T  2.9 S (Tool)4 17.3 T  2.9 S (-)1 2.9 T  3 S (Enab\
ling)8 34.8 T  3 S (management)10 52.3 T  3 S (of)2 7.5 T  3 S (project)7 
26.8 T  3 S (data-)5 20.4 T 330.8 420.5 m (bases)5 24 T  4.5 S (as)2 9.5 T  
4.5 S (files)5 15.8 T  4.5 S (in)2 6.9 T  4.5 S (the)3 12.5 T  4.5 S (VMS)3 
19.4 T  4.5 S (environment.)12 51.7 T f6 s 318.8 405.5 m (Additional)10 39.2 
T  4.5 S (Features)8 35.3 T  4.5 S (of)2 7.5 T  4.5 S (the)3 12.5 T  4.5 S (V\
AX)3 18 T  4.5 S (Software)8 35.3 T  4.5 S (Project)7 27.8 T 318.8 395.5 m (M\
anager)7 35.3 T f4 s 318.8 380.5 m (The)3 15.4 T  4.5 S (VAX)3 18 T  4.5 S (P\
roject)7 27.8 T  4.5 S (Manager)7 35.3 T  4.5 S (further)7 25.8 T  4.5 S (pro\
vides:)9 36.3 T f5 s 318.8 365.5 m (\267)1 5.5 T f4 s 330.8 365.5 m (A)1 6 T 
 4.3 S (single)6 23.3 T  4.3 S (database)8 37 T  4.3 S (per)3 12.9 T  4.3 S (\
project)7 26.8 T  4.3 S (that)4 15 T  4.4 S (allows)6 24.7 T  4.4 S (a)1 5 T 
 4.4 S (uniform)7 29.7 T 330.8 354.7 m (view)4 17.8 T  3 S (of)2 7.5 T  3 S (\
the)3 12.5 T  3 S (project)7 26.8 T  3 S (from)4 17.8 T  3 S (all)3 8.8 T  3 
S (tools.)6 21.4 T  3 S (It)2 5 T  3 S (is)2 6.4 T  3 S (possible)8 32.8 T  
3 S (to)2 7.5 T  3 S (view)4 17.8 T 330.8 344.7 m (and)3 15 T  3.6 S (edit)4 
14.4 T  3.6 S (data)4 17.5 T  3.6 S (from)4 17.8 T  3.6 S (any)3 14.5 T  3.6 
S (tool)4 14.4 T  3.6 S (where)5 24.3 T  3.6 S (the)3 12.5 T  3.6 S (data)4 
17.5 T  3.6 S (is)2 6.4 T  3.7 S (visible)7 24.7 T 330.8 334.7 m (on)2 10 T  
4.5 S (the)3 12.5 T  4.5 S (screen)6 26.9 T  4.5 S (in)2 6.9 T  4.5 S (select\
able)10 40.3 T  4.5 S (form.)5 20.3 T f5 s 318.8 319.7 m (\267)1 5.5 T f4 s 
330.8 319.7 m (Multiple)8 30.6 T  4.6 S (concurrent)10 42.3 T  4.6 S 
(users)5 21.9 T  4.6 S (per)3 12.9 T  4.6 S (project)7 26.8 T  4.7 S (databas\
e)8 37 T  4.7 S (with)4 15.8 T 330.8 308.9 m (consistent)10 40.4 T  4.5 S (vi\
ews)5 22.3 T  4.5 S (of)2 7.5 T  4.5 S (the)3 12.5 T  4.5 S (project)7 26.8 
T  4.5 S (for)3 10.4 T  4.5 S (all)3 8.8 T  4.5 S (users.)6 24.4 T f5 s 
318.8 293.9 m (\267)1 5.5 T f4 s 330.8 293.9 m (Capability)10 39.1 T  3.8 S (\
to)2 7.5 T  3.8 S (create)6 24.9 T  3.8 S (a)1 5 T  3.8 S (new)3 16.4 T  3.8 
S (project)7 26.8 T  3.8 S (database)8 37 T  3.9 S (from)4 17.8 T  3.9 S (an)
2 10 T 330.8 283.1 m (existing)8 30.3 T  4.5 S (project)7 26.8 T  4.5 S (data\
base.)9 39.5 T f5 s 318.8 268.1 m (\267)1 5.5 T f4 s 330.8 268.1 m (Database)
8 38.4 T  4.5 S (Integrity)9 31.8 T  4.5 S (and)3 15 T  4.5 S 
(Reliability.)12 40.4 T f5 s 318.8 252.3 m (\267)1 5.5 T f4 s 330.8 252.3 m (\
Limited)7 28.7 T  2.7 S (cost)4 16.5 T  2.7 S (accounting)10 43.4 T  2.7 S (e\
ither)6 22.3 T  2.7 S (through)7 30.4 T  2.7 S (manually)8 35.7 T  2.7 S (spe\
c-)5 21.9 T 330.8 241.5 m (ified)5 16.3 T  3.2 S (estimated)9 38.8 T  3.2 S (\
cost)4 16.5 T  3.2 S (or)2 7.9 T  3.2 S (automatically)13 52.1 T  3.2 S (calc\
ulated)10 40.3 T  3.3 S (actual)6 23.9 T 330.8 231.5 m (cost)4 16.5 T  3.4 S 
(based)5 24.5 T  3.4 S (on)2 10 T  3.4 S (resource)8 34.8 T  3.4 S (units)5 
18.9 T  3.4 S (times)5 21.3 T  3.4 S (the)3 12.5 T  3.5 S (resource)8 34.8 T 
 3.5 S (unit)4 14.4 T 330.8 221.5 m (cost.)5 19 T f5 s 318.8 206.5 m (\267)1 
5.5 T f4 s 330.8 206.5 m (Roll-up)7 28.1 T  2.8 S (ability;)8 25.2 T  2.8 S (\
statistics)10 34.3 T  2.8 S (available)9 35.2 T  2.8 S (at)2 7.5 T  2.8 S (th\
e)3 12.5 T  2.8 S (element)7 31.8 T  2.9 S (level,)6 20.8 T 330.8 195.7 m (su\
ch)4 19 T  3.3 S (as)2 9.5 T  3.3 S (costs,)6 23.5 T  3.3 S (can)3 14.5 T  
3.3 S (be)2 10 T  3.3 S (rolled)6 21.7 T  3.3 S (up)2 10 T  3.4 S (to)2 7.5 
T  3.4 S (higher)6 24.8 T  3.4 S (level)5 18.3 T  3.4 S (group)5 22.9 T 
330.8 185.7 m (nodes)5 24.5 T  4.5 S (of)2 7.5 T  4.5 S (the)3 12.5 T  4.5 S 
(WBS.)4 22.9 T f5 s 318.8 170.7 m (\267)1 5.5 T f4 s 330.8 170.7 m (A)1 6 T  
3.4 S (variety)7 26.3 T  3.4 S (of)2 7.5 T  3.5 S (graphical)9 36.2 T  3.5 S 
(reports)7 27.8 T  3.5 S (and)3 15 T  3.5 S (printouts)9 34.3 T  3.5 S (inclu\
ding:)10 37.7 T 330.8 154.9 m (\320)1 9 T 342.7 154.9 m (Work)4 20.8 T  4.5 
S (Breakdown)9 44.8 T  4.5 S (Structure)9 36.3 T  4.5 S (\(WBS\))5 26.2 T 
330.8 139.9 m (\320)1 9 T 342.7 139.9 m (Precedence)10 47.9 T  4.5 S (Diagram\
)7 33.6 T 330.8 124.9 m (\320)1 9 T 342.7 124.9 m (Project)7 27.8 T  4.5 S (C\
alendar)8 36.2 T 330.8 109.9 m (\320)1 9 T 342.7 109.9 m (Gantt)5 22 T  4.5 
S (Chart)5 21.8 T 330.8 94.9 m (\320)1 9 T 342.7 94.9 m (Loading)7 31.9 T  
4.5 S (Chart)5 21.8 T 67.8 44.6 m  229.2 S f2 s (-)1 2.9 T  4.5 S (2)1 5 T  
4.5 S (-)1 2.9 T  229.2 S showpage
%%Page: 2 3
535.2 44.6 m f2 s 67.8 721 m (VAX)3 18.4 T  4.5 S (Software)8 37.7 T  4.5 S (\
Project)7 30.3 T  4.5 S (Manager,)8 39.2 T  4.5 S (Version)7 32.8 T  4.5 S (1\
.2)3 12.5 T  226.9 S (SPD)3 18.4 T  4.5 S (27.52.03)8 35 T f4 s 79.8 691.1 m 
(\320)1 9 T 91.7 691.1 m (Rate)4 18.9 T  4.5 S (Chart)5 21.8 T 79.8 676.1 m (\
\320)1 9 T 91.7 676.1 m (User)4 18.8 T  4.5 S (Formatted)9 40.7 T  4.5 S (Rep\
orts)7 31.3 T 79.8 661.1 m (\320)1 9 T 91.7 661.1 m (Schedule)8 37.4 T  4.5 
S (Report)6 26.8 T 79.8 646.1 m (\320)1 9 T 91.7 646.1 m (Cost)4 18.4 T  4.5 
S (Report)6 26.8 T 79.8 631.1 m (\320)1 9 T 91.7 631.1 m (Precedence)10 47.9 
T  4.5 S (Report)6 26.8 T 79.8 616.1 m (\320)1 9 T 91.7 616.1 m 
(Estimation)10 41.7 T  4.5 S (Project)7 27.8 T  4.5 S (Hierarchy)9 38.1 T 
79.8 601.1 m (\320)1 9 T 91.7 601.1 m (Resource)8 38.3 T  4.5 S (List)4 13.9 
T 79.8 586.1 m (\320)1 9 T 91.7 586.1 m (Current)7 29.7 T  4.5 S (contents)8 
34 T  4.5 S (of)2 7.5 T  4.5 S (entire)6 22.3 T  4.5 S (screen)6 26.9 T f2 s 
67.8 571.1 m (HARDWARE)8 52.8 T  4.5 S (REQUIREMENTS)12 71.9 T f4 s 67.8 
556.1 m (VAX,)4 20.5 T  3.1 S (MicroVAX)8 39.7 T  3.1 S (or)2 7.9 T  3.1 S (V\
AXstation)10 44.4 T  3.1 S (configuration)13 51.2 T  3.1 S (as)2 9.5 T  3.1 
S (specified)9 35.3 T 67.8 546.1 m (in)2 6.9 T  4.5 S (the)3 12.5 T  4.5 S (S\
ystem)6 29.9 T  4.5 S (Support)7 31.4 T  4.5 S (Addendum)8 43.4 T  4.5 S (\(S\
SA)4 20.9 T  4.5 S (27.52.03-x\).)12 47.8 T f2 s 67.8 531.1 m (SOFTWARE)8 51 
T  4.5 S (REQUIREMENTS*)13 75.4 T f4 s 67.8 516.1 m (For)3 13.3 T  5.7 S (sys\
tems)7 32.9 T  5.7 S (using)5 21.4 T  5.7 S (terminals:)10 38.6 T  5.7 S (\(N\
o)3 14.3 T  5.7 S (VMS)3 19.4 T  5.7 S (DECwindows)10 53 T 67.8 506.1 m (inte\
rface\))10 37.2 T f5 s 67.8 491.1 m (\267)1 5.5 T f4 s 79.8 491.1 m (VMS)3 
19.4 T  4.5 S (Operating)9 39.3 T  4.5 S (System)6 29.9 T 67.8 475.3 m 
(For)3 13.3 T  4.5 S (Workstations)12 51.7 T  4.5 S (running)7 29.8 T  4.5 S 
(VMS)3 19.4 T  4.5 S (Workstation)11 47.2 T  4.5 S (Software:)9 37.8 T f5 s 
67.8 460.3 m (\267)1 5.5 T f4 s 79.8 460.3 m (VMS)3 19.4 T  4.5 S (Operating)
9 39.3 T  4.5 S (System)6 29.9 T f5 s 67.8 444.5 m (\267)1 5.5 T f4 s 79.8 
444.5 m (VMS)3 19.4 T  4.5 S (Workstation)11 47.2 T  4.5 S (Software)8 35.3 
T 67.8 428.7 m (For)3 13.3 T  4.5 S (workstations)12 49.7 T  4.5 S 
(running)7 29.8 T  4.5 S (VMS)3 19.4 T  4.5 S (DECwindows:)11 55.5 T f5 s 
67.8 413.7 m (\267)1 5.5 T f4 s 79.8 413.7 m (VMS)3 19.4 T  4.2 S (Operating)
9 39.3 T  4.2 S (System)6 29.9 T  4.2 S (\(and)4 17.9 T  4.2 S (the)3 12.5 T 
 4.3 S (necessary)9 40.9 T  4.3 S (compo-)6 29.8 T 79.8 402.9 m (nents)5 22 
T  4.5 S (of)2 7.5 T  4.5 S (VMS)3 19.4 T  4.5 S (DECwindows\))11 55.9 T 
67.8 387.9 m (VAX)3 18 T  3.6 S (Software)8 35.3 T  3.6 S (Project)7 27.8 T  
3.6 S (Manager)7 35.3 T  3.6 S (runs)4 17.4 T  3.6 S (on)2 10 T  3.6 S (a)1 
5 T  3.7 S (DECwindows)10 53 T 67.8 377.9 m (VMS)3 19.4 T  2.8 S (workstation\
)11 45.2 T  2.8 S (using)5 21.4 T  2.8 S (the)3 12.5 T  2.8 S (DECwindows)10 
53 T  2.8 S (terminal)8 31.6 T  2.8 S (emula-)6 27.2 T 67.8 367.9 m (tor,)4 
12.9 T  4.5 S (not)3 12.5 T  4.5 S (as)2 9.5 T  4.5 S (a)1 5 T  4.5 S (fully-\
compliant)15 56.9 T  4.5 S (DECwindows)10 53 T  4.5 S (application.)12 45.2 
T 67.8 352.9 m (*)1 3.5 T 79.8 352.9 m (Refer)5 21.8 T  3.3 S (to)2 7.5 T  
3.3 S (the)3 12.5 T  3.3 S (System)6 29.9 T  3.3 S (Support)7 31.4 T  3.3 S (\
Addendum)8 43.4 T  3.3 S (for)3 10.4 T  3.4 S (availabil-)10 35 T 79.8 342.9 
m (ity)3 8.9 T  3.3 S (and)3 15 T  3.3 S (required)8 32.7 T  3.3 S (versions)
8 33.3 T  3.3 S (of)2 7.5 T  3.3 S (optional/prerequisite)21 80.4 T  3.4 S (s\
oft-)5 17.4 T 79.8 332.9 m (ware)4 19.3 T  4.5 S (\(SSA)4 20.9 T  4.5 S (27.5\
2.03-x\).)12 47.8 T f2 s 318.8 691.1 m (ORDERING)8 48.1 T  4.5 S (INFORMATION\
)11 62.8 T f4 s 318.8 676.1 m (Software)8 35.3 T  4.5 S (Licenses:)9 37.9 T  
4.5 S (QL-A82A*-**)11 50.3 T 318.8 666.1 m (Software)8 35.3 T  4.5 S (Media:)
6 26.8 T  4.5 S (QA-A82A*-**)11 51.3 T 318.8 656.1 m (Software)8 35.3 T  4.5 
S (Documentation:)14 62.7 T  4.5 S (QA-A82AA-GZ)11 59.2 T 318.8 646.1 m (Soft\
ware)8 35.3 T  4.5 S (Product)7 30.9 T  4.5 S (Services:)9 36.8 T  4.5 S (QT-\
A82A*-**)11 50.7 T 318.8 631.1 m (*)1 3.5 T 330.8 631.1 m (Denotes)7 33.4 T  
4.3 S (variant)7 26.8 T  4.3 S (fields.)7 23.3 T  4.3 S (For)3 13.3 T  4.3 S 
(additional)10 38.2 T  4.4 S (information)11 44.1 T  4.4 S (on)2 10 T 330.8 
621.1 m (available)9 35.2 T  4.6 S (licenses,)9 34.8 T  4.6 S (services)8 
32.8 T  4.6 S (and)3 15 T  4.6 S (media,)6 26.8 T  4.6 S (refer)5 18.3 T  
4.6 S (to)2 7.5 T  4.6 S (the)3 12.5 T 330.8 611.1 m (appropriate)11 45.2 T  
4.5 S (price)5 19.3 T  4.5 S (book.)5 22 T f2 s 318.8 596.1 m (SOFTWARE)8 51 
T  4.5 S (LICENSING)9 48.6 T f4 s 318.8 581.1 m (This)4 16.8 T  3.2 S (softwa\
re)8 33.8 T  3.3 S (is)2 6.4 T  3.3 S (furnished)9 36.8 T  3.3 S (under)5 
22.9 T  3.3 S (the)3 12.5 T  3.3 S (licensing)9 34.7 T  3.3 S (provisions)10 
40.2 T 318.8 571.1 m (of)2 7.5 T  3.3 S (DIGITAL's)9 41.2 T  3.3 S (Standard)
8 36.4 T  3.3 S (Terms)5 25.2 T  3.4 S (and)3 15 T  3.4 S (Conditions.)11 
44.7 T  3.4 S (For)3 13.3 T  3.4 S (more)4 20.3 T 318.8 561.1 m (information)
11 44.1 T  2.5 S (about)5 22.5 T  2.5 S (DIGITAL's)9 41.2 T  2.5 S (licensing\
)9 34.7 T  2.5 S (terms)5 22.3 T  2.5 S (and)3 15 T  2.6 S (policies,)9 32.2 
T 318.8 551.1 m (contact)7 29 T  4.5 S (your)4 17.4 T  4.5 S (local)5 18.3 T 
 4.5 S (DIGITAL)7 34.8 T  4.5 S (office.)7 23.9 T f2 s 318.8 536.1 m (LICENSE\
)7 38.7 T  4.5 S (MANAGEMENT)10 64.8 T  4.5 S (FACILITY)8 40 T  4.5 S (SUPPOR\
T)7 43.2 T f4 s 318.8 521.1 m (This)4 16.8 T  2.6 S (layered)7 29.3 T  2.6 S 
(product)7 29.9 T  2.6 S (supports)8 34.4 T  2.7 S (the)3 12.5 T  2.7 S (VMS)
3 19.4 T  2.7 S (License)7 30.9 T  2.7 S (Manage-)7 35.3 T 318.8 511.1 m (men\
t)4 19.9 T  4.5 S (Facility.)9 30.1 T 318.8 496.1 m (License)7 30.9 T  7.4 S 
(units)5 18.9 T  7.4 S (for)3 10.4 T  7.4 S (this)4 13.9 T  7.4 S (product)7 
29.9 T  7.4 S (are)3 12.9 T  7.4 S (allocated)9 35.8 T  7.5 S (on)2 10 T  
7.5 S (a)1 5 T 318.8 486.1 m (CPU-capacity)12 54.6 T  2.5 S (basis.)6 23.4 T 
 2.5 S (For)3 13.3 T  2.6 S (more)4 20.3 T  2.6 S (information)11 44.1 T  
2.6 S (on)2 10 T  2.6 S (the)3 12.5 T  2.6 S (License)7 30.9 T 318.8 476.1 m 
(Management)10 52.3 T  2.5 S (Facility,)9 30.1 T  2.5 S (refer)5 18.3 T  2.5 
S (to)2 7.5 T  2.5 S (the)3 12.5 T  2.6 S (VMS)3 19.4 T  2.6 S (Operating)9 
39.3 T  2.6 S (System)6 29.9 T 318.8 466.1 m (Software)8 35.3 T  2.6 S (Produ\
ct)7 30.9 T  2.6 S (Description)11 44.6 T  2.6 S (\(SPD)4 21.3 T  2.6 S (25.0\
1.xx\))9 36.9 T  2.6 S (or)2 7.9 T  2.6 S (the)3 12.5 T  2.7 S (VMS)3 19.4 T 
318.8 456.1 m (Operating)9 39.3 T  4.5 S (System)6 29.9 T  4.5 S (documentati\
on)13 58.8 T  4.5 S (set.)4 14.5 T 318.8 441.1 m (For)3 13.3 T  5.2 S 
(more)4 20.3 T  5.2 S (information)11 44.1 T  5.2 S (on)2 10 T  5.2 S (DIGITA\
L's)9 41.2 T  5.2 S (licensing)9 34.7 T  5.3 S (policies,)9 32.2 T 318.8 
431.1 m (contact)7 29 T  4.5 S (your)4 17.4 T  4.5 S (local)5 18.3 T  4.5 S (\
DIGITAL)7 34.8 T  4.5 S (office.)7 23.9 T f2 s 318.8 416.1 m (SOFTWARE)8 51 
T  4.5 S (PRODUCT)7 44 T  4.5 S (SERVICES)8 45.3 T f4 s 318.8 401.1 m (A)1 6 
T  5.7 S (variety)7 26.3 T  5.7 S (of)2 7.5 T  5.7 S (service)7 28.3 T  5.7 
S (options)7 28.9 T  5.7 S (are)3 12.9 T  5.8 S (available.)10 37.7 T  5.8 S 
(For)3 13.3 T  5.8 S (more)4 20.3 T 318.8 391.1 m (information)11 44.1 T  
4.5 S (on)2 10 T  4.5 S (these)5 22 T  4.6 S (or)2 7.9 T  4.6 S (other)5 
20.4 T  4.6 S (services,)9 35.3 T  4.6 S (please)6 26.4 T  4.6 S (contact)7 
29 T 318.8 381.1 m (your)4 17.4 T  4.5 S (local)5 18.3 T  4.5 S (DIGITAL)7 
34.8 T  4.5 S (office.)7 23.9 T f2 s 318.8 366.1 m (SOFTWARE)8 51 T  4.5 S (W\
ARRANTY)8 51.8 T f4 s 318.8 351.1 m (Warranty)8 36.2 T  7.5 S (for)3 10.4 T  
7.5 S (this)4 13.9 T  7.5 S (software)8 33.8 T  7.5 S (product)7 29.9 T  7.5 
S (is)2 6.4 T  7.6 S (provided)8 34.3 T  7.6 S (by)2 9.5 T 318.8 341.1 m (DIG\
ITAL)7 34.8 T  3.7 S (with)4 15.8 T  3.7 S (the)3 12.5 T  3.8 S (purchase)8 
36.9 T  3.8 S (of)2 7.5 T  3.8 S (a)1 5 T  3.8 S (license)7 27.8 T  3.8 S (fo\
r)3 10.4 T  3.8 S (the)3 12.5 T  3.8 S (product)7 29.9 T 318.8 331.1 m (as)2 
9.5 T  4 S (defined)7 29.4 T  4 S (in)2 6.9 T  4 S (the)3 12.5 T  4.1 S (Soft\
ware)8 35.3 T  4.1 S (Warranty)8 36.2 T  4.1 S (Addendum)8 43.4 T  4.1 S (of)
2 7.5 T  4.1 S (this)4 13.9 T 318.8 321.1 m (SPD.)4 20.9 T 67.8 44.6 m  
229.2 S f2 s (-)1 2.9 T  4.5 S (3)1 5 T  4.5 S (-)1 2.9 T  229.2 S showpage
535.2 44.6 m  restore
%%Pages: 3
