%!PS-Adobe-1.0
%%Creator: bob (Robert Rivera)
%%Title: 25C601.pos
%%CreationDate: Tue Jul 11 15:25:56 1989
%%Pages: (atend)
%%DocumentFonts: (atend)
%%EndComments
save
/FF {findfont} def
/SF {scalefont} def
/GS {gsave} def
/GR {grestore} def
/MF {makefont} def
/S {0 rmoveto} def
/L {0 exch rmoveto} def
/R {setlinewidth 0 rlineto stroke} def
/m {moveto} def
/l {lineto} def
/s {setfont} def
/revflag 0 def
/adjustdict 6 dict def
/setclip {
    newpath
    /endy exch def
    /endx exch def
    /starty exch def
    /startx exch def
    startx starty moveto
    endx starty lineto
    endx endy lineto
    startx endy lineto
    closepath
} def
/bbox {
    /width exch def
    currentpoint
    /cury exch def
    /curx exch def
    newpath
    curx cury m
    0 above rlineto
    width 0 rlineto
    0 above below add neg rlineto
    width neg 0 rlineto
    closepath fill curx cury m
} def
/T {
    adjustdict begin
    /adjust exch def
    /charct exch def
    /curstring exch def
    1 revflag eq {adjust bbox 1 setgray} if
    adjust curstring stringwidth pop sub charct div 0 curstring ashow
    1 revflag eq {0 setgray} if
    end
} def
/doa4tray{
    /brandname 21 string def
    statusdict begin brandname printername pop statusdict end
    (Dataproducts LZR 2665) brandname eq
        {statusdict begin a4tray statusdict end} if
} def
 
/leaderdict 10 dict def
/F {
    leaderdict begin
        /ldrstring exch def
        /adjust exch def
        /hole exch def
        1 revflag eq {hole bbox 1 setgray} if
        /holex currentpoint pop def
        /endgap
            holex hole add
            holex hole add ldrstring stringwidth pop adjust add div truncate
            ldrstring stringwidth pop adjust add mul
            sub
        def
        /hole hole endgap sub def
        /frontgap
            hole
            hole ldrstring stringwidth pop adjust add div truncate
            ldrstring stringwidth pop adjust add mul
            sub
        def
        /hole hole frontgap sub def
        /repct
            hole ldrstring stringwidth pop adjust add div round cvi def
        frontgap 0 rmoveto
        repct {adjust 0 ldrstring ashow} repeat
        endgap 0 rmoveto
        1 revflag eq {0 setgray} if
    end
} def
%%Page: 0 1
/f1 {/Helvetica FF 17.9 SF} def
f1 s 68.8 752.1 m (Software)8 70.2 T 68.8 734.2 m (Product)7 61.3 T 68.8 
716.3 m (Description)11 88.9 T 68.8 700.3 m -1.9 L GS 476.3 4 R GR  476.3 S 
1.9 L /f2 {/Helvetica-Bold FF 9 SF} def
f2 s 68.8 680.1 m (PRODUCT)7 44 T  4.5 S (NAME:)5 29.1 T /f3 
{/Helvetica-Bold FF 12 SF} def
f3 s 152.4 678.1 m (DECnet/SNA)10 71.5 T  6 S (Gateway)7 48.9 T f3 s 152.4 
666.1 m (for)3 15.8 T  6 S (Synchronous)11 76.2 T  6 S (Transport,)10 58.8 T 
 4.5 S f2 s (Version)7 32.8 T  4.5 S (1.1)3 12.5 T 485.8 680.1 m (SPD)3 18.4 
T  4.5 S (25.C6.01)8 36.4 T 67.9 643.1 m (DESCRIPTION)11 61 T /f4 
{/Helvetica FF 9 SF} def
f4 s 67.9 628.1 m (DECnet/SNA)10 52.2 T  9.6 S (Gateway)7 35.4 T  9.6 S (for)
3 10.4 T  9.6 S (Synchronous)11 52.4 T  9.7 S (Transport)9 38.2 T 67.9 618.1 
m (\(DECnet/SNA)11 55.1 T  9.2 S (Gateway-ST\))11 52.6 T  9.2 S (is)2 6.4 T  
9.2 S (a)1 5 T  9.2 S (member)6 32.7 T  9.2 S (of)2 7.5 T  9.3 S (the)3 12.5 
T 67.9 608.1 m (DECnet/SNA)10 52.2 T  4.4 S (Gateway)7 35.4 T  4.4 S (product\
)7 29.9 T  4.4 S (family.)7 25.7 T  4.4 S (This)4 16.8 T  4.4 S (family)6 
23.2 T  4.5 S (con-)4 17.4 T 67.9 598.1 m (sists)5 17.9 T  3 S (of)2 7.5 T  
3 S (hardware)8 37.2 T  3 S (and)3 15 T  3 S (software)8 33.8 T  3 S (product\
s)8 34.4 T  3 S (that)4 15 T  3.1 S (allow)5 20.2 T  3.1 S (users)5 21.9 T 
67.9 588.1 m (to)2 7.5 T  8.4 S (bi-directionally)16 56.8 T  8.4 S (exchange)
8 39 T  8.5 S (information)11 44.1 T  8.5 S (and)3 15 T  8.5 S (share)5 22.4 
T 67.9 578.1 m (resources)9 39.3 T  2.8 S (between)7 33.9 T  2.8 S (suitably)
8 30.3 T  2.8 S (configured)10 41.8 T  2.8 S (DIGITAL)7 34.8 T  2.9 S (system\
s)7 32.9 T 67.9 568.1 m (in)2 6.9 T  3.7 S (a)1 5 T  3.7 S (DECnet)6 31.3 T  
3.8 S (environment)11 49.2 T  3.8 S (and)3 15 T  3.8 S (IBM)3 15.9 T /f5 
{/Symbol FF 9 SF} def
f5 s (\342)1 7.1 T  3.8 S f4 s (systems)7 32.9 T  3.8 S (in)2 6.9 T  3.8 S (a\
)1 5 T  3.8 S (Sys-)4 17.9 T 67.9 558.1 m (tems)4 19.4 T  4.5 S (Network)7 
32.7 T  4.5 S (Architecture)12 47.7 T  4.5 S (\(SNA\))5 24.2 T  4.5 S (enviro\
nment.)12 51.7 T 67.9 543.1 m (Users)5 23.3 T  4.6 S (on)2 10 T  4.6 S 
(one)3 15 T  4.6 S (or)2 7.9 T  4.7 S (more)4 20.3 T  4.7 S (DIGITAL)7 34.8 
T  4.7 S (systems)7 32.9 T  4.7 S (can)3 14.5 T  4.7 S (simulta-)8 31.1 T 
67.9 533.1 m (neously)7 30.9 T  3.3 S (perform)7 30.7 T  3.3 S (functions)9 
35.9 T  3.4 S (such)4 19 T  3.4 S (as)2 9.5 T  3.4 S (accessing)9 39.9 T  
3.4 S (IBM)3 15.9 T  3.4 S (appli-)6 21.7 T 67.9 523.1 m (cation)6 23.9 T  5 
S (programs)8 37.7 T  5 S (or)2 7.9 T  5 S (other)5 20.4 T  5.1 S (system)6 
28.4 T  5.1 S (resources,)10 41.8 T  5.1 S (act)3 12 T  5.1 S (as)2 9.5 T  
5.1 S (a)1 5 T 67.9 513.1 m (3270)4 20 T  6.3 S (display)7 27.8 T  6.3 S (sta\
tion,)8 28.9 T  6.3 S (perform)7 30.7 T  6.3 S (data)4 17.5 T  6.4 S (transfe\
r)8 30.3 T  6.4 S (between)7 33.9 T 67.9 503.1 m (DIGITAL)7 34.8 T  2.8 S (an\
d)3 15 T  2.8 S (IBM)3 15.9 T  2.9 S (file)4 11.3 T  2.9 S (systems,)8 35.4 
T  2.9 S (exchange)8 39 T  2.9 S (electronic)10 38.2 T  2.9 S (doc-)4 17.4 T 
67.9 493.1 m (uments)6 29.4 T  4.3 S (and)3 15 T  4.3 S (mail)4 16.2 T  4.4 
S (messages,)9 43.4 T  4.4 S (submit)6 26.3 T  4.4 S (jobs)4 16.4 T  4.4 S (t\
o)2 7.5 T  4.4 S (IBM)3 15.9 T  4.4 S (batch)5 22 T 67.9 483.1 m (subsystems)
10 47.4 T  3.8 S (acting)6 23.9 T  3.8 S (as)2 9.5 T  3.8 S (a)1 5 T  3.8 S (\
Remote)6 31.3 T  3.9 S (Job)3 14.5 T  3.9 S (Entry)5 20.9 T  3.9 S (workstati\
on,)12 47.7 T 67.9 473.1 m (and)3 15 T  4 S (implement)9 41.1 T  4 S (distrib\
uted,)12 43.7 T  4 S (task-to-task,)13 48.8 T  4 S (application)11 42.7 T  4 
S (pro-)4 15.8 T 67.9 463.1 m (grams)5 24.8 T  4.5 S (that)4 15 T  4.5 S (run\
)3 12.9 T  4.5 S (between)7 33.9 T  4.5 S (DIGITAL)7 34.8 T  4.5 S (and)3 15 
T  4.5 S (IBM)3 15.9 T  4.5 S (systems.)8 35.4 T 67.9 448.1 m (The)3 15.4 T  
4.7 S (DECnet/SNA)10 52.2 T  4.7 S (product)7 29.9 T  4.7 S (set)3 12 T  4.7 
S (provides)8 33.8 T  4.7 S (a)1 5 T  4.7 S (system)6 28.4 T  4.8 S (con-)4 
17.4 T 67.9 438.1 m (necting)7 28.9 T  3.8 S (DECnet)6 31.3 T  3.8 S (and)3 
15 T  3.8 S (SNA)3 18.4 T  3.9 S (networks)8 35.8 T  3.9 S (which)5 22.8 T  
3.9 S (can)3 14.5 T  3.9 S (be)2 10 T  3.9 S (used)4 19.5 T 67.9 428.1 m (by)
2 9.5 T  4 S (a)1 5 T  4 S (wide)4 18.3 T  4.1 S (variety)7 26.3 T  4.1 S (of\
)2 7.5 T  4.1 S (DIGITAL)7 34.8 T  4.1 S (supplied)8 33.3 T  4.1 S (access)6 
28 T  4.1 S (routines)8 31.8 T 67.9 418.1 m (running)7 29.8 T  3.8 S 
(under)5 22.9 T  3.9 S (VMS,)4 21.9 T  3.9 S (MS)2 13.4 T f5 s (\344)1 7 T 
f4 s (-DOS,)5 24.8 T  3.9 S (and)3 15 T  3.9 S (ULTRIX)6 31.7 T  3.9 S (opera\
ting)9 37.3 T 67.9 408.1 m (environments.)13 56.2 T  6.3 S (DECnet/SNA)10 
52.2 T  6.3 S (Gateway-ST)10 49.7 T  6.3 S (is)2 6.4 T  6.3 S (managed)7 
37.4 T 67.9 398.1 m (and)3 15 T  4.9 S (configured)10 41.8 T  4.9 S (using)5 
21.4 T  4.9 S (the)3 12.5 T  4.9 S (DECnet/SNA)10 52.2 T  4.9 S (VMS)3 19.4 
T  4.9 S (Gateway)7 35.4 T 67.9 388.1 m (Management)10 52.3 T  3 S (V2.0)4 
18.5 T  3 S (product.)8 32.4 T  3 S (For)3 13.3 T  3.1 S (additional)10 38.2 
T  3.1 S (information)11 44.1 T  3.1 S (on)2 10 T 67.9 378.1 m (the)3 12.5 T 
 2.6 S (various)7 28.8 T  2.6 S (access)6 28 T  2.7 S (routines)8 31.8 T  
2.7 S (and)3 15 T  2.7 S (their)5 17.3 T  2.7 S (capabilities,)13 46.6 T  
2.7 S (consult)7 28.4 T 67.9 368.1 m (the)3 12.5 T  3.1 S (OPTIONAL)8 45.3 T 
 3.1 S (SOFTWARE)8 50.6 T  3.1 S (section)7 28.4 T  3.2 S (in)2 6.9 T  3.2 S 
(the)3 12.5 T  3.2 S (System)6 29.9 T  3.2 S (Sup-)4 18.9 T 67.9 358.1 m (por\
t)4 15.4 T  4.5 S (Addendum.)9 45.9 T 67.9 343.1 m (DECnet/SNA)10 52.2 T  
6.7 S (Gateway-ST)10 49.7 T  6.8 S (works)5 23.3 T  6.8 S (in)2 6.9 T  6.8 S 
(conjunction)11 45.3 T  6.8 S (with)4 15.8 T 67.9 333.1 m (either)6 22.3 T  
3.7 S (of)2 7.5 T  3.7 S (the)3 12.5 T  3.7 S (DEC)3 18.8 T  3.7 S (MicroServ\
er)11 48 T  3.8 S (hardware)8 37.2 T  3.8 S (platforms.)10 39.2 T  3.8 S (The\
)3 15.4 T 67.9 323.1 m (DEC)3 18.8 T  3.8 S (MicroServer)11 48 T  3.8 S (\(DE\
MSA-S*\))10 50 T  3.9 S (provides)8 33.8 T  3.9 S (connectivity)12 46.8 T  
3.9 S (for)3 10.4 T 67.9 313.1 m (up)2 10 T  11.2 S (to)2 7.5 T  11.2 S (four\
)4 15.4 T  11.2 S (synchronous)11 50.9 T  11.2 S (lines)5 18.3 T  11.3 S (and\
)3 15 T  11.3 S (the)3 12.5 T  11.3 S (DEC)3 18.8 T 67.9 303.1 m (MicroServer\
-SP)14 62.9 T  3.5 S (\(DEMSB-S*\))10 50 T  3.5 S (provides)8 33.8 T  3.6 S (\
a)1 5 T  3.6 S (single)6 23.3 T  3.6 S (synchro-)8 34.3 T 67.9 293.1 m (nous)
4 19.5 T  2.7 S (line)4 13.8 T  2.7 S (connection.)11 45.9 T  2.7 S (For)3 
13.3 T  2.7 S (purposes)8 36.9 T  2.7 S (of)2 7.5 T  2.8 S (this)4 13.9 T  
2.8 S (document,)9 41.9 T  2.8 S (the)3 12.5 T 67.9 283.1 m (term)4 17.8 T  
3.6 S (``DEC)5 22.6 T  3.6 S (MicroServer'')13 51.8 T  3.6 S (is)2 6.4 T  
3.6 S (used)4 19.5 T  3.6 S (to)2 7.5 T  3.6 S (refer)5 18.3 T  3.6 S (to)2 
7.5 T  3.7 S (either)6 22.3 T  3.7 S (hard-)5 20.8 T 67.9 273.1 m (ware)4 
19.3 T  4.5 S (device,)7 28.4 T  4.5 S (unless)6 25.9 T  4.5 S (specifically)
12 43.1 T  4.5 S (stated)6 24.5 T  4.5 S (otherwise.)10 40.7 T 67.9 258.1 m (\
DECnet/SNA)10 52.2 T  4.9 S (Gateway-ST)10 49.7 T  4.9 S (is)2 6.4 T  4.9 S (\
part)4 15.4 T  4.9 S (of)2 7.5 T  5 S (both)4 17.5 T  5 S (the)3 12.5 T  5 S 
(DECnet)6 31.3 T 67.9 248.1 m (and)3 15 T  4.6 S (the)3 12.5 T  4.6 S (SNA)3 
18.4 T  4.6 S (networks.)9 38.3 T  4.7 S (Architecturally,)16 58.5 T  4.7 S (\
it)2 4.4 T  4.7 S (is)2 6.4 T  4.7 S (a)1 5 T  4.7 S (DECnet)6 31.3 T 67.9 
238.1 m (Phase)5 25.5 T  3 S (IV)2 8.5 T  3 S (end)3 15 T  3 S (node)4 20 T  
3 S (to)2 7.5 T  3 S (DECnet)6 31.3 T  3 S (and)3 15 T  3 S (a)1 5 T  3.1 S (\
Physical)8 33.3 T  3.1 S (Unit)4 15.8 T  3.1 S (Type)4 19.9 T 67.9 228.1 m (2\
.0)3 12.5 T  3.9 S (to)2 7.5 T  3.9 S (SNA.)4 20.9 T  3.9 S (Its)3 9.5 T  
3.9 S (purpose)7 32.4 T  3.9 S (is)2 6.4 T  3.9 S (to)2 7.5 T  3.9 S (provide\
)7 29.3 T  4 S (bi-directional)14 50.4 T  4 S (net-)4 15.4 T 67.9 218.1 m (wo\
rk)4 18.8 T  4 S (access)6 28 T  4 S (between)7 33.9 T  4 S (DECnet)6 31.3 T 
 4 S (and)3 15 T  4 S (SNA)3 18.4 T  4 S (networks.)9 38.3 T  4 S (The)3 
15.4 T 67.9 208.1 m (DEC)3 18.8 T  4.9 S (MicroServer)11 48 T  5 S (provides)
8 33.8 T  5 S (physical)8 32.3 T  5 S (connectivity)12 46.8 T  5 S (to)2 7.5 
T  5 S (an)2 10 T /f6 {/Symbol FF 7 SF} def
f6 s 67.9 171.5 m (\342)1 5.5 T /f7 {/Helvetica FF 7 SF} def
f7 s (IBM)3 12.3 T  3.5 S (is)2 5 T  3.5 S (a)1 3.8 T  3.5 S (registered)10 
30.5 T  3.5 S (trademark)9 31 T  3.5 S (of)2 5.7 T  3.5 S (IBM)3 12.3 T  3.5 
S (Corporation)11 35.8 T f6 s 67.9 160.5 m (\344)1 5.5 T f7 s (MS)2 10.4 T  
3.5 S (is)2 5 T  3.5 S (a)1 3.8 T  3.5 S (trademark)9 31 T  3.5 S (of)2 5.7 
T  3.5 S (Microsoft)9 28 T  3.5 S (Corporation)11 35.8 T f4 s 318.9 643.1 m (\
Ethernet)8 33.9 T  2.9 S (Local)5 21.4 T  2.9 S (Area)4 18.9 T  2.9 S (Networ\
k)7 32.7 T  2.9 S (and)3 15 T  3 S (when)4 21.4 T  3 S (used)4 19.5 T  3 S (i\
n)2 6.9 T  3 S (conjunc-)8 33.8 T 318.9 633.1 m (tion)4 14.4 T  3.4 S 
(with)4 15.8 T  3.4 S (DECnet/SNA)10 52.2 T  3.4 S (Gateway-ST)10 49.7 T  
3.4 S (software,)9 36.3 T  3.4 S (it)2 4.4 T  3.5 S (provides)8 33.8 T 318.9 
623.1 m (SNA)3 18.4 T  3.4 S (connectivity)12 46.8 T  3.4 S (to)2 7.5 T  3.5 
S (any)3 14.5 T  3.5 S (Phase)5 25.5 T  3.5 S (IV)2 8.5 T  3.5 S (\(or)3 
10.8 T  3.5 S (Phase)5 25.5 T  3.5 S (IV+\))4 16.6 T  3.5 S (DEC-)4 21.7 T 
318.9 613.1 m (net)3 12.5 T  4.5 S (system)6 28.4 T  4.5 S (in)2 6.9 T  4.5 
S (the)3 12.5 T  4.5 S (DECnet)6 31.3 T  4.5 S (network.)8 33.8 T 318.9 
598.1 m (This)4 16.8 T  4.7 S (product)7 29.9 T  4.7 S (can)3 14.5 T  4.7 S (\
be)2 10 T  4.8 S (used)4 19.5 T  4.8 S (in)2 6.9 T  4.8 S (networks)8 35.8 T 
 4.8 S (currently)9 34.2 T  4.8 S (using)5 21.4 T 318.9 588.1 m (other)5 
20.4 T  5.7 S (DECnet/SNA)10 52.2 T  5.7 S (Gateway)7 35.4 T  5.7 S (systems)
7 32.9 T  5.7 S (and)3 15 T  5.7 S (can)3 14.5 T  5.8 S (share)5 22.4 T 
318.9 578.1 m (access)6 28 T  2.6 S (routines,)9 34.3 T  2.6 S (Ethernet)8 
33.9 T  2.6 S (LANs,)5 24.4 T  2.6 S (and)3 15 T  2.6 S (load)4 16.9 T  2.6 
S (host)4 17 T  2.7 S (resources)9 39.3 T 318.9 568.1 m (with)4 15.8 T  4.5 
S (those)5 22 T  4.5 S (systems.)8 35.4 T 318.9 553.1 m (The)3 15.4 T  6.3 S 
(DECnet/SNA)10 52.2 T  6.3 S (Gateway-ST)10 49.7 T  6.3 S (software)8 33.8 T 
 6.3 S (is)2 6.4 T  6.3 S (down-line)9 38.1 T 318.9 543.1 m (loaded)6 26.9 T 
 5.4 S (into)4 14.4 T  5.4 S (the)3 12.5 T  5.4 S (DEC)3 18.8 T  5.4 S (Micro\
Server.)12 50.5 T  5.4 S (DECnet/SNA)10 52.2 T  5.4 S (VMS)3 19.4 T 318.9 
533.1 m (Gateway)7 35.4 T  3.8 S (Management)10 52.3 T  3.9 S (software)8 
33.8 T  3.9 S (is)2 6.4 T  3.9 S (also)4 16.4 T  3.9 S (required)8 32.7 T  
3.9 S (for)3 10.4 T  3.9 S (the)3 12.5 T 318.9 523.1 m (VMS)3 19.4 T  4.6 S (\
node)4 20 T  4.6 S (in)2 6.9 T  4.6 S (the)3 12.5 T  4.6 S (Ethernet)8 33.9 
T  4.6 S (Local)5 21.4 T  4.7 S (Area)4 18.9 T  4.7 S (Network)7 32.7 T  4.7 
S (desig-)6 24.3 T 318.9 513.1 m (nated)5 22.5 T  4.8 S (as)2 9.5 T  4.8 S (t\
he)3 12.5 T  4.8 S (load)4 16.9 T  4.8 S (host)4 17 T  4.9 S (for)3 10.4 T  
4.9 S (DECnet/SNA)10 52.2 T  4.9 S (Gateway-ST.)11 52.2 T 318.9 503.1 m (Othe\
r)5 22.4 T  3.6 S (DECnet)6 31.3 T  3.6 S (systems)7 32.9 T  3.6 S 
(wishing)7 29.7 T  3.6 S (access)6 28 T  3.6 S (to)2 7.5 T  3.6 S (the)3 
12.5 T  3.7 S (SNA)3 18.4 T  3.7 S (net-)4 15.4 T 318.9 493.1 m (work)4 18.8 
T  2.9 S (through)7 30.4 T  2.9 S (the)3 12.5 T  2.9 S (DEC)3 18.8 T  2.9 S (\
MicroServer)11 48 T  2.9 S (should)6 26.4 T  2.9 S (be)2 10 T  3 S (configure\
d)10 41.8 T 318.9 483.1 m (with)4 15.8 T  4.5 S (the)3 12.5 T  4.5 S (appropr\
iate)11 45.2 T  4.5 S (DECnet/SNA)10 52.2 T  4.5 S (access)6 28 T  4.5 S (rou\
tines.)9 34.3 T 318.9 468.1 m (DECnet/SNA)10 52.2 T  3.9 S (Gateway-ST)10 
49.7 T  3.9 S (V1.1)4 18.5 T  3.9 S (supports)8 34.4 T  3.9 S (SNA)3 18.4 T  
4 S (synchro-)8 34.3 T 318.9 458.1 m (nous)4 19.5 T  5.9 S 
(communications)14 64.6 T  5.9 S (using)5 21.4 T  5.9 S (the)3 12.5 T  5.9 S 
(SDLC)4 23.8 T  6 S (protocol.)9 34.3 T  6 S (The)3 15.4 T 318.9 448.1 m (num\
ber)6 30.3 T  2.8 S (of)2 7.5 T  2.8 S (links)5 17.8 T  2.9 S (supported)9 
39.9 T  2.9 S (depends)7 34.5 T  2.9 S (on)2 10 T  2.9 S (the)3 12.5 T  2.9 
S (hardware)8 37.2 T  2.9 S (unit)4 14.4 T 318.9 438.1 m (being)5 21.9 T  
3.5 S (used)4 19.5 T  3.5 S (\(DEC)4 21.7 T  3.5 S (MicroServer)11 48 T  3.5 
S (or)2 7.9 T  3.5 S (DEC)3 18.8 T  3.5 S (MicroServer-SP\),)16 68.3 T 318.9 
428.1 m (line)4 13.8 T  3.4 S (speeds)6 29 T  3.4 S (required)8 32.7 T  3.4 
S (by)2 9.5 T  3.5 S (the)3 12.5 T  3.5 S (customer,)9 39.3 T  3.5 S (and)3 
15 T  3.5 S (the)3 12.5 T  3.5 S (electrical)10 35.1 T 318.9 418.1 m (interfa\
ce)9 34.3 T  4.3 S (used.)5 22 T  4.3 S (Table)5 22.3 T  4.3 S (1)1 5 T  4.3 
S (shows)5 25.4 T  4.3 S (the)3 12.5 T  4.3 S (configuration)13 51.2 T  4.4 
S (matrix)6 24.2 T 318.9 408.1 m (for)3 10.4 T  4.5 S (connecting)10 43.4 T  
4.5 S (to)2 7.5 T  4.5 S (the)3 12.5 T  4.5 S (SNA)3 18.4 T  4.5 S (network:)
8 33.8 T f2 s 416 393.1 m (Table)5 23.3 T  4.5 S (1)1 5 T 339.3 383.1 m (Numb\
er)6 33.7 T  4.5 S (Of)2 9.9 T  4.5 S (Synchronous)11 56.9 T  4.5 S (Lines)5 
23.3 T  4.5 S (Supported)9 44.4 T 406 368.1 m (Maximum)7 41.3 T  4.5 S (Line)
4 18.3 T  4.5 S (Speed)5 26.8 T  4.5 S (\(Kbps\))6 28 T f4 s 319.8 353.1 m (E\
lectrical)10 36.1 T 319.8 343.1 m (Interface)9 34.9 T 404.9 353.1 m (19.2)4 
17.5 T 439.9 353.1 m (56/64)5 22.5 T 481.2 353.1 m (128)3 15 T 518.8 353.1 m 
(256)3 15 T 319.8 328.1 m (DEC)3 18.8 T  4.5 S (MicroServer)11 48 T 319.8 
313.1 m (RS232-D/V.24)12 57.7 T 411.1 313.1 m (4)1 5 T 449.7 313.1 m (-)1 
2.9 T 487.2 313.1 m (-)1 2.9 T 524.8 313.1 m (-)1 2.9 T 319.8 303.1 m 
(V.35)4 18.5 T 411.1 303.1 m (4)1 5 T 448.6 303.1 m (4)1 5 T 486.2 303.1 m (2\
)1 5 T 523.8 303.1 m (1)1 5 T 319.8 288.1 m (DEC)3 18.8 T 319.8 278.1 m (Micr\
oServer-SP)14 62.9 T 319.8 263.1 m (RS232-D/V.24)12 57.7 T 411.1 263.1 m 
(1)1 5 T 449.7 263.1 m (-)1 2.9 T 487.2 263.1 m (-)1 2.9 T 524.8 263.1 m 
(-)1 2.9 T 318.9 248.1 m (Lines)5 21.4 T  7.2 S (connected)9 41.5 T  7.2 S (t\
o)2 7.5 T  7.2 S (the)3 12.5 T  7.2 S (DEC)3 18.8 T  7.3 S (MicroServer)11 
48 T  7.3 S (or)2 7.9 T  7.3 S (DEC)3 18.8 T 318.9 238.1 m 
(MicroServer-SP)14 62.9 T  7.9 S (should)6 26.4 T  7.9 S (be)2 10 T  7.9 S (c\
onfigured)10 41.8 T  8 S (according)9 38.8 T  8 S (to)2 7.5 T 318.9 228.1 m (\
guidelines)10 40.2 T  6 S (specified)9 35.3 T  6 S (in)2 6.9 T  6.1 S (the)3 
12.5 T  6.1 S (DECnet/SNA)10 52.2 T  6.1 S (Gateway-ST)10 49.7 T 318.9 218.1 
m (user)4 17.4 T  4.5 S (documentation.)14 61.3 T 67.8 113.2 m  435.8 S f2 s 
(July)4 17.9 T  4.5 S (1989)4 20 T 67.8 98.3 m  421.2 S (AE-JE94B-TE)11 57 T 

% SPD (8.5*11") 'software' logo.
% Aidan Killian ESDC Galway 14/05/86.
% Amended to position logo to left margin on 12-Aug-1986
% at ESDC Galway (AK/MS).

save						% Save current environment

/digital-font /Helvetica-Bold findfont 
[35 34 div .65 mul 0 0 .75 0 0] makefont def

/box-width 35 34 div .405 mul def
/box-pitch box-width .85 div def

/digital-box { 
  gsave 
    box-pitch box-width sub 2 div -.225 rmoveto
    box-width 0 rlineto 
    0 1 rlineto box-width neg 0 rlineto 
    closepath fill 
  grestore 
  gsave
    dup stringwidth pop box-pitch exch sub 2 div 0 rmoveto 
    1 setgray 
    show
  grestore
  box-pitch 0 rmoveto
} def 

/digital_logo {
  % draws digital logo with left baseline point at current point with
  % specified height using current color for boxes and white letters 
  % and moves current point in x direction by about 3.433 times height

  dup scale 
  digital-font setfont 
  0 1 6 {(digital) exch 1 getinterval digital-box} for 
} def 

/sw 1 def					% Stroke width / 2

/std 68 def					% Start Displ.

/bl 60 def					% Char Levels
/cbl bl sw add def
/ol bl 18.4 add def
/xl bl 36.8 add def
/cxl xl sw sub def
/wl xl sw add sw add def
/tl bl 59.5 add def
/ctl tl sw sub def
/dl xl 10.5 add def
/rll bl 14 sub def

/cr ol bl sub sw sub def			% Sub-char Radii
/s1r 10 def
/s2r 8 def
/fr 9.1 def
/rr 12.4 def

/el bl 19.3 add def				% Sub-char Levels
/e2l bl 10.3 add def
/s1l cbl s1r add def
/s2l cxl s2r sub def
/s3l bl 19.8 add def

/sd std s1r add sw add def			% Char Displ.
/od std 42.5 add def
/fd std 66 add def
/td std 86.5 add def
/wd std 102 add def
/ad std 168 add def
/rd std 194 add def
/ed std 221.3 add def
/end cr cr add ed add def

/f2d fd 6 sub def				% Sub-char Displ.
/t2d td 7.7 sub def
/w2d wd 26 add def
/w3d wd 52 add def
/a2d ad cr add 0.4 sub def

/dsz 15.9 def
/bsw 18 def
/bd wd 375.5 add def

sw sw add setlinewidth

newpath
sd s2l s2r 0 180 arc 
sd s2r sub s2l 5 sub sd 3.6 sub s3l 1 add sd s3l curveto 
sd 3.6 add s3l 1 sub sd s1r add s1l 5 add sd s1r add s1l curveto 
sd s1l s1r 0 180 arcn stroke

od ol cr 0 360 arc stroke

fd cbl moveto 
fd ctl td ctl fr arcto pop pop pop pop 
f2d cxl moveto 
fd fr add cxl lineto stroke

td bl 1 add moveto 
td tl lineto 
t2d cxl moveto 
td fr add cxl lineto stroke

gsave
  td cbl moveto 
  td xl lineto 
  ad xl lineto 
  ad cbl lineto clip newpath

  wd xl moveto 
  wd cbl lineto 
  w2d wl lineto 
  w2d cbl lineto 
  w3d wl lineto stroke
grestore

gsave
  a2d bl moveto 
  a2d xl lineto 
  wd xl lineto 
  wd bl lineto clip newpath

  ad ol cr 0 365 arc stroke
grestore

gsave
  a2d sw add cbl moveto 
  a2d sw sub cbl lineto 
  ad ol cr 300 60 arc 
  a2d sw sub xl lineto 
  a2d sw add xl lineto clip newpath

  a2d cbl moveto 
  a2d xl lineto stroke
grestore

rd cbl moveto 
rd xl lineto 
rd cbl moveto 
rd cxl ed cxl rr arcto pop pop pop pop stroke

gsave
  rd bl moveto 
  rd xl lineto 
  end xl lineto 
  end el sw sub lineto
  ed el sw sub lineto 
  ed e2l lineto 
  end e2l lineto 
  end bl lineto clip newpath

  ed ol cr 0 360 arc 
  ed cr sub el moveto 
  ed cr add el lineto stroke
grestore

gsave
  wd sw sub dl moveto dsz digital_logo
grestore

bsw setlinewidth

wd sw sub rll moveto 
bd rll lineto stroke

restore						% Restore previous environment
showpage
%%Page: 1 2
489 98.3 m f2 s 67.8 721 m (DECnet/SNA)10 53.4 T  4.5 S (Gateway)7 36.9 T  
324.1 S (SPD)3 18.4 T  4.5 S (25.C6.01)8 36.4 T 67.8 711 m (for)3 11.8 T  
4.5 S (Synchronous)11 56.9 T  4.5 S (Transport,)10 44 T  4.5 S (Version)7 
32.8 T  4.5 S (1.1)3 12.5 T /f8 {/Helvetica-Oblique FF 9 SF} def
f8 s 67.8 681.1 m (Loading)7 31.9 T  4.5 S (DECnet/SNA)10 52.2 T  4.5 S (Gate\
way-ST)10 49.7 T  4.5 S (Software)8 35.3 T f4 s 67.8 666.1 m (The)3 15.4 T  
2.5 S (DEC)3 18.8 T  2.5 S (MicroServer)11 48 T  2.5 S (requires)8 32.2 T  
2.5 S (software)8 33.8 T  2.5 S (to)2 7.5 T  2.5 S (be)2 10 T  2.5 S (loaded)
6 26.9 T  2.6 S (into)4 14.4 T 67.8 656.1 m (memory)6 32.2 T  8.4 S (prior)5 
17.7 T  8.4 S (to)2 7.5 T  8.5 S (DECnet/SNA)10 52.2 T  8.5 S (Gateway)7 
35.4 T  8.5 S (operation.)10 39.8 T 67.8 646.1 m (DECnet/SNA)10 52.2 T  4 S (\
Gateway-ST)10 49.7 T  4 S (software)8 33.8 T  4 S (is)2 6.4 T  4 S (down-line\
)9 38.1 T  4 S (loaded)6 26.9 T 67.8 636.1 m (across)6 26.4 T  4.8 S (the)3 
12.5 T  4.9 S (Ethernet)8 33.9 T  4.9 S (Local)5 21.4 T  4.9 S (Area)4 18.9 
T  4.9 S (Network)7 32.7 T  4.9 S (from)4 17.8 T  4.9 S (a)1 5 T  4.9 S (VMS)
3 19.4 T 67.8 626.1 m (system)6 28.4 T  4.5 S (acting)6 23.9 T  4.5 S (as)2 
9.5 T  4.5 S (DECnet)6 31.3 T  4.5 S (load)4 16.9 T  4.5 S (host)4 17 T  4.5 
S (system.)7 30.9 T 67.8 611.1 m (Most)4 19.4 T  3.8 S (VAX,)4 20.5 T  3.8 S 
(MicroVAX,)9 42.2 T  3.8 S (and)3 15 T  3.8 S (VAXstation)10 44.4 T  3.8 S (s\
ystems)7 32.9 T  3.9 S (running)7 29.8 T 67.8 601.1 m (VMS)3 19.4 T  8.9 S (a\
re)3 12.9 T  8.9 S (supported)9 39.9 T  8.9 S (as)2 9.5 T  9 S (Ethernet)8 
33.9 T  9 S (load)4 16.9 T  9 S (hosts)5 21.5 T  9 S (for)3 10.4 T 67.8 
591.1 m (DECnet/SNA)10 52.2 T  5.6 S (Gateway-ST.)11 52.2 T  5.6 S (Supported\
)9 41.4 T  5.6 S (VMS)3 19.4 T  5.6 S (load)4 16.9 T  5.6 S (host)4 17 T 
67.8 581.1 m (configurations)14 55.7 T  6.5 S (are)3 12.9 T  6.5 S (described\
)9 38.8 T  6.5 S (in)2 6.9 T  6.5 S (the)3 12.5 T  6.5 S (System)6 29.9 T  
6.5 S (Support)7 31.4 T 67.8 571.1 m (Addendum.)9 45.9 T f8 s 67.8 556.1 m (D\
ECnet/SNA)10 52.2 T  4.5 S (VMS)3 19.4 T  4.5 S (Gateway)7 35.4 T  4.5 S (Man\
agement)10 52.3 T f4 s 67.8 541.1 m (DECnet/SNA)10 52.2 T  5.5 S (VMS)3 19.4 
T  5.5 S (Gateway)7 35.4 T  5.5 S (Management)10 52.3 T  5.5 S (software)8 
33.8 T  5.6 S (is)2 6.4 T 67.8 531.1 m (required)8 32.7 T  5.4 S (on)2 10 T  
5.4 S (the)3 12.5 T  5.4 S (VMS)3 19.4 T  5.5 S (load)4 16.9 T  5.5 S 
(host)4 17 T  5.5 S (used)4 19.5 T  5.5 S (to)2 7.5 T  5.5 S (support)7 29.9 
T  5.5 S (the)3 12.5 T 67.8 521.1 m (DECnet/SNA)10 52.2 T  3.9 S (Gateway.)8 
37.9 T  3.9 S (It)2 5 T  4 S (must)4 19.4 T  4 S (also)4 16.4 T  4 S (be)2 
10 T  4 S (present)7 29.9 T  4 S (on)2 10 T  4 S (any)3 14.5 T 67.8 511.1 m (\
other)5 20.4 T  8.8 S (VAX)3 18 T  8.8 S (node)4 20 T  8.9 S (whose)5 25.9 T 
 8.9 S (users)5 21.9 T  8.9 S (want)4 18.9 T  8.9 S (to)2 7.5 T  8.9 S (manag\
e)6 32.4 T 67.8 501.1 m (DECnet/SNA)10 52.2 T  3.9 S (Gateway-ST)10 49.7 T  
3.9 S (and)3 15 T  3.9 S (the)3 12.5 T  3.9 S (DEC)3 18.8 T  3.9 S (MicroServ\
er.)12 50.5 T  3.9 S (It)2 5 T 67.8 491.1 m (is)2 6.4 T  6.3 S (strongly)8 
31.3 T  6.3 S (recommended)11 57.2 T  6.3 S (that)4 15 T  6.4 S (the)3 12.5 
T  6.4 S (software)8 33.8 T  6.4 S (also)4 16.4 T  6.4 S (be)2 10 T 67.8 
481.1 m (installed)9 32.7 T  2.9 S (on)2 10 T  2.9 S (VMS)3 19.4 T  3 S (syst\
ems)7 32.9 T  3 S (where)5 24.3 T  3 S (IBM)3 15.9 T  3 S (Interconnect)12 
49.4 T  3 S (appli-)6 21.7 T 67.8 471.1 m (cation)6 23.9 T  3 S (programs)8 
37.7 T  3 S (are)3 12.9 T  3 S (developed)9 41.4 T  3 S (using)5 21.4 T  3.1 
S (DECnet/SNA)10 52.2 T  3.1 S (VMS)3 19.4 T 67.8 461.1 m (Programming)11 
53.5 T  6 S (Interface)9 34.9 T  6 S (products)8 34.4 T  6.1 S (in)2 6.9 T  
6.1 S (order)5 20.8 T  6.1 S (to)2 7.5 T  6.1 S (facilitate)10 32.7 T 67.8 
451.1 m (application)11 42.7 T  4.5 S (debugging)9 41.9 T  4.5 S (functions.)
10 38.4 T 67.8 436.1 m (Management)10 52.3 T  5.8 S (of)2 7.5 T  5.8 S (DECne\
t/SNA)10 52.2 T  5.8 S (Gateway-ST)10 49.7 T  5.8 S (should)6 26.4 T  5.8 S (\
be)2 10 T 67.8 426.1 m (viewed)6 27.8 T  4.7 S (as)2 9.5 T  4.7 S (part)4 
15.4 T  4.7 S (of)2 7.5 T  4.7 S (the)3 12.5 T  4.7 S (DIGITAL)7 34.8 T  4.7 
S (environment)11 49.2 T  4.7 S (while)5 20.2 T  4.8 S (the)3 12.5 T 67.8 
416.1 m (management)10 52.3 T  3.3 S (of)2 7.5 T  3.4 S (the)3 12.5 T  3.4 S 
(synchronous)11 50.9 T  3.4 S (circuits)8 27.7 T  3.4 S (connecting)10 43.4 
T  3.4 S (the)3 12.5 T 67.8 406.1 m (DECnet/SNA)10 52.2 T  5.5 S (Gateway)7 
35.4 T  5.5 S (to)2 7.5 T  5.6 S (the)3 12.5 T  5.6 S (IBM)3 15.9 T  5.6 S (n\
etwork)7 31.3 T  5.6 S (is)2 6.4 T  5.6 S (a)1 5 T  5.6 S (joint)5 16.3 T 
67.8 396.1 m (responsibility)14 51.5 T  2.7 S (of)2 7.5 T  2.7 S (the)3 12.5 
T  2.7 S (IBM)3 15.9 T  2.7 S (and)3 15 T  2.8 S (DIGITAL)7 34.8 T  2.8 S (sy\
stem)6 28.4 T  2.8 S (managers.)9 42.3 T 67.8 386.1 m (\(Refer)6 24.7 T  4.5 
S (to)2 7.5 T  4.5 S (the)3 12.5 T  4.6 S (Customer)8 38.7 T  4.6 S (Responsi\
bilities)16 61.9 T  4.6 S (section)7 28.4 T  4.6 S (of)2 7.5 T  4.6 S 
(this)4 13.9 T 67.8 376.1 m (Software)8 35.3 T  4.5 S (Product)7 30.9 T  4.5 
S (Description.\))13 50 T f8 s 67.8 361.1 m (Product)7 30.9 T  4.5 S (Feature\
s)8 35.3 T /f9 {/Symbol FF 12 SF} def
f9 s 67.8 346.1 m (\267)1 5.5 T f4 s 79.8 346.1 m (NRZI)4 20.7 T  2.8 S (supp\
ort)7 29.9 T  2.8 S (-)1 2.9 T  2.8 S (Signaling)9 36.7 T  2.8 S (mode)4 
22.4 T  2.8 S (for)3 10.4 T  2.8 S (the)3 12.5 T  2.8 S (line\(s\))7 24.1 T  
2.8 S (from)4 17.8 T  2.8 S (the)3 12.5 T 79.8 335.3 m (Gateway)7 35.4 T  
2.5 S (to)2 7.5 T  2.5 S (the)3 12.5 T  2.5 S (IBM)3 15.9 T  2.5 S (system)6 
28.4 T  2.5 S (can)3 14.5 T  2.5 S (be)2 10 T  2.5 S (set)3 12 T  2.6 S 
(to)2 7.5 T  2.6 S (NORMAL)6 38.2 T  2.6 S (or)2 7.9 T 79.8 325.3 m (NRZI)4 
20.7 T  2.7 S (\(non-return-to-zero-inverted\))29 112.4 T  2.8 S (so)2 9.5 T 
 2.8 S (that)4 15 T  2.8 S (line)4 13.8 T  2.8 S (charac-)7 29.8 T 79.8 
315.3 m (teristics)9 30.2 T  4 S (match)5 24.4 T  4 S (those)5 22 T  4 S (set\
)3 12 T  4 S (in)2 6.9 T  4 S (the)3 12.5 T  4 S (IBM)3 15.9 T  4.1 S (ACF/NC\
P)7 39.1 T  4.1 S (LINE)4 19.9 T 79.8 305.3 m (macro.)6 27.3 T f9 s 67.8 
290.3 m (\267)1 5.5 T f4 s 79.8 290.3 m (Support)7 31.4 T  4 S (for)3 10.4 T 
 4 S (FULL)4 21.8 T  4 S (duplex)6 26.4 T  4 S (transmission)12 50.1 T  4 S (\
-)1 2.9 T  4 S (Circuits)8 29.6 T  4 S (can)3 14.5 T 79.8 279.5 m (be)2 10 T 
 5 S (set)3 12 T  5 S (FULL)4 21.8 T  5 S (duplex)6 26.4 T  5 S (to)2 7.5 T  
5 S (allow)5 20.2 T  5 S (data)4 17.5 T  5 S (to)2 7.5 T  5 S (be)2 10 T  
5.1 S (sent)4 17 T  5.1 S (and)3 15 T 79.8 269.5 m (received)8 33.8 T  3.1 S 
(simultaneously)14 59.1 T  3.1 S (on)2 10 T  3.1 S (full)4 11.3 T  3.1 S (dup\
lex)6 26.4 T  3.2 S (lines.)6 20.8 T  3.2 S (This)4 16.8 T  3.2 S (set-)4 
14.9 T 79.8 259.5 m (ting)4 14.4 T  6.1 S (corresponds)11 49.3 T  6.1 S 
(to)2 7.5 T  6.2 S (DATMODE=FULL)12 71.6 T  6.2 S (in)2 6.9 T  6.2 S (the)3 
12.5 T  6.2 S (IBM)3 15.9 T 79.8 249.5 m (ACF/NCP)7 39.1 T  4.5 S (PU)2 12.4 
T  4.5 S (macro.)6 27.3 T f9 s 67.8 234.5 m (\267)1 5.5 T f4 s 79.8 234.5 m (\
Support)7 31.4 T  6.8 S (for)3 10.4 T  6.8 S (RECFMS)6 37.6 T  6.8 S (-)1 
2.9 T  6.9 S (The)3 15.4 T  6.9 S (Gateway)7 35.4 T  6.9 S (can)3 14.5 T  
6.9 S (send)4 19.5 T 79.8 223.7 m (Record)6 28.8 T  3.7 S (Formatted)9 40.7 
T  3.8 S (Maintenance)11 51.3 T  3.8 S (Statistics)10 35.8 T  3.8 S (\(RECFMS\
\))8 43.4 T 79.8 213.7 m (messages)8 40.9 T  3.4 S (to)2 7.5 T  3.4 S (the)3 
12.5 T  3.4 S (IBM)3 15.9 T  3.5 S (system.)7 30.9 T  3.5 S (These)5 24.9 T  
3.5 S (messages)8 40.9 T  3.5 S (con-)4 17.4 T 79.8 203.7 m (tain)4 14.4 T  
3.2 S (counters)8 34.4 T  3.2 S (requested)9 39.9 T  3.2 S (by)2 9.5 T  3.2 
S (the)3 12.5 T  3.2 S (IBM)3 15.9 T  3.3 S (Network)7 32.7 T  3.3 S (Problem\
)7 33.2 T 79.8 193.7 m (Determination)13 55.5 T  7.6 S (Application)11 43.7 
T  7.6 S (\(NPDA\))6 30.6 T  7.6 S (using)5 21.4 T  7.7 S (Request)7 33.4 T 
79.8 183.7 m (Maintenance)11 51.3 T  4.6 S (Statistics)10 35.8 T  4.6 S (\(RE\
QMS\))7 38.6 T  4.7 S (messages.)9 43.4 T  4.7 S (Not)3 13.9 T  4.7 S (all)3 
8.8 T 79.8 173.7 m (RECFMS)6 37.6 T  3.9 S (messages)8 40.9 T  4 S (are)3 
12.9 T  4 S (supported)9 39.9 T  4 S (by)2 9.5 T  4 S (the)3 12.5 T  4 S (Gat\
eway,)8 37.9 T 79.8 163.7 m (refer)5 18.3 T  2.9 S (to)2 7.5 T  2.9 S (the)3 
12.5 T  2.9 S (DECnet/SNA)10 52.2 T  2.9 S (VMS)3 19.4 T  2.9 S (Gateway)7 
35.4 T  3 S (Management)10 52.3 T 79.8 153.7 m (user)4 17.4 T  4.5 S (documen\
tation)13 58.8 T  4.5 S (for)3 10.4 T  4.5 S (more)4 20.3 T  4.5 S (informati\
on.)12 46.6 T f9 s 67.8 138.7 m (\267)1 5.5 T f4 s 79.8 138.7 m (A)1 6 T  4 
S (simplified)10 37 T  4 S (configuration)13 51.2 T  4 S (procedure)9 40.3 T 
 4 S (-)1 2.9 T  4.1 S (After)5 18.9 T  4.1 S (installing)10 34.6 T 79.8 
127.9 m (Gateway-ST)10 49.7 T  4.2 S (and)3 15 T  4.3 S (Gateway)7 35.4 T  
4.3 S (Management)10 52.3 T  4.3 S (software,)9 36.3 T  4.3 S (a)1 5 T 79.8 
117.9 m (single)6 23.3 T  4.8 S (configuration)13 51.2 T  4.8 S (procedure)9 
40.3 T  4.8 S (is)2 6.4 T  4.8 S (run)3 12.9 T  4.8 S (which)5 22.8 T  4.8 S 
(creates)7 29.4 T 79.8 107.9 m (command)7 39.3 T  3.6 S (procedures)10 44.8 
T  3.6 S (that)4 15 T  3.7 S (define)6 24.4 T  3.7 S (items)5 21.3 T  3.7 S (\
for)3 10.4 T  3.7 S (the)3 12.5 T  3.7 S (DEC-)4 21.7 T 79.8 97.9 m (net)3 
12.5 T  5 S (database)8 37 T  5.1 S (on)2 10 T  5.1 S (the)3 12.5 T  5.1 S (l\
oad)4 16.9 T  5.1 S (host,)5 19.5 T  5.1 S (and)3 15 T  5.1 S (the)3 12.5 T  
5.1 S (SNA)3 18.4 T  5.1 S (and)3 15 T 79.8 87.9 m (DECnet)6 31.3 T  4.5 S (d\
atabases)9 41.5 T  4.5 S (on)2 10 T  4.5 S (the)3 12.5 T  4.5 S (Gateway.)8 
37.9 T f9 s 318.8 681.1 m (\267)1 5.5 T f4 s 330.8 681.1 m (Extended)8 38 T  
5 S (SDLC)4 23.8 T  5 S (-)1 2.9 T  5 S (Support)7 31.4 T  5 S (for)3 10.4 T 
 5.1 S (Extended)8 38 T  5.1 S (Response)8 40.4 T 330.8 670.3 m (Mode)4 22.4 
T  4.5 S (SDLC)4 23.8 T  4.5 S (\(Modulo)7 32.2 T  4.5 S (128\))4 17.9 T 
318.8 655.3 m (When)4 23.4 T  4.5 S (Using)5 22.8 T  4.5 S (DEC)3 18.8 T  
4.5 S (MicroServer)11 48 T  4.5 S (Hardware)8 38.6 T f9 s 318.8 640.3 m 
(\267)1 5.5 T f4 s 330.8 640.3 m (Synchronous)11 52.4 T  15.2 S (Line)4 16.9 
T  15.2 S (support)7 29.9 T  15.2 S (-)1 2.9 T  15.2 S (DECnet/SNA)10 52.2 T 
330.8 629.5 m (Gateway-ST)10 49.7 T  2.7 S (supports)8 34.4 T  2.7 S (up)2 
10 T  2.7 S (to)2 7.5 T  2.7 S (four)4 15.4 T  2.7 S (SDLC)4 23.8 T  2.7 S (c\
onnections)11 47.9 T  2.7 S (at)2 7.5 T 330.8 619.5 m (speeds)6 29 T  4.5 S (\
of)2 7.5 T  4.5 S (64Kbs/circuit)13 51.2 T  4.5 S (or)2 7.9 T  4.5 S 
(less,)5 18.4 T  4.6 S (two)3 13.9 T  4.6 S (connections)11 47.9 T  4.6 S (at\
)2 7.5 T 330.8 609.5 m (128Kbs/circuit)14 56.2 T  4.5 S (or)2 7.9 T  4.5 S (a\
)1 5 T  4.5 S (single)6 23.3 T  4.5 S (connection)10 43.4 T  4.5 S (at)2 7.5 
T  4.5 S (256Kbs.)7 33 T f9 s 318.8 594.5 m (\267)1 5.5 T f4 s 330.8 594.5 m 
(Session)7 31.9 T  2.8 S (support)7 29.9 T  2.8 S (-)1 2.9 T  2.8 S (DECnet/S\
NA)10 52.2 T  2.8 S (Gateway-ST)10 49.7 T  2.9 S (supports)8 34.4 T 330.8 
583.7 m (up)2 10 T  6.4 S (to)2 7.5 T  6.4 S (128)3 15 T  6.4 S 
(concurrent)10 42.3 T  6.4 S (\(Logical)8 31.2 T  6.5 S (Unit\))5 18.7 T  
6.5 S (sessions)8 34.9 T  6.5 S (for)3 10.4 T 330.8 573.7 m (selected)8 33.4 
T  4.5 S (access)6 28 T  4.5 S (routines.)9 34.3 T 318.8 558.7 m (When)4 
23.4 T  4.5 S (Using)5 22.8 T  4.5 S (DEC)3 18.8 T  4.5 S (MicroServer-SP)14 
62.9 T  4.5 S (Hardware)8 38.6 T f9 s 318.8 543.7 m (\267)1 5.5 T f4 s 330.8 
543.7 m (Synchronous)11 52.4 T  15.2 S (Line)4 16.9 T  15.2 S (support)7 
29.9 T  15.2 S (-)1 2.9 T  15.2 S (DECnet/SNA)10 52.2 T 330.8 532.9 m (Gatewa\
y-ST)10 49.7 T  3.4 S (supports)8 34.4 T  3.4 S (one)3 15 T  3.4 S (SDLC)4 
23.8 T  3.4 S (connection)10 43.4 T  3.4 S (at)2 7.5 T  3.4 S (up)2 10 T  
3.4 S (to)2 7.5 T 330.8 522.9 m (19.2Kbps)8 38 T f9 s 318.8 507.9 m (\267)1 
5.5 T f4 s 330.8 507.9 m (Session)7 31.9 T  2.8 S (support)7 29.9 T  2.8 S (-\
)1 2.9 T  2.8 S (DECnet/SNA)10 52.2 T  2.8 S (Gateway-ST)10 49.7 T  2.9 S (su\
pports)8 34.4 T 330.8 497.1 m (up)2 10 T  7.1 S (to)2 7.5 T  7.1 S (16)2 10 
T  7.1 S (concurrent)10 42.3 T  7.2 S (\(Logical)8 31.2 T  7.2 S (Unit\))5 
18.7 T  7.2 S (sessions)8 34.9 T  7.2 S (for)3 10.4 T 330.8 487.1 m (selected\
)8 33.4 T  4.5 S (access)6 28 T  4.5 S (routines.)9 34.3 T f2 s 318.8 472.1 
m (INSTALLATION)12 65.2 T f4 s 318.8 457.1 m (In)2 7.5 T  3.7 S (order)5 
20.8 T  3.8 S (for)3 10.4 T  3.8 S (this)4 13.9 T  3.8 S (product)7 29.9 T  
3.8 S (to)2 7.5 T  3.8 S (be)2 10 T  3.8 S (DIGITAL)7 34.8 T  3.8 S (supporte\
d,)10 42.4 T  3.8 S (pur-)4 15.8 T 318.8 447.1 m (chase)5 24 T  3.7 S (of)2 
7.5 T  3.7 S (the)3 12.5 T  3.8 S (Gateway)7 35.4 T  3.8 S (Orientation/Insta\
llation)24 88.9 T  3.8 S (Service)7 29.8 T  3.8 S (is)2 6.4 T 318.8 437.1 m (\
REQUIRED)8 47.1 T  3.7 S (in)2 6.9 T  3.7 S (conjunction)11 45.3 T  3.7 S (wi\
th)4 15.8 T  3.7 S (the)3 12.5 T  3.8 S (customer's)10 43.2 T  3.8 S 
(first)5 14.3 T  3.8 S (pur-)4 15.8 T 318.8 427.1 m (chase)5 24 T  4.3 S (of)
2 7.5 T  4.3 S (a)1 5 T  4.3 S (DECnet/SNA)10 52.2 T  4.3 S (Gateway.)8 37.9 
T  4.4 S (Please)6 27.4 T  4.4 S (refer)5 18.3 T  4.4 S (to)2 7.5 T  4.4 S (t\
he)3 12.5 T 318.8 417.1 m (SOFTWARE)8 50.6 T  3 S (PRODUCT)7 44 T  3.1 S (SER\
VICES)8 45.3 T  3.1 S (section)7 28.4 T  3.1 S (of)2 7.5 T  3.1 S (this)4 
13.9 T  3.1 S (Soft-)5 18.9 T 318.8 407.1 m (ware)4 19.3 T  4.5 S (Product)7 
30.9 T  4.5 S (Description)11 44.6 T  4.5 S (for)3 10.4 T  4.5 S (further)7 
25.8 T  4.5 S (details.)8 28.3 T 318.8 392.1 m (Only)4 18.4 T  4.1 S (custome\
rs)9 41.3 T  4.1 S (experienced)11 48.8 T  4.1 S (with)4 15.8 T  4.2 S (DIGIT\
AL's)9 41.2 T  4.2 S (IBM)3 15.9 T  4.2 S (Inter-)6 20.8 T 318.8 382.1 m (con\
nect)7 31.5 T  2.6 S (products)8 34.4 T  2.6 S (should)6 26.4 T  2.6 S (attem\
pt)7 29.9 T  2.6 S (installation)12 42.1 T  2.6 S (of)2 7.5 T  2.7 S (second)
6 29 T  2.7 S (or)2 7.9 T 318.8 372.1 m (subsequent)10 46.5 T  4.5 S (DECnet/\
SNA)10 52.2 T  4.6 S (Gateways.)9 42.4 T  4.6 S (Any)3 15.5 T  4.6 S (DECnet/\
SNA)10 52.2 T 318.8 362.1 m (Gateway)7 35.4 T  8.1 S (installations)13 46.6 
T  8.1 S (performed)9 40.7 T  8.1 S (by)2 9.5 T  8.2 S (customers)9 41.3 T  
8.2 S (are)3 12.9 T 318.8 352.1 m (REQUIRED)8 47.1 T  3.6 S (to)2 7.5 T  3.6 
S (be)2 10 T  3.6 S (CERTIFIED)9 47 T  3.6 S (by)2 9.5 T  3.6 S (DIGITAL)7 
34.8 T  3.7 S (prior)5 17.7 T  3.7 S (to)2 7.5 T  3.7 S (cus-)4 16.9 T 318.8 
342.1 m (tomer)5 22.8 T  11.9 S (purchase)8 36.9 T  11.9 S (of)2 7.5 T  12 S 
(the)3 12.5 T  12 S (DECnet/SNA)10 52.2 T  12 S (Gateway)7 35.4 T 318.8 
332.1 m (DECsupport)10 48.7 T  3.3 S (Service,)8 32.3 T  3.4 S (Basic)5 21.9 
T  3.4 S (Service)7 29.8 T  3.4 S (or)2 7.9 T  3.4 S (Self-Maintenance)16 
69.6 T 318.8 322.1 m (Service.)8 32.3 T  2.9 S (CERTIFICATION)13 68.3 T  2.9 
S (is)2 6.4 T  2.9 S (performed)9 40.7 T  3 S (by)2 9.5 T  3 S (DIGITAL)7 
34.8 T  3 S (soft-)5 17.4 T 318.8 312.1 m (ware)4 19.3 T  5.2 S (specialists.\
)12 43.7 T  5.2 S (For)3 13.3 T  5.3 S (installations)13 46.6 T  5.3 S (that)
4 15 T  5.3 S (conform)7 32.3 T  5.3 S (to)2 7.5 T  5.3 S (the)3 12.5 T 
318.8 302.1 m (Software)8 35.3 T  2.5 S (Product)7 30.9 T  2.6 S (Description\
)11 44.6 T  2.6 S (and)3 15 T  2.6 S (cannot)6 27 T  2.6 S (be)2 10 T  2.6 S 
(certified,)10 33.7 T  2.6 S (the)3 12.5 T 318.8 292.1 m (customer)8 36.8 T  
11.6 S (must)4 19.4 T  11.6 S (purchase)8 36.9 T  11.6 S (DECnet/SNA)10 52.2 
T  11.6 S (Gateway)7 35.4 T 318.8 282.1 m (Orientation/Installation)24 88.9 
T  10.5 S (Service)7 29.8 T  10.6 S (to)2 7.5 T  10.6 S (be)2 10 T  10.6 S (e\
ligible)8 27.6 T  10.6 S (for)3 10.4 T 318.8 272.1 m (DECnet/SNA)10 52.2 T  
3.9 S (Gateway)7 35.4 T  3.9 S (DECsupport)10 48.7 T  4 S (Service,)8 32.3 T 
 4 S (Basic)5 21.9 T  4 S (Ser-)4 16.8 T 318.8 262.1 m (vice)4 15.9 T  4.5 S 
(or)2 7.9 T  4.5 S (Self-Maintenance)16 69.6 T  4.5 S (Service.)8 32.3 T f2 
s 318.8 247.1 m (Customer)8 41.6 T  4.5 S (Responsibilities)16 68.4 T f4 s 
318.8 232.1 m (Before)6 26.4 T  4.4 S (installation)12 42.1 T  4.4 S (of)2 
7.5 T  4.4 S (the)3 12.5 T  4.4 S (software,)9 36.3 T  4.5 S (the)3 12.5 T  
4.5 S (customer)8 36.8 T  4.5 S (must:)5 21.9 T f9 s 318.8 217.1 m (\267)1 
5.5 T f4 s 330.8 217.1 m (Previously)10 41.2 T  4.5 S (have)4 19.5 T  4.5 S (\
installed)9 32.7 T  4.5 S (all)3 8.8 T  4.5 S (requisite)9 33.7 T  4.5 S (har\
dware.)9 39.7 T f9 s 318.8 201.3 m (\267)1 5.5 T f4 s 330.8 201.3 m (Obtain,)
7 28.9 T  4.6 S (install,)8 25.2 T  4.6 S (and)3 15 T  4.7 S (demonstrate)11 
49.8 T  4.7 S (as)2 9.5 T  4.7 S (operational)11 44.2 T  4.7 S (any)3 14.5 T 
330.8 190.5 m (modems)6 34.3 T  2.6 S (and)3 15 T  2.7 S (other)5 20.4 T  
2.7 S (equipment)9 41.8 T  2.7 S (and)3 15 T  2.7 S (facilities)10 31.6 T  
2.7 S (necessary)9 40.9 T 330.8 180.5 m (to)2 7.5 T  4 S (interface)9 34.3 T 
 4 S (to)2 7.5 T  4 S (DIGITAL's)9 41.2 T  4.1 S (communication)13 60.1 T  
4.1 S (equipment.)10 44.3 T f9 s 318.8 165.5 m (\267)1 5.5 T f4 s 330.8 
165.5 m (Demonstrate)11 51.2 T  5.3 S (equivalence)11 47.8 T  5.3 S (of)2 
7.5 T  5.3 S (operation)9 37.3 T  5.3 S (for)3 10.4 T  5.4 S (modems)6 34.3 
T 330.8 154.7 m (other)5 20.4 T  4.7 S (than)4 17.5 T  4.7 S (Bell)4 14.8 T  
4.7 S (System)6 29.9 T  4.7 S (201C,)5 23.9 T  4.7 S (208A,)5 23.5 T  4.7 S (\
or)2 7.9 T  4.8 S (209A,)5 23.5 T  4.8 S (IBM)3 15.9 T 330.8 144.7 m (5866)4 
20 T  8.6 S (Model)5 24.3 T  8.6 S (1,)2 7.5 T  8.6 S (AT&T)4 22.8 T  8.6 S (\
2596,)5 22.5 T  8.6 S (2556,)5 22.5 T  8.6 S (Dataphone)9 43.9 T 330.8 134.7 
m (II,\(2096A,)10 38.9 T  10 S (DIGITAL)7 34.8 T  10 S (2500,)5 22.5 T  10.1 
S (or)2 7.9 T  10.1 S (equivalent\))11 43.7 T  10.1 S (type)4 17 T 330.8 
124.7 m (modems,)7 36.8 T  4.5 S (or)2 7.9 T  4.5 S (in)2 6.9 T  4.5 S (Europ\
e,)7 31.4 T  4.5 S (PTT)3 16.8 T  4.5 S (approved)8 37.4 T  4.5 S (modems.)7 
36.8 T f9 s 318.8 109.7 m (\267)1 5.5 T f4 s 330.8 109.7 m (Have)4 20.9 T  
3.9 S (generated,)10 42.9 T  3.9 S (to)2 7.5 T  3.9 S (DIGITAL's)9 41.2 T  
3.9 S (satisfaction,)13 47.3 T  3.9 S (any)3 14.5 T  3.9 S (nec-)4 17.4 T 
330.8 98.9 m (essary)6 26.4 T  3.5 S (IBM)3 15.9 T  3.5 S (host)4 17 T  3.5 
S (software)8 33.8 T  3.5 S (that)4 15 T  3.6 S (will)4 12.1 T  3.6 S (be)2 
10 T  3.6 S (communicating)13 60.1 T 330.8 88.9 m (with)4 15.8 T  4.5 S (the)
3 12.5 T  4.5 S (DECnet/SNA)10 52.2 T  4.5 S (Gateway.)8 37.9 T 67.8 44.6 m  
229.2 S f2 s (-)1 2.9 T  4.5 S (2)1 5 T  4.5 S (-)1 2.9 T  229.2 S showpage
%%Page: 2 3
535.2 44.6 m f2 s 67.8 721 m (DECnet/SNA)10 53.4 T  4.5 S (Gateway)7 36.9 T  
324.1 S (SPD)3 18.4 T  4.5 S (25.C6.01)8 36.4 T 67.8 711 m (for)3 11.8 T  
4.5 S (Synchronous)11 56.9 T  4.5 S (Transport,)10 44 T  4.5 S (Version)7 
32.8 T  4.5 S (1.1)3 12.5 T f9 s 67.8 681.1 m (\267)1 5.5 T f4 s 79.8 681.1 
m (Have)4 20.9 T  7.7 S (completed)9 41.3 T  7.7 S (any)3 14.5 T  7.7 S (addi\
tional)10 38.2 T  7.7 S (requirements)12 52.1 T  7.8 S (as)2 9.5 T 79.8 
670.3 m (described)9 38.8 T  3.8 S (in)2 6.9 T  3.8 S (the)3 12.5 T  3.9 S (O\
rientation)11 43.7 T  3.9 S (and)3 15 T  3.9 S (Installation)12 42.7 T  3.9 
S (Service.)8 32.3 T f9 s 67.8 655.3 m (\267)1 5.5 T f4 s 79.8 655.3 m (Make)
4 21.9 T  4.6 S (available)9 35.2 T  4.6 S (for)3 10.4 T  4.6 S (a)1 5 T  
4.6 S (reasonable)10 44.3 T  4.7 S (period)6 24.8 T  4.7 S (of)2 7.5 T  4.7 
S (time,)5 19.3 T  4.7 S (as)2 9.5 T 79.8 644.5 m (mutually)8 33.2 T  4.8 S (\
agreed)6 27.9 T  4.8 S (by)2 9.5 T  4.9 S (DIGITAL)7 34.8 T  4.9 S (and)3 15 
T  4.9 S (the)3 12.5 T  4.9 S (customer,)9 39.3 T  4.9 S (all)3 8.8 T 79.8 
634.5 m (hardware,)9 39.7 T  3 S (communication)13 60.1 T  3 S 
(facilities,)11 34.1 T  3 S (and)3 15 T  3 S (terminals)9 36.1 T  3.1 S (that\
)4 15 T 79.8 624.5 m (are)3 12.9 T  4.5 S (to)2 7.5 T  4.5 S (be)2 10 T  4.5 
S (used)4 19.5 T  4.5 S (during)6 24.8 T  4.5 S (installation.)13 44.6 T f9 
s 67.8 609.5 m (\267)1 5.5 T f4 s 79.8 609.5 m (Be)2 11 T  3.9 S (prepared)8 
35.8 T  3.9 S (to)2 7.5 T  3.9 S (work)4 18.8 T  3.9 S (with)4 15.8 T  3.9 S 
(the)3 12.5 T  4 S (DIGITAL)7 34.8 T  4 S (and)3 15 T  4 S (the)3 12.5 T  4 
S (IBM)3 15.9 T 79.8 598.7 m (system)6 28.4 T  4 S (manager)7 35.3 T  4.1 S (\
in)2 6.9 T  4.1 S (the)3 12.5 T  4.1 S (pre-installation)16 57.9 T  4.1 S (ac\
tivities)10 34.2 T  4.1 S (out-)4 15.4 T 79.8 588.7 m (lined)5 18.8 T  4.5 S 
(in)2 6.9 T  4.5 S (the)3 12.5 T  4.5 S (Orientation)11 43.7 T  4.5 S (and)3 
15 T  4.5 S (Installation)12 42.7 T  4.5 S (Service.)8 32.3 T f9 s 67.8 
573.7 m (\267)1 5.5 T f4 s 79.8 573.7 m (Be)2 11 T  5.3 S (prepared)8 35.8 T 
 5.3 S (to)2 7.5 T  5.3 S (modify)6 26.3 T  5.3 S (IBM)3 15.9 T  5.3 S (compo\
nent)9 44.4 T  5.4 S (generation)10 42.3 T 79.8 562.9 m (parameters)10 45.2 
T  4.5 S (to)2 7.5 T  4.5 S (support)7 29.9 T  4.5 S (DECnet/SNA)10 52.2 T  
4.5 S (Gateway-ST.)11 52.2 T 67.8 547.9 m (Delays)6 27.3 T  3.2 S (caused)6 
29 T  3.2 S (by)2 9.5 T  3.2 S (any)3 14.5 T  3.2 S (failure)7 24.2 T  3.2 S 
(to)2 7.5 T  3.2 S (meet)4 19.9 T  3.3 S (these)5 22 T  3.3 S (responsibili-)
13 47.4 T 67.8 537.9 m (ties)4 13.9 T  3.1 S (will)4 12.1 T  3.1 S (be)2 10 
T  3.2 S (charged)7 32.4 T  3.2 S (at)2 7.5 T  3.2 S (DIGITAL's)9 41.2 T  
3.2 S (then)4 17.5 T  3.2 S (prevailing)10 38.1 T  3.2 S (rate)4 15.4 T  3.2 
S (for)3 10.4 T 67.8 527.9 m (time)4 16.8 T  4.5 S (and)3 15 T  4.5 S (materi\
als.)10 38.6 T f2 s 67.8 512.9 m (HARDWARE)8 52.8 T  4.5 S (REQUIREMENTS)12 
71.9 T f8 s 67.8 497.9 m (In)2 7.5 T  4.5 S (Ethernet)8 33.9 T  4.5 S (Local)
5 21.4 T  4.5 S (Area)4 18.9 T  4.5 S (Networks:)9 39.7 T f9 s 67.8 482.9 m (\
\267)1 5.5 T f4 s 79.8 482.9 m (VAX,)4 20.5 T  2.6 S (MicroVAX,)9 42.2 T  
2.6 S (or)2 7.9 T  2.6 S (VAXstation)10 44.4 T  2.6 S (configuration)13 51.2 
T  2.6 S (as)2 9.5 T  2.6 S (speci-)6 23.8 T 79.8 472.1 m (fied)4 16.8 T  
5.9 S (in)2 8.1 T  6 S (the)3 14.3 T  6 S (System)6 33.5 T  6 S (Support)7 
35.6 T  6 S (Addendum)8 48.2 T  6 S (\(SSA)4 23.3 T 79.8 462.1 m 
(25.C6.01-x\).)12 49.2 T f9 s 67.8 447.1 m (\267)1 5.5 T f4 s 79.8 447.1 m (D\
EC)3 18.8 T  5.8 S (MicroServer)11 48 T  5.8 S (\(DEMSA-Ax)9 48.1 T  5.8 S (o\
r)2 7.9 T  5.9 S (DEMSB-Ax\))9 48.1 T  5.9 S (and)3 15 T 79.8 436.3 m (approp\
riate)11 45.2 T  4.5 S (adapter)7 30.4 T  4.5 S (cables)6 25.9 T f9 s 67.8 
421.3 m (\267)1 5.5 T f4 s 79.8 421.3 m (Bell)4 14.8 T  3 S (System)6 29.9 T 
 3 S (compatible)10 43.2 T  3 S (modems)6 34.3 T  3 S (as)2 9.5 T  3.1 S (lis\
ted)6 20.8 T  3.1 S (in)2 6.9 T  3.1 S (the)3 12.5 T  3.1 S (Cus-)4 18.8 T 
79.8 410.5 m (tomer)5 22.8 T  6 S (Responsibilities)16 61.9 T  6.1 S (section\
,)8 30.9 T  6.1 S (or)2 7.9 T  6.1 S (in)2 6.9 T  6.1 S (Europe,)7 31.4 T  
6.1 S (PTT)3 16.8 T 79.8 400.5 m (approved)8 37.4 T  4.5 S (modems)6 34.3 T 
f2 s 67.8 385.5 m (SOFTWARE)8 51 T  4.5 S (REQUIREMENTS*)13 75.4 T f4 s 67.8 
370.5 m (VMS)3 19.4 T  4.5 S (Operating)9 39.3 T  4.5 S (System)6 29.9 T 
67.8 355.5 m (DECnet-VAX)10 52.2 T 67.8 340.5 m (DECnet/SNA)10 52.2 T  3 S (V\
MS)3 19.4 T  3.1 S (Gateway)7 35.4 T  3.1 S (Management)10 52.3 T  3.1 S (for\
)3 10.4 T  3.1 S (each)4 19.5 T  3.1 S (VMS)3 19.4 T 67.8 330.5 m (load)4 
16.9 T  4.5 S (host.)5 19.5 T 67.8 315.5 m (*)1 3.5 T 79.8 315.5 m (Refer)5 
23.3 T  6.2 S (to)2 8.1 T  6.2 S (the)3 13.4 T  6.2 S (System)6 31.7 T  6.3 
S (Support)7 33.5 T  6.3 S (Addendum)8 45.8 T  6.3 S (\(SSA)4 22.1 T 79.8 
305.5 m (25.C6.01-x\))11 46.7 T  4.7 S (for)3 10.4 T  4.7 S (availability)12 
41 T  4.7 S (and)3 15 T  4.8 S (required)8 32.7 T  4.8 S (versions)8 33.3 T  
4.8 S (of)2 7.5 T 79.8 295.5 m (prerequisite/optional)21 80.4 T  4.5 S (softw\
are.)9 36.3 T f2 s 67.8 280.5 m (ORDERING)8 48.1 T  4.5 S (INFORMATION)11 
62.8 T f4 s 67.8 265.5 m (Software)8 35.3 T  4.5 S (Licenses:)9 37.9 T  4.5 
S (QL-S01AA-AA)11 57.8 T 67.8 255.5 m (Software)8 35.3 T  4.5 S (Media:)6 
26.8 T  4.5 S (QA-S01AA-**)11 53.8 T 67.8 245.5 m (Software)8 35.3 T  4.5 S (\
Documentation:)14 62.7 T  4.5 S (QA-S01AA-GZ)11 59.2 T 67.8 235.5 m (Software\
)8 35.3 T  4.5 S (Product)7 30.9 T  4.5 S (Services:)9 36.8 T  4.5 S (QT-S01A\
*-**)11 50.7 T 67.8 220.5 m (*)1 3.5 T 79.8 220.5 m (Denotes)7 33.4 T  4.3 S 
(variant)7 26.8 T  4.3 S (fields.)7 23.3 T  4.3 S (For)3 13.3 T  4.3 S (addit\
ional)10 38.2 T  4.4 S (information)11 44.1 T  4.4 S (on)2 10 T 79.8 210.5 m 
(available)9 35.2 T  4.2 S (licenses,)9 34.8 T  4.2 S (services,)9 35.3 T  
4.2 S (and)3 15 T  4.2 S (media,)6 26.8 T  4.3 S (refer)5 18.3 T  4.3 S 
(to)2 7.5 T  4.3 S (the)3 12.5 T 79.8 200.5 m (appropriate)11 45.2 T  4.5 S (\
price)5 19.3 T  4.5 S (book.)5 22 T f2 s 67.8 185.5 m (SOFTWARE)8 51 T  4.5 
S (LICENSING)9 48.6 T f4 s 67.8 170.5 m (You)3 16 T  6 S (will)4 12.1 T  6 S 
(need)4 20 T  6.1 S (to)2 7.5 T  6.1 S (purchase)8 36.9 T  6.1 S (a)1 5 T  
6.1 S (separate)8 34.9 T  6.1 S (DECnet/SNA)10 52.2 T 67.8 160.5 m (Gateway-S\
T)10 49.7 T  4 S (license)7 27.8 T  4 S (for)3 10.4 T  4.1 S (each)4 19.5 T  
4.1 S (DEC)3 18.8 T  4.1 S (MicroServer)11 48 T  4.1 S (unit)4 14.4 T  4.1 S 
(on)2 10 T 67.8 150.5 m (which)5 22.8 T  3.4 S (you)3 14.5 T  3.4 S (will)4 
12.1 T  3.4 S (be)2 10 T  3.5 S (using)5 21.4 T  3.5 S (the)3 12.5 T  3.5 S (\
software)8 33.8 T  3.5 S (product)7 29.9 T  3.5 S (\(except)7 29.4 T  3.5 S (\
as)2 9.5 T 67.8 140.5 m (otherwise)9 38.2 T  4.5 S (specified)9 35.3 T  4.5 
S (by)2 9.5 T  4.5 S (DIGITAL\).)9 40.2 T 67.8 125.5 m (The)3 15.4 T  4.4 S (\
licensing)9 34.7 T  4.4 S (provisions)10 40.2 T  4.4 S (of)2 7.5 T  4.4 S (DI\
GITAL's)9 41.2 T  4.4 S (Standard)8 36.4 T  4.5 S (Terms)5 25.2 T 67.8 115.5 
m (and)3 15 T  3 S (Conditions)10 42.2 T  3 S (provide)7 29.3 T  3 S (in)2 
6.9 T  3 S (part)4 15.4 T  3.1 S (that)4 15 T  3.1 S (the)3 12.5 T  3.1 S (so\
ftware)8 33.8 T  3.1 S (and)3 15 T  3.1 S (any)3 14.5 T 67.8 105.5 m (part)4 
15.4 T  4.8 S (thereof)7 27.9 T  4.8 S (\(but)4 15.4 T  4.8 S (excluding)9 
37.8 T  4.9 S (those)5 22 T  4.9 S (parts)5 19.9 T  4.9 S (specific)8 29.8 T 
 4.9 S (to)2 7.5 T  4.9 S (the)3 12.5 T 67.8 95.5 m (load)4 16.9 T  6.4 S (ho\
sts\))6 24.4 T  6.5 S (may)3 16.9 T  6.5 S (be)2 10 T  6.5 S (used)4 19.5 T  
6.5 S (only)4 16.4 T  6.5 S (on)2 10 T  6.5 S (the)3 12.5 T  6.5 S (single)6 
23.3 T  6.5 S (DEC)3 18.8 T 318.8 681.1 m (MicroServer)11 48 T  2.6 S (hardwa\
re)8 37.2 T  2.6 S (unit)4 14.4 T  2.6 S (on)2 10 T  2.6 S (which)5 22.8 T  
2.7 S (the)3 12.5 T  2.7 S (software)8 33.8 T  2.7 S (is)2 6.4 T  2.7 S (oper\
-)5 20.8 T 318.8 671.1 m (ated,)5 20 T  4.2 S (but)3 12.5 T  4.3 S (may)3 
16.9 T  4.3 S (be)2 10 T  4.3 S (copied,)7 28.9 T  4.3 S (in)2 6.9 T  4.3 S (\
whole)5 23.3 T  4.3 S (or)2 7.9 T  4.3 S (in)2 6.9 T  4.3 S (part)4 15.4 T  
4.3 S (\(with)5 18.7 T  4.3 S (the)3 12.5 T 318.8 661.1 m (proper)6 25.8 T  
4 S (inclusion)9 34.7 T  4 S (of)2 7.5 T  4 S (DIGITAL's)9 41.2 T  4 S (copyr\
ight)9 36.3 T  4 S (notice)6 23.9 T  4.1 S (and)3 15 T  4.1 S (any)3 14.5 T 
318.8 651.1 m (proprietary)11 42.6 T  5.4 S (notices)7 28.4 T  5.4 S (on)2 
10 T  5.4 S (the)3 12.5 T  5.4 S (software\))9 36.7 T  5.4 S (between)7 33.9 
T  5.4 S (multiple)8 30.6 T 318.8 641.1 m (load)4 16.9 T  4.5 S (hosts)5 
21.5 T  4.5 S (on)2 10 T  4.5 S (the)3 12.5 T  4.5 S (same)4 21.9 T  4.5 S (L\
AN.)4 19.9 T 318.8 626.1 m (This)4 16.8 T  3.2 S (software)8 33.8 T  3.3 S (i\
s)2 6.4 T  3.3 S (furnished)9 36.8 T  3.3 S (under)5 22.9 T  3.3 S (the)3 
12.5 T  3.3 S (licensing)9 34.7 T  3.3 S (provisions)10 40.2 T 318.8 616.1 m 
(of)2 7.5 T  3.3 S (DIGITAL's)9 41.2 T  3.3 S (Standard)8 36.4 T  3.3 S (Term\
s)5 25.2 T  3.4 S (and)3 15 T  3.4 S (Conditions.)11 44.7 T  3.4 S (For)3 
13.3 T  3.4 S (more)4 20.3 T 318.8 606.1 m (information)11 44.1 T  2.5 S (abo\
ut)5 22.5 T  2.5 S (DIGITAL's)9 41.2 T  2.5 S (licensing)9 34.7 T  2.5 S (ter\
ms)5 22.3 T  2.5 S (and)3 15 T  2.6 S (policies,)9 32.2 T 318.8 596.1 m (cont\
act)7 29 T  4.5 S (your)4 17.4 T  4.5 S (local)5 18.3 T  4.5 S (DIGITAL)7 
34.8 T  4.5 S (office.)7 23.9 T f2 s 318.8 581.1 m (SOFTWARE)8 51 T  4.5 S (P\
RODUCT)7 44 T  4.5 S (SERVICES)8 45.3 T 318.8 566.1 m (DECnet/SNA)10 53.4 T  
6.6 S (Gateway)7 36.9 T  6.6 S (Orientation)11 47.5 T  6.6 S (and)3 15.8 T  
6.7 S (Installation)12 47 T 318.8 556.1 m (Service)7 32 T f4 s 318.8 541.1 m 
(The)3 15.4 T  12.8 S (Gateway)7 35.4 T  12.8 S (Orientation/Installation)24 
88.9 T  12.8 S (Service)7 29.8 T  12.8 S (is)2 6.4 T 318.8 531.1 m (REQUIRED)
8 47.1 T  3.7 S (in)2 6.9 T  3.7 S (conjunction)11 45.3 T  3.7 S (with)4 
15.8 T  3.7 S (the)3 12.5 T  3.8 S (customer's)10 43.2 T  3.8 S (first)5 
14.3 T  3.8 S (pur-)4 15.8 T 318.8 521.1 m (chase)5 24 T  3.3 S (of)2 7.5 T  
3.3 S (a)1 5 T  3.3 S (DECnet/SNA)10 52.2 T  3.3 S (Gateway)7 35.4 T  3.3 S (\
if)2 4.4 T  3.4 S (the)3 12.5 T  3.4 S (installation)12 42.1 T  3.4 S (is)2 
6.4 T  3.4 S (to)2 7.5 T 318.8 511.1 m (be)2 10 T  2.5 S (warranted)9 39.7 T 
 2.5 S (and)3 15 T  2.5 S (supported)9 39.9 T  2.5 S (by)2 9.5 T  2.6 S (DIGI\
TAL.)8 37.3 T  2.6 S (The)3 15.4 T  2.6 S (purpose)7 32.4 T  2.6 S (of)2 7.5 
T 318.8 501.1 m (this)4 13.9 T  9 S (service)7 28.3 T  9 S (is)2 6.4 T  9 S (\
to)2 7.5 T  9 S (insure)6 24.3 T  9 S (the)3 12.5 T  9 S (installation)12 
42.1 T  9 S (of)2 7.5 T  9.1 S (the)3 12.5 T 318.8 491.1 m (DECnet/SNA)10 
52.2 T  4.2 S (Gateway)7 35.4 T  4.2 S (will)4 12.1 T  4.2 S (be)2 10 T  4.3 
S (completed)9 41.3 T  4.3 S (and)3 15 T  4.3 S (eliminate)9 35.6 T 318.8 
481.1 m (start-up)8 30.3 T  4.5 S (problems.)9 39.2 T  4.5 S (It)2 5 T  4.5 
S (includes)8 32.8 T  4.5 S (the)3 12.5 T  4.5 S (following)9 34.6 T  4.5 S (\
activities:)11 36.7 T f9 s 318.8 466.1 m (\267)1 5.5 T f4 s 330.8 466.1 m (Ve\
rify)6 22.8 T  3.5 S (IBM)3 15.9 T  3.5 S (and)3 15 T  3.5 S (DIGITAL)7 34.8 
T  3.5 S (hardware)8 37.2 T  3.6 S (and)3 15 T  3.6 S (software)8 33.8 T  
3.6 S (pre-)4 15.8 T 330.8 455.3 m (requisites.)11 40.7 T f9 s 318.8 440.3 m 
(\267)1 5.5 T f4 s 330.8 440.3 m (Coordinate)10 43.7 T  2.8 S (customer)8 
36.8 T  2.8 S (MIS)3 15.9 T  2.8 S (and)3 15 T  2.8 S (DIGITAL)7 34.8 T  2.8 
S (Software)8 35.3 T  2.8 S (Ser-)4 16.8 T 330.8 429.5 m (vices)5 20.4 T  
4.5 S (resources.)10 41.8 T f9 s 318.8 414.5 m (\267)1 5.5 T f4 s 330.8 
414.5 m (Review)6 29.2 T  4.5 S (IBM)3 15.9 T  4.5 S (system)6 28.4 T  4.5 S 
(generation)10 42.3 T  4.5 S (parameters.)11 47.7 T f9 s 318.8 398.7 m (\267)
1 5.5 T f4 s 330.8 398.7 m (Install)7 23.3 T  4 S (the)3 12.5 T  4 S (DECnet/\
SNA)10 52.2 T  4 S (Gateway)7 35.4 T  4 S (and)3 15 T  4.1 S (any)3 14.5 T  
4.1 S (load)4 16.9 T  4.1 S (host)4 17 T 330.8 387.9 m (resident)8 31.8 T  
4.2 S (DECnet/SNA)10 52.2 T  4.2 S (VMS)3 19.4 T  4.2 S (Gateway)7 35.4 T  
4.2 S (access)6 28 T  4.2 S (routine)7 27.3 T 330.8 377.9 m (software)8 33.8 
T  4.7 S (which)5 22.8 T  4.8 S (has)3 14.5 T  4.8 S (been)4 20 T  4.8 S (ord\
ered)7 30.8 T  4.8 S (concurrently)12 48.7 T  4.8 S (with)4 15.8 T 330.8 
367.9 m (the)3 12.5 T  2.5 S (DECnet/SNA)10 52.2 T  2.5 S (Gateway)7 35.4 T  
2.5 S (for)3 10.4 T  2.5 S (the)3 12.5 T  2.5 S (first)5 14.3 T  2.6 S 
(VAX)3 18 T  2.6 S (host)4 17 T  2.6 S (node.)5 22.5 T f9 s 318.8 352.9 m 
(\267)1 5.5 T f4 s 330.8 352.9 m (Verify)6 22.8 T  3.8 S (connectivity)12 
46.8 T  3.8 S (between)7 33.9 T  3.8 S (installed)9 32.7 T  3.8 S (access)6 
28 T  3.9 S (routines)8 31.8 T 330.8 342.1 m (and)3 15 T  5.3 S (the)3 12.5 
T  5.3 S (IBM)3 15.9 T  5.3 S (system)6 28.4 T  5.3 S (if)2 4.4 T  5.3 S (it)
2 4.4 T  5.3 S (has)3 14.5 T  5.3 S (been)4 20 T  5.3 S (pre-configured)14 
57.6 T 330.8 332.1 m (according)9 38.8 T  3.8 S (to)2 7.5 T  3.8 S (the)3 
12.5 T  3.9 S (guidelines)10 40.2 T  3.9 S (provided)8 34.3 T  3.9 S (by)2 
9.5 T  3.9 S (DIGITAL)7 34.8 T  3.9 S (for)3 10.4 T 330.8 322.1 m (those)5 
22 T  3.4 S (products.)9 36.9 T  3.4 S (The)3 15.4 T  3.4 S (following)9 
34.6 T  3.4 S (access)6 28 T  3.5 S (routines)8 31.8 T  3.5 S (qualify)7 
25.8 T 330.8 312.1 m (for)3 10.4 T  4.5 S (this)4 13.9 T  4.5 S (verification\
:)13 45.1 T 330.8 297.1 m (\320)1 9 T 342.7 297.1 m (DECnet/SNA)10 52.2 T  
4.5 S (VMS)3 19.4 T  4.5 S (3270)4 20 T  4.5 S (Terminal)8 34.5 T  4.5 S (Emu\
lation)9 39.7 T 330.8 282.1 m (\320)1 9 T 342.7 282.1 m (DECnet/SNA)10 52.2 
T  4.2 S (VMS)3 19.4 T  4.2 S (DISOSS)6 33.9 T  4.2 S (Document)8 40.8 T  
4.3 S (Exchange)8 40 T 342.7 272.1 m (Facility)8 27.6 T 330.8 257.1 m 
(\320)1 9 T 342.7 257.1 m (DECnet/SNA)10 52.2 T  4.5 S (VMS)3 19.4 T  4.5 S (\
Printer)7 26.2 T  4.5 S (Emulation)9 39.7 T 330.8 242.1 m (\320)1 9 T 342.7 
242.1 m (DECnet/SNA)10 52.2 T  4.5 S (VMS)3 19.4 T  4.5 S (Remote)6 31.3 T  
4.5 S (Job)3 14.5 T  4.5 S (Entry)5 20.9 T 330.8 227.1 m (\320)1 9 T 342.7 
227.1 m (DECnet/SNA)10 52.2 T  4.5 S (Data)4 18.9 T  4.5 S (Transfer)8 33.2 
T  4.5 S (Facility)8 27.6 T 330.8 212.1 m (Connectivity)12 48.7 T  3.2 S (ver\
ification)12 42.6 T  3.2 S (of)2 7.5 T  3.2 S (the)3 12.5 T  3.3 S (DECnet/SN\
A)10 52.2 T  3.3 S (Gateway)7 35.4 T 330.8 202.1 m (with)4 15.8 T  4.1 S (acc\
ess)6 28 T  4.1 S (routine)7 27.3 T  4.1 S (products)8 34.4 T  4.1 S 
(other)5 20.4 T  4.1 S (than)4 17.5 T  4.2 S (those)5 22 T  4.2 S (listed)6 
20.8 T 330.8 192.1 m (above)5 24.5 T  3.9 S (will)4 12.1 T  3.9 S (be)2 10 T 
 4 S (done)4 20 T  4 S (using)5 21.4 T  4 S (the)3 12.5 T  4 S (Installation)
12 42.7 T  4 S (Verification)12 44.1 T 330.8 182.1 m (\(IVP\))5 20.3 T  7.3 
S (Software)8 35.3 T  7.3 S (Program)7 34.2 T  7.4 S (supplied)8 33.3 T  7.4 
S (with)4 15.8 T  7.4 S (the)3 12.5 T  7.4 S (each)4 19.5 T 330.8 172.1 m (ac\
cess)6 28 T  4.5 S (routine.)8 29.8 T 318.8 157.1 m (An)2 11 T  4 S (installa\
tion)12 42.1 T  4 S (service)7 28.3 T  4.1 S (is)2 6.4 T  4.1 S (available)9 
35.2 T  4.1 S (for)3 10.4 T  4.1 S (the)3 12.5 T  4.1 S (simultaneous)12 
52.7 T 318.8 147.1 m (installation)12 42.1 T  3.3 S (of)2 7.5 T  3.3 S 
(the)3 12.5 T  3.3 S (DECnet/SNA)10 52.2 T  3.3 S (access)6 28 T  3.3 S (rout\
ines)8 31.8 T  3.3 S (for)3 10.4 T  3.3 S (each)4 19.5 T 318.8 137.1 m (addit\
ional)10 38.2 T  4.5 S (VAX)3 18 T  4.5 S (system.)7 30.9 T 318.8 122.1 m (DI\
GITAL)7 34.8 T  2.5 S (will)4 12.1 T  2.5 S (provide)7 29.3 T  2.5 S 
(these)5 22 T  2.5 S (services)8 32.8 T  2.5 S (upon)4 20 T  2.5 S (customer)
8 36.8 T  2.6 S (notifi-)7 21.7 T 318.8 112.1 m (cation)6 23.9 T  4.7 S (that\
)4 15 T  4.7 S (the)3 12.5 T  4.8 S (system,)7 30.9 T  4.8 S (including)9 
35.2 T  4.8 S (all)3 8.8 T  4.8 S (prerequisite)12 46.6 T  4.8 S (hard-)5 
20.8 T 318.8 102.1 m (ware)4 19.3 T  3.6 S (and)3 15 T  3.6 S (software,)9 
36.3 T  3.6 S (is)2 6.4 T  3.6 S (ready)5 22.4 T  3.6 S (for)3 10.4 T  3.6 S 
(installation)12 42.1 T  3.6 S (according)9 38.8 T  3.7 S (to)2 7.5 T 318.8 
92.1 m (the)3 12.5 T  3.3 S (guidelines)10 40.2 T  3.3 S (listed)6 20.8 T  
3.3 S (in)2 6.9 T  3.3 S (the)3 12.5 T  3.3 S (Customer)8 38.7 T  3.3 S (Resp\
onsibilities)16 61.9 T  3.4 S (for)3 10.4 T 67.8 44.6 m  229.2 S f2 s (-)1 
2.9 T  4.5 S (3)1 5 T  4.5 S (-)1 2.9 T  229.2 S showpage
%%Page: 3 4
535.2 44.6 m f2 s 67.8 721 m (DECnet/SNA)10 53.4 T  4.5 S (Gateway)7 36.9 T  
324.1 S (SPD)3 18.4 T  4.5 S (25.C6.01)8 36.4 T 67.8 711 m (for)3 11.8 T  
4.5 S (Synchronous)11 56.9 T  4.5 S (Transport,)10 44 T  4.5 S (Version)7 
32.8 T  4.5 S (1.1)3 12.5 T f4 s 67.8 681.1 m (INSTALLATION)12 63.6 T  9.5 S 
(section)7 28.4 T  9.5 S (of)2 7.5 T  9.5 S (this)4 13.9 T  9.5 S 
(Software)8 35.3 T  9.5 S (Product)7 30.9 T 67.8 671.1 m (Description.)12 
47.1 T  4.6 S (Contact)7 30.9 T  4.6 S (your)4 17.4 T  4.6 S (local)5 18.3 T 
 4.7 S (Field)5 19.2 T  4.7 S (Service)7 29.8 T  4.7 S (office)6 21.4 T  4.7 
S (for)3 10.4 T 67.8 661.1 m (additional)10 38.2 T  4.5 S (information)11 
44.1 T  4.5 S (on)2 10 T  4.5 S (these)5 22 T  4.5 S (services.)9 35.3 T f2 
s 67.8 646.1 m (SOFTWARE)8 51 T  4.5 S (WARRANTY)8 51.8 T f4 s 67.8 631.1 m (\
Warranty)8 36.2 T  7.5 S (for)3 10.4 T  7.5 S (this)4 13.9 T  7.5 S (software\
)8 33.8 T  7.5 S (product)7 29.9 T  7.5 S (is)2 6.4 T  7.6 S (provided)8 
34.3 T  7.6 S (by)2 9.5 T 67.8 621.1 m (DIGITAL)7 34.8 T  3.7 S (with)4 15.8 
T  3.7 S (the)3 12.5 T  3.8 S (purchase)8 36.9 T  3.8 S (of)2 7.5 T  3.8 S (a\
)1 5 T  3.8 S (license)7 27.8 T  3.8 S (for)3 10.4 T  3.8 S (the)3 12.5 T  
3.8 S (product)7 29.9 T 67.8 611.1 m (as)2 9.5 T  4 S (defined)7 29.4 T  4 S 
(in)2 6.9 T  4 S (the)3 12.5 T  4.1 S (Software)8 35.3 T  4.1 S (Warranty)8 
36.2 T  4.1 S (Addendum)8 43.4 T  4.1 S (of)2 7.5 T  4.1 S (this)4 13.9 T 
67.8 601.1 m (SPD.)4 20.9 T f2 s 67.8 586.1 m (WARRANTY)8 51.8 T  4.5 S (LIMI\
TATIONS)11 56.9 T 67.8 571.1 m (IBM)3 16.3 T  4.5 S (Supported)9 44.4 T  4.5 
S (Configurations)14 63.1 T f4 s 67.8 556.1 m (This)4 16.8 T  3 S (product)7 
29.9 T  3 S (has)3 14.5 T  3 S (been)4 20 T  3 S (designed)8 36.4 T  3 S (to)
2 7.5 T  3.1 S (operate)7 30.4 T  3.1 S (with)4 15.8 T  3.1 S (the)3 12.5 T  
3.1 S (IBM)3 15.9 T 67.8 546.1 m (host)4 17 T  5.7 S (systems)7 32.9 T  5.7 
S (and)3 15 T  5.7 S (software)8 33.8 T  5.7 S (subsystems)10 47.4 T  5.8 S (\
listed)6 20.8 T  5.8 S (below.)6 25.8 T 67.8 536.1 m (While)5 22.2 T  2.8 S (\
this)4 13.9 T  2.9 S (software)8 33.8 T  2.9 S (may)3 16.9 T  2.9 S (function\
)8 31.4 T  2.9 S (correctly)9 33.7 T  2.9 S (with)4 15.8 T  2.9 S (other)5 
20.4 T  2.9 S (IBM)3 15.9 T 67.8 526.1 m (software)8 33.8 T  4.8 S (and)3 15 
T  4.8 S (equipment,)10 44.3 T  4.8 S (and)3 15 T  4.8 S (with)4 15.8 T  4.8 
S (hardware)8 37.2 T  4.8 S (and)3 15 T  4.8 S (soft-)5 17.4 T 67.8 516.1 m (\
ware)4 19.3 T  3.1 S (other)5 20.4 T  3.1 S (than)4 17.5 T  3.1 S (that)4 15 
T  3.2 S (supported)9 39.9 T  3.2 S (by)2 9.5 T  3.2 S (IBM,)4 18.4 T  3.2 S 
(DIGITAL)7 34.8 T  3.2 S (cannot)6 27 T 67.8 506.1 m (offer)5 17.9 T  3.5 S (\
its)3 8.9 T  3.5 S (standard)8 34.9 T  3.6 S (warranty)8 34.2 T  3.6 S 
(for)3 10.4 T  3.6 S (this)4 13.9 T  3.6 S (product)7 29.9 T  3.6 S 
(unless)6 25.9 T  3.6 S (it)2 4.4 T  3.6 S (has)3 14.5 T 67.8 496.1 m 
(been)4 20 T  2.5 S (tested)6 24.5 T  2.5 S (with)4 15.8 T  2.5 S (such)4 19 
T  2.5 S (equipment)9 41.8 T  2.5 S (and)3 15 T  2.5 S (software)8 33.8 T  
2.5 S (configura-)10 39.7 T 67.8 486.1 m (tions)5 18.9 T  4.5 S (and)3 15 T  
4.5 S (found)5 22.5 T  4.5 S (acceptable)10 43.4 T  4.5 S (to)2 7.5 T  4.5 S 
(DIGITAL.)8 37.3 T 67.8 471.1 m (The)3 15.4 T  2.8 S (DECnet/SNA)10 52.2 T  
2.8 S (Gateway-ST)10 49.7 T  2.8 S (software)8 33.8 T  2.8 S (has)3 14.5 T  
2.9 S (been)4 20 T  2.9 S (tested)6 24.5 T 67.8 461.1 m (and)3 15 T  2.8 S (w\
arranted)9 39.7 T  2.8 S (with)4 15.8 T  2.9 S (the)3 12.5 T  2.9 S (followin\
g)9 34.6 T  2.9 S (IBM)3 15.9 T  2.9 S (software)8 33.8 T  2.9 S (configura-)
10 39.7 T 67.8 451.1 m (tions:)6 21.4 T 68.7 444.4 m -0.5 L GS 112.6 1 R GR  
112.6 S 0.5 L 68.7 428.4 m -0.5 L GS 112.6 1 R GR  112.6 S 0.5 L f2 s 68.7 
433.1 m (Software)8 37.7 T  4.5 S (Product)7 33.6 T 181.3 444.4 m -0.5 L GS 
56.3 1 R GR  56.3 S 0.5 L 181.3 428.4 m -0.5 L GS 56.3 1 R GR  56.3 S 0.5 L 
193 433.1 m (Version)7 32.8 T 237.6 444.4 m -0.5 L GS 56.4 1 R GR  56.4 S 
0.5 L 237.6 428.4 m -0.5 L GS 56.4 1 R GR  56.4 S 0.5 L 248.8 433.1 m (Releas\
e)7 33.9 T 68.7 428.4 m -0.5 L GS 225.3 1 R GR  225.3 S 0.5 L 68.7 412.4 m 
-0.5 L GS 225.3 1 R GR  225.3 S 0.5 L f4 s 68.7 417.1 m (IBM)3 15.9 T  4.5 S 
(MVS)3 19.4 T  4.5 S (Environment)11 50.2 T 68.7 412.4 m -0.5 L GS 112.6 1 R 
GR  112.6 S 0.5 L 68.7 386.4 m -0.5 L GS 112.6 1 R GR  112.6 S 0.5 L 68.7 
401.1 m (MVS/SP)6 33.9 T 181.3 412.4 m -0.5 L GS 56.3 1 R GR  56.3 S 0.5 L 
181.3 386.4 m -0.5 L GS 56.3 1 R GR  56.3 S 0.5 L 206.9 401.1 m (2)1 5 T 
206.9 391.1 m (3)1 5 T 237.6 412.4 m -0.5 L GS 56.4 1 R GR  56.4 S 0.5 L 
237.6 386.4 m -0.5 L GS 56.4 1 R GR  56.4 S 0.5 L 259.5 401.1 m (2.0)3 12.5 
T 259.5 391.1 m (1.0)3 12.5 T 68.7 386.4 m -0.5 L GS 112.6 1 R GR  112.6 S 
0.5 L 68.7 360.4 m -0.5 L GS 112.6 1 R GR  112.6 S 0.5 L 68.7 375.1 m (ACF/VT\
AM)8 45.1 T 181.3 386.4 m -0.5 L GS 56.3 1 R GR  56.3 S 0.5 L 181.3 360.4 m 
-0.5 L GS 56.3 1 R GR  56.3 S 0.5 L 206.9 375.1 m (3)1 5 T 206.9 365.1 m 
(3)1 5 T 237.6 386.4 m -0.5 L GS 56.4 1 R GR  56.4 S 0.5 L 237.6 360.4 m 
-0.5 L GS 56.4 1 R GR  56.4 S 0.5 L 259.5 375.1 m (1.1)3 12.5 T 259.5 365.1 
m (2.0)3 12.5 T 68.7 360.4 m -0.5 L GS 112.6 1 R GR  112.6 S 0.5 L 68.7 
314.4 m -0.5 L GS 112.6 1 R GR  112.6 S 0.5 L 68.7 349.1 m (ACF/NCP)7 39.1 T 
181.3 360.4 m -0.5 L GS 56.3 1 R GR  56.3 S 0.5 L 181.3 314.4 m -0.5 L GS 
56.3 1 R GR  56.3 S 0.5 L 206.9 349.1 m (4)1 5 T 206.9 339.1 m (4)1 5 T 
206.9 329.1 m (5)1 5 T 206.9 319.1 m (5)1 5 T 237.6 360.4 m -0.5 L GS 56.4 1 
R GR  56.4 S 0.5 L 237.6 314.4 m -0.5 L GS 56.4 1 R GR  56.4 S 0.5 L 259.5 
349.1 m (2.0)3 12.5 T 259.5 339.1 m (3.0)3 12.5 T 259.5 329.1 m (1.0)3 12.5 
T 259.5 319.1 m (2.0)3 12.5 T 68.7 314.4 m -0.5 L GS 225.3 1 R GR  225.3 S 
0.5 L 68.7 298.4 m -0.5 L GS 225.3 1 R GR  225.3 S 0.5 L 68.7 303.1 m (IBM)3 
15.9 T  4.5 S (VM)2 13.4 T  4.5 S (Environment)11 50.2 T 68.7 298.4 m -0.5 L 
GS 112.6 1 R GR  112.6 S 0.5 L 68.7 272.4 m -0.5 L GS 112.6 1 R GR  112.6 S 
0.5 L 68.7 287.1 m (VM/SP)5 27.9 T 68.7 277.1 m (VM/XA)5 27.9 T  4.5 S (SP)2 
12 T 181.3 298.4 m -0.5 L GS 56.3 1 R GR  56.3 S 0.5 L 181.3 272.4 m -0.5 L 
GS 56.3 1 R GR  56.3 S 0.5 L 204.9 287.1 m  9 S 206.9 277.1 m (1)1 5 T 237.6 
298.4 m -0.5 L GS 56.4 1 R GR  56.4 S 0.5 L 237.6 272.4 m -0.5 L GS 56.4 1 R 
GR  56.4 S 0.5 L 259.5 287.1 m (5.0)3 12.5 T 259.5 277.1 m (2.0)3 12.5 T 
68.7 272.4 m -0.5 L GS 112.6 1 R GR  112.6 S 0.5 L 68.7 246.4 m -0.5 L GS 
112.6 1 R GR  112.6 S 0.5 L 68.7 261.1 m (ACF/VTAM)8 45.1 T 181.3 272.4 m 
-0.5 L GS 56.3 1 R GR  56.3 S 0.5 L 181.3 246.4 m -0.5 L GS 56.3 1 R GR  
56.3 S 0.5 L 206.9 261.1 m (3)1 5 T 206.9 251.1 m (3)1 5 T 237.6 272.4 m 
-0.5 L GS 56.4 1 R GR  56.4 S 0.5 L 237.6 246.4 m -0.5 L GS 56.4 1 R GR  
56.4 S 0.5 L 259.5 261.1 m (1.1)3 12.5 T 259.5 251.1 m (2.0)3 12.5 T 68.7 
246.4 m -0.5 L GS 112.6 1 R GR  112.6 S 0.5 L 68.7 200.4 m -0.5 L GS 112.6 1 
R GR  112.6 S 0.5 L 68.7 235.1 m (ACF/NCP)7 39.1 T 181.3 246.4 m -0.5 L GS 
56.3 1 R GR  56.3 S 0.5 L 181.3 200.4 m -0.5 L GS 56.3 1 R GR  56.3 S 0.5 L 
206.9 235.1 m (4)1 5 T 206.9 225.1 m (4)1 5 T 206.9 215.1 m (5)1 5 T 206.9 
205.1 m (5)1 5 T 237.6 246.4 m -0.5 L GS 56.4 1 R GR  56.4 S 0.5 L 237.6 
200.4 m -0.5 L GS 56.4 1 R GR  56.4 S 0.5 L 259.5 235.1 m (2.0)3 12.5 T 
259.5 225.1 m (3.0)3 12.5 T 259.5 215.1 m (1.0)3 12.5 T 259.5 205.1 m (2.0)3 
12.5 T 68.7 200.4 m -0.5 L GS 225.3 1 R GR  225.3 S 0.5 L 68.7 184.4 m -0.5 
L GS 225.3 1 R GR  225.3 S 0.5 L 68.7 189.1 m (IBM)3 15.9 T  4.5 S 
(DOS/VSE)7 39.9 T  4.5 S (Environment)11 50.2 T 68.7 184.4 m -0.5 L GS 112.6 
1 R GR  112.6 S 0.5 L 68.7 168.4 m -0.5 L GS 112.6 1 R GR  112.6 S 0.5 L 
68.7 173.1 m (VSE/SP)6 32.5 T 181.3 184.4 m -0.5 L GS 56.3 1 R GR  56.3 S 
0.5 L 181.3 168.4 m -0.5 L GS 56.3 1 R GR  56.3 S 0.5 L 206.9 173.1 m (2)1 5 
T 237.6 184.4 m -0.5 L GS 56.4 1 R GR  56.4 S 0.5 L 237.6 168.4 m -0.5 L GS 
56.4 1 R GR  56.4 S 0.5 L 259.5 173.1 m (1.6)3 12.5 T 68.7 168.4 m -0.5 L GS 
112.6 1 R GR  112.6 S 0.5 L 68.7 152.4 m -0.5 L GS 112.6 1 R GR  112.6 S 0.5 
L 68.7 157.1 m (ACF/VTAM)8 45.1 T 181.3 168.4 m -0.5 L GS 56.3 1 R GR  56.3 
S 0.5 L 181.3 152.4 m -0.5 L GS 56.3 1 R GR  56.3 S 0.5 L 206.9 157.1 m (3)1 
5 T 237.6 168.4 m -0.5 L GS 56.4 1 R GR  56.4 S 0.5 L 237.6 152.4 m -0.5 L 
GS 56.4 1 R GR  56.4 S 0.5 L 259.5 157.1 m (1.0)3 12.5 T 68.7 152.4 m -0.5 L 
GS 112.6 1 R GR  112.6 S 0.5 L 68.7 136.4 m -0.5 L GS 112.6 1 R GR  112.6 S 
0.5 L 68.7 141.1 m (ACF/NCP)7 39.1 T 181.3 152.4 m -0.5 L GS 56.3 1 R GR  
56.3 S 0.5 L 181.3 136.4 m -0.5 L GS 56.3 1 R GR  56.3 S 0.5 L 206.9 141.1 m 
(4)1 5 T 237.6 152.4 m -0.5 L GS 56.4 1 R GR  56.4 S 0.5 L 237.6 136.4 m 
-0.5 L GS 56.4 1 R GR  56.4 S 0.5 L 259.5 141.1 m (1.0)3 12.5 T 318.8 681.1 
m (For)3 13.3 T  3.4 S (a)1 5 T  3.4 S (complete)8 36.3 T  3.5 S (list)4 
10.8 T  3.5 S (of)2 7.5 T  3.5 S (IBM)3 15.9 T  3.5 S (application)11 42.7 T 
 3.5 S (subsystems)10 47.4 T  3.5 S (\(e.g.,)6 20.4 T 318.8 671.1 m 
(CICS/VS\))8 38.7 T  3.3 S (that)4 15 T  3.3 S (the)3 12.5 T  3.3 S (various)
7 28.8 T  3.4 S (DECnet/SNA)10 52.2 T  3.4 S (access)6 28 T  3.4 S (routines)
8 31.8 T 318.8 661.1 m (have)4 19.5 T  3.4 S (been)4 20 T  3.4 S 
(certified)9 31.2 T  3.4 S (against)7 28.9 T  3.4 S (and)3 15 T  3.4 S (that)
4 15 T  3.4 S (are)3 12.9 T  3.4 S (supported)9 39.9 T  3.5 S (con-)4 17.4 T 
318.8 651.1 m (figurations)11 41.2 T  5.1 S (by)2 9.5 T  5.1 S (DIGITAL,)8 
37.3 T  5.2 S (please)6 26.4 T  5.2 S (consult)7 28.4 T  5.2 S (the)3 12.5 T 
 5.2 S (respective)10 40.8 T 318.8 641.1 m (access)6 28 T  4.3 S (routine)7 
27.3 T  4.4 S (Software)8 35.3 T  4.4 S (Product)7 30.9 T  4.4 S (Description\
.)12 47.1 T  4.4 S (\(Refer)6 24.7 T  4.4 S (to)2 7.5 T 318.8 631.1 m (the)3 
12.5 T  2.7 S (table)5 19.4 T  2.7 S (provided)8 34.3 T  2.7 S (in)2 6.9 T  
2.7 S (the)3 12.5 T  2.7 S (Optional)8 33.3 T  2.7 S (Software)8 35.3 T  2.7 
S (section)7 28.4 T  2.8 S (of)2 7.5 T  2.8 S (the)3 12.5 T 318.8 621.1 m (Sy\
stem)6 29.9 T  4.5 S (Support)7 31.4 T  4.5 S (Addendum.\))10 48.8 T 67.8 
44.6 m  229.2 S f2 s (-)1 2.9 T  4.5 S (4)1 5 T  4.5 S (-)1 2.9 T  229.2 S 
showpage
535.2 44.6 m  restore
%%Pages: 4
