%!PS-Adobe-1.0

%%Title: GEM02D$:[DUNCAN.WPSPLUS]0002243LSPD8.TMS;1

%%Creator: DECpage V3.0

%%CreationDate:  6-SEP-1989 15:10:35.55

%%Pages: (at end)

%%DocumentFonts: (atend)

%%EndComments

statusdict begin 0 setjobtimeout end

/CF /currentfont load def

/CP /currentpoint load def

/FF /findfont load def

/GR /grestore load def 

/GS /gsave load def

/LI /lineto load def

/MF /makefont load def 

/MO /moveto load def

/RL /rlineto load def

/RM /rmoveto load def

/RO /rotate load def

/SC /scale load def

/SD /setdash load def

/SE /setfont load def

/SF /scalefont load def

/SH /show load def

/ST /stroke load def

/SW /setlinewidth load def

/TR /translate load def



/BD {bind def} bind def

/DPT {FF exch SF SE}BD

/HTD{/ht exch def pop pop pop}BD

/MTCFP{false charpath flattenpath pathbbox}BD

/TCFP{true charpath flattenpath pathbbox}BD

  

% partial line up

/PLU {

 /CURSCAL CF /FontMatrix get 3 get 1000 mul def

  0 CURSCAL .5 mul RM

}BD

  

% partial line down

/PLD {

 /CURSCAL CF /FontMatrix get 3 get 1000 mul def

 0 CURSCAL -0.5 mul RM

}BD

  

/SavedX 0 def  

/SavedY 0 def  

/SavedString () def

/ShowInit

    {CP /SavedY exch def /SavedX exch def}BD

/bold

    {dup /SavedString exch def

    400 CF /FontMatrix get 3 get mul -12000 div 0 RM SH

    SavedX SavedY MO

    800 CF /FontMatrix get 3 get mul -12000 div 0 RM 

    SavedString SH

    SavedX SavedY MO

    SavedString SH

    }BD

/D1 

    {ShowInit bold}BD



% show string bold

/DPJB{

 /st 1 string def 

 /x exch def

 {st 0 3 -1 roll put st ( ) eq{x 0 RM}{st D1}ifelse}forall

}BD

% show string

/DPJ{( ) stringwidth pop sub 0 32 4 -1 roll widthshow}BD  



/DPF1

    {CP TR

    .5 .5 SC

    0 .6 DPFX mul MO SH

    .6 DPFX mul 0 MO SH

    0 0 MO 1.2 DPFX mul 1.2 DPFX mul LI ST

    GR

    .6 DPFX mul 0 RM

    }BD

  

% show fraction mono

/MDPF

    {exch

    GS

    /DPFX CF /FontMatrix get 3 get def

    DPF1

    }BD

/DPF1B

    {CP TR

    .5 .5 SC

    0 .6 DPFX mul MO D1

    .6 DPFX mul 0 MO D1

    0 0 MO 1.2 DPFX mul 1.2 DPFX mul LI ST

    GR

    .6 DPFX mul 0 RM

    }BD

  

% show fraction mono

/MDPFB

    {exch

    GS

    /DPFX CF /FontMatrix get 3 get def

    DPF1B

    }BD

  

% show fraction

/DPF{

 /CURSCAL CF /FontMatrix get 3 get 1000 mul def

 /den exch def

 /num exch def

 /regf CF def

 /frf CF [.65 0 0 .6 0 0] MF def

 GS newpath 0 0 MO /Symbol FF CURSCAL SF SE (\244) TCFP HTD GR 

 0 .4 ht mul RM frf SE num SH 0 .4 ht mul neg RM 

 /Symbol FF CURSCAL SF SE (\244) SH 

 frf SE den SH regf SE

}BD

  

% show sup/inf

/DPIS{

 /regf CF def

 /sy CP exch pop def

 /supinf CF [.65 0 0 .6 0 0] MF def 

 GS newpath 0 0 MO TCFP HTD GR 0 exch ht mul RM supinf SE SH regf SE 

 CP pop sy MO

}BD

  

% show sup

/DPS{.40 (I) DPIS}BD

  

%show inf

/DPI{dup -.15 exch DPIS}BD

  

% show mono sup

/MDPS{

 GS newpath 0 0 MO (1) MTCFP HTD GR 

 0 ht .5 mul RM SH

 0 ht -.5 mul RM

}BD

  

%show mono inf

/MDPI{

 GS newpath 0 0 MO (1) MTCFP HTD GR 

 0 ht -.5 mul RM SH

 0 ht .5 mul RM

}BD

% show mono sup

/MDPSB{

 GS newpath 0 0 MO (1) MTCFP HTD GR 

 0 ht .5 mul RM D1

 0 ht -.5 mul RM

}BD

  

%show mono inf

/MDPIB{

 GS newpath 0 0 MO (1) MTCFP HTD GR 

 0 ht -.5 mul RM D1

 0 ht .5 mul RM

}BD

  

/reencodedict 12 dict def

/ReEncode

  { reencodedict begin

    /newencoding exch def

    /newfontname exch def

    /basefontname exch def

    /basefontdict basefontname FF def

    /newfont basefontdict maxlength dict def

    basefontdict

    	{ exch dup /FID ne 

    	    {dup /Encoding eq

    		{exch dup length array copy 

    		    newfont 3 1 roll put}

	  	{ exch newfont 3 1 roll put }

	     ifelse

    	    }

	    { pop pop }

    	    ifelse

       } forall

  newfont /FontName newfontname put

  newencoding aload pop

  newencoding length 2 idiv

    {newfont /Encoding get 3 1 roll put}

    repeat

  newfontname newfont definefont pop

  end

 }BD

  

/DPMCS [

% DEC Supplemental side:

160 /.notdef

161 /exclamdown 

162 /cent 

163 /sterling 

164 /fraction 

165 /yen 

166 /.notdef

167 /section 

168 /currency 

169 /copyright 

170 /ordfeminine 

171 /guillemotleft 

172 /.notdef

173 /.notdef

174 /.notdef

175 /.notdef

176 /.notdef  % degree

177 /.notdef  % plus/minus

178 /.notdef  % superscript 2

179 /.notdef  % superscript 3

180 /.notdef

181 /.notdef  % micro

182 /paragraph 

183 /periodcentered 

184 /.notdef

185 /.notdef  % superscript 1

186 /ordmasculine 

187 /guillemotright 

188 /.notdef  % 1/4

189 /.notdef  % 1/2

190 /.notdef

191 /questiondown 

192 /Agrave 

193 /Aacute 

194 /Acircumflex 

195 /Atilde 

196 /Adieresis 

197 /Aring 

%198 /.notdef  % /AE 

198 /AE 

199 /Ccedilla 

200 /Egrave 

201 /Eacute 

202 /Ecircumflex 

203 /Edieresis 

204 /Igrave 

205 /Iacute 

206 /Icircumflex 

207 /Idieresis 

208 /.notdef

209 /Ntilde 

210 /Ograve 

211 /Oacute 

212 /Ocircumflex 

213 /Otilde 

214 /Odieresis 

%215 /.notdef  % /OE 

215 /OE 

216 /Oslash 

217 /Ugrave 

218 /Uacute 

219 /Ucircumflex 

220 /Udieresis 

221 /Ydieresis 

222 /.notdef

223 /germandbls 

224 /agrave 

225 /aacute 

226 /acircumflex 

227 /atilde 

228 /adieresis 

229 /aring 

%230 /.notdef %ae

230 /ae

231 /ccedilla 

232 /egrave 

233 /eacute 

234 /ecircumflex 

235 /edieresis 

236 /igrave 

237 /iacute 

238 /icircumflex 

239 /idieresis 

240 /.notdef

241 /ntilde 

242 /ograve 

243 /oacute 

244 /ocircumflex 

245 /otilde 

246 /odieresis 

%247 /.notdef %oe

247 /oe 

248 /oslash 

249 /ugrave 

250 /uacute 

251 /ucircumflex 

252 /udieresis 

253 /ydieresis 

254 /.notdef 

  

129 /grave 

130 /acute 

131 /circumflex 

132 /tilde 

133 /dieresis 

134 /ring 

135 /cedilla 

136 /dotlessi 

137 /macron

138 /breve

139 /dotaccent

140 /hungarumlaut

141 /ogonek

142 /caron

143 /endash

144 /emdash

145 /dagger

146 /daggerdbl

147 /bullet

148 /fi

149 /fl

150 /quotedblleft

151 /quotedblright

152 /registered

153 /trademark

154 /quotedblbase

] def

  

/cvc

{ 

( )

dup

0 

4 -1 roll

put

}BD

  

/Courier /CourierExtended DPMCS ReEncode

/ExtendedEncoding /CourierExtended FF /Encoding get def

/SymbolEncoding /Symbol FF /Encoding get def

  

/ExtendedDecoding ExtendedEncoding length dict def

ExtendedDecoding begin

0 1 ExtendedEncoding length 1 sub

{ 

dup

ExtendedEncoding exch get

exch def

}for

end

/SymbolDecoding SymbolEncoding length dict def

SymbolDecoding begin

0 1 SymbolEncoding length 1 sub

{ 

dup

SymbolEncoding exch get

exch def

}for

end

  

/BBox [0 -.25 .6 .75] def

  

/superscript

{/CourierExtended FF SE

.6667 .6667 SC

0 .2667 MO

SH

}BD

  

/diphthong

{ 

{/CourierExtended FF [.6667 0 .1786 1 0 0] MF SE}

{/CourierExtended FF [.66666667 0 0 1 0 0] MF SE}

ifelse

0 0 MO

CP TR

SH

/CourierExtended FF

[.6667 0 0 1 0 0] MF SE

.26 0 MO

SH

}BD

  

/ctrl

{/CourierExtended FF SE

.8333 .8333 SC

0 .3 MO

SH

.1371 -.3 MO

SH

}BD

  

/fraction

{/CourierExtended FF SE

.5 .5 SC

0 .6 MO

SH

.6 0 MO

SH

0 0 MO

1.2 1.2 LI

ST

}BD

  

/McsEncoding ExtendedEncoding def

McsEncoding

dup 169 /copyrightsans put

dup 176 /degree put

dup 177 /plusminus put

dup 178 /twosuper put

dup 179 /threesuper put

dup 181 /mu put

dup 185 /onesuper put

dup 188 /onefourth put

dup 189 /onehalf put

dup 198 /AE put

dup 215 /OE put

dup 230 /ae put

dup 247 /oe put

pop

  

/TcsEncoding  256 array def

32 1 94 {TcsEncoding exch dup McsEncoding exch get put} for

TcsEncoding

dup 95 /space put

dup 96 /diamond put

dup 97 /blob put

dup 98 /HT put

dup 99 /FF put

dup 100 /CR put

dup 101 /LF put

dup 102 /degree put

dup 103 /plusminus put

dup 104 /NL put

dup 105 /VT put

dup 106 /crnlr put

dup 107 /crnur put

dup 108 /crnul put

dup 109 /crnll put

dup 110 /cross put

dup 111 /scan1 put

dup 112 /scan3 put

dup 113 /scan5 put

dup 114 /scan7 put

dup 115 /scan9 put

dup 116 /tl put

dup 117 /tr put

dup 118 /tb put

dup 119 /tt put

dup 120 /vertical put

dup 121 /lessequal put

dup 122 /greaterequal put

dup 123 /pi put

dup 124 /notequal put

dup 125 /sterling put

dup 126 /periodcentered put

pop

TcsEncoding

dup 161 /radicalleft put

dup 162 /radicallefttp put

dup 163 /horizontalext put

dup 164 /integraltp put

dup 165 /integralbt put

dup 166 /verticalext put

dup 167 /bracketlefttp put

dup 168 /bracketleftbt put

dup 169 /bracketrighttp put

dup 170 /bracketrightbt put

dup 171 /bracelefttp put

dup 172 /braceleftbt put

dup 173 /bracerighttp put

dup 174 /bracerightbt put

dup 175 /braceleftmid put

dup 176 /bracerightmid put

dup 177 /sumtpleft put

dup 178 /sumbtleft put

dup 179 /sumtpvert put

dup 180 /sumbtvert put

dup 181 /sumtpright put

dup 182 /sumbtright put

dup 183 /sumrightmid put

dup 184 /questionreverse put

dup 185 /questionreverse put

dup 186 /questionreverse put

dup 187 /questionreverse put

dup 188 /lessequal put

dup 189 /notequal put

dup 190 /greaterequal put

dup 191 /integral put

dup 192 /therefore put

dup 193 /proportional put

dup 194 /infinity put

dup 195 /divide put

dup 196 /Delta put

dup 197 /gradient put

dup 198 /Phi put

dup 199 /Gamma put

dup 200 /similar put

dup 201 /approxequal put

dup 202 /Theta put

dup 203 /multiply put

dup 204 /Lambda put

dup 205 /arrowdblboth put

dup 206 /arrowdblright put

dup 207 /equivalence put

dup 208 /Pi put

dup 209 /Psi put

dup 210 /questionreverse put

dup 211 /Sigma put

dup 212 /questionreverse put

dup 213 /questionreverse put

dup 214 /radical put

dup 215 /Omega put

dup 216 /Xi put

dup 217 /Upsilon1 put

dup 218 /propersubset put

dup 219 /propersuperset put

dup 220 /intersection put

dup 221 /union put

dup 222 /logicaland put

dup 223 /logicalor put

dup 224 /logicalnot put

dup 225 /alpha put

dup 226 /beta put

dup 227 /chi put

dup 228 /delta put

dup 229 /epsilon put

dup 230 /phi put

dup 231 /gamma put

dup 232 /eta put

dup 233 /iota put

dup 234 /theta put

dup 235 /kappa put

dup 236 /lambda put

dup 237 /questionreverse put

dup 238 /nu put

dup 239 /partialdiff put

dup 240 /pi put

dup 241 /psi put

dup 242 /rho put

dup 243 /sigma put

dup 244 /tau put

dup 245 /questionreverse put

dup 246 /florin put

dup 247 /omega put

dup 248 /xi put

dup 249 /upsilon put

dup 250 /zeta put

dup 251 /arrowleft put

dup 252 /arrowup put

dup 253 /arrowright put

dup 254 /arrowdown put

pop

  

/CharStrings 61 dict def

CharStrings begin

/crnlr

{0 .25 MO

.3 .25 LI

.3 .75 LI

ST

}BD

/crnur

{0 .25 MO

.3 .25 LI

.3 -.25 LI

ST

}BD

/crnul

{.6 .25 MO

.3 .25 LI

.3 -.25 LI

ST

}BD

/crnll

{.6 .25 MO

.3 .25 LI

.3 .75 LI

ST

}BD

/cross

{0 .25 MO

.6 .25 LI

.3 .75 MO

.3 -.25 LI

ST

}BD

/scan9

{0 -.15 MO

.6 -.15 LI

ST

}BD

/scan7

{0 .05 MO

.6 .05 LI

ST

}BD

/scan5

{0 .25 MO

.6 .25 LI

ST

}BD

/scan3

{0 .45 MO

.6 .45 LI

ST

}BD

/scan1

{0 .65 MO

.6 .65 LI

ST

}BD

/tl

{.3 .75 MO

.3 -.25 LI

.6 .25 MO

.3 .25 LI

ST

}BD

/tr

{.3 .75 MO

.3 -.25 LI

0 .25 MO

.3 .25 LI

ST

}BD

/tb

{0 .25 MO

.6 .25 LI

.3 .75 MO

.3 .25 LI

ST

}BD

/tt

{0 .25 MO

.6 .25 LI

.3 -.25 MO

.3 .25 LI

ST

}BD

/vertical

{.3 .75 MO

.3 -.25 LI

ST

}BD

/radicalleft

{.3 .75 MO

.3 -.25 LI

0 .25 LI

ST

}BD

/radicallefttp

{.6 .25 MO

.3 .25 LI

.3 -.25 LI

ST

}BD

/horizontalext

{0 .25 MO

.6 .25 LI

ST

}BD

/integraltp

{.3 -.25 MO

.3 .75 .45 .75 .25 arcto pop pop pop pop

ST

.53 .67 .1 0 360 arc

fill

}BD

/integralbt

{.3 .75 MO

.3 -.25 .15 -.25 .25 arcto pop pop pop pop

ST

.08 -.17 .1 0 360 arc

fill

}BD

/verticalext

{.3 .75 MO

.3 -.25 LI

ST

}BD

/bracketlefttp

{.6 .75 MO

.3 .75 LI

.3 -.25 LI

ST

}BD

/bracketleftbt

{.3 .75 MO

.3 -.25 LI

.6 -.25 LI

ST

}BD

/bracketrighttp

{0 .75 MO

.3 .75 LI

.3 -.25 LI

ST

}BD

/bracketrightbt

{.3 .75 MO

.3 -.25 LI

0 -.25 LI

ST

}BD

/bracelefttp

{.3 -.25 MO

.3 .75 .6 .75 .5 arcto pop pop pop pop

ST

}BD

/braceleftbt

{.3 .75 MO

.3 -.25 .6 -.25 .5 arcto pop pop pop pop

ST

}BD

/bracerighttp

{.3 -.25 MO

.3 .75 0 .75 .5 arcto pop pop pop pop

ST

}BD

/bracerightbt

{.3 .75 MO

.3 -.25 0 -.25 .5 arcto pop pop pop pop

ST

}BD

/braceleftmid

{.3 .75 MO

.3 .25 .15 .25 .15 arcto pop pop pop pop

.3 -.25 MO

.3 .25 .15 .25 .15 arcto pop pop pop pop

ST

}BD

/bracerightmid

{.3 .75 MO

.3 .25 .45 .25 .15 arcto pop pop pop pop

.3 -.25 MO

.3 .25 .45 .25 .15 arcto pop pop pop pop

ST

}BD

/sumtpleft

{.6 .25 MO

.3 .25 LI

.6 -.25 LI

ST

}BD

/sumbtleft

{.6 .25 MO

.3 .25 LI

.6 .75 LI

ST

}BD

/sumtpvert

{0 .75 MO

.6 -.25 LI

ST

}BD

/sumbtvert

{0 -.25 MO

.6 .75 LI

ST

}BD

/sumtpright

{0 .25 MO

.6 .25 LI

.6 -.25 LI

ST

}BD

/sumbtright

{0 .25 MO

.6 .25 LI

.6 .75 LI

ST

}BD

/sumrightmid

{0 .75 MO

.3 .25 LI

0 -.25 LI

ST

}BD

/arrowdblboth

{.1 .1 MO

.5 .1 LI

.1 .25 MO

.5 .25 LI

.175 .325 MO

0 .175 LI

.175 .025 LI

.425 .325 MO

.6 .175 LI

.425 .025 LI

ST

}BD

/arrowdblright

{.1 .1 MO

.5 .1 LI

.1 .25 MO

.5 .25 LI

.425 .325 MO

.6 .175 LI

.425 .025 LI

ST

}BD

/arrowleft

{0 .25 MO

.6 .25 LI

.15 .4 MO

0 .25 LI

.15 .1 LI

ST

}BD

/arrowup

{.3 .5 MO

.3 0 LI

.15 .35 MO

.3 .5 LI

.45 .35 LI

ST

}BD

/arrowright

{0 .25 MO

.6 .25 LI

.45 .4 MO

.6 .25 LI

.45 .1 LI

ST

}BD

/arrowdown

{.3 .5 MO

.3 0 LI

.15 .15 MO

.3 0 LI

.45 .15 LI

ST

}BD

/blob

{0 -.25 TR

CharWidth 1 SC

6 10

false

[6 0 0 -10 0 10]

{<55 AA>}

imagemask

}BD

/questionreverse

{/CourierExtended FF SE

.6 0 MO

-1 1 SC

(?) SH

}BD

/onesuper {(1) superscript}BD

/twosuper {(2) superscript}BD

/threesuper {(3) superscript}BD

/AE {(E) (A) true diphthong}BD

/OE {(E) (O) false diphthong}BD

/ae {(e) (a) false diphthong}BD

/oe {(e) (o) false diphthong}BD

/HT {(T) (H) ctrl}BD

/FF {(F) (F) ctrl}BD

/CR {(R) (C) ctrl}BD

/LF {(F) (L) ctrl}BD

/NL {(L) (N) ctrl}BD

/VT {(T) (V) ctrl}BD

/onehalf {(2) (1) fraction}BD

/onefourth {(4) (1) fraction}BD

end

  

/BuildCharDict 3 dict def

/BuildChar

{ 

BuildCharDict begin

/char exch def

/fontdict exch def

/charname fontdict /Encoding get char get def

fontdict begin

CharWidth 0

FontBBox aload pop

setcachedevice

CharStrings charname known

{.05 SW CharStrings charname get

exec

} 

{ExtendedDecoding charname known

{/CourierExtended FF SE

ExtendedDecoding charname get

} 

{/Symbol FF SE

.8 .8 SC

SymbolDecoding charname get

} 

ifelse

cvc

0 0 MO

SH

} 

ifelse

end

end

}BD

  

/Courier-MCS 11 dict dup begin

/FontType 3 def

/FontBBox BBox def

/BuildChar /BuildChar load def

/Encoding McsEncoding def

/CharWidth .6 def

/FontMatrix [1 0 0 1 0 0] def

/UnderlineThickness 75 def

/UnderlinePosition 250 def

/StrikethroughThickness 75 def

/StrikethroughPosition -275 def

end definefont pop

  

/Courier-TECH 11 dict dup begin

/FontType 3 def

/FontBBox BBox def

/BuildChar /BuildChar load def

/Encoding TcsEncoding def

/CharWidth .6 def

/FontMatrix [1 0 0 1 0 0] def

/UnderlineThickness 75 def

/UnderlinePosition 250 def

/StrikethroughThickness 75 def

/StrikethroughPosition -275 def

end definefont pop

%%EndProlog

 /Helvetica-Bold /Helvetica-Bold-DPMCS DPMCS ReEncode /Helvetica /Helvetica-DPMCS DPMCS ReEncode /Helvetica-Oblique /Helvetica-Oblique-DPMCS DPMCS ReEncode% SPD (8.5*11") 'software' logo.

% Aidan Killian ESDC Galway 14/05/86.

% Amended to position logo to left margin on 12-Aug-1986

% at ESDC Galway (AK/MS).

/LOGO8A {

save						% Save current environment



/digital-font /Helvetica-Bold findfont 

[35 34 div .65 mul 0 0 .75 0 0] makefont def



/box-width 35 34 div .405 mul def

/box-pitch box-width .85 div def



/digital-box { 

  gsave 

    box-pitch box-width sub 2 div -.225 rmoveto

    box-width 0 rlineto 

    0 1 rlineto box-width neg 0 rlineto 

    closepath fill 

  grestore 

  gsave

    dup stringwidth pop box-pitch exch sub 2 div 0 rmoveto 

    1 setgray 

    show

  grestore

  box-pitch 0 rmoveto

} def 



/digital_logo {

  % draws digital logo with left baseline point at current point with

  % specified height using current color for boxes and white letters 

  % and moves current point in x direction by about 3.433 times height



  dup scale 

  digital-font setfont 

  0 1 6 {(digital) exch 1 getinterval digital-box} for 

} def 



/sw 1 def					% Stroke width / 2



/std 68 def					% Start Displ.



/bl 60 def					% Char Levels

/cbl bl sw add def

/ol bl 18.4 add def

/xl bl 36.8 add def

/cxl xl sw sub def

/wl xl sw add sw add def

/tl bl 59.5 add def

/ctl tl sw sub def

/dl xl 10.5 add def

/rll bl 14 sub def



/cr ol bl sub sw sub def			% Sub-char Radii

/s1r 10 def

/s2r 8 def

/fr 9.1 def

/rr 12.4 def



/el bl 19.3 add def				% Sub-char Levels

/e2l bl 10.3 add def

/s1l cbl s1r add def

/s2l cxl s2r sub def

/s3l bl 19.8 add def



/sd std s1r add sw add def			% Char Displ.

/od std 42.5 add def

/fd std 66 add def

/td std 86.5 add def

/wd std 102 add def

/ad std 168 add def

/rd std 194 add def

/ed std 221.3 add def

/end cr cr add ed add def



/f2d fd 6 sub def				% Sub-char Displ.

/t2d td 7.7 sub def

/w2d wd 26 add def

/w3d wd 52 add def

/a2d ad cr add 0.4 sub def



/dsz 15.9 def

/bsw 18 def

/bd wd 375.5 add def



sw sw add setlinewidth

} def

/LOGO8B {

newpath

sd s2l s2r 0 180 arc 

sd s2r sub s2l 5 sub sd 3.6 sub s3l 1 add sd s3l curveto 

sd 3.6 add s3l 1 sub sd s1r add s1l 5 add sd s1r add s1l curveto 

sd s1l s1r 0 180 arcn stroke



od ol cr 0 360 arc stroke



fd cbl moveto 

fd ctl td ctl fr arcto pop pop pop pop 

f2d cxl moveto 

fd fr add cxl lineto stroke



td bl 1 add moveto 

td tl lineto 

t2d cxl moveto 

td fr add cxl lineto stroke



gsave

  td cbl moveto 

  td xl lineto 

  ad xl lineto 

  ad cbl lineto clip newpath



  wd xl moveto 

  wd cbl lineto 

  w2d wl lineto 

  w2d cbl lineto 

  w3d wl lineto stroke

grestore



gsave

  a2d bl moveto 

  a2d xl lineto 

  wd xl lineto 

  wd bl lineto clip newpath



  ad ol cr 0 365 arc stroke

grestore



gsave

  a2d sw add cbl moveto 

  a2d sw sub cbl lineto 

  ad ol cr 300 60 arc 

  a2d sw sub xl lineto 

  a2d sw add xl lineto clip newpath



  a2d cbl moveto 

  a2d xl lineto stroke

grestore



rd cbl moveto 

rd xl lineto 

rd cbl moveto 

rd cxl ed cxl rr arcto pop pop pop pop stroke



gsave

  rd bl moveto 

  rd xl lineto 

  end xl lineto 

  end el sw sub lineto

  ed el sw sub lineto 

  ed e2l lineto 

  end e2l lineto 

  end bl lineto clip newpath



  ed ol cr 0 360 arc 

  ed cr sub el moveto 

  ed cr add el lineto stroke

grestore



gsave

  wd sw sub dl moveto dsz digital_logo

grestore



bsw setlinewidth



wd sw sub rll moveto 

bd rll lineto stroke



restore						% Restore previous environment

} def

/LOGO8 { LOGO8A LOGO8B} def

 save

%%Page: 1 1



0 657.04 MO
 10.00 /Courier-MCS DPT

 /save-pc$postscript-graphic save def 

65.75 654.59 TR 

 0 95.64 490.16 512.00 div 96.00 mul  sub  2  div  TR 490.16 512.00 div 490.16 512.00 div  SC 

0.00 -1 mul  526.00 -1 mul  TR 

 /showpage {} def /initmatrix {} def /initgraphics {} def /initclip {} def /erasepage {} def /copypage {} def /exitserver {} def /letter {} def /note {} def /legal {} def

%!PS-Adobe-2.0 EPSF-1.2


%%Creator:Cricket Draw 1.1


%%Title:SPD8TOP.ps


%%CreationDate:11/11/88   3:43 PM


%%DocumentFonts: Helvetica


%%BoundingBox:0 526 512 622 


%%Pages:0


%%EndComments


/vmstate save def


/$cricket 210 dict def


$cricket begin 1 -1 scale


0 -622  translate


2 setlinecap


/d /def load def


/b {bind d}bind d


/l {load d}b


/e /exch l


/x {e d}b


/C /closepath l


/CP /currentpoint l


/SH /show l


/g /gsave l


/G /grestore l


/i /if l


/I /ifelse l


/v /getinterval l


/V /putinterval l


/W /stringwidth l


/SG /setgray l


/N /newpath l


/M /moveto l


/L /lineto l


/R /rlineto l


/T /translate l


/D /dup l


/* /mul l


/+ /add l


/- /sub l


/? /div l


/ma {* +}b 


/h {D * e D ma sqrt}d


systemdict D /setpacking known D {/packstate currentpacking d D setpacking}i /pack? x


begin /settransfer load /setscreen load end 


/setscreen x /settransfer x


/dt [ currenttransfer ] cvx d 


/ds [ currentscreen D [ e ] cvx /devSpot x ] cvx d 


/jp {e [ 3 1 roll aload pop counttomark -1 roll aload pop ] cvx}b 


/settransfer {dt jp settransfer}b 


/macvec dup where not { 256 array d 


macvec 0 StandardEncoding


0 128 getinterval putinterval


macvec 16#27 /quotesingle put


macvec 16#60 /grave put


/Adieresis /Aring /Ccedilla /Eacute /Ntilde /Odieresis /Udieresis /aacute


/agrave /acircumflex /adieresis /atilde /aring /ccedilla /eacute /egrave


/ecircumflex /edieresis /iacute /igrave /icircumflex /idieresis /ntilde /oacute


/ograve /ocircumflex /odieresis /otilde /uacute /ugrave /ucircumflex /udieresis


/dagger /degree /cent /sterling /section /bullet /paragraph /germandbls


/registersans /copyrightsans /trademarksans /acute /dieresis /notequal /AE /Oslash


/infinity /plusminus /lessequal /greaterequal /yen /mu /partialdiff /summation


/product /pi /integral /ordfeminine /ordmasculine /Omega /ae /oslash


/questiondown /exclamdown /logicalnot /radical /florin /approxequal /Delta /guillemotleft


/guillemotright /ellipsis /space /Aacute /Atilde /Otilde /OE /oe


/endash /emdash /quotedblleft /quotedblright /quoteleft /quoteright /divide /lozenge


/ydieresis /Ydieresis /fraction /currency /guilsinglleft /guilsinglright /fi /fl


/daggerdbl /periodcentered /quotesinglbase /quotedblbase /perthousand


/Acircumflex /Ecircumflex /Agrave


/Edieresis /Egrave /Iacute /Icircumflex /Idieresis /Igrave /Oacute /Ocircumflex


/apple /Ograve /Uacute /Ucircumflex /Ugrave /dotlessi /circumflex /tilde


/macron /breve /dotaccent /ring /cedilla /hungarumlaut /ogonek /caron


macvec 128 128 v astore pop}{pop pop}I


/ad {+ d}b 


/sd {- d}b 


/td {* d}b 


/dd {? d}b


/c {2 ? e 2 ? e}b 


/n0 {D 0 eq {pop}}b


/m1 matrix d /m2 matrix d /m3 matrix d


/ct 0 d 


/s+ 0 d 


/po 0 d 


/ts 40 string d


/s1 (|______) d


ts 0 s1 V


/sp ( ) d


/SM {/m3 m3 currentmatrix d}b 


/RM {m3 setmatrix}b 


/dpi 72 0 matrix defaultmatrix dtransform h d


/inch {72 *}b


/cm {28.3465 *}b


/pi 3.1415923 d


/fs 256 string d 


/sh {m1 m2 copy 2 3 -1 roll sin put m2 concat}b 


/fc {T n0 {rotate}I scale n0 {sh}I}b 


/a {/ea x /sa x SM -1 * scale 0 0 1 sa ea 2 copy gt {arcn}{arc}I RM}b 


/cn {SM T x1 y1 scale 0 0 1 ct 90 * D 90 + arc /ct ct 1 ad RM}b 


/rr {/y1 x /x1 x /ct 0 d c y1 - /yr x x1 - /xr x N xr yr cn xr neg yr cn xr neg yr neg cn xr yr neg cn C}b 


/dg 


{/lc x clip rotate T /dy x /dx x


0 eq {N 


1 eq {1 10 lc ? 10{log dy * 0 e neg M dx 0 R}for lc 10 gt{dy 0 e neg M dx 0 R}i}


{lc 1 eq {0 0 e neg M dx 0 R}{/st dy lc 1 - dd 0 1 lc 1 - {st * 0 e neg M dx 0 R}for}I}I


stroke}


{1 eq {/st 0 d /inc 10 lc 1 + dd dx dy lt {/rd dx d}{/rd dy d}I


1 1 lc {/di st 1 + log 10 log ? rd td N dx di - dy di - 0 360 a C stroke /st st inc ad}for} 


{dx dy lt {/st dx lc dd}{/st dy lc dd}I lc {N dx dy 0 360 a C stroke /dx dx st sd /dy dy st sd}repeat} I


}I}b


/sb {/ea x /ia x /sa x /yr x /xr x ea sa lt{/ia ia neg d}i N sa ia ea{D /x1 e cos xr td /y1 e sin yr * neg d x1 y1 M 0 0 L}for}b


/bm {/y1 x /x1 x bitgray SG x1 y1 /md where {pop md /invertflag get not}{true}I 


[x1 0 0 y1 0 0] {currentfile picstring readhexstring pop}imagemask}b


/c1 .166667 d /c2 .833333 d /c3 .5 d


/p3 {+ c3 *}b 


/dc{/y2 x /x2 x x0 c1 * x1 c2 ma y0 c1 * y1 c2 ma x1 c2 * x2 c1 ma y1 c2 * y2 c1 ma x1 x2 p3 y1 y2 p3 curveto}b 


/mp {/x0 x1 d /y0 y1 d /x1 x2 d /y1 y2 d}b


/SPOLY_INIT


{/SPOLY_SAVE save d /cls x


/M {2 copy /y0 x /x0 x moveto /M /moveto load d}d


/L {/y1 x /x1 x x0 x1 p3 y0 y1 p3


cls {/yy y1 d /xx x1 d /C {mp xx yy dc systemdict /closepath get exec}d M}


{lineto}I /L {{dc mp}stopped {/L {pop pop}d /noerr false d}i}d}d}d


/SPOLY_END {SPOLY_SAVE restore}b


/ah {g 2 copy T 3 -1 roll - 3 1 roll e - atan rotate os 0 M hl hw R 0 hw 2 * neg R C fill G}b


/da 


{g stroke G 


g currentlinewidth D -10 * D /hl x -2 ? /os x 2 * /hw x /bp x /ep x


.2 setlinewidth 0 setlinejoin 


g flattenpath {}{}{}{} pathforall 


count 8 eq {8 4 roll}i


count 8 gt {count 4 roll mark count 8 - 1 roll cleartomark}i 


count 6 eq {6 2 roll 2 copy 8 2 roll}i


count 4 eq {4 copy}i G


N bp {4 2 roll ah}{pop pop pop pop}I ep {ah}{clear}I G}b 


/tp {sm0 transform}b 


/sfp {} d 


/op {{tp moveto}{tp lineto}{3{tp 6 2 roll}repeat curveto}{C} pathforall sfp stroke}b 


/sm0 matrix d /sm1 matrix d


/so 


{SG /eg x /tg x /yt x /xt x 


xt 0 ne yt 0 ne or {


xt abs yt abs gt {/tt xt abs d}{/tt yt abs d}I


tt 144 gt {/ct dpi 2 dd /sfp{g eofill G}d}


{tt 72 gt {/ct dpi 4 dd /sfp{g eofill G}d}


{/ct dpi 4 dd}I}I


/ig tg eg - ct ? neg d


/x1 xt ct ? neg d /y1 yt ct dd 


1 0 0 1 xt yt sm0 astore pop 


1 0 0 1 x1 y1 neg sm1 astore pop


g op G


1 1 ct{g ig * tg + SG sm0 D sm1 e concatmatrix pop op G}for}i}b


/css {T 0 0 M xsp 0 32 Txt widthshow}b


/sc 


{g /xsp x /tg x /eg x /sg x /y1 x /x1 x /Txt x


/sst dpi 4 dd /y2 y1 sst dd /x2 x1 neg sst dd


eg sg eq {/sg sg .001 sd}i


/ig eg sg - sst ? neg d 


g tg SG x1 y1 neg css 


eg ig + ig sg {SG x2 y2 css}for G 


x2 y2 css G}b 


/gbb {pathbbox /y1 x /x1 x /y2 x /x2 x /x3 x1 x2 sd /y3 y1 y2 sd}b 


/radf 


{/dn dpi 300 ? 8 * 24 ad /ig rg 255 ? dn dd


sg 255 ? SG eoclip gbb 


x2 x3 2 ? + y2 y3 2 ? + T N


x3 y3 h 2 ? D dn ? neg 1 


{0 0 3 -1 roll 0 360 arc C fill currentgray ig + SG}for}b


/dof 


{/ff x 


eoclip 180 - rotate gbb


x1 y1 T 180 rotate x3 y3 scale


0 1 255 {fs e D 255 ? ff rg * sg + round cvi put}for


1 256 8 [1 0 0 256 0 0] fs image}b


/gft {radf {{} dof}{{1 e - 9 * 1 + log 1 e -}dof}}b


/df 


{g 2 copy eq {SG clear fill}{255 * e 255 * e 1 index - /rg x /sg x /gft load e get exec}I G}b 


/oc


{/tl x /ju x /di 0 d 


g flattenpath


{/y1 x /x1 x}{/y2 x /x2 x /dx x2 x1 sd /dy y2 y1 sd /di dx D * dy D ma sqrt di ad /x1 x2 d /y1 y2 d}


{}{/y2 x /x2 x /dx x2 x1 sd /dy y2 y1 sd /di dx D * dy D ma sqrt d}pathforall


ju 0 eq{/po 0 store}i


ju 1 eq{/po di tl - 2 ? store}i


ju 2 eq{/po di tl - store}i G}b


/pt {/FM true d /os x /sr x /os os sr 0 1 v W pop 2 ? ad /pd 0 d /sl os d /ct 0 d g flattenpath {mtp}{ltp}{ctp}{cpp}pathforall G}b


/mtp {/y1 x /x1 x /x2 x1 d /y2 y1 d /ovr FM {os /FM false d}{0}I d x1 y1 transform /cpy x /cpx x}b


/ltp 


{/x3 x1 d /y3 y1 d /y1 x /x1 x /dx x1 x3 sd /dy y1 y3 sd /di dx D * dy D ma sqrt d 


/di 0 ne


{/dsx dx di ? ovr td /dsy dy di ? ovr td x3 dsx + y3 dsy + transform


/cpy x /cpx x /pd pd di ad {sl pd le {ct sr length lt{sch}{exit}I}{/ovr sl pd sd exit}I}loop}i}b


/ctp {}b 


/cpp {x2 y2 ltp x2 y2 mtp}b 


/sch 


{/ch sr ct 1 v d /ct ct 1 ad


/cw ch W pop 2 dd 


g cpx cpy itransform T dy dx atan rotate cw neg 0 M ch SH


ct sr length lt{sr ct 1 v W pop 2 ? 0 rmoveto}i


CP transform /cpy x /cpx x G


/sl sl cw ad /po po cw 2 ma store ct sr length lt{/sl sl sr ct 1 v W pop 2 ? ad}i}b


/cpd {/newslots x D length newslots + dict D 3 1 roll begin {1 index /FID ne {def}i}forall pop pop end}b


/of 


{/ui 0 d 


/pw 1000 24 dd 


/nn x 


/bn x 


ui 0 eq 


{/ui bn findfont


dup /UniqueID known 


{/UniqueID get 1 add}{pop 1}ifelse


def} if


/bfd bn findfont def 


/ct bfd maxlength 1 ad 


bfd /UniqueID known not


{/ct ct 1 ad} if


/ofd ct dict def 


bfd


{ exch dup /FID ne


{exch ofd 3 1 roll put}


{pop pop} ifelse


}forall


ofd /FontName nn put


ofd /PaintType 2 put


ofd /StrokeWidth pw put


ofd /UniqueID ui put


nn ofd definefont pop}b


/uf 


{20 dict begin


/ui x 


e /BaseFont e findfont d


ui 0 eq 


{/ui BaseFont D /UniqueID known 


{/UniqueID get 1 +}{pop 1}I d}i


/FontType 3 d


/Upos BaseFont /FontInfo 2 copy known


{get /UnderlinePosition 2 copy known


{get}{pop pop -100 }I}{ pop pop -100 }I d


/Uwid BaseFont /FontInfo 2 copy known


{get /UnderlineThickness 2 copy known


{get}{pop pop 50}I}


{pop pop 50}I d


/FontMatrix BaseFont /FontMatrix get d


/FontBBox BaseFont /FontBBox get


D 1 get Upos gt {D 1 Upos put}i d


/Encoding BaseFont /Encoding get d


/theChar 1 string d


/BuildChar


{e begin


theChar 0 3 -1 roll put


BaseFont 1000 scalefont setfont


theChar W FontBBox setcachedevice


0 0 M


theChar show


0 Upos rmoveto 0 Upos L


Uwid setlinewidth stroke


end}d


currentdict 


end


definefont pop}b


/ns {g CP m3 currentmatrix nulldevice setmatrix T 0 0 M Txt CP pop G}b 


/ft {/ftsave save d CP 3 1 roll + e T 0 0 M /show /myshow l Txt ftsave restore}b 


/ls {/Txt x 0 ft}b 


/cs {/Txt x ns 2 ? neg ft}b 


/rs {/Txt x ns neg ft}b 


/slp {/sproc x /sr x 0 1 sr length 1 - {sr e 1 v sproc}for}b 


/ss 


{/Txt x /fsave save d


CP 2 copy T 0 0 M 


/ffsave save d pop - /lw x ns /tw x /wsp lw tw sd /nsp 0 d


/show {nsp e {sp eq {1 +}i}slp /nsp x}b 


Txt 0 nsp 0 gt {wsp nsp ? +}i ffsave restore /s+ x


/myshow load D systemdict /show get ne


{D D length 1 - get cvlit /charshadow eq {[ e aload pop e pop s+ e ] cvx}i}


{pop {s+ 0 32 4 -1 roll widthshow}}I


/show x Txt fsave restore}b


/cf{D /fn x length 7 + string /ts x ts 0 s1 V ts 7 fn V /fnm ts cvn d 


FontDirectory fnm known not {fn cvn findfont 0 cpd /nfd x nfd D /FontName fnm put /Encoding macvec put fnm nfd definefont pop}i}b


 


/JoinProcs {jp}d


/fixcoordinates {fc}d


/doarc {a}d


/doroundrect {rr}d


/dograte {dg}d


/dorgrate {drg}d


/pathoffset {po}d


/pathtext {pt}d


/dostarburst {sb}d


/dobitmap {bm}d


/strokearrow {da}d


/shadow {so}d


/charshadow {sc}d


/fountain {df}d


/offsetcalc {oc}d


/MakeOutlineFont {of}d


/MakeUnderlineFont {uf}d


/leftshow {ls}d


/rightshow {rs}d


/centershow {cs}d


/fullshow {ss}d


/coordinatefont {cf}d


 


 


%-----------------------------------


%Encode PS Fonts to match Mac Fonts


(Helvetica) coordinatefont


%-----------------------------------





%----- Begin Main Program -----%





gsave % Line


0.000 1  1  0.000 257.501 84.999  fixcoordinates


newpath


-250.501 0.000  moveto


250.501 0.000 lineto


6.000 setlinewidth 0 setgray stroke


grestore





gsave  % Text Block


0.000 1  -1  0.000 108.999 47.499  fixcoordinates


/myshow /show load def


0 setgray 


-106 25 moveto


/|______Helvetica findfont 24 scalefont setfont


{


(Software) show


} leftshow


-106 0 moveto


{


(Product) show


} leftshow


-106 -25 moveto


{


(Description) show


} leftshow


grestore





%------ End Main Program ------%





end


vmstate restore





%%Trailer





%%Pages:1







 save-pc$postscript-graphic restore



0 638.54 MO
 60.00 0 RM 9.00 /Helvetica-Bold-DPMCS DPT

 (PRODUCT NAME:) 3.60 DPJ

0 638.54 MO
 146.59 0 RM 12.00 /Helvetica-Bold-DPMCS DPT

 (DECwindows) 42.83 DPJ 3.60 0 RM (DECnet/SNA) 42.83 DPJ 3.60 0 RM (3270) 42.83 DPJ 160.54 0 RM (SPD) 42.83 DPJ 3.60 0 RM (31.58.00) 42.83 DPJ

0 624.54 MO
 146.59 0 RM (Terminal) 90.01 DPJ 3.60 0 RM (Emulator) 90.01 DPJ 3.60 0 RM (for) 90.01 DPJ 3.60 0 RM (VMS,) 90.01 DPJ

0 610.54 MO
 146.59 0 RM (Version 1.0) 4.80 DPJ

0 587.04 MO
 60.00 0 RM 9.00 /Helvetica-Bold-DPMCS DPT

 (DESCRIPTION) 4.80 DPJ

0 587.04 MO
 312.00 0 RM 9.00 /Helvetica-DPMCS DPT

 (operating, the display window will be formatted in a fash-) 3.21 DPJ

0 577.04 MO
 312.00 0 RM (ion similar to a 3270 display station with the option of) 4.64 DPJ

0 571.04 MO
 60.00 0 RM (The DECwindows DECnet/SNA 3270 Terminal Emulator) 3.88 DPJ

0 567.04 MO
 312.00 0 RM (3270, 3279-S3G or 3192-G terminal types. When the) 5.48 DPJ

0 561.04 MO
 60.00 0 RM (for VMS \(DW VMS 3270 TE\) is a layered software prod-) 3.39 DPJ

0 557.04 MO
 312.00 0 RM (user has completed work on the IBM system, the 3270) 4.15 DPJ

0 551.04 MO
 60.00 0 RM (uct that allows users of DIGITAL-supported workstations) 3.73 DPJ

0 547.04 MO
 312.00 0 RM (emulator is dismissed and control is returned to the VMS) 3.21 DPJ

0 541.04 MO
 60.00 0 RM (on suitably configured VMS systems within a DECnet) 5.34 DPJ

0 537.04 MO
 312.00 0 RM (command level or to the VMS FileView utility.) 3.60 DPJ

0 531.04 MO
 60.00 0 RM (network to interactively access IBM) 4.86 DPJ 9.00 /Symbol DPT

 (\342) 4.86 DPJ 9.00 /Helvetica-DPMCS DPT

 ( mainframe-based) 4.86 DPJ

0 521.79 MO
 312.00 0 RM 9.00 /Helvetica-Bold-DPMCS DPT

 (Features) 4.86 DPJ

0 521.04 MO
 60.00 0 RM 9.00 /Helvetica-DPMCS DPT

 (applications. The applications were originally developed) 4.48 DPJ

0 511.04 MO
 60.00 0 RM (for use with IBM 3270 display stations in a System) 5.99 DPJ

0 506.54 MO
 312.00 0 RM (The DW VMS 3270 TE, by means of a DIGITAL SNA) 4.54 DPJ

0 501.04 MO
 60.00 0 RM (Network Architecture \(SNA\) networking environment.) 3.60 DPJ

0 496.54 MO
 312.00 0 RM (Gateway or VMS/SNA, supports emulation of the follow-) 3.70 DPJ

0 486.54 MO
 312.00 0 RM (ing features of an IBM 3270 Display Station attached to) 3.82 DPJ

0 485.04 MO
 60.00 0 RM (Access to IBM mainframe applications is gained by) 6.63 DPJ

0 476.54 MO
 312.00 0 RM (an IBM 3274 Model 1C controller with the following) 6.18 DPJ

0 475.04 MO
 60.00 0 RM (means of the DECnet/SNA Gateway or VMS/SNA soft-) 4.41 DPJ

0 466.54 MO
 312.00 0 RM (features:) 4.41 DPJ

0 465.04 MO
 60.00 0 RM (ware.) 4.41 DPJ

0 452.79 MO
 312.00 0 RM 9.00 /Helvetica-DPMCS DPT

 (\223) 4.41 DPJ

0 452.79 MO
 317.87 0 RM 9.00 /Helvetica-DPMCS DPT

 (Category A terminal adapter \(for 32 terminals\)) 3.60 DPJ

0 449.04 MO
 60.00 0 RM (In normal operation, an IBM system transfers a formatted) 3.05 DPJ

0 439.04 MO
 60.00 0 RM (screen much like a "form" or "panel" to the 3270 block) 4.26 DPJ

0 438.04 MO
 312.00 0 RM 9.00 /Helvetica-DPMCS DPT

 (\223) 4.26 DPJ

0 438.04 MO
 317.87 0 RM 9.00 /Helvetica-DPMCS DPT

 (Configuration support D) 3.60 DPJ

0 429.04 MO
 60.00 0 RM (mode terminal and the user fills in any form required) 5.21 DPJ

0 423.54 MO
 312.00 0 RM 9.00 /Helvetica-DPMCS DPT

 (\223) 5.21 DPJ

0 423.54 MO
 317.87 0 RM 9.00 /Helvetica-DPMCS DPT

 (Common communications adapter) 3.60 DPJ

0 419.04 MO
 60.00 0 RM (data. When complete, the form is transmitted to the IBM) 3.54 DPJ

0 409.04 MO
 60.00 0 RM (host as a single unit. This mechanism is emulated with a) 3.24 DPJ

0 409.04 MO
 312.00 0 RM 9.00 /Helvetica-DPMCS DPT

 (\223) 3.24 DPJ

0 409.04 MO
 317.87 0 RM 9.00 /Helvetica-DPMCS DPT

 (External modem interface) 3.60 DPJ

0 399.04 MO
 60.00 0 RM (DIGITAL character mode terminal by buffering the "form") 3.36 DPJ

0 394.54 MO
 312.00 0 RM (The DW VMS 3270 TE provides functions similar to the) 3.82 DPJ

0 389.04 MO
 60.00 0 RM (in the DECnet host's memory and displaying it on the) 4.77 DPJ

0 384.54 MO
 312.00 0 RM (following IBM display stations:) 3.60 DPJ

0 379.04 MO
 60.00 0 RM (terminal. The screen "form" is sent to the IBM host) 6.00 DPJ

0 369.04 MO
 60.00 0 RM (system by means of the DECnet/SNA Gateway or VMS/) 3.61 DPJ

0 369.04 MO
 312.00 0 RM (3178) 3.61 DPJ

0 359.04 MO
 60.00 0 RM (SNA.) 3.61 DPJ

0 359.04 MO
 312.00 0 RM (3180 M1-5) 3.60 DPJ

0 349.04 MO
 312.00 0 RM (3278 M1-5) 3.60 DPJ

0 343.04 MO
 60.00 0 RM (Translation tables on the respective systems convert ISO) 3.13 DPJ

0 339.04 MO
 312.00 0 RM (3179-G) 3.13 DPJ

0 333.04 MO
 60.00 0 RM (Latin terminal input to a subset of IBM multinational) 5.99 DPJ

0 329.04 MO
 312.00 0 RM (3192-G) 5.99 DPJ

0 323.04 MO
 60.00 0 RM (EBCDIC code for transfer through either the DECnet/) 5.41 DPJ

0 319.04 MO
 312.00 0 RM (3279-S3G) 5.41 DPJ

0 313.04 MO
 60.00 0 RM (SNA Gateway or VMS/SNA software. These translation) 4.40 DPJ

0 303.79 MO
 312.00 0 RM 9.00 /Helvetica-Oblique-DPMCS DPT

 (Supported Features) 3.60 DPJ

0 303.04 MO
 60.00 0 RM 9.00 /Helvetica-DPMCS DPT

 (tables can be modified to fit most language needs.) 3.60 DPJ

0 290.04 MO
 312.00 0 RM 9.00 /Helvetica-DPMCS DPT

 (\223) 3.60 DPJ

0 290.04 MO
 317.87 0 RM 9.00 /Helvetica-DPMCS DPT

 (Protected and unprotected fields) 3.60 DPJ

0 287.04 MO
 60.00 0 RM (If customized, DW VMS 3270 TE can be invoked by the) 3.54 DPJ

0 277.04 MO
 60.00 0 RM (users from the VMS FileView applications menu or from) 3.74 DPJ

0 275.54 MO
 312.00 0 RM 9.00 /Helvetica-DPMCS DPT

 (\223) 3.74 DPJ

0 275.54 MO
 317.87 0 RM 9.00 /Helvetica-DPMCS DPT

 (Alphanumeric and numeric data) 3.60 DPJ

0 267.04 MO
 60.00 0 RM (a VMS command line. When DW VMS 3270 TE is in-) 4.54 DPJ

0 260.79 MO
 312.00 0 RM 9.00 /Helvetica-DPMCS DPT

 (\223) 4.54 DPJ

0 260.79 MO
 317.87 0 RM 9.00 /Helvetica-DPMCS DPT

 (Up to 1920 characters \(exception is 3278 Model 1) 5.94 DPJ

0 257.04 MO
 60.00 0 RM (voked from the VMS FileView applications menu, DW) 5.20 DPJ

0 250.79 MO
 317.87 0 RM (where applicable\)) 3.60 DPJ

0 247.04 MO
 60.00 0 RM (VMS 3270 TE options are specified in a DECwindows) 4.74 DPJ

0 237.04 MO
 60.00 0 RM (dialog box. When DW VMS 3270 TE is invoked from a) 4.09 DPJ

0 236.29 MO
 312.00 0 RM 9.00 /Helvetica-DPMCS DPT

 (\223) 4.09 DPJ

0 236.29 MO
 317.87 0 RM 9.00 /Helvetica-DPMCS DPT

 (Audible alarm) 3.60 DPJ

0 227.04 MO
 60.00 0 RM (VMS command line, command line qualifiers are used to) 3.36 DPJ

0 221.79 MO
 312.00 0 RM 9.00 /Helvetica-DPMCS DPT

 (\223) 3.36 DPJ

0 221.79 MO
 317.87 0 RM 9.00 /Helvetica-DPMCS DPT

 (Intensified display, normal display, and non-display) 7.11 DPJ

0 217.04 MO
 60.00 0 RM (specify the IBM system and system resources to which) 4.18 DPJ

0 211.79 MO
 317.87 0 RM (characters) 4.18 DPJ

0 207.04 MO
 60.00 0 RM (the users wishes to connect. While the emulation utility is) 3.04 DPJ

0 197.04 MO
 312.00 0 RM 9.00 /Helvetica-DPMCS DPT

 (\223) 3.04 DPJ

0 197.04 MO
 317.87 0 RM 9.00 /Helvetica-DPMCS DPT

 (Alphanumeric Cursor \(Block Cursor only\)) 3.60 DPJ

0 179.04 MO
 60.00 0 RM 7.00 /Helvetica-DPMCS DPT

 (__________________) 3.60 DPJ

0 165.04 MO
 0 4.00 RM 0 -4.00 RM

0 165.04 MO
 72.00 0 RM 7.00 /Symbol DPT

 (\342) 2.80 DPJ 7.00 /Helvetica-DPMCS DPT

 (IBM is a registered trademark of International Business Machines Corporation.) 2.80 DPJ

0 98.54 MO
 494.78 0 RM 9.00 /Helvetica-Bold-DPMCS DPT

 (September) 437.48 DPJ 2.70 0 RM (1989) 437.48 DPJ

0 88.54 MO
 505.99 0 RM (AE-NJ69A-TE) 437.48 DPJ

0 78.54 MO


0 68.54 MO


0 58.54 MO


0 48.54 MO


0 38.54 MO


0 28.54 MO
 60.00 0 RM %%LOGO8

 LOGO8

0 28.54 MO
 0 -84.00 RM

 showpage

 restore

 save

%%Page: 2 2



0 746.54 MO
 60.00 0 RM 9.00 /Helvetica-Bold-DPMCS DPT

 (DECwindows) 79.86 DPJ 2.70 0 RM (DECnet/SNA) 79.86 DPJ 2.70 0 RM (3270) 79.86 DPJ 311.35 0 RM (SPD) 79.86 DPJ 2.70 0 RM (31.58.00) 79.86 DPJ

0 736.54 MO
 60.00 0 RM (Terminal) 131.16 DPJ 2.70 0 RM (Emulator) 131.16 DPJ 2.70 0 RM (for) 131.16 DPJ 2.70 0 RM (VMS,) 131.16 DPJ

0 726.54 MO
 60.00 0 RM (Version 1.0) 3.60 DPJ

0 698.54 MO
 60.00 0 RM 9.00 /Helvetica-DPMCS DPT

 (\223) 3.60 DPJ

0 698.54 MO
 65.87 0 RM 9.00 /Helvetica-DPMCS DPT

 (Numeric lock override) 3.60 DPJ

0 698.54 MO
 312.00 0 RM (Features Not Supported) 3.60 DPJ

0 683.29 MO
 60.00 0 RM 9.00 /Helvetica-DPMCS DPT

 (\223) 3.60 DPJ

0 683.29 MO
 65.87 0 RM 9.00 /Helvetica-DPMCS DPT

 (Auto-repeat keys \(as available on the workstation key-) 3.93 DPJ

0 679.04 MO
 324.37 0 RM 9.00 /Helvetica-DPMCS DPT

 (\223) 3.93 DPJ

0 679.04 MO
 339.83 0 RM 9.00 /Helvetica-DPMCS DPT

 (Selector light pen, security lock, magnetic strip) 5.68 DPJ

0 673.29 MO
 65.87 0 RM (board SET-UP feature\)) 3.60 DPJ

0 669.04 MO
 339.83 0 RM (card and operator identification card reader) 3.60 DPJ

0 658.04 MO
 60.00 0 RM 9.00 /Helvetica-DPMCS DPT

 (\223) 3.60 DPJ

0 658.04 MO
 65.87 0 RM 9.00 /Helvetica-DPMCS DPT

 (SYS REQ \(Allows user to switch between SSCP-LU) 5.22 DPJ

0 651.79 MO
 324.37 0 RM 9.00 /Helvetica-DPMCS DPT

 (\223) 5.22 DPJ

0 651.79 MO
 339.83 0 RM 9.00 /Helvetica-DPMCS DPT

 (<-! \(NEW LINE\) AS AUTO-REPEAT KEYS) 3.60 DPJ

0 648.04 MO
 65.87 0 RM (and LU-LU sessions\)) 3.60 DPJ

0 634.29 MO
 324.37 0 RM 9.00 /Helvetica-DPMCS DPT

 (\223) 3.60 DPJ

0 634.29 MO
 339.83 0 RM 9.00 /Helvetica-DPMCS DPT

 (Field inherit keys) 3.60 DPJ

0 632.79 MO
 60.00 0 RM 9.00 /Helvetica-DPMCS DPT

 (\223) 3.60 DPJ

0 632.79 MO
 65.87 0 RM 9.00 /Helvetica-DPMCS DPT

 (Local Function Keys supported) 3.60 DPJ

0 617.79 MO
 74.68 0 RM (-) 3.60 DPJ

0 617.79 MO
 80.55 0 RM (Erase to End of Field) 3.60 DPJ

0 617.04 MO
 324.37 0 RM 9.00 /Helvetica-DPMCS DPT

 (\223) 3.60 DPJ

0 617.04 MO
 339.83 0 RM 9.00 /Helvetica-DPMCS DPT

 (Programmed symbol selection keys) 3.60 DPJ

0 607.79 MO
 74.68 0 RM (-) 3.60 DPJ

0 607.79 MO
 80.55 0 RM (Erase Input) 3.60 DPJ

0 599.54 MO
 324.37 0 RM 9.00 /Helvetica-DPMCS DPT

 (\223) 3.60 DPJ

0 599.54 MO
 339.83 0 RM 9.00 /Helvetica-DPMCS DPT

 (MAGnetic Slot Reader) 3.60 DPJ

0 597.79 MO
 74.68 0 RM (-) 3.60 DPJ

0 597.79 MO
 80.55 0 RM (Print) 3.60 DPJ

0 587.79 MO
 74.68 0 RM (-) 3.60 DPJ

0 587.79 MO
 80.55 0 RM (Backtab) 3.60 DPJ

0 582.04 MO
 324.37 0 RM 9.00 /Helvetica-DPMCS DPT

 (\223) 3.60 DPJ

0 582.04 MO
 339.83 0 RM 9.00 /Helvetica-DPMCS DPT

 (Keyboard Definition Function) 3.60 DPJ

0 577.79 MO
 74.68 0 RM (-) 3.60 DPJ

0 577.79 MO
 80.55 0 RM (Cursor up and down) 3.60 DPJ

0 567.79 MO
 74.68 0 RM (-) 3.60 DPJ

0 567.79 MO
 80.55 0 RM (Cursor home) 3.60 DPJ

0 564.79 MO
 324.37 0 RM 9.00 /Helvetica-DPMCS DPT

 (\223) 3.60 DPJ

0 564.79 MO
 339.83 0 RM 9.00 /Helvetica-DPMCS DPT

 (Entry Assist Function) 3.60 DPJ

0 557.79 MO
 74.68 0 RM (-) 3.60 DPJ

0 557.79 MO
 80.55 0 RM (Cursor left and right) 3.60 DPJ

0 547.79 MO
 74.68 0 RM (-) 3.60 DPJ

0 547.79 MO
 80.55 0 RM (Delete Character) 3.60 DPJ

0 547.29 MO
 324.37 0 RM 9.00 /Helvetica-DPMCS DPT

 (\223) 3.60 DPJ

0 547.29 MO
 339.83 0 RM 9.00 /Helvetica-DPMCS DPT

 (Key Functions \(DELETE WORD, NEXT WORD,) 5.13 DPJ

0 537.79 MO
 74.68 0 RM (-) 5.13 DPJ

0 537.79 MO
 80.55 0 RM (Duplicate) 5.13 DPJ

0 537.29 MO
 339.83 0 RM (and PREVIOUS WORD\)) 3.60 DPJ

0 527.79 MO
 74.68 0 RM (-) 3.60 DPJ

0 527.79 MO
 80.55 0 RM (Field Mark) 3.60 DPJ

0 520.04 MO
 324.37 0 RM 9.00 /Helvetica-DPMCS DPT

 (\223) 3.60 DPJ

0 520.04 MO
 339.83 0 RM 9.00 /Helvetica-DPMCS DPT

 (APL Character Set) 3.60 DPJ

0 517.79 MO
 74.68 0 RM (-) 3.60 DPJ

0 517.79 MO
 80.55 0 RM (Insert Mode) 3.60 DPJ

0 502.54 MO
 324.37 0 RM 9.00 /Helvetica-DPMCS DPT

 (\223) 3.60 DPJ

0 502.54 MO
 339.83 0 RM 9.00 /Helvetica-DPMCS DPT

 (Handscanner) 3.60 DPJ

0 502.54 MO
 60.00 0 RM 9.00 /Helvetica-DPMCS DPT

 (\223) 3.60 DPJ

0 502.54 MO
 65.87 0 RM 9.00 /Helvetica-DPMCS DPT

 (Base color by data stream) 3.60 DPJ

0 487.29 MO
 60.00 0 RM 9.00 /Helvetica-DPMCS DPT

 (\223) 3.60 DPJ 9.00 /Helvetica-DPMCS DPT

 ( Structured fields) 3.60 DPJ

0 485.29 MO
 312.00 0 RM (A readily available on-line HELP facility provides informa-) 3.06 DPJ

0 475.29 MO
 312.00 0 RM (tion on key functions. The operator information area as) 4.23 DPJ

0 472.04 MO
 60.00 0 RM 9.00 /Helvetica-DPMCS DPT

 (\223) 4.23 DPJ

0 472.04 MO
 65.87 0 RM 9.00 /Helvetica-DPMCS DPT

 (3270 Extended Attributes supported) 3.60 DPJ

0 465.29 MO
 312.00 0 RM (implemented on an actual 3270 display is not supported,) 3.36 DPJ

0 456.79 MO
 74.68 0 RM (-) 3.36 DPJ

0 456.79 MO
 80.55 0 RM (Foreground Color \(blue, red, pink, green, turquoise,) 3.56 DPJ

0 455.29 MO
 312.00 0 RM (however much of the same information is reported by) 4.99 DPJ

0 446.79 MO
 80.55 0 RM (yellow, white, black\)) 3.60 DPJ

0 445.29 MO
 312.00 0 RM (means of status indicators where the status line is) 6.67 DPJ

0 435.29 MO
 312.00 0 RM (displayed. In addition, the user has the ability to redefine) 3.32 DPJ

0 431.54 MO
 74.68 0 RM (-) 3.32 DPJ

0 431.54 MO
 80.55 0 RM (Background Color \(blue, red, pink, green, turquoise,) 3.31 DPJ

0 425.29 MO
 312.00 0 RM (certain IBM key functions to different keys of the worksta-) 2.93 DPJ

0 421.54 MO
 80.55 0 RM (yellow, white, black\)) 3.60 DPJ

0 415.29 MO
 312.00 0 RM (tion keyboard.) 3.60 DPJ

0 406.29 MO
 74.68 0 RM (-) 3.60 DPJ

0 406.29 MO
 80.55 0 RM (Extended Highlighting) 3.60 DPJ

0 397.79 MO
 312.00 0 RM 9.00 /Helvetica-Bold-DPMCS DPT

 (SOURCE) 3.60 DPJ 9.00 /Helvetica-DPMCS DPT

 ( ) 3.60 DPJ 9.00 /Helvetica-Bold-DPMCS DPT

 (CODE) 3.60 DPJ 9.00 /Helvetica-DPMCS DPT

 ( ) 3.60 DPJ 9.00 /Helvetica-Bold-DPMCS DPT

 (INFORMATION) 3.60 DPJ

0 391.04 MO
 101.11 0 RM 9.00 /Helvetica-DPMCS DPT

 (Reverse Video) 3.60 DPJ

0 381.04 MO
 101.11 0 RM (Underscore) 3.60 DPJ

0 380.29 MO
 312.00 0 RM (Sources of message files are available only for transla-) 4.18 DPJ

0 370.29 MO
 312.00 0 RM (tion to languages other than English. Source code will not) 2.82 DPJ

0 365.79 MO
 74.68 0 RM (-) 2.82 DPJ

0 365.79 MO
 80.55 0 RM (Programmed Symbols/Character Set) 3.60 DPJ

0 360.29 MO
 312.00 0 RM (be distributed for general purposes.) 3.60 DPJ

0 350.79 MO
 60.00 0 RM 9.00 /Helvetica-DPMCS DPT

 (\223) 3.60 DPJ

0 350.79 MO
 65.87 0 RM 9.00 /Helvetica-DPMCS DPT

 (Local and host initiated copy and printer order FF \(for-) 3.72 DPJ

0 343.04 MO
 312.00 0 RM 9.00 /Helvetica-Bold-DPMCS DPT

 (INSTALLATION) 3.72 DPJ

0 340.79 MO
 65.87 0 RM 9.00 /Helvetica-DPMCS DPT

 (mfeed\) \(black & white only\) IBM 3278 and 3180 display) 3.17 DPJ

0 330.79 MO
 65.87 0 RM (station Models 1, 2, 3, 4, and 5 with the following) 5.70 DPJ

0 325.54 MO
 312.00 0 RM 9.00 /Helvetica-Bold-DPMCS DPT

 (Customer) 3.60 DPJ 9.00 /Helvetica-DPMCS DPT

 ( ) 3.60 DPJ 9.00 /Helvetica-Bold-DPMCS DPT

 (Responsibilities) 3.60 DPJ

0 320.79 MO
 65.87 0 RM 9.00 /Helvetica-DPMCS DPT

 (features:) 3.60 DPJ

0 308.29 MO
 312.00 0 RM (Only experienced customers should attempt installation) 4.78 DPJ

0 305.79 MO
 71.74 0 RM 9.00 /Helvetica-DPMCS DPT

 (\223) 4.78 DPJ

0 305.79 MO
 86.42 0 RM 9.00 /Helvetica-DPMCS DPT

 (Screen Size Support:) 3.60 DPJ

0 298.29 MO
 312.00 0 RM (of this product. DIGITAL recommends that all other cus-) 3.67 DPJ

0 290.54 MO
 86.43 0 RM (Model 1 - Up to 960 characters) 3.60 DPJ

0 288.29 MO
 312.00 0 RM (tomers purchase DIGITAL's Installation Services. These) 4.18 DPJ

0 280.54 MO
 86.43 0 RM (Model 2 - Up to 1920 characters) 3.60 DPJ

0 278.29 MO
 312.00 0 RM (services provide for installation of the software product by) 2.86 DPJ

0 270.54 MO
 86.43 0 RM (Model 3 - Up to 2560 characters) 3.60 DPJ

0 268.29 MO
 312.00 0 RM (an experienced DIGITAL Software Specialist.) 3.60 DPJ

0 260.54 MO
 86.43 0 RM (Model 4 - Up to 3440 characters) 3.60 DPJ

0 250.79 MO
 312.00 0 RM (Before DIGITAL installation of the software the customer) 3.48 DPJ

0 250.54 MO
 86.43 0 RM (Model 5 - Up to 3564 characters) 3.60 DPJ

0 240.79 MO
 312.00 0 RM (must:) 3.60 DPJ

0 235.29 MO
 60.00 0 RM (IBM 3179-G and 3192-G display stations with the follow-) 3.42 DPJ

0 225.29 MO
 60.00 0 RM (ing features:) 3.60 DPJ

0 221.29 MO
 312.00 0 RM 9.00 /Helvetica-DPMCS DPT

 (\223) 3.60 DPJ

0 221.29 MO
 317.87 0 RM 9.00 /Helvetica-DPMCS DPT

 (Have previously installed all requisite hardware includ-) 4.09 DPJ

0 211.29 MO
 317.87 0 RM (ing terminals and DECnet/SNA gateway products.) 3.60 DPJ

0 210.54 MO
 72.37 0 RM 9.00 /Helvetica-DPMCS DPT

 (\223) 3.60 DPJ

0 210.54 MO
 87.83 0 RM 9.00 /Helvetica-DPMCS DPT

 (Vector-to-Raster Graphics) 3.60 DPJ

0 195.29 MO
 72.37 0 RM 9.00 /Helvetica-DPMCS DPT

 (\223) 3.60 DPJ

0 195.29 MO
 87.83 0 RM 9.00 /Helvetica-DPMCS DPT

 (Mouse Support) 3.60 DPJ

0 194.04 MO
 312.00 0 RM 9.00 /Helvetica-DPMCS DPT

 (\223) 3.60 DPJ

0 194.04 MO
 317.87 0 RM 9.00 /Helvetica-DPMCS DPT

 (Obtained, installed, and demonstrated as operational) 5.50 DPJ

0 184.04 MO
 317.87 0 RM (any modems and other equipment and facilities neces-) 3.64 DPJ

0 180.04 MO
 72.37 0 RM 9.00 /Helvetica-DPMCS DPT

 (\223) 3.64 DPJ

0 180.04 MO
 87.83 0 RM 9.00 /Helvetica-DPMCS DPT

 (Trimming function as provided in DECwindows) 6.12 DPJ

0 174.04 MO
 317.87 0 RM (sary to interface to DIGITAL's communications equip-) 4.67 DPJ

0 170.04 MO
 87.83 0 RM (environment) 4.67 DPJ

0 164.04 MO
 317.87 0 RM (ment.) 4.67 DPJ

0 154.79 MO
 72.37 0 RM 9.00 /Helvetica-DPMCS DPT

 (\223) 4.67 DPJ

0 154.79 MO
 87.83 0 RM 9.00 /Helvetica-DPMCS DPT

 (Graphic Cursor \(only white cross cursor\)) 3.60 DPJ

0 146.54 MO
 312.00 0 RM 9.00 /Helvetica-DPMCS DPT

 (\223) 3.60 DPJ

0 146.54 MO
 317.87 0 RM 9.00 /Helvetica-DPMCS DPT

 (Generated, to DIGITAL's satisfaction, any necessary) 5.80 DPJ

0 139.54 MO
 72.37 0 RM 9.00 /Helvetica-DPMCS DPT

 (\223) 5.80 DPJ

0 139.54 MO
 87.83 0 RM 9.00 /Helvetica-DPMCS DPT

 (Programmed Symbol Set A and B) 3.60 DPJ

0 136.54 MO
 317.87 0 RM (IBM host software that will be communicating with the) 4.07 DPJ

0 126.54 MO
 317.87 0 RM (DECnet/SNA gateway or VMS/SNA and DW VMS 3270) 3.15 DPJ

0 124.54 MO
 72.37 0 RM 9.00 /Helvetica-DPMCS DPT

 (\223) 3.15 DPJ

0 124.54 MO
 87.83 0 RM 9.00 /Helvetica-DPMCS DPT

 (Up to 2560 characters \(32 x 80\)) 3.60 DPJ

0 116.54 MO
 317.87 0 RM (TE.) 3.60 DPJ

0 109.29 MO
 60.00 0 RM (IBM 3279-S3G display stations with the following) 8.73 DPJ

0 99.29 MO
 60.00 0 RM (features:) 8.73 DPJ

0 99.04 MO
 312.00 0 RM 9.00 /Helvetica-DPMCS DPT

 (\223) 8.73 DPJ

0 99.04 MO
 317.87 0 RM 9.00 /Helvetica-DPMCS DPT

 (Made available for a reasonable period of time, as) 5.81 DPJ

0 89.04 MO
 317.87 0 RM (mutually agreed by DIGITAL and the customer, all hard-) 2.88 DPJ

0 84.29 MO
 72.37 0 RM 9.00 /Helvetica-DPMCS DPT

 (\223) 2.88 DPJ

0 84.29 MO
 87.83 0 RM 9.00 /Helvetica-DPMCS DPT

 (Programmed Symbol Set A-F) 3.60 DPJ

0 79.04 MO
 317.87 0 RM (ware, communications facilities, and terminals that are) 4.17 DPJ

0 69.04 MO
 72.37 0 RM 9.00 /Helvetica-DPMCS DPT

 (\223) 4.17 DPJ

0 69.04 MO
 87.83 0 RM 9.00 /Helvetica-DPMCS DPT

 (Up to 2560 characters \(32 x 80\)) 3.60 DPJ

0 69.04 MO
 317.87 0 RM (to be used during installation.) 3.60 DPJ

0 26.54 MO
 305.00 0 RM 9.00 /Helvetica-Bold-DPMCS DPT

 (2) 3.60 DPJ

 showpage

 restore

 save

%%Page: 3 3



0 746.54 MO
 60.00 0 RM 9.00 /Helvetica-Bold-DPMCS DPT

 (DECwindows) 79.86 DPJ 2.70 0 RM (DECnet/SNA) 79.86 DPJ 2.70 0 RM (3270) 79.86 DPJ 311.35 0 RM (SPD) 79.86 DPJ 2.70 0 RM (31.58.00) 79.86 DPJ

0 736.54 MO
 60.00 0 RM (Terminal) 131.16 DPJ 2.70 0 RM (Emulator) 131.16 DPJ 2.70 0 RM (for) 131.16 DPJ 2.70 0 RM (VMS,) 131.16 DPJ

0 726.54 MO
 60.00 0 RM (Version 1.0) 3.60 DPJ

0 698.54 MO
 60.00 0 RM 9.00 /Helvetica-DPMCS DPT

 (Delays caused by any failure to meet these responsibili-) 3.67 DPJ

0 698.54 MO
 312.00 0 RM 9.00 /Helvetica-DPMCS DPT

 (\223) 3.67 DPJ

0 698.54 MO
 317.87 0 RM 9.00 /Helvetica-DPMCS DPT

 (In a DECnet/SNA Gateway \(DECSA\) environment, all) 4.59 DPJ

0 688.54 MO
 60.00 0 RM (ties will be charged at the prevailing rate for time and) 4.64 DPJ

0 688.54 MO
 317.87 0 RM (VMS systems to which DECwindows DECnet/SNA 3270) 2.84 DPJ

0 678.54 MO
 60.00 0 RM (materials.) 2.84 DPJ

0 678.54 MO
 317.87 0 RM (Terminal Emulator for VMS software provides access) 4.84 DPJ

0 668.54 MO
 317.87 0 RM (must have DECnet/SNA Gateway Management soft-) 5.81 DPJ

0 662.54 MO
 60.00 0 RM (Successful use of this product requires that:) 3.60 DPJ

0 658.54 MO
 317.87 0 RM (ware as specified in the System Support Addendum) 5.29 DPJ

0 648.54 MO
 317.87 0 RM (\(SSA 31.58.00-x\).) 3.60 DPJ

0 646.79 MO
 60.00 0 RM 9.00 /Helvetica-DPMCS DPT

 (\223) 3.60 DPJ

0 646.79 MO
 65.87 0 RM 9.00 /Helvetica-DPMCS DPT

 (The customer be prepared to work with both DIGITAL) 4.07 DPJ

0 636.79 MO
 65.87 0 RM (and IBM systems personnel to coordinate the pre-) 6.36 DPJ

0 632.04 MO
 312.00 0 RM (For VMS/SNA environments:) 3.60 DPJ

0 626.79 MO
 65.87 0 RM (installation activities.) 3.60 DPJ

0 614.54 MO
 312.00 0 RM 9.00 /Helvetica-DPMCS DPT

 (\223) 3.60 DPJ

0 614.54 MO
 317.87 0 RM 9.00 /Helvetica-DPMCS DPT

 (VMS Operating System \(and necessary components of) 3.59 DPJ

0 611.04 MO
 60.00 0 RM 9.00 /Helvetica-DPMCS DPT

 (\223) 3.59 DPJ

0 611.04 MO
 65.87 0 RM 9.00 /Helvetica-DPMCS DPT

 (The customer be capable of modifying IBM component) 3.65 DPJ

0 604.54 MO
 317.87 0 RM (VMS DECwindows\)) 3.60 DPJ

0 601.04 MO
 65.87 0 RM (generation parameters to support either the DECnet/) 5.25 DPJ

0 591.04 MO
 65.87 0 RM (SNA gateway or VMS/SNA and the DW VMS 3270 TE) 3.56 DPJ

0 588.04 MO
 312.00 0 RM 9.00 /Helvetica-DPMCS DPT

 (\223) 3.56 DPJ

0 588.04 MO
 317.87 0 RM 9.00 /Helvetica-DPMCS DPT

 (VMS/SNA Software) 3.60 DPJ

0 581.04 MO
 65.87 0 RM (software.) 3.60 DPJ

0 571.29 MO
 312.00 0 RM (*) 3.60 DPJ

0 571.29 MO
 317.87 0 RM (Refer to the System Support Addendum \(SSA 31.58.00-) 2.86 DPJ

0 565.29 MO
 60.00 0 RM 9.00 /Helvetica-Bold-DPMCS DPT

 (PREREQUISITE) 3.60 DPJ 9.00 /Helvetica-DPMCS DPT

 ( ) 3.60 DPJ 9.00 /Helvetica-Bold-DPMCS DPT

 (SUPPORT) 3.60 DPJ

0 561.29 MO
 317.87 0 RM 9.00 /Helvetica-DPMCS DPT

 (x\) for availability and required versions of prerequisite/) 4.01 DPJ

0 551.29 MO
 317.87 0 RM (optional software and for information regarding compo-) 3.75 DPJ

0 549.29 MO
 60.00 0 RM (A Network Profile and a DECnet Customer Support Plan) 3.42 DPJ

0 541.29 MO
 317.87 0 RM (nents of VMS DECwindows.) 3.60 DPJ

0 539.29 MO
 60.00 0 RM (\(where appropriate\) covering all VAX nodes and personal) 2.98 DPJ

0 529.29 MO
 60.00 0 RM (computers that wish to access the IBM host based appli-) 3.26 DPJ

0 524.79 MO
 312.00 0 RM 9.00 /Helvetica-Bold-DPMCS DPT

 (ORDERING) 3.60 DPJ 9.00 /Helvetica-DPMCS DPT

 ( ) 3.60 DPJ 9.00 /Helvetica-Bold-DPMCS DPT

 (INFORMATION) 3.60 DPJ

0 519.29 MO
 60.00 0 RM 9.00 /Helvetica-DPMCS DPT

 (cations environment must be prepared jointly by DIGITAL) 2.98 DPJ

0 509.29 MO
 60.00 0 RM (and the customer.) 3.60 DPJ

0 508.29 MO
 312.00 0 RM (Software Licenses: QL-VXBA*-**) 3.60 DPJ

0 498.29 MO
 312.00 0 RM (Software Media: QA-VXBA*-**) 3.60 DPJ

0 493.29 MO
 60.00 0 RM (For DECwindows DECnet/SNA 3270 Terminal Emulator) 4.29 DPJ

0 488.29 MO
 312.00 0 RM (Software Documentation: QA-VXBAA-GZ) 3.60 DPJ

0 483.29 MO
 60.00 0 RM (for VMS to be DIGITAL supported, the customer must) 4.74 DPJ

0 478.29 MO
 312.00 0 RM (Software Product Services: QT-VXBA*-**) 3.60 DPJ

0 473.29 MO
 60.00 0 RM (have a DIGITAL supported DECnet/SNA Gateway or) 6.07 DPJ

0 463.29 MO
 60.00 0 RM (VMS/SNA configuration.) 3.60 DPJ

0 460.79 MO
 312.00 0 RM (*) 3.60 DPJ

0 460.79 MO
 317.87 0 RM (Denotes variant fields. For additional information on) 5.92 DPJ

0 450.79 MO
 317.87 0 RM (available licenses, services and media, refer to the ap-) 3.63 DPJ

0 447.29 MO
 60.00 0 RM (To have a DIGITAL supported DECnet/SNA Gateway or) 3.70 DPJ

0 440.79 MO
 317.87 0 RM (propriate price book.) 3.60 DPJ

0 437.29 MO
 60.00 0 RM (VMS/SNA configuration, purchase of the Gateway) 8.98 DPJ

0 427.29 MO
 60.00 0 RM (Installation/Orientation Service \(QSF0x-SZ\) is) 19.15 DPJ

0 424.04 MO
 312.00 0 RM 9.00 /Helvetica-Bold-DPMCS DPT

 (SOFTWARE) 3.60 DPJ 9.00 /Helvetica-DPMCS DPT

 ( ) 3.60 DPJ 9.00 /Helvetica-Bold-DPMCS DPT

 (LICENSING) 3.60 DPJ

0 417.29 MO
 60.00 0 RM 9.00 /Helvetica-DPMCS DPT

 (REQUIRED in conjunction with the customer's first pur-) 4.20 DPJ

0 407.54 MO
 312.00 0 RM (This software is furnished under the licensing provisions) 3.77 DPJ

0 407.29 MO
 60.00 0 RM (chase of the DECnet/SNA Gateway or VMS/SNA.) 3.60 DPJ

0 397.54 MO
 312.00 0 RM (of DIGITAL's Standard Terms and Conditions. For more) 3.84 DPJ

0 391.54 MO
 60.00 0 RM 9.00 /Helvetica-Bold-DPMCS DPT

 (HARDWARE) 3.60 DPJ 9.00 /Helvetica-DPMCS DPT

 ( ) 3.60 DPJ 9.00 /Helvetica-Bold-DPMCS DPT

 (REQUIREMENTS) 3.60 DPJ

0 387.54 MO
 312.00 0 RM 9.00 /Helvetica-DPMCS DPT

 (information about DIGITAL's licensing terms and policies,) 3.07 DPJ

0 377.54 MO
 312.00 0 RM (contact your local DIGITAL office.) 3.60 DPJ

0 375.79 MO
 60.00 0 RM 9.00 /Helvetica-DPMCS DPT

 (\223) 3.60 DPJ

0 375.79 MO
 65.87 0 RM 9.00 /Helvetica-DPMCS DPT

 (VAX, MicroVAX, or VAXstation configuration as speci-) 4.26 DPJ

0 365.79 MO
 65.87 0 RM (fied in the System Support Addendum \(SSA 31.58.00-) 4.00 DPJ

0 361.04 MO
 312.00 0 RM 9.00 /Helvetica-Bold-DPMCS DPT

 (LICENSE) 3.60 DPJ 9.00 /Helvetica-DPMCS DPT

 ( ) 3.60 DPJ 9.00 /Helvetica-Bold-DPMCS DPT

 (MANAGEMENT) 3.60 DPJ 9.00 /Helvetica-DPMCS DPT

 ( ) 3.60 DPJ 9.00 /Helvetica-Bold-DPMCS DPT

 (FACILITY) 3.60 DPJ 9.00 /Helvetica-DPMCS DPT

 ( ) 3.60 DPJ 9.00 /Helvetica-Bold-DPMCS DPT

 (SUPPORT) 3.60 DPJ

0 355.79 MO
 65.87 0 RM 9.00 /Helvetica-DPMCS DPT

 (x\).) 3.60 DPJ

0 344.29 MO
 312.00 0 RM (This layered product supports the VMS License) 9.65 DPJ

0 339.79 MO
 60.00 0 RM 9.00 /Helvetica-DPMCS DPT

 (\223) 9.65 DPJ

0 339.79 MO
 65.87 0 RM 9.00 /Helvetica-DPMCS DPT

 (Any properly configured DECnet/SNA Gateway or VMS/) 3.01 DPJ

0 334.29 MO
 312.00 0 RM (Management Facility. License units for this product are) 4.49 DPJ

0 329.79 MO
 65.87 0 RM (SNA system as specified in the System Support) 7.58 DPJ

0 324.29 MO
 312.00 0 RM (allocated on a CPU-capacity basis.) 3.60 DPJ

0 319.79 MO
 65.87 0 RM (Addendum \(SSA 31.58.00-x\).) 3.60 DPJ

0 307.79 MO
 312.00 0 RM (For more information on the License Management) 7.90 DPJ

0 304.04 MO
 60.00 0 RM 9.00 /Helvetica-Bold-DPMCS DPT

 (SOFTWARE) 3.60 DPJ 9.00 /Helvetica-DPMCS DPT

 ( ) 3.60 DPJ 9.00 /Helvetica-Bold-DPMCS DPT

 (REQUIREMENTS*) 3.60 DPJ

0 297.79 MO
 312.00 0 RM 9.00 /Helvetica-DPMCS DPT

 (Facility, refer to the VMS Operating System Software) 5.49 DPJ

0 288.29 MO
 60.00 0 RM 9.00 /Helvetica-DPMCS DPT

 (\223) 5.49 DPJ

0 288.29 MO
 65.87 0 RM 9.00 /Helvetica-DPMCS DPT

 (VMS/SNA) 5.49 DPJ

0 287.79 MO
 312.00 0 RM (Product Description \(SPD 25.01.xx\) or the License) 7.65 DPJ

0 278.29 MO
 60.00 0 RM 9.00 /Helvetica-DPMCS DPT

 (\223) 7.65 DPJ

0 278.29 MO
 65.87 0 RM 9.00 /Helvetica-DPMCS DPT

 (DECnet/SNA Gateway-CT) 3.60 DPJ

0 277.79 MO
 312.00 0 RM (Management Facility manual of the VMS Operating) 7.15 DPJ

0 268.29 MO
 60.00 0 RM 9.00 /Helvetica-DPMCS DPT

 (\223) 7.15 DPJ

0 268.29 MO
 65.87 0 RM 9.00 /Helvetica-DPMCS DPT

 (DECnet/SNA Gateway-ST) 3.60 DPJ

0 267.79 MO
 312.00 0 RM (System documentation set.) 3.60 DPJ

0 258.29 MO
 60.00 0 RM 9.00 /Helvetica-DPMCS DPT

 (\223) 3.60 DPJ

0 258.29 MO
 65.87 0 RM 9.00 /Helvetica-DPMCS DPT

 (DECnet/SNA Gateway) 3.60 DPJ

0 251.29 MO
 312.00 0 RM (For more information about DIGITAL's licensing terms) 5.32 DPJ

0 242.29 MO
 60.00 0 RM (For DECnet/SNA Gateway environments:) 3.60 DPJ

0 241.29 MO
 312.00 0 RM (and policies, contact your local DIGITAL office.) 3.60 DPJ

0 226.54 MO
 60.00 0 RM 9.00 /Helvetica-DPMCS DPT

 (\223) 3.60 DPJ

0 226.54 MO
 65.87 0 RM 9.00 /Helvetica-DPMCS DPT

 (VMS Operating System \(and necessary components of) 3.59 DPJ

0 224.54 MO
 312.00 0 RM 9.00 /Helvetica-Bold-DPMCS DPT

 (SOFTWARE) 3.60 DPJ 9.00 /Helvetica-DPMCS DPT

 ( ) 3.60 DPJ 9.00 /Helvetica-Bold-DPMCS DPT

 (PRODUCT) 3.60 DPJ 9.00 /Helvetica-DPMCS DPT

 ( ) 3.60 DPJ 9.00 /Helvetica-Bold-DPMCS DPT

 (SERVICES) 3.60 DPJ

0 216.54 MO
 65.87 0 RM 9.00 /Helvetica-DPMCS DPT

 (VMS DECwindows\)) 3.60 DPJ

0 208.04 MO
 312.00 0 RM (A variety of service options are available from DIGITAL.) 3.80 DPJ

0 200.79 MO
 60.00 0 RM 9.00 /Helvetica-DPMCS DPT

 (\223) 3.80 DPJ

0 200.79 MO
 65.87 0 RM 9.00 /Helvetica-DPMCS DPT

 (DECnet-VAX) 3.80 DPJ

0 198.04 MO
 312.00 0 RM (For more information, contact your local DIGITAL office.) 3.84 DPJ

0 184.79 MO
 60.00 0 RM 9.00 /Helvetica-DPMCS DPT

 (\223) 3.84 DPJ

0 184.79 MO
 65.87 0 RM 9.00 /Helvetica-DPMCS DPT

 (In a DEC MicroServer \(DEMSA\), DEC MicroServer-SP) 3.85 DPJ

0 181.54 MO
 312.00 0 RM 9.00 /Helvetica-Bold-DPMCS DPT

 (SOFTWARE) 3.60 DPJ 9.00 /Helvetica-DPMCS DPT

 ( ) 3.60 DPJ 9.00 /Helvetica-Bold-DPMCS DPT

 (WARRANTY) 3.60 DPJ

0 174.79 MO
 65.87 0 RM 9.00 /Helvetica-DPMCS DPT

 (\(DEMSB\), or DEC ChannelServer \(DESNA\) environ-) 5.82 DPJ

0 164.79 MO
 65.87 0 RM (ment, the gateway load host must have DECnet/SNA) 4.57 DPJ

0 164.79 MO
 312.00 0 RM (Warranty for this software product is provided by) 8.06 DPJ

0 154.79 MO
 65.87 0 RM (VMS Gateway Management software as specified in the) 2.86 DPJ

0 154.79 MO
 312.00 0 RM (DIGITAL with the purchase of a license for the product as) 2.84 DPJ

0 144.79 MO
 65.87 0 RM (System Support Addendum \(SSA 31.58.00-x\).) 3.60 DPJ

0 144.79 MO
 312.00 0 RM (defined in the Software Warranty Addendum of this SPD.) 3.11 DPJ

0 26.54 MO
 305.00 0 RM 9.00 /Helvetica-Bold-DPMCS DPT

 (3) 3.11 DPJ

 showpage

 restore

 save

%%Page: 4 4



0 746.54 MO
 60.00 0 RM 9.00 /Helvetica-Bold-DPMCS DPT

 (DECwindows) 79.86 DPJ 2.70 0 RM (DECnet/SNA) 79.86 DPJ 2.70 0 RM (3270) 79.86 DPJ 311.35 0 RM (SPD) 79.86 DPJ 2.70 0 RM (31.58.00) 79.86 DPJ

0 736.54 MO
 60.00 0 RM (Terminal) 131.16 DPJ 2.70 0 RM (Emulator) 131.16 DPJ 2.70 0 RM (for) 131.16 DPJ 2.70 0 RM (VMS,) 131.16 DPJ

0 726.54 MO
 60.00 0 RM (Version 1.0) 3.60 DPJ

0 698.54 MO
 60.00 0 RM 9.00 /Helvetica-DPMCS DPT

 (Warranty Limitations) 3.60 DPJ

0 698.54 MO
 312.00 0 RM (ware. While this software can function correctly with other) 2.86 DPJ

0 688.54 MO
 312.00 0 RM (IBM software and equipment, and with software other) 5.27 DPJ

0 683.54 MO
 60.00 0 RM 9.00 /Helvetica-Oblique-DPMCS DPT

 (IBM Supported Configurations) 3.60 DPJ

0 678.54 MO
 312.00 0 RM 9.00 /Helvetica-DPMCS DPT

 (than that supported by IBM, DIGITAL cannot offer its) 5.30 DPJ

0 668.54 MO
 60.00 0 RM (This software has been tested and is warranted against) 3.92 DPJ

0 668.54 MO
 312.00 0 RM (standard warranty for this software unless it has been) 4.86 DPJ

0 658.54 MO
 60.00 0 RM (IBM System/370 \(includes 30xx and 43xx series\) class) 4.56 DPJ

0 658.54 MO
 312.00 0 RM (tested with such equipment and software configurations.) 3.81 DPJ

0 648.54 MO
 60.00 0 RM (processor systems configured with the following IBM soft-) 2.91 DPJ

0 26.54 MO
 304.99 0 RM 9.00 /Helvetica-Bold-DPMCS DPT

 (4) 2.91 DPJ

 showpage

 restore

 save

%%Page: 5 5



0 746.54 MO
 68.00 0 RM 9.00 /Helvetica-Bold-DPMCS DPT

 (DECwindows) 79.86 DPJ 2.70 0 RM (DECnet/SNA) 79.86 DPJ 2.70 0 RM (3270) 79.86 DPJ 311.34 0 RM (SPD) 79.86 DPJ 2.70 0 RM (31.58.00) 79.86 DPJ

0 736.54 MO
 68.00 0 RM (Terminal) 131.16 DPJ 2.70 0 RM (Emulator) 131.16 DPJ 2.70 0 RM (for) 131.16 DPJ 2.70 0 RM (VMS,) 131.16 DPJ

0 726.54 MO
 68.00 0 RM (Version 1.0) 3.60 DPJ

0 710.54 MO
 68.00 0 RM 9.00 /Helvetica-DPMCS DPT

 (DECwindows DECnet/SNA 3270 TE has been tested and warranted against the following IBM software configuration:) 3.60 DPJ

0 694.54 MO
 302.75 0 RM 9.00 /Helvetica-Bold-DPMCS DPT

 (Chart) 3.60 DPJ

0 660.54 MO


0 660.54 MO
 68.00 0 RM (Software Product) 3.60 DPJ

0 660.54 MO
 274.60 0 RM (Version) 3.60 DPJ

0 660.54 MO
 368.50 0 RM (Release) 3.60 DPJ

0 650.54 MO
 68.00 0 RM 9.00 /Helvetica-DPMCS DPT

 (\220\220\220\220\220\220\220\220\220\220\220\220\220\220\220\220\220\220\220\220\220\220\220\220\220\220\220\220\220\220\220\220\220\220\220\220\220\220\220\220\220\220\220\220\220\220\220\220\220\220) 3.60 DPJ 9.00 /Helvetica-DPMCS DPT

 (-) 3.60 DPJ

0 640.54 MO
 68.00 0 RM 9.00 /Helvetica-Bold-DPMCS DPT

 (IBM MVS Environment) 3.60 DPJ

0 630.54 MO
 68.00 0 RM 9.00 /Helvetica-DPMCS DPT

 (\220\220\220\220\220\220\220\220\220\220\220\220\220\220\220\220\220\220\220\220\220\220\220\220\220\220\220\220\220\220\220\220\220\220\220\220\220\220\220\220\220\220\220\220\220\220\220\220\220\220) 3.60 DPJ 9.00 /Helvetica-DPMCS DPT

 (-) 3.60 DPJ

0 620.54 MO
 68.00 0 RM (MVS/SP) 3.60 DPJ

0 620.54 MO
 283.99 0 RM (2) 3.60 DPJ 83.89 0 RM (2) 3.60 DPJ

0 620.54 MO
 377.89 0 RM (.0) 3.60 DPJ

0 610.54 MO
 283.99 0 RM (3) 3.60 DPJ 83.89 0 RM (1) 3.60 DPJ

0 610.54 MO
 377.89 0 RM (.0) 3.60 DPJ

0 600.54 MO
 68.00 0 RM 9.00 /Helvetica-DPMCS DPT

 (\220\220\220\220\220\220\220\220\220\220\220\220\220\220\220\220\220\220\220\220\220\220\220\220\220\220\220\220\220\220\220\220\220\220\220\220\220\220\220\220\220\220\220\220\220\220\220\220\220\220) 3.60 DPJ 9.00 /Helvetica-DPMCS DPT

 (-) 3.60 DPJ

0 590.54 MO
 68.00 0 RM (TSO/E/XA) 3.60 DPJ

0 590.54 MO
 372.89 0 RM (3) 3.60 DPJ

0 590.54 MO
 377.89 0 RM (.0) 3.60 DPJ

0 580.54 MO
 372.89 0 RM (4) 3.60 DPJ

0 580.54 MO
 377.89 0 RM (.0) 3.60 DPJ

0 570.54 MO
 68.00 0 RM 9.00 /Helvetica-DPMCS DPT

 (\220\220\220\220\220\220\220\220\220\220\220\220\220\220\220\220\220\220\220\220\220\220\220\220\220\220\220\220\220\220\220\220\220\220\220\220\220\220\220\220\220\220\220\220\220\220\220\220\220\220) 3.60 DPJ 9.00 /Helvetica-DPMCS DPT

 (-) 3.60 DPJ

0 560.54 MO
 68.00 0 RM (ISPF/MVS) 3.60 DPJ

0 560.54 MO
 283.99 0 RM (2) 3.60 DPJ 83.89 0 RM (2) 3.60 DPJ

0 560.54 MO
 377.89 0 RM (.0) 3.60 DPJ

0 550.54 MO
 372.88 0 RM (3) 3.60 DPJ

0 550.54 MO
 377.89 0 RM (.0) 3.60 DPJ

0 540.54 MO
 68.00 0 RM 9.00 /Helvetica-DPMCS DPT

 (\220\220\220\220\220\220\220\220\220\220\220\220\220\220\220\220\220\220\220\220\220\220\220\220\220\220\220\220\220\220\220\220\220\220\220\220\220\220\220\220\220\220\220\220\220\220\220\220\220\220) 3.60 DPJ 9.00 /Helvetica-DPMCS DPT

 (-) 3.60 DPJ

0 530.54 MO
 68.00 0 RM (ISPF/PDF) 3.60 DPJ

0 530.54 MO
 283.99 0 RM (2) 3.60 DPJ 83.89 0 RM (2) 3.60 DPJ

0 530.54 MO
 377.89 0 RM (.0) 3.60 DPJ

0 520.54 MO
 372.88 0 RM (3) 3.60 DPJ

0 520.54 MO
 377.89 0 RM (.0) 3.60 DPJ

0 510.54 MO
 68.00 0 RM 9.00 /Helvetica-DPMCS DPT

 (\220\220\220\220\220\220\220\220\220\220\220\220\220\220\220\220\220\220\220\220\220\220\220\220\220\220\220\220\220\220\220\220\220\220\220\220\220\220\220\220\220\220\220\220\220\220\220\220\220\220) 3.60 DPJ

0 500.54 MO
 68.00 0 RM 9.00 /Helvetica-DPMCS DPT

 (IMS) 3.60 DPJ

0 500.54 MO
 283.99 0 RM (2) 3.60 DPJ 83.90 0 RM (1) 3.60 DPJ

0 500.54 MO
 377.89 0 RM (.0) 3.60 DPJ

0 490.54 MO
 372.89 0 RM (3) 3.60 DPJ

0 490.54 MO
 377.89 0 RM (.0) 3.60 DPJ

0 480.54 MO
 68.00 0 RM 9.00 /Helvetica-DPMCS DPT

 (\220\220\220\220\220\220\220\220\220\220\220\220\220\220\220\220\220\220\220\220\220\220\220\220\220\220\220\220\220\220\220\220\220\220\220\220\220\220\220\220\220\220\220\220\220\220\220\220\220\220) 3.60 DPJ 9.00 /Helvetica-DPMCS DPT

 (-) 3.60 DPJ

0 470.54 MO
 68.00 0 RM (CICS/OS/MVS) 3.60 DPJ

0 470.54 MO
 283.99 0 RM (1) 3.60 DPJ 83.89 0 RM (6) 3.60 DPJ

0 470.54 MO
 377.89 0 RM (.1) 3.60 DPJ

0 460.54 MO
 372.88 0 RM (7) 3.60 DPJ

0 460.54 MO
 377.89 0 RM (.0) 3.60 DPJ

0 450.54 MO
 68.00 0 RM 9.00 /Helvetica-DPMCS DPT

 (\220\220\220\220\220\220\220\220\220\220\220\220\220\220\220\220\220\220\220\220\220\220\220\220\220\220\220\220\220\220\220\220\220\220\220\220\220\220\220\220\220\220\220\220\220\220\220\220\220\220) 3.60 DPJ 9.00 /Helvetica-DPMCS DPT

 (-) 3.60 DPJ

0 440.54 MO
 68.00 0 RM (NCCF) 3.60 DPJ

0 440.54 MO
 283.99 0 RM (2) 3.60 DPJ 83.89 0 RM (2) 3.60 DPJ

0 440.54 MO
 377.89 0 RM (.0) 3.60 DPJ

0 430.54 MO
 68.00 0 RM 9.00 /Helvetica-DPMCS DPT

 (\220\220\220\220\220\220\220\220\220\220\220\220\220\220\220\220\220\220\220\220\220\220\220\220\220\220\220\220\220\220\220\220\220\220\220\220\220\220\220\220\220\220\220\220\220\220\220\220\220\220) 3.60 DPJ 9.00 /Helvetica-DPMCS DPT

 (-) 3.60 DPJ

0 420.54 MO
 68.00 0 RM (NETVIEW) 3.60 DPJ

0 420.54 MO
 283.99 0 RM (1) 3.60 DPJ 83.89 0 RM (1) 3.60 DPJ

0 420.54 MO
 377.89 0 RM (.0) 3.60 DPJ

0 410.54 MO
 372.88 0 RM (2) 3.60 DPJ

0 410.54 MO
 377.89 0 RM (.0) 3.60 DPJ

0 400.54 MO
 68.00 0 RM 9.00 /Helvetica-DPMCS DPT

 (\220\220\220\220\220\220\220\220\220\220\220\220\220\220\220\220\220\220\220\220\220\220\220\220\220\220\220\220\220\220\220\220\220\220\220\220\220\220\220\220\220\220\220\220\220\220\220\220\220\220) 3.60 DPJ 9.00 /Helvetica-DPMCS DPT

 (-) 3.60 DPJ

0 390.54 MO
 68.00 0 RM (GDDM) 3.60 DPJ

0 390.54 MO
 283.99 0 RM (2) 3.60 DPJ 83.89 0 RM (1) 3.60 DPJ

0 390.54 MO
 377.89 0 RM (.0) 3.60 DPJ

0 380.54 MO
 68.00 0 RM 9.00 /Helvetica-DPMCS DPT

 (\220\220\220\220\220\220\220\220\220\220\220\220\220\220\220\220\220\220\220\220\220\220\220\220\220\220\220\220\220\220\220\220\220\220\220\220\220\220\220\220\220\220\220\220\220\220\220\220\220\220) 3.60 DPJ 9.00 /Helvetica-DPMCS DPT

 (-) 3.60 DPJ

0 370.54 MO
 68.00 0 RM (SAS) 3.60 DPJ

0 370.54 MO
 283.99 0 RM (5.18) 3.60 DPJ

0 360.54 MO
 68.00 0 RM 9.00 /Helvetica-DPMCS DPT

 (\220\220\220\220\220\220\220\220\220\220\220\220\220\220\220\220\220\220\220\220\220\220\220\220\220\220\220\220\220\220\220\220\220\220\220\220\220\220\220\220\220\220\220\220\220\220\220\220\220\220) 3.60 DPJ 9.00 /Helvetica-DPMCS DPT

 (-) 3.60 DPJ

0 350.54 MO
 68.00 0 RM 9.00 /Helvetica-Bold-DPMCS DPT

 (IBM) 3.60 DPJ 9.00 /Helvetica-DPMCS DPT

 ( ) 3.60 DPJ 9.00 /Helvetica-Bold-DPMCS DPT

 (VM) 3.60 DPJ 9.00 /Helvetica-DPMCS DPT

 ( ) 3.60 DPJ 9.00 /Helvetica-Bold-DPMCS DPT

 (Environment) 3.60 DPJ

0 340.54 MO
 68.00 0 RM 9.00 /Helvetica-DPMCS DPT

 (\220\220\220\220\220\220\220\220\220\220\220\220\220\220\220\220\220\220\220\220\220\220\220\220\220\220\220\220\220\220\220\220\220\220\220\220\220\220\220\220\220\220\220\220\220\220\220\220\220\220) 3.60 DPJ 9.00 /Helvetica-DPMCS DPT

 (-) 3.60 DPJ

0 330.54 MO
 68.00 0 RM (VM/SP) 3.60 DPJ

0 330.54 MO
 283.99 0 RM (1) 3.60 DPJ 83.89 0 RM (5) 3.60 DPJ

0 330.54 MO
 377.89 0 RM (.0) 3.60 DPJ

0 320.54 MO
 68.00 0 RM (VMS/XA SP) 3.60 DPJ

0 320.54 MO
 283.99 0 RM (1) 3.60 DPJ 83.89 0 RM (2) 3.60 DPJ

0 320.54 MO
 377.89 0 RM (.0) 3.60 DPJ

0 310.54 MO
 68.00 0 RM 9.00 /Helvetica-DPMCS DPT

 (\220\220\220\220\220\220\220\220\220\220\220\220\220\220\220\220\220\220\220\220\220\220\220\220\220\220\220\220\220\220\220\220\220\220\220\220\220\220\220\220\220\220\220\220\220\220\220\220\220\220) 3.60 DPJ 9.00 /Helvetica-DPMCS DPT

 (-) 3.60 DPJ

0 300.54 MO
 68.00 0 RM (CMS) 3.60 DPJ

0 300.54 MO
 372.88 0 RM (4) 3.60 DPJ

0 300.54 MO
 377.89 0 RM (.1) 3.60 DPJ

0 290.54 MO
 372.88 0 RM (5) 3.60 DPJ

0 290.54 MO
 377.89 0 RM (.0) 3.60 DPJ

0 280.54 MO
 68.00 0 RM 9.00 /Helvetica-DPMCS DPT

 (\220\220\220\220\220\220\220\220\220\220\220\220\220\220\220\220\220\220\220\220\220\220\220\220\220\220\220\220\220\220\220\220\220\220\220\220\220\220\220\220\220\220\220\220\220\220\220\220\220\220) 3.60 DPJ 9.00 /Helvetica-DPMCS DPT

 (-) 3.60 DPJ

0 270.54 MO
 68.00 0 RM (ISPF/VM) 3.60 DPJ

0 270.54 MO
 283.99 0 RM (2) 3.60 DPJ 83.89 0 RM (2) 3.60 DPJ

0 270.54 MO
 377.89 0 RM (.0) 3.60 DPJ

0 260.54 MO
 68.00 0 RM 9.00 /Helvetica-DPMCS DPT

 (\220\220\220\220\220\220\220\220\220\220\220\220\220\220\220\220\220\220\220\220\220\220\220\220\220\220\220\220\220\220\220\220\220\220\220\220\220\220\220\220\220\220\220\220\220\220\220\220\220\220) 3.60 DPJ 9.00 /Helvetica-DPMCS DPT

 (-) 3.60 DPJ

0 250.54 MO
 68.00 0 RM (ISPF/PDF) 3.60 DPJ

0 250.54 MO
 283.99 0 RM (2) 3.60 DPJ 83.89 0 RM (2) 3.60 DPJ

0 250.54 MO
 377.89 0 RM (.0) 3.60 DPJ

0 240.54 MO
 68.00 0 RM 9.00 /Helvetica-DPMCS DPT

 (\220\220\220\220\220\220\220\220\220\220\220\220\220\220\220\220\220\220\220\220\220\220\220\220\220\220\220\220\220\220\220\220\220\220\220\220\220\220\220\220\220\220\220\220\220\220\220\220\220\220) 3.60 DPJ 9.00 /Helvetica-DPMCS DPT

 (-) 3.60 DPJ

0 230.54 MO
 68.00 0 RM (NCCF) 3.60 DPJ

0 230.54 MO
 283.99 0 RM (2) 3.60 DPJ 83.89 0 RM (1) 3.60 DPJ

0 230.54 MO
 377.89 0 RM (.0) 3.60 DPJ

0 220.54 MO
 68.00 0 RM 9.00 /Helvetica-DPMCS DPT

 (\220\220\220\220\220\220\220\220\220\220\220\220\220\220\220\220\220\220\220\220\220\220\220\220\220\220\220\220\220\220\220\220\220\220\220\220\220\220\220\220\220\220\220\220\220\220\220\220\220\220) 3.60 DPJ 9.00 /Helvetica-DPMCS DPT

 (-) 3.60 DPJ

0 210.54 MO
 68.00 0 RM (NETVIEW) 3.60 DPJ

0 210.54 MO
 283.99 0 RM (1) 3.60 DPJ 83.90 0 RM (1) 3.60 DPJ

0 210.54 MO
 377.89 0 RM (.0) 3.60 DPJ

0 200.54 MO
 372.89 0 RM (2) 3.60 DPJ

0 200.54 MO
 377.89 0 RM (.0) 3.60 DPJ

0 190.54 MO
 68.00 0 RM 9.00 /Helvetica-DPMCS DPT

 (\220\220\220\220\220\220\220\220\220\220\220\220\220\220\220\220\220\220\220\220\220\220\220\220\220\220\220\220\220\220\220\220\220\220\220\220\220\220\220\220\220\220\220\220\220\220\220\220\220\220) 3.60 DPJ 9.00 /Helvetica-DPMCS DPT

 (-) 3.60 DPJ

0 26.54 MO
 303.99 0 RM 9.00 /Helvetica-Bold-DPMCS DPT

 (5) 3.60 DPJ

 showpage

 restore

 save

%%Page: 6 6



0 746.54 MO
 68.00 0 RM 9.00 /Helvetica-Bold-DPMCS DPT

 (DECwindows) 79.86 DPJ 2.70 0 RM (DECnet/SNA) 79.86 DPJ 2.70 0 RM (3270) 79.86 DPJ 311.35 0 RM (SPD) 79.86 DPJ 2.70 0 RM (31.58.00) 79.86 DPJ

0 736.54 MO
 68.00 0 RM (Terminal) 131.16 DPJ 2.70 0 RM (Emulator) 131.16 DPJ 2.70 0 RM (for) 131.16 DPJ 2.70 0 RM (VMS,) 131.16 DPJ

0 726.54 MO
 68.00 0 RM (Version 1.0) 3.60 DPJ

0 710.54 MO
 302.75 0 RM (Chart) 3.60 DPJ

0 700.54 MO
 290.00 0 RM (\(continued\)) 3.60 DPJ

0 684.54 MO
 68.00 0 RM 9.00 /Helvetica-DPMCS DPT

 (\220\220\220\220\220\220\220\220\220\220\220\220\220\220\220\220\220\220\220\220\220\220\220\220\220\220\220\220\220\220\220\220\220\220\220\220\220\220\220\220\220\220\220\220\220\220\220\220\220\220) 3.60 DPJ

0 674.54 MO
 68.00 0 RM 9.00 /Helvetica-Bold-DPMCS DPT

 (IBM) 3.60 DPJ 9.00 /Helvetica-DPMCS DPT

 ( ) 3.60 DPJ 9.00 /Helvetica-Bold-DPMCS DPT

 (DOS/VSE) 3.60 DPJ 9.00 /Helvetica-DPMCS DPT

 ( ) 3.60 DPJ 9.00 /Helvetica-Bold-DPMCS DPT

 (Environment) 3.60 DPJ

0 664.54 MO
 68.00 0 RM 9.00 /Helvetica-DPMCS DPT

 (\220\220\220\220\220\220\220\220\220\220\220\220\220\220\220\220\220\220\220\220\220\220\220\220\220\220\220\220\220\220\220\220\220\220\220\220\220\220\220\220\220\220\220\220\220\220\220\220\220\220) 3.60 DPJ 9.00 /Helvetica-DPMCS DPT

 (-) 3.60 DPJ

0 654.54 MO
 68.00 0 RM (VSE/SP) 3.60 DPJ

0 654.54 MO
 283.99 0 RM (2) 3.60 DPJ 83.89 0 RM (1) 3.60 DPJ

0 654.54 MO
 377.89 0 RM (.6) 3.60 DPJ

0 644.54 MO
 68.00 0 RM 9.00 /Helvetica-DPMCS DPT

 (\220\220\220\220\220\220\220\220\220\220\220\220\220\220\220\220\220\220\220\220\220\220\220\220\220\220\220\220\220\220\220\220\220\220\220\220\220\220\220\220\220\220\220\220\220\220\220\220\220\220) 3.60 DPJ 9.00 /Helvetica-DPMCS DPT

 (-) 3.60 DPJ

0 634.54 MO
 68.00 0 RM (VSE/ICCF) 3.60 DPJ

0 634.54 MO
 283.99 0 RM (2) 3.60 DPJ 83.89 0 RM (1) 3.60 DPJ

0 634.54 MO
 377.89 0 RM (.0) 3.60 DPJ

0 624.54 MO
 68.00 0 RM 9.00 /Helvetica-DPMCS DPT

 (\220\220\220\220\220\220\220\220\220\220\220\220\220\220\220\220\220\220\220\220\220\220\220\220\220\220\220\220\220\220\220\220\220\220\220\220\220\220\220\220\220\220\220\220\220\220\220\220\220\220) 3.60 DPJ 9.00 /Helvetica-DPMCS DPT

 (-) 3.60 DPJ

0 614.54 MO
 68.00 0 RM (ISPF/VSE) 3.60 DPJ

0 614.54 MO
 283.99 0 RM (1) 3.60 DPJ 83.89 0 RM (1) 3.60 DPJ

0 614.54 MO
 377.89 0 RM (.0) 3.60 DPJ

0 604.54 MO
 68.00 0 RM 9.00 /Helvetica-DPMCS DPT

 (\220\220\220\220\220\220\220\220\220\220\220\220\220\220\220\220\220\220\220\220\220\220\220\220\220\220\220\220\220\220\220\220\220\220\220\220\220\220\220\220\220\220\220\220\220\220\220\220\220\220) 3.60 DPJ 9.00 /Helvetica-DPMCS DPT

 (-) 3.60 DPJ

0 594.54 MO
 68.00 0 RM (ISPF/PDF) 3.60 DPJ

0 594.54 MO
 283.99 0 RM (1) 3.60 DPJ 83.89 0 RM (1) 3.60 DPJ

0 594.54 MO
 377.89 0 RM (.0) 3.60 DPJ

0 584.54 MO
 68.00 0 RM 9.00 /Helvetica-DPMCS DPT

 (\220\220\220\220\220\220\220\220\220\220\220\220\220\220\220\220\220\220\220\220\220\220\220\220\220\220\220\220\220\220\220\220\220\220\220\220\220\220\220\220\220\220\220\220\220\220\220\220\220\220) 3.60 DPJ 9.00 /Helvetica-DPMCS DPT

 (-) 3.60 DPJ

0 574.54 MO
 68.00 0 RM (CICS/DOS/VS) 3.60 DPJ

0 574.54 MO
 283.99 0 RM (1) 3.60 DPJ 83.90 0 RM (6) 3.60 DPJ

0 574.54 MO
 377.89 0 RM (.0) 3.60 DPJ

0 564.54 MO
 68.00 0 RM 9.00 /Helvetica-DPMCS DPT

 (\220\220\220\220\220\220\220\220\220\220\220\220\220\220\220\220\220\220\220\220\220\220\220\220\220\220\220\220\220\220\220\220\220\220\220\220\220\220\220\220\220\220\220\220\220\220\220\220\220\220) 3.60 DPJ 9.00 /Helvetica-DPMCS DPT

 (-) 3.60 DPJ

0 554.54 MO
 68.00 0 RM (NCCF) 3.60 DPJ

0 554.54 MO
 283.99 0 RM (2) 3.60 DPJ 83.89 0 RM (2) 3.60 DPJ

0 554.54 MO
 377.89 0 RM (.0) 3.60 DPJ

0 544.54 MO
 68.00 0 RM 9.00 /Helvetica-DPMCS DPT

 (\220\220\220\220\220\220\220\220\220\220\220\220\220\220\220\220\220\220\220\220\220\220\220\220\220\220\220\220\220\220\220\220\220\220\220\220\220\220\220\220\220\220\220\220\220\220\220\220\220\220) 3.60 DPJ 9.00 /Helvetica-DPMCS DPT

 (-) 3.60 DPJ

0 528.54 MO
 68.00 0 RM (Please contact your local DIGITAL office for up-to-date information regarding listed configurations.) 3.60 DPJ

0 514.54 MO
 68.00 0 RM 7.00 /Helvetica-DPMCS DPT

 (__________________) 3.60 DPJ

0 500.54 MO
 0 4.00 RM 0 -4.00 RM

0 500.54 MO
 80.00 0 RM (The DIGITAL Logo is a registered trademark of Digital Equipment Corporation.) 2.80 DPJ

0 492.54 MO
 80.00 0 RM (DECwindows, DECnet, MicroVAX, VAX, and VAXstation are trademarks of Digital Equipment Corporation.) 2.80 DPJ

0 26.54 MO
 304.00 0 RM 9.00 /Helvetica-Bold-DPMCS DPT

 (6) 2.80 DPJ 0 -36.00 RM

 showpage

 restore

%%Trailer

%%Pages: 6

%%DocumentFonts: Courier-MCS %LOGO8 Helvetica-DPMCS Helvetica-Bold-DPMCS Helvetica-Oblique-DPMCS Symbol 

%!Font Name                     Font No   Charset

%!/Courier-MCS                  1         ASCII

%!%%LOGO8                       108       ASCII

%!/Helvetica-DPMCS              200       ASCII

%!/Helvetica-Bold-DPMCS         220       ASCII

%!/Helvetica-Oblique-DPMCS      240       ASCII

%!/Symbol                       5         PUBL

%!/Helvetica-DPMCS              200       PUBL


