%!PS-Adobe-1.0
%%Creator: barb (Barbara Burgos)
%%Title: 267103.pos
%%CreationDate: Fri Mar 31 02:21:46 1989
%%Pages: (atend)
%%DocumentFonts: (atend)
%%EndComments
save
/FF {findfont} def
/SF {scalefont} def
/GS {gsave} def
/GR {grestore} def
/MF {makefont} def
/S {0 rmoveto} def
/L {0 exch rmoveto} def
/R {setlinewidth 0 rlineto stroke} def
/m {moveto} def
/l {lineto} def
/s {setfont} def
/revflag 0 def
/adjustdict 6 dict def
/setclip {
    newpath
    /endy exch def
    /endx exch def
    /starty exch def
    /startx exch def
    startx starty moveto
    endx starty lineto
    endx endy lineto
    startx endy lineto
    closepath
} def
/bbox {
    /width exch def
    currentpoint
    /cury exch def
    /curx exch def
    newpath
    curx cury m
    0 above rlineto
    width 0 rlineto
    0 above below add neg rlineto
    width neg 0 rlineto
    closepath fill curx cury m
} def
/T {
    adjustdict begin
    /adjust exch def
    /charct exch def
    /curstring exch def
    1 revflag eq {adjust bbox 1 setgray} if
    adjust curstring stringwidth pop sub charct div 0 curstring ashow
    1 revflag eq {0 setgray} if
    end
} def
/doa4tray{
    /brandname 21 string def
    statusdict begin brandname printername pop statusdict end
    (Dataproducts LZR 2665) brandname eq
        {statusdict begin a4tray statusdict end} if
} def
 
/leaderdict 10 dict def
/F {
    leaderdict begin
        /ldrstring exch def
        /adjust exch def
        /hole exch def
        1 revflag eq {hole bbox 1 setgray} if
        /holex currentpoint pop def
        /endgap
            holex hole add
            holex hole add ldrstring stringwidth pop adjust add div truncate
            ldrstring stringwidth pop adjust add mul
            sub
        def
        /hole hole endgap sub def
        /frontgap
            hole
            hole ldrstring stringwidth pop adjust add div truncate
            ldrstring stringwidth pop adjust add mul
            sub
        def
        /hole hole frontgap sub def
        /repct
            hole ldrstring stringwidth pop adjust add div round cvi def
        frontgap 0 rmoveto
        repct {adjust 0 ldrstring ashow} repeat
        endgap 0 rmoveto
        1 revflag eq {0 setgray} if
    end
} def
%%Page: 0 1
/f1 {/Helvetica FF 23.9 SF} def
f1 s 68.8 747.6 m (Software)8 93.8 T 68.8 723.7 m (Product)7 81.9 T 68.8 
699.8 m (Description)11 118.9 T 68.8 682.8 m -2.4 L GS 476.3 5 R GR  476.3 S 
2.4 L /f2 {/Helvetica-Bold FF 9 SF} def
f2 s 68.8 657.2 m (PRODUCT)7 44 T  4.5 S (NAME:)5 29.1 T /f3 
{/Helvetica-Bold FF 12 SF} def
f3 s 152.4 657.2 m (DECnet/SNA)10 71.5 T  4.6 S (VMS)3 25.9 T  4.7 S (Distrib\
uted)11 62.7 T  4.7 S (Host)4 26.4 T  4.7 S (Command)7 58.3 T  4.7 S (Facilit\
y)8 40.9 T f3 s 152.4 647.2 m (\(DHCF\),)7 44.2 T  6 S f2 s (Version)7 32.8 
T  4.5 S (1.2)3 12.5 T 487.2 657.2 m (SPD)3 18.4 T  4.5 S (26.71.03)8 35 T 
67.9 608.3 m (DESCRIPTION)11 61 T /f4 {/Helvetica FF 9 SF} def
f4 s 67.9 593.3 m (DECnet/SNA)10 52.2 T  5.1 S (VMS)3 19.4 T  5.1 S (Distribu\
ted)11 42.6 T  5.1 S (Host)4 18.4 T  5.2 S (Command)7 41.2 T  5.2 S (Facility\
)8 27.6 T 67.9 583.3 m (\(DHCF\))6 30.4 T  2.6 S (is)2 6.4 T  2.7 S (a)1 5 T 
 2.7 S (VMS)3 19.4 T  2.7 S (layered)7 29.3 T  2.7 S (software)8 33.8 T  2.7 
S (product)7 29.9 T  2.7 S (which)5 22.8 T  2.7 S (is)2 6.4 T  2.7 S (used)4 
19.5 T 67.9 573.3 m (in)2 6.9 T  2.7 S (conjunction)11 45.3 T  2.7 S (with)4 
15.8 T  2.7 S (the)3 12.5 T  2.7 S (DECnet/SNA)10 52.2 T  2.7 S (gateway)7 
33.4 T  2.8 S (products.)9 36.9 T  2.8 S (It)2 5 T 67.9 563.3 m (allows)6 
24.7 T  2.7 S (suitably)8 30.3 T  2.7 S (configured)10 41.8 T  2.7 S (VMS)3 
19.4 T  2.7 S (systems)7 32.9 T  2.7 S (within)6 22.7 T  2.7 S (a)1 5 T  2.8 
S (DECnet)6 31.3 T 67.9 553.3 m (network)7 31.3 T  3 S (to)2 7.5 T  3 S 
(be)2 10 T  3 S (accessed)8 38 T  3.1 S (from)4 17.8 T  3.1 S (IBM)3 15.9 T 
/f5 {/Symbol FF 9 SF} def
f5 s (\342)1 7.1 T  3.1 S f4 s (host-controlled)15 58.6 T  3.1 S (327x)4 
19.5 T 67.9 543.3 m (display)7 27.8 T  2.5 S (stations)8 30.9 T  2.5 S (in)2 
6.9 T  2.5 S (a)1 5 T  2.5 S (Systems)7 34.4 T  2.5 S (Network)7 32.7 T  2.5 
S (Architecture)12 47.7 T  2.5 S (\(SNA\))5 24.2 T 67.9 533.3 m 
(networking)10 43.2 T  3.9 S (environment.)12 51.7 T  3.9 S (Users)5 23.3 T  
3.9 S (of)2 7.5 T  4 S (the)3 12.5 T  4 S (IBM)3 15.9 T  4 S (system)6 28.4 
T  4 S (gain)4 16.9 T 67.9 523.3 m (access)6 28 T  5.3 S (to)2 7.5 T  5.3 S (\
VAX)3 18 T  5.3 S (systems)7 32.9 T  5.3 S (via)3 11.4 T  5.3 S (any)3 14.5 
T  5.3 S (of)2 7.5 T  5.4 S (the)3 12.5 T  5.4 S (DECnet/SNA)10 52.2 T 67.9 
513.3 m (gateway)7 33.4 T  4.5 S (products.)9 36.9 T 67.9 498.3 m (In)2 7.5 
T  5.6 S (an)2 10 T  5.6 S (actual)6 23.9 T  5.6 S (IBM)3 15.9 T  5.6 S (dist\
ributed)11 41.2 T  5.6 S (processing)10 43.3 T  5.6 S (environment,)12 51.7 
T 67.9 488.3 m (3270)4 20 T  2.6 S (terminal)8 31.6 T  2.6 S (operators)9 
37.8 T  2.7 S (can)3 14.5 T  2.7 S (access,)7 30.5 T  2.7 S (monitor,)8 32.2 
T  2.7 S (and)3 15 T  2.7 S (control)7 26.8 T 67.9 478.3 m (remote)6 27.8 T  
4.6 S (IBM)3 15.9 T  4.6 S (8100)4 20 T  4.6 S (Information)11 44.7 T  4.6 S 
(System)6 29.9 T  4.6 S (computers,)10 44.3 T  4.7 S (suit-)5 16.8 T 67.9 
468.3 m (ably)4 16.4 T  3.8 S (configured)10 41.8 T  3.8 S (Series/1)8 32.8 
T  3.9 S (small)5 20.7 T  3.9 S (business)8 35.4 T  3.9 S (computers)9 41.8 
T  3.9 S (and)3 15 T 67.9 458.3 m (AS/400)6 29.5 T  5.1 S (systems)7 32.9 T  
5.2 S (using)5 21.4 T  5.2 S (an)2 10 T  5.2 S (IBM)3 15.9 T  5.2 S (mainfram\
e-based)15 69.5 T  5.2 S (Pro-)4 16.8 T 67.9 448.3 m (gram)4 20.3 T  2.9 S (P\
roduct)7 30.9 T  2.9 S (called)6 23.3 T  2.9 S (Host)4 18.4 T  3 S 
(Command)7 41.2 T  3 S (Facility)8 27.6 T  3 S (\(HCF\).)6 26.5 T  3 S 
(HCF)3 18.2 T 67.9 438.3 m (permits)7 29.2 T  3.1 S (a)1 5 T  3.1 S (terminal\
)8 31.6 T  3.1 S (on)2 10 T  3.1 S (a)1 5 T  3.1 S (System/370,)11 49.9 T  
3.2 S (43xx)4 19 T  3.2 S (or)2 7.9 T  3.2 S (30xx)4 19 T  3.2 S (main-)5 
22.2 T 67.9 428.3 m (frame)5 22.8 T  4.5 S (to)2 7.5 T  4.5 S (function)8 
31.4 T  4.5 S (as)2 9.5 T  4.5 S (if)2 4.4 T  4.5 S (it)2 4.4 T  4.5 S (were)
4 19.3 T  4.5 S (directly)8 28.2 T  4.5 S (attached)8 34.5 T  4.5 S (to)2 
7.5 T  4.6 S (the)3 12.5 T 67.9 418.3 m (remote)6 27.8 T  3 S 
(distributed)11 41.2 T  3 S (processor.)10 41.8 T  3 S (HCF)3 18.2 T  3 S (in\
teracts)9 33.8 T  3.1 S (with)4 15.8 T  3.1 S (cooper-)7 30.3 T 67.9 408.3 m 
(ative)5 18.9 T  5.6 S (IBM-supplied)12 52.1 T  5.6 S (software)8 33.8 T  
5.6 S (that)4 15 T  5.7 S (runs)4 17.4 T  5.7 S (on)2 10 T  5.7 S (the)3 
12.5 T  5.7 S (remote)6 27.8 T 67.9 398.3 m (distributed)11 41.2 T  4.5 S (pr\
ocessor)9 39.3 T  4.5 S (to)2 7.5 T  4.5 S (provide)7 29.3 T  4.5 S (such)4 
19 T  4.5 S (support.)8 32.4 T 67.9 383.3 m (The)3 15.4 T  3.7 S (3270)4 20 
T  3.7 S (terminal)8 31.6 T  3.7 S (operator)8 33.3 T  3.8 S (using)5 21.4 T 
 3.8 S (HCF)3 18.2 T  3.8 S (can)3 14.5 T  3.8 S (log)3 11.9 T  3.8 S 
(into)4 14.4 T  3.8 S (the)3 12.5 T 67.9 373.3 m (remote)6 27.8 T  4.7 S (pro\
cessor)9 39.3 T  4.7 S (to)2 7.5 T  4.7 S (invoke)6 25.9 T  4.7 S (system)6 
28.4 T  4.7 S (services)8 32.8 T  4.7 S (and)3 15 T  4.8 S (user)4 17.4 T 
67.9 363.3 m (programs.)9 40.2 T  3.6 S (In)2 7.5 T  3.6 S (addition,)9 33.8 
T  3.6 S (HCF)3 18.2 T  3.6 S (allows)6 24.7 T  3.6 S (the)3 12.5 T  3.6 S (t\
erminal)8 31.6 T  3.7 S (operator)8 33.3 T 67.9 353.3 m (at)2 7.5 T  4.4 S (a\
)1 5 T  4.4 S (centralized)11 43.2 T  4.4 S (Network)7 32.7 T  4.4 S (Control\
)7 28.7 T  4.4 S (Center)6 26.8 T  4.4 S (to)2 7.5 T  4.4 S (access)6 28 T  
4.4 S (the)3 12.5 T 67.9 343.3 m (maintenance,)12 53.8 T  7.4 S (service,)8 
30.8 T  7.4 S (and)3 15 T  7.5 S (control)7 26.8 T  7.5 S (functions)9 35.9 
T  7.5 S (of)2 7.5 T  7.5 S (the)3 12.5 T 67.9 333.3 m (remote)6 27.8 T  3 S 
(system)6 28.4 T  3 S (for)3 10.4 T  3 S (problem)7 32.2 T  3.1 S (determinat\
ion,)14 56.6 T  3.1 S (problem)7 32.2 T  3.1 S (isola-)6 21.2 T 67.9 323.3 m 
(tion,)5 16.9 T  4.5 S (and)3 15 T  4.5 S (remote)6 27.8 T  4.5 S (system)6 
28.4 T  4.5 S (control.)8 29.3 T 67.9 308.3 m (DECnet/SNA)10 52.2 T  3.2 S (V\
MS)3 19.4 T  3.2 S (DHCF)4 24.6 T  3.2 S (is)2 6.4 T  3.2 S (another)7 30.4 
T  3.2 S (VMS-based)9 46.8 T  3.3 S (access)6 28 T 67.9 298.3 m (routine)7 
27.3 T  5.3 S (in)2 6.9 T  5.3 S (the)3 12.5 T  5.3 S (DECnet/SNA)10 52.2 T  
5.3 S (product)7 29.9 T  5.3 S (set.)4 14.5 T  5.3 S (It)2 5 T  5.4 S (is)2 
6.4 T  5.4 S (a)1 5 T  5.4 S (VMS)3 19.4 T 67.9 288.3 m (layered)7 29.3 T  
4.3 S (application)11 42.7 T  4.3 S (that)4 15 T  4.3 S (provides)8 33.8 T  
4.3 S (the)3 12.5 T  4.3 S (software)8 33.8 T  4.3 S (for)3 10.4 T  4.4 S (VM\
S)3 19.4 T 67.9 278.3 m (systems)7 32.9 T  5.4 S (to)2 7.5 T  5.4 S (communic\
ate)11 53.2 T  5.4 S (with)4 15.8 T  5.4 S (the)3 12.5 T  5.4 S (IBM)3 15.9 
T  5.4 S (HCF)3 18.2 T  5.5 S (program)7 33.2 T 67.9 268.3 m (product.)8 
32.4 T  2.6 S (When)4 23.4 T  2.6 S (DECnet/SNA)10 52.2 T  2.6 S (VMS)3 19.4 
T  2.6 S (DHCF)4 24.6 T  2.6 S (is)2 6.4 T  2.6 S (installed)9 32.7 T  2.7 S 
(on)2 10 T  2.7 S (a)1 5 T 67.9 258.3 m (VMS)3 19.4 T  4.1 S (system,)7 30.9 
T  4.1 S (IBM)3 15.9 T  4.1 S (3270)4 20 T  4.1 S (terminal)8 31.6 T  4.2 S (\
operators)9 37.8 T  4.2 S (can)3 14.5 T  4.2 S (access)6 28 T 67.9 248.3 m (t\
he)3 12.5 T  3.2 S (VMS)3 19.4 T  3.2 S (system,)7 30.9 T  3.2 S (via)3 11.4 
T  3.2 S (a)1 5 T  3.2 S (DECnet/SNA)10 52.2 T  3.3 S (gateway,)8 35.9 T  
3.3 S (using)5 21.4 T  3.3 S (the)3 12.5 T 67.9 238.3 m (IBM)3 15.9 T  4.7 S 
(HCF)3 18.2 T  4.7 S (program)7 33.2 T  4.7 S (product)7 29.9 T  4.7 S (as)2 
9.5 T  4.7 S (described)9 38.8 T  4.7 S (in)2 6.9 T  4.7 S (the)3 12.5 T  
4.8 S (above)5 24.5 T 67.9 228.3 m (paragraphs.)11 47.8 T  6.3 S (Although)8 
35.4 T  6.3 S (it)2 4.4 T  6.3 S (may)3 16.9 T  6.3 S (be)2 10 T  6.3 S (poss\
ible)8 32.8 T  6.4 S (to)2 7.5 T  6.4 S (access)6 28 T 67.9 218.3 m (non-VMS)
7 37.3 T  3.1 S (systems)7 32.9 T  3.1 S (once)4 19.5 T  3.2 S (the)3 12.5 T 
 3.2 S (3270)4 20 T  3.2 S (user)4 17.4 T  3.2 S (has)3 14.5 T  3.2 S (logged\
)6 26.9 T  3.2 S (on)2 10 T  3.2 S (to)2 7.5 T 67.9 208.3 m (a)1 5 T  12.6 S 
(VMS)3 19.4 T  12.6 S (processor)9 39.3 T  12.6 S (\(e.g.,)6 20.4 T  12.7 S (\
CTERM)5 31.6 T  12.7 S (access)6 28 T  12.7 S (to)2 7.5 T /f6 {/Symbol FF 7 
SF} def
f6 s 67.9 160.5 m (\342)1 5.5 T /f7 {/Helvetica FF 7 SF} def
f7 s (IBM)3 12.3 T  3.5 S (is)2 5 T  3.5 S (a)1 3.8 T  3.5 S (registered)10 
30.5 T  3.5 S (trademark)9 31 T  3.5 S (of)2 5.7 T  3.5 S (IBM)3 12.3 T  3.5 
S (Corporation)11 35.8 T f4 s 318.9 608.3 m (ULTRIX-based)12 57.9 T  5.2 S (s\
ystems)7 32.2 T  5.3 S (or)2 7.7 T  5.3 S (PSI)3 14.2 T  5.3 S (access)6 
27.4 T  5.3 S (to)2 7.3 T  5.3 S (systems)7 32.2 T  5.3 S (via)3 11.1 T 
318.9 598.3 m (X.29\),)6 23.9 T  2.7 S (this)4 13.9 T  2.7 S (will)4 12.1 T  
2.7 S (not)3 12.5 T  2.7 S (be)2 10 T  2.7 S (considered)10 43.8 T  2.8 S (as\
)2 9.5 T  2.8 S (a)1 5 T  2.8 S (supported)9 39.9 T  2.8 S (configu-)8 31.8 
T 318.9 588.3 m (ration.)7 24.8 T  4.1 S (DHCF)4 24.6 T  4.1 S (is)2 6.4 T  
4.1 S (intended)8 34.4 T  4.1 S (for)3 10.4 T  4.1 S (use)3 14.5 T  4.1 S (wi\
th)4 15.8 T  4.2 S (VMS-based)9 46.8 T  4.2 S (sys-)4 16.4 T 318.9 578.3 m (t\
ems)4 19.4 T  4.5 S (only.)5 18.9 T 318.9 563.3 m (DECnet/SNA)10 52.2 T  3.2 
S (VMS)3 19.4 T  3.2 S (DHCF)4 24.6 T  3.2 S (provides)8 33.8 T  3.3 S ("line\
)5 16.9 T  3.3 S (mode")5 25.5 T  3.3 S (or)2 7.9 T  3.3 S ("glass)6 24 T 
318.9 553.3 m (TTY")4 19.9 T  3.2 S (access)6 28 T  3.2 S (for)3 10.4 T  3.2 
S (the)3 12.5 T  3.3 S (IBM)3 15.9 T  3.3 S (3270)4 20 T  3.3 S (user)4 17.4 
T  3.3 S (to)2 7.5 T  3.3 S (the)3 12.5 T  3.3 S (VMS)3 19.4 T  3.3 S (system\
.)7 30.9 T 318.9 543.3 m (Such)4 20.5 T  3.1 S (access)6 28 T  3.2 S (is)2 
6.4 T  3.2 S (appropriate)11 45.2 T  3.2 S (for)3 10.4 T  3.2 S (entering)8 
32.3 T  3.2 S (system)6 28.4 T  3.2 S (and)3 15 T  3.2 S (net-)4 15.4 T 
318.9 533.3 m (work)4 18.8 T  3.3 S (management)10 52.3 T  3.3 S (DCL)3 17.8 
T  3.3 S (commands)8 43.8 T  3.3 S (in)2 6.9 T  3.4 S (the)3 12.5 T  3.4 S (V\
MS)3 19.4 T  3.4 S (environ-)8 32.2 T 318.9 523.3 m (ment.)5 22.4 T  4.3 S (D\
HCF)4 24.6 T  4.3 S (is)2 6.4 T  4.3 S (not)3 12.5 T  4.3 S (intended)8 34.4 
T  4.3 S (as)2 9.5 T  4.3 S (a)1 5 T  4.3 S (general)7 29.8 T  4.3 S (purpose\
)7 32.4 T  4.4 S (full)4 11.3 T 318.9 513.3 m (screen)6 26.9 T  3 S 
(access)6 28 T  3 S (mechanism)9 45.7 T  3 S (to)2 7.5 T  3 S (the)3 12.5 T  
3 S (VMS)3 19.4 T  3.1 S (environment.)12 51.7 T  3.1 S (Full)4 14.2 T 318.9 
503.3 m (screen)6 26.9 T  5.2 S (access)6 28 T  5.2 S (to)2 7.5 T  5.2 S (VMS\
-based)9 46.8 T  5.3 S (applications)12 47.2 T  5.3 S (is)2 6.4 T  5.3 S (pos\
sible)8 32.8 T 318.9 493.3 m (only)4 16.4 T  4.3 S (if)2 4.4 T  4.3 S (the)3 
12.5 T  4.3 S (application)11 42.7 T  4.3 S (uses)4 19 T  4.4 S (DIGITAL's)9 
41.2 T  4.4 S (Forms)5 25.2 T  4.4 S (Manage-)7 35.3 T 318.9 483.3 m (ment)4 
19.9 T  5.9 S (System)6 29.9 T  5.9 S (\(FMS\).)6 27.1 T  5.9 S (Certain)7 
28.7 T  6 S (FMS)3 18.8 T  6 S (restrictions)12 43.1 T  6 S (apply;)6 23.9 T 
318.9 473.3 m (refer)5 18.3 T  5.5 S (to)2 7.5 T  5.6 S (VAX)3 18 T  5.6 S (F\
MS)3 18.8 T  5.6 S (\(SPD)4 21.3 T  5.6 S (26.10.xx\))9 36.9 T  5.6 S (and)3 
15 T  5.6 S (DECnet/SNA)10 52.2 T 318.9 463.3 m (Gateway)7 35.4 T  4.5 S (doc\
umentation)13 58.8 T  4.5 S (set)3 12 T  4.5 S (for)3 10.4 T  4.5 S (full)4 
11.3 T  4.5 S (details.)8 28.3 T 318.9 448.3 m (DHCF)4 24.6 T  5.7 S (was)3 
15.9 T  5.7 S (not)3 12.5 T  5.7 S (designed)8 36.4 T  5.7 S (to)2 7.5 T  
5.7 S (transform)9 37.7 T  5.8 S (ASCII)5 23.4 T  5.8 S (escape)6 29 T 318.9 
438.3 m (sequences)9 43.5 T  4.8 S (and)3 15 T  4.9 S (general)7 29.8 T  4.9 
S (ANSI)4 20.9 T  4.9 S (data)4 17.5 T  4.9 S (streams)7 31.8 T  4.9 S (into)
4 14.4 T  4.9 S (3270)4 20 T 318.9 428.3 m (data)4 17.5 T  6.8 S (streams.)8 
34.3 T  6.8 S (For)3 13.3 T  6.8 S (this)4 13.9 T  6.8 S (reason,)7 29.9 T  
6.8 S (full)4 11.3 T  6.8 S (screen)6 26.9 T  6.9 S (oriented)8 32.3 T 318.9 
418.3 m (DIGITAL)7 34.8 T  5.9 S (base)4 19.5 T  5.9 S (applications)12 47.2 
T  5.9 S (such)4 19 T  5.9 S (as)2 9.5 T  5.9 S (WPS-PLUS)8 46.7 T  5.9 S (an\
d)3 15 T 318.9 408.3 m (most)4 19.4 T  2.7 S (applications)12 47.2 T  2.8 S (\
running)7 29.8 T  2.8 S (under)5 22.9 T  2.8 S (ALL-IN-1)8 35.7 T  2.8 S (are\
)3 12.9 T  2.8 S (inappropri-)11 42.5 T 318.9 398.3 m (ate)3 12.5 T  4.5 S (f\
or)3 10.4 T  4.5 S (access)6 28 T  4.5 S (through)7 30.4 T  4.5 S (DHCF.)5 
27.1 T /f8 {/Helvetica-BoldOblique FF 9 SF} def
f8 s 318.9 383.3 m (Features)8 37.2 T /f9 {/Symbol FF 12 SF} def
f9 s 318.9 368.3 m (\267)1 5.5 T f4 s 330.9 368.3 m (The)3 15.4 T  4.5 S (DHC\
F)4 24.6 T  4.5 S (user)4 17.4 T  4.5 S (may)3 16.9 T  4.5 S (run)3 12.9 T  
4.5 S (any)3 14.5 T  4.6 S (VMS)3 19.4 T  4.6 S (application)11 42.7 T  4.6 
S (that)4 15 T 330.9 357.5 m (can)3 14.5 T  3.9 S (run)3 12.9 T  3.9 S (in)2 
6.9 T  3.9 S (VMS)3 19.4 T  3.9 S (line)4 13.8 T  3.9 S (mode)4 22.4 T  3.9 
S (\(i.e.)5 14.8 T  3.9 S (applications)12 47.2 T  4 S (that)4 15 T  4 S (are\
)3 12.9 T 330.9 347.5 m (appropriate)11 45.2 T  4.9 S (for)3 10.4 T  4.9 S (u\
se)3 14.5 T  4.9 S (on)2 10 T  4.9 S (a)1 5 T  4.9 S (DEC)3 18.8 T  4.9 S (LA\
xx-type)9 39.9 T  5 S (hardcopy)8 36.9 T 330.9 337.5 m (terminal\).)10 37 T 
f9 s 318.9 322.5 m (\267)1 5.5 T f4 s 330.9 322.5 m (The)3 15.4 T  3.1 S (DHC\
F)4 24.6 T  3.1 S (user)4 17.4 T  3.1 S (may)3 16.9 T  3.2 S (have)4 19.5 T  
3.2 S (full-screen)11 41.1 T  3.2 S (access)6 28 T  3.2 S (to)2 7.5 T  3.2 S 
(VMS)3 19.4 T 330.9 311.7 m (applications)12 47.2 T  5.3 S (which)5 22.8 T  
5.4 S (are)3 12.9 T  5.4 S (specifically)12 43.1 T  5.4 S (designed)8 36.4 T 
 5.4 S (to)2 7.5 T  5.4 S (run)3 12.9 T 330.9 301.7 m (with)4 15.8 T  5.9 S (\
327x)4 19.5 T  5.9 S (terminals,)10 38.6 T  5.9 S (using)5 21.4 T  5.9 S (DIG\
ITAL's)9 41.2 T  5.9 S (VAX)3 18 T  5.9 S (Forms)5 25.2 T 330.9 291.7 m (Mana\
gement)10 52.3 T  4.6 S (System)6 29.9 T  4.6 S (\(FMS\).)6 27.1 T  4.6 S (\
\(Refer)6 24.7 T  4.6 S (to)2 7.5 T  4.7 S (the)3 12.5 T  4.7 S (Optional)8 
33.3 T 330.9 281.7 m (Software)8 35.3 T  4.4 S (section)7 28.4 T  4.4 S 
(of)2 7.5 T  4.4 S (the)3 12.5 T  4.5 S (System)6 29.9 T  4.5 S (Support)7 
31.4 T  4.5 S (Addendum)8 43.4 T 330.9 271.7 m (for)3 10.4 T  4.5 S (this)4 
13.9 T  4.5 S (product\).)9 35.3 T f9 s 318.9 256.7 m (\267)1 5.5 T f4 s 
330.9 256.7 m (In)2 7.5 T  3.8 S (IBM's)5 22.3 T  3.8 S (terminology,)12 
48.6 T  3.8 S (DHCF)4 24.6 T  3.8 S (allows)6 24.7 T  3.8 S (full)4 11.3 T  
3.9 S (screen)6 26.9 T  3.9 S (mode)4 22.4 T 330.9 245.9 m (sessions)8 34.9 
T  3.4 S (from)4 17.8 T  3.5 S (IBM's)5 22.3 T  3.5 S (NetView/Terminal)16 
70.2 T  3.5 S (Access)6 29 T  3.5 S (Facili-)7 23.5 T 330.9 235.9 m (ty;)3 
9.5 T  5.8 S (OPCTL)5 29.8 T  5.8 S (\(operator)9 36.2 T  5.8 S (control\))8 
29.7 T  5.8 S (mode)4 22.4 T  5.8 S (sessions)8 34.9 T  5.8 S (from)4 17.8 T 
330.9 225.9 m (NetView/TAF)11 52.5 T  4.5 S (are)3 12.9 T  4.5 S (not)3 12.5 
T  4.5 S (supported.)10 42.4 T f9 s 318.9 210.9 m (\267)1 5.5 T f4 s 330.9 
210.9 m (Access)6 29 T  5 S (to)2 7.5 T  5 S (HCF)3 18.2 T  5 S (in)2 6.9 T  
5 S (either)6 22.3 T  5.1 S (an)2 10 T  5.1 S (IBM)3 15.9 T  5.1 S (MVS)3 
19.4 T  5.1 S (or)2 7.9 T  5.1 S (VSE/SP)6 32.5 T 330.9 200.1 m (Operating)9 
39.3 T  4.5 S (System)6 29.9 T  4.5 S (environment)11 49.2 T  4.5 S (is)2 
6.4 T  4.5 S (supported.)10 42.4 T 67.8 113.2 m  433.4 S f2 s (April)5 20.3 
T  4.5 S (1989)4 20 T 67.8 98.3 m  419.8 S (AE-DE56D-TE)11 58.4 T 
% SPD (8.5*11") 'software' logo.
% Aidan Killian ESDC Galway 14/05/86.
% Amended to position logo to left margin on 12-Aug-1986
% at ESDC Galway (AK/MS).

save						% Save current environment

/digital-font /Helvetica-Bold findfont 
[35 34 div .65 mul 0 0 .75 0 0] makefont def

/box-width 35 34 div .405 mul def
/box-pitch box-width .85 div def

/digital-box { 
  gsave 
    box-pitch box-width sub 2 div -.225 rmoveto
    box-width 0 rlineto 
    0 1 rlineto box-width neg 0 rlineto 
    closepath fill 
  grestore 
  gsave
    dup stringwidth pop box-pitch exch sub 2 div 0 rmoveto 
    1 setgray 
    show
  grestore
  box-pitch 0 rmoveto
} def 

/digital_logo {
  % draws digital logo with left baseline point at current point with
  % specified height using current color for boxes and white letters 
  % and moves current point in x direction by about 3.433 times height

  dup scale 
  digital-font setfont 
  0 1 6 {(digital) exch 1 getinterval digital-box} for 
} def 

/sw 1 def					% Stroke width / 2

/std 68 def					% Start Displ.

/bl 60 def					% Char Levels
/cbl bl sw add def
/ol bl 18.4 add def
/xl bl 36.8 add def
/cxl xl sw sub def
/wl xl sw add sw add def
/tl bl 59.5 add def
/ctl tl sw sub def
/dl xl 10.5 add def
/rll bl 14 sub def

/cr ol bl sub sw sub def			% Sub-char Radii
/s1r 10 def
/s2r 8 def
/fr 9.1 def
/rr 12.4 def

/el bl 19.3 add def				% Sub-char Levels
/e2l bl 10.3 add def
/s1l cbl s1r add def
/s2l cxl s2r sub def
/s3l bl 19.8 add def

/sd std s1r add sw add def			% Char Displ.
/od std 42.5 add def
/fd std 66 add def
/td std 86.5 add def
/wd std 102 add def
/ad std 168 add def
/rd std 194 add def
/ed std 221.3 add def
/end cr cr add ed add def

/f2d fd 6 sub def				% Sub-char Displ.
/t2d td 7.7 sub def
/w2d wd 26 add def
/w3d wd 52 add def
/a2d ad cr add 0.4 sub def

/dsz 15.9 def
/bsw 18 def
/bd wd 375.5 add def

sw sw add setlinewidth

newpath
sd s2l s2r 0 180 arc 
sd s2r sub s2l 5 sub sd 3.6 sub s3l 1 add sd s3l curveto 
sd 3.6 add s3l 1 sub sd s1r add s1l 5 add sd s1r add s1l curveto 
sd s1l s1r 0 180 arcn stroke

od ol cr 0 360 arc stroke

fd cbl moveto 
fd ctl td ctl fr arcto pop pop pop pop 
f2d cxl moveto 
fd fr add cxl lineto stroke

td bl 1 add moveto 
td tl lineto 
t2d cxl moveto 
td fr add cxl lineto stroke

gsave
  td cbl moveto 
  td xl lineto 
  ad xl lineto 
  ad cbl lineto clip newpath

  wd xl moveto 
  wd cbl lineto 
  w2d wl lineto 
  w2d cbl lineto 
  w3d wl lineto stroke
grestore

gsave
  a2d bl moveto 
  a2d xl lineto 
  wd xl lineto 
  wd bl lineto clip newpath

  ad ol cr 0 365 arc stroke
grestore

gsave
  a2d sw add cbl moveto 
  a2d sw sub cbl lineto 
  ad ol cr 300 60 arc 
  a2d sw sub xl lineto 
  a2d sw add xl lineto clip newpath

  a2d cbl moveto 
  a2d xl lineto stroke
grestore

rd cbl moveto 
rd xl lineto 
rd cbl moveto 
rd cxl ed cxl rr arcto pop pop pop pop stroke

gsave
  rd bl moveto 
  rd xl lineto 
  end xl lineto 
  end el sw sub lineto
  ed el sw sub lineto 
  ed e2l lineto 
  end e2l lineto 
  end bl lineto clip newpath

  ed ol cr 0 360 arc 
  ed cr sub el moveto 
  ed cr add el lineto stroke
grestore

gsave
  wd sw sub dl moveto dsz digital_logo
grestore

bsw setlinewidth

wd sw sub rll moveto 
bd rll lineto stroke

restore						% Restore previous environment
showpage
%%Page: 1 2
487.6 98.3 m f2 s 67.8 721 m (DECnet/SNA)10 53.4 T  4.5 S (VMS)3 19.4 T  4.5 
S (Distributed)11 46.9 T  4.5 S (Host)4 19.7 T  4.5 S (Command)7 43.6 T  4.5 
S (Facility)8 30.8 T  4.5 S (\(DHCF\),)7 32.9 T  4.5 S (Version)7 32.8 T  
4.5 S (1.2)3 12.5 T  92.3 S (SPD)3 18.4 T  4.5 S (26.71.03)8 35 T f9 s 67.8 
691.1 m (\267)1 5.5 T f4 s 79.8 691.1 m (The)3 15.4 T  3.1 S (VMS)3 19.4 T  
3.1 S (system)6 28.4 T  3.1 S (manager)7 35.3 T  3.1 S (may)3 16.9 T  3.1 S (\
perform)7 30.7 T  3.2 S (the)3 12.5 T  3.2 S (following)9 34.6 T 79.8 680.3 
m (tasks:)6 23.5 T 79.8 665.3 m (\320)1 9 T 91.7 665.3 m (Modify)6 26.3 T  
5.2 S (the)3 12.5 T  5.2 S (EBCDIC-to-DMCS)14 73.2 T  5.2 S (\(ASCII\))7 
29.2 T  5.2 S (translation)11 41.2 T 91.7 655.3 m (tables)6 23.9 T 79.8 
640.3 m (\320)1 9 T 91.7 640.3 m (Modify)6 26.3 T  3.5 S (Attention)9 35.4 T 
 3.5 S (Identification)14 50.2 T  3.6 S (\(AID\))5 20.7 T  3.6 S (key)3 14 T 
 3.6 S (mappings)8 38.8 T f9 s 67.8 625.3 m (\267)1 5.5 T f4 s 79.8 625.3 m (\
A)1 6 T  4.6 S (DECnet/SNA)10 52.2 T  4.7 S (gateway)7 33.4 T  4.7 S (manager\
)7 35.3 T  4.7 S (may)3 16.9 T  4.7 S (perform)7 30.7 T  4.7 S (the)3 12.5 T 
79.8 614.5 m (following)9 34.6 T  4.5 S (tasks:)6 23.5 T 79.8 599.5 m 
(\320)1 9 T 91.7 599.5 m (Create)6 26.8 T  4.5 S (the)3 12.5 T  4.5 S (config\
uration)13 51.2 T  4.5 S (file)4 11.3 T  4.5 S (required)8 32.7 T  4.5 S (for\
)3 10.4 T  4.5 S (DHCF)4 24.6 T 79.8 584.5 m (\320)1 9 T 91.7 584.5 m (Modify\
)6 26.3 T  4.5 S (the)3 12.5 T  4.5 S (initial)7 20.1 T  4.5 S (connect)7 
31.5 T  4.5 S (screen)6 26.9 T f9 s 67.8 569.5 m (\267)1 5.5 T f4 s 79.8 
569.5 m (DHCF)4 24.6 T  5.6 S (provides)8 33.8 T  5.6 S (support)7 29.9 T  
5.6 S (for)3 10.4 T  5.6 S (8-bit)5 17.3 T  5.6 S (codes,)6 26.5 T  5.7 S (ex\
tending)9 38.9 T 79.8 558.7 m (ASCII)5 23.4 T  6.2 S (into)4 14.4 T  6.2 S (t\
he)3 12.5 T  6.2 S (Digital)7 24.6 T  6.3 S (Multinational)13 50 T  6.3 S (Ch\
aracter)9 39.2 T  6.3 S (Set)3 13.5 T 79.8 548.7 m (\(DMCS\))6 32 T f9 s 
67.8 533.7 m (\267)1 5.5 T f4 s 79.8 533.7 m (The)3 15.4 T  3.7 S (documentat\
ion)13 58.8 T  3.8 S (specifies)9 34.8 T  3.8 S (the)3 12.5 T  3.8 S (IBM)3 
15.9 T  3.8 S (parameter)9 40.7 T  3.8 S (val-)4 14.3 T 79.8 522.9 m (ues)3 
14.5 T  2.7 S (which)5 22.8 T  2.7 S (are)3 12.9 T  2.7 S (required)8 32.7 T 
 2.8 S (to)2 7.5 T  2.8 S (initialize)10 31.5 T  2.8 S (the)3 12.5 T  2.8 S (\
IBM)3 15.9 T  2.8 S (application)11 42.7 T 79.8 512.9 m (software)8 33.8 T  
5 S (in)2 6.9 T  5 S (order)5 20.8 T  5 S (for)3 10.4 T  5 S 
(communication)13 60.1 T  5 S (with)4 15.8 T  5.1 S (DHCF)4 24.6 T  5.1 S (to\
)2 7.5 T 79.8 502.9 m (occur.)6 24.4 T  4.5 S (Refer)5 21.8 T  4.5 S (to)2 
7.5 T  4.5 S (the)3 12.5 T  4.5 S (appropriate)11 45.2 T  4.5 S (guide:)6 
24.4 T 79.8 487.9 m (\320)1 9 T 91.7 487.9 m (DECnet/SNA)10 52.2 T  3.8 S (Ga\
teway-CT)10 50.1 T  3.9 S (Guide)5 23.9 T  3.9 S (to)2 7.5 T  3.9 S (IBM)3 
15.9 T  3.9 S (Parame-)7 34.2 T 91.7 477.9 m (ters)4 14.9 T 79.8 462.9 m 
(\320)1 9 T 91.7 462.9 m (DECnet/SNA)10 52.2 T  3.9 S (Gateway-ST)10 49.7 T  
3.9 S (Guide)5 23.9 T  4 S (to)2 7.5 T  4 S (IBM)3 15.9 T  4 S (Parame-)7 
34.2 T 91.7 452.9 m (ters)4 14.9 T 79.8 437.9 m (\320)1 9 T 91.7 437.9 m (DEC\
net/SNA)10 52.2 T  4.5 S (Guide)5 23.9 T  4.5 S (to)2 7.5 T  4.5 S (IBM)3 
15.9 T  4.5 S (Parameters)10 46.2 T f9 s 67.8 422.9 m (\267)1 5.5 T f4 s 
79.8 422.9 m (Error)5 19.7 T  4.9 S (messages)8 40.9 T  4.9 S (are)3 12.9 T  
4.9 S (reported)8 33.3 T  4.9 S (to)2 7.5 T  4.9 S (the)3 12.5 T  4.9 S (DHCF\
)4 24.6 T  5 S (user)4 17.4 T  5 S (in)2 6.9 T 79.8 412.1 m (easily)6 22.8 T 
 4.5 S (understandable)14 61.8 T  4.5 S (language.)9 39.4 T /f10 
{/Helvetica-Oblique FF 9 SF} def
f10 s 67.8 397.1 m (User)4 18.8 T  4.5 S (Interface)9 34.9 T f4 s 67.8 382.1 
m (The)3 15.4 T  3.4 S (IBM)3 15.9 T  3.5 S (3270)4 20 T  3.5 S (terminal)8 
31.6 T  3.5 S (user)4 17.4 T  3.5 S (logs)4 16.4 T  3.5 S (on)2 10 T  3.5 S (\
to)2 7.5 T  3.5 S (HCF)3 18.2 T  3.5 S (running)7 29.8 T  3.5 S (on)2 10 T 
67.8 372.1 m (the)3 12.5 T  5.1 S (IBM)3 15.9 T  5.1 S (mainframe)9 42.1 T  
5.1 S (and)3 15 T  5.1 S (enters)6 24.9 T  5.1 S (the)3 12.5 T  5.1 S (conven\
tional)12 50.3 T  5.1 S (HCF)3 18.2 T 67.8 362.1 m (ACQUIRE)7 40.7 T  5.9 S (\
command)7 39.3 T  6 S (to)2 7.5 T  6 S (connect)7 31.5 T  6 S (to)2 7.5 T  6 
S (the)3 12.5 T  6 S (DECnet/SNA)10 52.2 T 67.8 352.1 m (gateway.)8 35.9 T  
4.2 S (Once)4 21.5 T  4.2 S (the)3 12.5 T  4.2 S (connection)10 43.4 T  4.2 
S (between)7 33.9 T  4.2 S (the)3 12.5 T  4.3 S (mainframe)9 42.1 T 67.8 
342.1 m (and)3 15 T  6.1 S (the)3 12.5 T  6.1 S (DIGITAL)7 34.8 T  6.1 S (env\
ironment)11 49.2 T  6.1 S (is)2 6.4 T  6.2 S (established,)12 47.8 T  6.2 S (\
DHCF)4 24.6 T 67.8 332.1 m (sends)5 24 T  3 S (an)2 10 T  3 S (initial)7 
20.1 T  3 S (connect)7 31.5 T  3 S (screen)6 26.9 T  3 S (to)2 7.5 T  3 S (th\
e)3 12.5 T  3 S (IBM)3 15.9 T  3 S (3270)4 20 T  3.1 S (terminal)8 31.6 T 
67.8 322.1 m (user)4 17.4 T  3.3 S (which)5 22.8 T  3.4 S (is)2 6.4 T  3.4 S 
(similar)7 25.5 T  3.4 S (to)2 7.5 T  3.4 S (comparable)10 46.7 T  3.4 S (pan\
els)6 26.4 T  3.4 S (displayed)9 37.8 T  3.4 S (by)2 9.5 T 67.8 312.1 m (VTAM\
.)5 27.3 T  5 S (The)3 15.4 T  5 S (DHCF)4 24.6 T  5 S (user)4 17.4 T  5 S (t\
hen)4 17.5 T  5 S (enters)6 24.9 T  5 S (the)3 12.5 T  5 S (name)4 22.4 T  5 
S (of)2 7.5 T  5.1 S (the)3 12.5 T 67.8 302.1 m (DECnet)6 31.3 T  4.6 S (node\
)4 20 T  4.7 S (he)2 10 T  4.7 S (or)2 7.9 T  4.7 S (she)3 14.5 T  4.7 S (wis\
hes)6 27.3 T  4.7 S (to)2 7.5 T  4.7 S (access.)7 30.5 T  4.7 S (When)4 23.4 
T  4.7 S (the)3 12.5 T 67.8 292.1 m (DHCF)4 24.6 T  4.9 S (user's)6 23.8 T  
4.9 S (request)7 29.9 T  4.9 S (has)3 14.5 T  4.9 S (been)4 20 T  5 S (routed\
)6 25.4 T  5 S (to)2 7.5 T  5 S (the)3 12.5 T  5 S (desired)7 29.3 T 67.8 
282.1 m (node,)5 22.5 T  4.4 S (the)3 12.5 T  4.4 S (user)4 17.4 T  4.5 S (mu\
st)4 19.4 T  4.5 S (log)3 11.9 T  4.5 S (in)2 6.9 T  4.5 S (to)2 7.5 T  4.5 
S (the)3 12.5 T  4.5 S (VMS)3 19.4 T  4.5 S (system)6 28.4 T  4.5 S (in)2 
6.9 T  4.5 S (the)3 12.5 T 67.8 272.1 m (usual)5 21.4 T  4.5 S (manner.)7 
32.8 T 67.8 257.1 m (The)3 15.4 T  3.6 S (DHCF)4 24.6 T  3.6 S (software)8 
33.8 T  3.6 S (running)7 29.8 T  3.6 S (on)2 10 T  3.7 S (the)3 12.5 T  3.7 
S (VAX)3 18 T  3.7 S (processor)9 39.3 T  3.7 S (can)3 14.5 T 67.8 247.1 m (s\
upport)7 29.9 T  3.5 S (up)2 10 T  3.5 S (to)2 7.5 T  3.5 S (128)3 15 T  3.5 
S (DHCF)4 24.6 T  3.5 S (sessions,)9 37.4 T  3.6 S (depending)9 41.9 T  3.6 
S (upon)4 20 T  3.6 S (the)3 12.5 T 67.8 237.1 m (processor)9 39.3 T  3.2 S (\
size)4 15.9 T  3.2 S (and)3 15 T  3.2 S (available)9 35.2 T  3.2 S 
(memory.)7 34.7 T  3.3 S (The)3 15.4 T  3.3 S (DECnet/SNA)10 52.2 T 67.8 
227.1 m (gateway)7 33.4 T  5 S (products)8 34.4 T  5 S (provide)7 29.3 T  5 
S (IBM)3 15.9 T  5.1 S (mainframe)9 42.1 T  5.1 S (connectivity)12 46.8 T 
67.8 217.1 m (for)3 10.4 T  3.1 S (up)2 10 T  3.1 S (to)2 7.5 T  3.1 S (16)2 
10 T  3.1 S (concurrent)10 42.3 T  3.1 S (DHCF)4 24.6 T  3.2 S (sessions.)9 
37.4 T  3.2 S (These)5 24.9 T  3.2 S (sessions)8 34.9 T 67.8 207.1 m (can,)4 
17 T  3.1 S (of)2 7.5 T  3.1 S (course,)7 29.4 T  3.2 S (be)2 10 T  3.2 S (ac\
cessed)8 38 T  3.2 S (from)4 17.8 T  3.2 S (any)3 14.5 T  3.2 S (node)4 20 T 
 3.2 S (in)2 6.9 T  3.2 S (the)3 12.5 T  3.2 S (DEC-)4 21.7 T 67.8 197.1 m (n\
et)3 12.5 T  4.5 S (network)7 31.3 T  4.5 S (running)7 29.8 T  4.5 S (DHCF)4 
24.6 T  4.5 S (software.)9 36.3 T f2 s 67.8 182.1 m (INSTALLATION)12 65.2 T 
67.8 167.1 m (Customer)8 41.6 T  4.5 S (Responsibilities)16 68.4 T f4 s 67.8 
152.1 m (Before)6 26.4 T  2.9 S (DIGITAL)7 34.8 T  2.9 S (installation)12 
42.1 T  2.9 S (of)2 7.5 T  3 S (the)3 12.5 T  3 S (software)8 33.8 T  3 S (th\
e)3 12.5 T  3 S (customer)8 36.8 T 67.8 142.1 m (must:)5 21.9 T f9 s 67.8 
127.1 m (\267)1 5.5 T f4 s 79.8 127.1 m (Have)4 20.9 T  2.5 S (previously)10 
40.2 T  2.5 S (installed)9 32.7 T  2.6 S (all)3 8.8 T  2.6 S (requisite)9 
33.7 T  2.6 S (hardware)8 37.2 T  2.6 S (includ-)7 26.2 T 79.8 116.3 m 
(ing)3 11.9 T  4.5 S (terminals)9 36.1 T  4.5 S (and)3 15 T  4.5 S (DECnet/SN\
A)10 52.2 T  4.5 S (gateway)7 33.4 T  4.5 S (products.)9 36.9 T f9 s 318.8 
691.1 m (\267)1 5.5 T f4 s 330.8 691.1 m (Have)4 20.9 T  3.9 S 
(generated,)10 42.9 T  3.9 S (to)2 7.5 T  3.9 S (DIGITAL's)9 41.2 T  3.9 S (s\
atisfaction,)13 47.3 T  3.9 S (any)3 14.5 T  3.9 S (nec-)4 17.4 T 330.8 
680.3 m (essary)6 26.4 T  3.5 S (IBM)3 15.9 T  3.5 S (host)4 17 T  3.5 S (sof\
tware)8 33.8 T  3.5 S (that)4 15 T  3.6 S (will)4 12.1 T  3.6 S (be)2 10 T  
3.6 S (communicating)13 60.1 T 330.8 670.3 m (with)4 15.8 T  4.5 S (the)3 
12.5 T  4.5 S (DECnet/SNA)10 52.2 T  4.5 S (gateway)7 33.4 T  4.5 S (and)3 
15 T  4.5 S (DHCF.)5 27.1 T f9 s 318.8 655.3 m (\267)1 5.5 T f4 s 330.8 
655.3 m (Make)4 21.9 T  4.6 S (available)9 35.2 T  4.6 S (for)3 10.4 T  4.6 
S (a)1 5 T  4.6 S (reasonable)10 44.3 T  4.7 S (period)6 24.8 T  4.7 S (of)2 
7.5 T  4.7 S (time,)5 19.3 T  4.7 S (as)2 9.5 T 330.8 644.5 m (mutually)8 
33.2 T  4.8 S (agreed)6 27.9 T  4.8 S (by)2 9.5 T  4.9 S (DIGITAL)7 34.8 T  
4.9 S (and)3 15 T  4.9 S (the)3 12.5 T  4.9 S (customer,)9 39.3 T  4.9 S (all\
)3 8.8 T 330.8 634.5 m (hardware,)9 39.7 T  6.4 S (communications)14 64.6 T  
6.4 S (facilities,)11 34.1 T  6.4 S (and)3 15 T  6.4 S (terminals)9 36.1 T 
330.8 624.5 m (that)4 15 T  4.5 S (are)3 12.9 T  4.5 S (to)2 7.5 T  4.5 S (be\
)2 10 T  4.5 S (used)4 19.5 T  4.5 S (during)6 24.8 T  4.5 S 
(installation.)13 44.6 T 318.8 609.5 m (Delays)6 27.3 T  3.2 S (caused)6 29 
T  3.2 S (by)2 9.5 T  3.2 S (any)3 14.5 T  3.2 S (failure)7 24.2 T  3.2 S (to\
)2 7.5 T  3.2 S (meet)4 19.9 T  3.3 S (these)5 22 T  3.3 S (responsibili-)13 
47.4 T 318.8 599.5 m (ties)4 13.9 T  4.3 S (will)4 12.1 T  4.3 S (be)2 10 T  
4.3 S (charged)7 32.4 T  4.3 S (at)2 7.5 T  4.3 S (the)3 12.5 T  4.3 S (preva\
iling)10 38.1 T  4.3 S (rate)4 15.4 T  4.3 S (for)3 10.4 T  4.3 S (time)4 
16.8 T  4.3 S (and)3 15 T 318.8 589.5 m (materials.)10 38.6 T 318.8 574.5 m (\
Successful)10 43.4 T  4.5 S (use)3 14.5 T  4.5 S (of)2 7.5 T  4.5 S (this)4 
13.9 T  4.5 S (product)7 29.9 T  4.5 S (requires)8 32.2 T  4.5 S (that:)5 
17.5 T f9 s 318.8 559.5 m (\267)1 5.5 T f4 s 330.8 559.5 m (The)3 15.4 T  
4.7 S (customer)8 36.8 T  4.7 S (must)4 19.4 T  4.7 S (be)2 10 T  4.8 S (prep\
ared)8 35.8 T  4.8 S (to)2 7.5 T  4.8 S (work)4 18.8 T  4.8 S (with)4 15.8 T 
 4.8 S (both)4 17.5 T 330.8 548.7 m (DIGITAL)7 34.8 T  4.6 S (and)3 15 T  
4.6 S (IBM)3 15.9 T  4.6 S (systems)7 32.9 T  4.7 S (personnel)9 39.3 T  4.7 
S (to)2 7.5 T  4.7 S (coordinate)10 41.8 T 330.8 538.7 m (the)3 12.5 T  4.5 
S (pre-installation)16 57.9 T  4.5 S (activities.)11 36.7 T f9 s 318.8 523.7 
m (\267)1 5.5 T f4 s 330.8 523.7 m (The)3 15.4 T  4.7 S (customer)8 36.8 T  
4.8 S (should)6 26.4 T  4.8 S (be)2 10 T  4.8 S (capable)7 31.4 T  4.8 S (of)
2 7.5 T  4.8 S (modifying)9 38.2 T  4.8 S (IBM)3 15.9 T 330.8 512.9 m (compon\
ent)9 44.4 T  4.7 S (generation)10 42.3 T  4.7 S (parameters)10 45.2 T  4.7 
S (to)2 7.5 T  4.7 S (support)7 29.9 T  4.7 S (either)6 22.3 T 330.8 502.9 m 
(the)3 12.5 T  4.5 S (DECnet/SNA)10 52.2 T  4.5 S (gateway)7 33.4 T  4.5 S (o\
r)2 7.9 T  4.5 S (DHCF.)5 27.1 T 318.8 487.9 m (Only)4 18.4 T  4 S (experienc\
ed)11 48.8 T  4 S (customers)9 41.3 T  4 S (should)6 26.4 T  4.1 S 
(attempt)7 29.9 T  4.1 S (installation)12 42.1 T 318.8 477.9 m (of)2 7.5 T  
3.2 S (this)4 13.9 T  3.2 S (product.)8 32.4 T  3.2 S (DIGITAL)7 34.8 T  3.2 
S (recommends)10 51.7 T  3.2 S (that)4 15 T  3.2 S (all)3 8.8 T  3.2 S (other\
)5 20.4 T  3.3 S (cus-)4 16.9 T 318.8 467.9 m (tomers)6 27.3 T  3.4 S (purcha\
se)8 36.9 T  3.4 S (DIGITAL's)9 41.2 T  3.5 S (Installation)12 42.7 T  3.5 S 
(Services.)9 36.8 T  3.5 S (These)5 24.9 T 318.8 457.9 m (services)8 32.8 T  
4.1 S (provide)7 29.3 T  4.1 S (for)3 10.4 T  4.1 S (installation)12 42.1 T  
4.1 S (of)2 7.5 T  4.1 S (the)3 12.5 T  4.1 S (software)8 33.8 T  4.2 S (prod\
uct)7 29.9 T 318.8 447.9 m (by)2 9.5 T  4.5 S (an)2 10 T  4.5 S (experienced)
11 48.8 T  4.5 S (DIGITAL)7 34.8 T  4.5 S (Software)8 35.3 T  4.5 S (Speciali\
st.)11 40.7 T f2 s 318.8 432.9 m (WARRANTY)8 51.8 T  4.5 S (LIMITATIONS)11 
56.9 T 318.8 417.9 m (IBM)3 16.3 T  4.5 S (Supported)9 44.4 T  4.5 S (Configu\
rations)14 63.1 T f4 s 318.8 402.9 m (This)4 16.8 T  3.4 S (software)8 33.8 
T  3.4 S (has)3 14.5 T  3.4 S (been)4 20 T  3.4 S (tested)6 24.5 T  3.4 S (an\
d)3 15 T  3.5 S (is)2 6.4 T  3.5 S (warranted)9 39.7 T  3.5 S (against)7 
28.9 T 318.8 392.9 m (IBM)3 15.9 T  4 S (System/370)10 47.4 T  4 S (\(include\
s)9 35.7 T  4 S (30xx)4 19 T  4 S (and)3 15 T  4 S (43xx)4 19 T  4 S 
(series\))7 26.7 T  4 S (class)5 20.4 T 318.8 382.9 m (processor)9 39.3 T  
5.7 S (systems)7 32.9 T  5.7 S (configured)10 41.8 T  5.7 S (with)4 15.8 T  
5.7 S (the)3 12.5 T  5.7 S (following)9 34.6 T  5.8 S (IBM)3 15.9 T 318.8 
372.9 m (software.)9 36.3 T  3.3 S (While)5 22.2 T  3.3 S (this)4 13.9 T  
3.3 S (software)8 33.8 T  3.3 S (may)3 16.9 T  3.3 S (function)8 31.4 T  3.3 
S (correctly)9 33.7 T  3.3 S (with)4 15.8 T 318.8 362.9 m (other)5 20.4 T  
4.7 S (IBM)3 15.9 T  4.7 S (software)8 33.8 T  4.7 S (and)3 15 T  4.7 S (equi\
pment,)10 44.3 T  4.7 S (and)3 15 T  4.8 S (with)4 15.8 T  4.8 S (software)8 
33.8 T 318.8 352.9 m (other)5 20.4 T  3.3 S (than)4 17.5 T  3.3 S (that)4 15 
T  3.3 S (supported)9 39.9 T  3.3 S (by)2 9.5 T  3.3 S (IBM,)4 18.4 T  3.4 S 
(DIGITAL)7 34.8 T  3.4 S (cannot)6 27 T  3.4 S (offer)5 17.9 T 318.8 342.9 m 
(its)3 8.9 T  2.9 S (standard)8 34.9 T  2.9 S (warranty)8 34.2 T  2.9 S (for)
3 10.4 T  2.9 S (this)4 13.9 T  2.9 S (software)8 33.8 T  2.9 S (unless)6 
25.9 T  2.9 S (it)2 4.4 T  2.9 S (has)3 14.5 T  3 S (been)4 20 T 318.8 332.9 
m (tested)6 24.5 T  3.1 S (with)4 15.8 T  3.1 S (such)4 19 T  3.2 S (equipmen\
t)9 41.8 T  3.2 S (and)3 15 T  3.2 S (software)8 33.8 T  3.2 S (configuration\
s.)15 58.2 T 318.8 317.9 m (The)3 15.4 T  2.7 S (following)9 34.6 T  2.7 S (l\
ist)4 10.8 T  2.7 S (shows)5 25.4 T  2.7 S (the)3 12.5 T  2.7 S (configuratio\
ns)14 55.7 T  2.7 S (with)4 15.8 T  2.7 S (which)5 22.8 T  2.7 S (the)3 12.5 
T 318.8 307.9 m (software)8 33.8 T  4.5 S (has)3 14.5 T  4.5 S (been)4 20 T  
4.5 S (tested)6 24.5 T  4.5 S (and)3 15 T  4.5 S (is)2 6.4 T  4.5 S (warrante\
d:)10 42.2 T 319.7 301.2 m -0.5 L GS 112.6 1 R GR  112.6 S 0.5 L 319.7 281.2 
m -0.5 L GS 112.6 1 R GR  112.6 S 0.5 L f2 s 319.7 287.9 m (Software)8 37.7 
T  4.5 S (Product)7 33.6 T 432.3 301.2 m -0.5 L GS 56.3 1 R GR  56.3 S 0.5 L 
432.3 281.2 m -0.5 L GS 56.3 1 R GR  56.3 S 0.5 L 432.3 287.9 m (Version)7 
32.8 T 488.6 301.2 m -0.5 L GS 56.4 1 R GR  56.4 S 0.5 L 488.6 281.2 m -0.5 
L GS 56.4 1 R GR  56.4 S 0.5 L 488.6 287.9 m (Release)7 33.9 T 319.7 281.2 m 
-0.5 L GS 225.3 1 R GR  225.3 S 0.5 L 319.7 261.2 m -0.5 L GS 225.3 1 R GR  
225.3 S 0.5 L 319.7 267.9 m (IBM)3 16.3 T  4.5 S (MVS)3 19.4 T  4.5 S (Enviro\
nment)11 54.5 T 319.7 261.2 m -0.5 L GS 112.6 1 R GR  112.6 S 0.5 L f4 s 
319.7 247.9 m  9 S (MVS/SP)6 33.9 T 432.3 261.2 m -0.5 L GS 56.3 1 R GR  
56.3 S 0.5 L 432.3 247.9 m (1)1 5 T 488.6 261.2 m -0.5 L GS 56.4 1 R GR  
56.4 S 0.5 L 488.6 247.9 m (3.6)3 12.5 T 432.3 237.9 m (2)1 5 T 488.6 237.9 
m (1.3)3 12.5 T 488.6 227.9 m (1.5)3 12.5 T 488.6 217.9 m (1.7)3 12.5 T 
488.6 207.9 m (2.0)3 12.5 T 319.7 191.2 m -0.5 L GS 112.6 1 R GR  112.6 S 
0.5 L 319.7 192.9 m  9 S (HCF)3 18.2 T 432.3 191.2 m -0.5 L GS 56.3 1 R GR  
56.3 S 0.5 L 432.3 192.9 m (2)1 5 T 488.6 191.2 m -0.5 L GS 56.4 1 R GR  
56.4 S 0.5 L 488.6 192.9 m (1.0)3 12.5 T 319.7 191.2 m -0.5 L GS 225.3 1 R 
GR  225.3 S 0.5 L 319.7 171.2 m -0.5 L GS 225.3 1 R GR  225.3 S 0.5 L f2 s 
319.7 177.9 m (IBM)3 16.3 T  4.5 S (DOS/VSE)7 39.9 T  4.5 S (Environment)11 
54.5 T 319.7 171.2 m -0.5 L GS 112.6 1 R GR  112.6 S 0.5 L f4 s 319.7 157.9 
m  9 S (VSE/SP)6 32.5 T 432.3 171.2 m -0.5 L GS 56.3 1 R GR  56.3 S 0.5 L 
432.3 157.9 m (2)1 5 T 488.6 171.2 m -0.5 L GS 56.4 1 R GR  56.4 S 0.5 L 
488.6 157.9 m (1.6)3 12.5 T 319.7 141.2 m -0.5 L GS 112.6 1 R GR  112.6 S 
0.5 L 319.7 147.9 m  9 S (HCF)3 18.2 T 432.3 141.2 m -0.5 L GS 56.3 1 R GR  
56.3 S 0.5 L 432.3 147.9 m (2)1 5 T 488.6 141.2 m -0.5 L GS 56.4 1 R GR  
56.4 S 0.5 L 488.6 147.9 m (0.0)3 12.5 T 318.8 127.9 m (Since)5 22.4 T  4 S (\
the)3 12.5 T  4 S (introduction)12 46.2 T  4 S (of)2 7.5 T  4 S (this)4 13.9 
T  4 S (software,)9 36.3 T  4.1 S (other)5 20.4 T  4.1 S (configura-)10 39.7 
T 318.8 117.9 m (tions)5 18.9 T  4 S (may)3 16.9 T  4.1 S (have)4 19.5 T  
4.1 S (been)4 20 T  4.1 S (tested.)7 27 T  4.1 S (Please)6 27.4 T  4.1 S (con\
tact)7 29 T  4.1 S (your)4 17.4 T  4.1 S (local)5 18.3 T 318.8 107.9 m (DIGIT\
AL)7 34.8 T  2.8 S (office)6 21.4 T  2.8 S (for)3 10.4 T  2.8 S 
(up-to-date)10 40.8 T  2.9 S (information)11 44.1 T  2.9 S (regarding)9 37.7 
T  2.9 S (listed)6 20.8 T 318.8 97.9 m (configurations.)15 58.2 T 67.8 44.6 
m  229.2 S f2 s (-)1 2.9 T  4.5 S (2)1 5 T  4.5 S (-)1 2.9 T  229.2 S 
showpage
%%Page: 2 3
535.2 44.6 m f2 s 67.8 721 m (DECnet/SNA)10 53.4 T  4.5 S (VMS)3 19.4 T  4.5 
S (Distributed)11 46.9 T  4.5 S (Host)4 19.7 T  4.5 S (Command)7 43.6 T  4.5 
S (Facility)8 30.8 T  4.5 S (\(DHCF\),)7 32.9 T  4.5 S (Version)7 32.8 T  
4.5 S (1.2)3 12.5 T  92.3 S (SPD)3 18.4 T  4.5 S (26.71.03)8 35 T 67.8 691.1 
m (PREREQUISITE)12 66.6 T  4.5 S (SUPPORT)7 43.2 T f4 s 67.8 676.1 m (A)1 6 
T  5.2 S (Network)7 32.7 T  5.2 S (Profile)7 25.2 T  5.2 S (and)3 15 T  5.2 
S (a)1 5 T  5.2 S (DECnet)6 31.3 T  5.3 S (\(where)6 27.2 T  5.3 S (appropria\
te\))12 48.1 T 67.8 666.1 m (Customer)8 38.7 T  3.1 S (Support)7 31.4 T  3.2 
S (Plan)4 17.9 T  3.2 S (covering)8 33.8 T  3.2 S (all)3 8.8 T  3.2 S (VMS)3 
19.4 T  3.2 S (nodes)5 24.5 T  3.2 S (that)4 15 T  3.2 S (will)4 12.1 T 67.8 
656.1 m (serve)5 21.9 T  5.8 S (as)2 9.5 T  5.8 S (hosts)5 21.5 T  5.8 S (to)
2 7.5 T  5.8 S (IBM)3 15.9 T  5.8 S (terminals)9 36.1 T  5.9 S (prepared)8 
35.8 T  5.9 S (jointly)7 22.7 T  5.9 S (by)2 9.5 T 67.8 646.1 m (DIGITAL)7 
34.8 T  4.5 S (and)3 15 T  4.5 S (the)3 12.5 T  4.5 S (customer.)9 39.3 T 
67.8 631.1 m (For)3 13.3 T  3.2 S (DECnet/SNA)10 52.2 T  3.2 S (VMS)3 19.4 T 
 3.3 S (DHCF)4 24.6 T  3.3 S (to)2 7.5 T  3.3 S (be)2 10 T  3.3 S (DIGITAL)7 
34.8 T  3.3 S (supported,)10 42.4 T 67.8 621.1 m (the)3 12.5 T  9.8 S (custom\
er)8 36.8 T  9.8 S (must)4 19.4 T  9.9 S (have)4 19.5 T  9.9 S (a)1 5 T  9.9 
S (DIGITAL)7 34.8 T  9.9 S (supported)9 39.9 T 67.8 611.1 m (DECnet/SNA)10 
52.2 T  4.5 S (gateway)7 33.4 T  4.5 S (configuration.)14 53.7 T 67.8 596.1 
m (T)1 5.4 T  0 S (o)1 5 T  5.3 S  0 S (h)1 5 T  0 S (a)1 5 T  0 S (v)1 4.5 
T  0 S (e)1 5 T  5.3 S  0 S (a)1 5 T  5.3 S  0 S (D)1 6.4 T  0 S (I)1 2.5 T  
0 S (G)1 7 T  0 S (I)1 2.5 T  0 S (T)1 5.4 T  0 S (A)1 6 T  0 S (L)1 5 T  
5.3 S  0 S (s)1 4.5 T  0 S (u)1 5 T  0 S (p)1 5 T  0 S (p)1 5 T  0 S (o)1 5 
T  0 S (r)1 2.9 T  0 S (t)1 2.5 T  0 S (e)1 5 T  0 S (d)1 5 T  5.3 S  0 S (D)
1 6.4 T  0 S (E)1 6 T  0 S (C)1 6.4 T  0 S (n)1 5 T  0 S (e)1 5 T  0 S (t)1 
2.5 T  0 S (/)1 2.5 T  0 S (S)1 6 T  0 S (N)1 6.4 T  0 S (A)1 6 T  5.4 S  0 
S (g)1 5 T  0 S (a)1 5 T  0 S (t)1 2.5 T  0 S (e)1 5 T  0 S (w)1 6.4 T  0 S (\
a)1 5 T  0 S (y)1 4.5 T  0 S 67.8 586.1 m (c)1 4.5 T  0 S (o)1 5 T  0 S (n)1 
5 T  0 S (f)1 2.5 T  0 S (i)1 1.9 T  0 S (g)1 5 T  0 S (u)1 5 T  0 S (r)1 
2.9 T  0 S (a)1 5 T  0 S (t)1 2.5 T  0 S (i)1 1.9 T  0 S (o)1 5 T  0 S (n)1 
5 T  0 S (,)1 2.5 T  2.1 S  0 S (p)1 5 T  0 S (u)1 5 T  0 S (r)1 2.9 T  0 S (\
c)1 4.5 T  0 S (h)1 5 T  0 S (a)1 5 T  0 S (s)1 4.5 T  0 S (e)1 5 T  2.1 S  
0 S (o)1 5 T  0 S (f)1 2.5 T  2.1 S  0 S (t)1 2.5 T  0 S (h)1 5 T  0 S (e)1 
5 T  2.1 S  0 S (G)1 7 T  0 S (a)1 5 T  0 S (t)1 2.5 T  0 S (e)1 5 T  0 S (w)
1 6.4 T  0 S (a)1 5 T  0 S (y)1 4.5 T  2.2 S  0 S (O)1 7 T  0 S (r)1 2.9 T  
0 S (i)1 1.9 T  0 S (e)1 5 T  0 S (n)1 5 T  0 S (t)1 2.5 T  0 S (a)1 5 T  0 
S (t)1 2.5 T  0 S (i)1 1.9 T  0 S (o)1 5 T  0 S (n)1 5 T  0 S (/)1 2.5 T  0 
S (I)1 2.5 T  0 S (n)1 5 T  0 S (s)1 4.5 T  0 S (t)1 2.5 T  0 S (a)1 5 T  0 
S (l-)2 4.8 T  0 S 67.8 576.1 m (l)1 1.9 T  0 S (a)1 5 T  0 S (t)1 2.5 T  0 
S (i)1 1.9 T  0 S (o)1 5 T  0 S (n)1 5 T  3.7 S  0 S (S)1 6 T  0 S (e)1 5 T  
0 S (r)1 2.9 T  0 S (v)1 4.5 T  0 S (i)1 1.9 T  0 S (c)1 4.5 T  0 S (e)1 5 T 
 3.7 S  0 S (\()1 2.9 T  0 S (Q)1 7 T  0 S (S)1 6 T  0 S (F)1 5.4 T  0 S 
(0)1 5 T  0 S (x)1 4.5 T  0 S (-)1 2.9 T  0 S (S)1 6 T  0 S (Z)1 5.4 T  0 S (\
\))1 2.9 T  3.7 S  0 S (i)1 1.9 T  0 S (s)1 4.5 T  3.7 S  0 S (R)1 6.4 T  0 
S (E)1 6 T  0 S (Q)1 7 T  0 S (U)1 6.4 T  0 S (I)1 2.5 T  0 S (R)1 6.4 T  0 
S (E)1 6 T  0 S (D)1 6.4 T  3.7 S  0 S (i)1 1.9 T  0 S (n)1 5 T  3.8 S  0 S (\
c)1 4.5 T  0 S (o)1 5 T  0 S (n)1 5 T  0 S (j)1 1.9 T  0 S (u)1 5 T  0 S 
(n)1 5 T  0 S (c)1 4.5 T  0 S (t)1 2.5 T  0 S (i)1 1.9 T  0 S (o)1 5 T  0 S (\
n)1 5 T  0 S 67.8 566.1 m (w)1 6.4 T  0 S (i)1 1.9 T  0 S (t)1 2.5 T  0 S (h)
1 5 T  4.6 S  0 S (t)1 2.5 T  0 S (h)1 5 T  0 S (e)1 5 T  4.6 S  0 S (c)1 
4.5 T  0 S (u)1 5 T  0 S (s)1 4.5 T  0 S (t)1 2.5 T  0 S (o)1 5 T  0 S (m)1 
7.4 T  0 S (e)1 5 T  0 S (r)1 2.9 T  0 S (')1 1.9 T  0 S (s)1 4.5 T  4.6 S  
0 S (f)1 2.5 T  0 S (i)1 1.9 T  0 S (r)1 2.9 T  0 S (s)1 4.5 T  0 S (t)1 2.5 
T  4.6 S  0 S (p)1 5 T  0 S (u)1 5 T  0 S (r)1 2.9 T  0 S (c)1 4.5 T  0 S (h)
1 5 T  0 S (a)1 5 T  0 S (s)1 4.5 T  0 S (e)1 5 T  4.6 S  0 S (o)1 5 T  0 S (\
f)1 2.5 T  4.6 S  0 S (t)1 2.5 T  0 S (h)1 5 T  0 S (e)1 5 T  4.6 S  0 S 
(D)1 6.4 T  0 S (E)1 6 T  0 S (C)1 6.4 T  0 S (n)1 5 T  0 S (e)1 5 T  0 S (t)
1 2.5 T  0 S (/)1 2.5 T  0 S (S)1 6 T  0 S (N)1 6.4 T  0 S (A)1 6 T  0 S 
67.8 556.1 m (G)1 7 T  0 S (a)1 5 T  0 S (t)1 2.5 T  0 S (e)1 5 T  0 S (w)1 
6.4 T  0 S (a)1 5 T  0 S (y)1 4.5 T  0 S (.)1 2.5 T f2 s 67.8 541.1 m (HARDWA\
RE)8 52.8 T  4.5 S (REQUIREMENTS)12 71.9 T f4 s 67.8 526.1 m (VAX,)4 20.5 T  
3.1 S (MicroVAX)8 39.7 T  3.1 S (or)2 7.9 T  3.1 S (VAXstation)10 44.4 T  
3.1 S (configuration)13 51.2 T  3.1 S (as)2 9.5 T  3.1 S (specified)9 35.3 T 
67.8 516.1 m (in)2 6.9 T  4.5 S (the)3 12.5 T  4.5 S (System)6 29.9 T  4.5 S 
(Support)7 31.4 T  4.5 S (Addendum)8 43.4 T  4.5 S (\(SSA)4 20.9 T  4.5 S (26\
.71.03-x\).)12 47.8 T 67.8 501.1 m (Any)3 15.5 T  4.3 S (properly)8 32.2 T  
4.3 S (configured)10 41.8 T  4.3 S (DECnet/SNA)10 52.2 T  4.3 S (Gateway)7 
35.4 T  4.4 S (system)6 28.4 T 67.8 491.1 m (as)2 9.5 T  4.5 S (specified)9 
35.3 T  4.5 S (in)2 6.9 T  4.5 S (the)3 12.5 T  4.5 S (System)6 29.9 T  4.5 
S (Support)7 31.4 T  4.5 S (Addendum.)9 45.9 T f2 s 67.8 476.1 m (SOFTWARE)8 
51 T  4.5 S (REQUIREMENTS)12 71.9 T  4.5 S (*)1 3.5 T f4 s 67.8 461.1 m (VMS)
3 19.4 T  4.5 S (Operating)9 39.3 T  4.5 S (System)6 29.9 T 67.8 446.1 m (DEC\
net-VAX)10 52.2 T  4.5 S (end)3 15 T  4.5 S (node)4 20 T  4.5 S (or)2 7.9 T  
4.5 S (full)4 11.3 T  4.5 S (function)8 31.4 T  4.5 S (node)4 20 T  4.5 S (li\
cense)7 27.8 T 67.8 431.1 m (In)2 7.5 T  11.2 S (a)1 5 T  11.2 S (DEC)3 18.8 
T  11.2 S (MicroServer)11 48 T  11.2 S (\(DEMSA\))7 37.6 T  11.2 S (or)2 7.9 
T  11.2 S (a)1 5 T  11.3 S (DEC)3 18.8 T 67.8 421.1 m (ChannelServer)13 59.6 
T  3.2 S (\(DESNA\))7 36.6 T  3.3 S (environment,)12 51.7 T  3.3 S (the)3 
12.5 T  3.3 S (gateway)7 33.4 T  3.3 S (load)4 16.9 T 67.8 411.1 m (host)4 
17 T  4.8 S (must)4 19.4 T  4.8 S (have)4 19.5 T  4.8 S (DECnet/SNA)10 52.2 
T  4.8 S (VMS)3 19.4 T  4.8 S (Gateway)7 35.4 T  4.9 S (Manage-)7 35.3 T 
67.8 401.1 m (ment)4 19.9 T  6.8 S (software)8 33.8 T  6.8 S (as)2 9.5 T  
6.8 S (specified)9 35.3 T  6.8 S (in)2 6.9 T  6.9 S (the)3 12.5 T  6.9 S (Sys\
tem)6 29.9 T  6.9 S (Support)7 31.4 T 67.8 391.1 m (Addendum)8 43.4 T  4.5 S 
(\(SSA)4 20.9 T  4.5 S (26.71.03-x\).)12 47.8 T 67.8 376.1 m (In)2 7.5 T  
4.9 S (a)1 5 T  5 S (DECnet/SNA)10 52.2 T  5 S (Gateway)7 35.4 T  5 S (\(DECS\
A\))7 36.6 T  5 S (environment,)12 51.7 T  5 S (all)3 8.8 T 67.8 366.1 m (VMS\
)3 19.4 T  5.6 S (systems)7 32.9 T  5.7 S (to)2 7.5 T  5.7 S (which)5 22.8 T 
 5.7 S (the)3 12.5 T  5.7 S (DHCF)4 24.6 T  5.7 S (software)8 33.8 T  5.7 S (\
provides)8 33.8 T 67.8 356.1 m (access)6 28 T  4 S (must)4 19.4 T  4 S (have)
4 19.5 T  4.1 S (DECnet/SNA)10 52.2 T  4.1 S (Gateway)7 35.4 T  4.1 S (Manage\
ment)10 52.3 T 67.8 346.1 m (software)8 33.8 T  3.4 S (as)2 9.5 T  3.5 S (spe\
cified)9 35.3 T  3.5 S (in)2 6.9 T  3.5 S (the)3 12.5 T  3.5 S (System)6 
29.9 T  3.5 S (Support)7 31.4 T  3.5 S (Addendum)8 43.4 T 67.8 336.1 m (\(SSA\
)4 20.9 T  4.5 S (26.71.03-x\).)12 47.8 T 67.8 321.1 m (*)1 3.5 T 79.8 321.1 
m (Refer)5 21.8 T  5.8 S (the)3 12.5 T  5.8 S (the)3 12.5 T  5.8 S (System)6 
29.9 T  5.8 S (Support)7 31.4 T  5.8 S (Addendum)8 43.4 T  5.8 S (for)3 10.4 
T  5.9 S (the)3 12.5 T 79.8 311.1 m (availablity)11 39.1 T  3.9 S (and)3 15 
T  3.9 S (required)8 32.7 T  3.9 S (versions)8 33.3 T  3.9 S (of)2 7.5 T  
3.9 S (prerequisite)12 46.6 T  4 S (soft-)5 17.4 T 79.8 301.1 m (ware)4 19.3 
T  4.5 S (\(SSA)4 20.9 T  4.5 S (26.71.03-x\).)12 47.8 T f2 s 318.8 691.1 m (\
ORDERING)8 48.1 T  4.5 S (INFORMATION)11 62.8 T f4 s 318.8 676.1 m (Software)
8 35.3 T  4.5 S (Licenses:)9 37.9 T  4.5 S (QL-043A*-**)11 49.3 T 318.8 
666.1 m (Software)8 35.3 T  4.5 S (Media:)6 26.8 T  4.5 S (QA-043A*-**)11 
50.3 T 318.8 656.1 m (Software)8 35.3 T  4.5 S (Documentation:)14 62.7 T  
4.5 S (QA-043AA-GZ)11 58.2 T 318.8 646.1 m (Software)8 35.3 T  4.5 S (Product\
)7 30.9 T  4.5 S (Services:)9 36.8 T  4.5 S (QT-043A*-**)11 49.7 T 318.8 
631.1 m (*)1 3.5 T 330.8 631.1 m (Denotes)7 33.4 T  4.3 S (variant)7 26.8 T  
4.3 S (fields.)7 23.3 T  4.3 S (For)3 13.3 T  4.3 S (additional)10 38.2 T  
4.4 S (information)11 44.1 T  4.4 S (on)2 10 T 330.8 621.1 m (available)9 
35.2 T  4.9 S (licenses,)9 34.8 T  4.9 S (services)8 32.8 T  4.9 S (and)3 15 
T  5 S (media)5 24.3 T  5 S (refer)5 18.3 T  5 S (to)2 7.5 T  5 S (the)3 
12.5 T 330.8 611.1 m (appropriate)11 45.2 T  4.5 S (price)5 19.3 T  4.5 S (bo\
ok.)5 22 T f2 s 318.8 596.1 m (SOFTWARE)8 51 T  4.5 S (LICENSING)9 48.6 T f4 
s 318.8 581.1 m (This)4 16.8 T  3.2 S (software)8 33.8 T  3.3 S (is)2 6.4 T  
3.3 S (furnished)9 36.8 T  3.3 S (under)5 22.9 T  3.3 S (the)3 12.5 T  3.3 S 
(licensing)9 34.7 T  3.3 S (provisions)10 40.2 T 318.8 571.1 m (of)2 7.5 T  
3.9 S (DIGITAL's)9 41.2 T  3.9 S (Terms)5 25.2 T  3.9 S (and)3 15 T  3.9 S (C\
onditions.)11 44.7 T  3.9 S (For)3 13.3 T  3.9 S (more)4 20.3 T  3.9 S (infor\
ma-)8 32.6 T 318.8 561.1 m (tion)4 14.4 T  3.9 S (about)5 22.5 T  3.9 S (DIGI\
TAL's)9 41.2 T  3.9 S (licensing)9 34.7 T  3.9 S (terms)5 22.3 T  3.9 S (and)
3 15 T  3.9 S (policies,)9 32.2 T  4 S (con-)4 17.4 T 318.8 551.1 m (tact)4 
14.5 T  4.5 S (your)4 17.4 T  4.5 S (local)5 18.3 T  4.5 S (DIGITAL)7 34.8 T 
 4.5 S (office.)7 23.9 T f2 s 318.8 536.1 m (LICENSE)7 38.7 T  4.5 S (MANAGEM\
ENT)10 64.8 T  4.5 S (FACILITY)8 40 T  4.5 S (SUPPORT)7 43.2 T f4 s 318.8 
521.1 m (This)4 16.8 T  2.6 S (layered)7 29.3 T  2.6 S (product)7 29.9 T  
2.6 S (supports)8 34.4 T  2.7 S (the)3 12.5 T  2.7 S (VMS)3 19.4 T  2.7 S (Li\
cense)7 30.9 T  2.7 S (Manage-)7 35.3 T 318.8 511.1 m (ment)4 19.9 T  3 S (Fa\
cility.)9 30.1 T  3 S (License)7 30.9 T  3 S (units)5 18.9 T  3 S (for)3 
10.4 T  3.1 S (this)4 13.9 T  3.1 S (product)7 29.9 T  3.1 S (are)3 12.9 T  
3.1 S (allocated)9 35.8 T 318.8 501.1 m (on)2 10 T  4.5 S (a)1 5 T  4.5 S (CP\
U-capacity)12 54.6 T  4.5 S (basis.)6 23.4 T 318.8 486.1 m (For)3 13.3 T  
2.8 S (more)4 20.3 T  2.9 S (information)11 44.1 T  2.9 S (on)2 10 T  2.9 S (\
the)3 12.5 T  2.9 S (License)7 30.9 T  2.9 S (Management)10 52.3 T  2.9 S (Fa\
cili-)7 23.5 T 318.8 476.1 m (ty,)3 9.5 T  3 S (refer)5 18.3 T  3 S (to)2 
7.5 T  3 S (the)3 12.5 T  3.1 S (VMS)3 19.4 T  3.1 S (Operating)9 39.3 T  
3.1 S (System)6 29.9 T  3.1 S (Software)8 35.3 T  3.1 S (Product)7 30.9 T 
318.8 466.1 m (Description)11 44.6 T  3.4 S (\(SPD)4 21.3 T  3.4 S 
(25.01.xx\))9 36.9 T  3.4 S (or)2 7.9 T  3.5 S (the)3 12.5 T  3.5 S (License)
7 30.9 T  3.5 S (Management)10 52.3 T 318.8 456.1 m (Facility)8 27.6 T  3.1 
S (manual)6 29.3 T  3.1 S (of)2 7.5 T  3.1 S (the)3 12.5 T  3.1 S (VMS)3 
19.4 T  3.1 S (Operating)9 39.3 T  3.1 S (System)6 29.9 T  3.2 S (documen-)8 
39.8 T 318.8 446.1 m (tation)6 21.9 T  4.5 S (set.)4 14.5 T 318.8 431.1 m (Fo\
r)3 13.3 T  4.7 S (more)4 20.3 T  4.8 S (information)11 44.1 T  4.8 S (about)
5 22.5 T  4.8 S (DIGITAL's)9 41.2 T  4.8 S (licensing)9 34.7 T  4.8 S (terms)
5 22.3 T 318.8 421.1 m (and)3 15 T  4.5 S (policies,)9 32.2 T  4.5 S (contact\
)7 29 T  4.5 S (your)4 17.4 T  4.5 S (local)5 18.3 T  4.5 S (DIGITAL)7 34.8 
T  4.5 S (office.)7 23.9 T f2 s 318.8 406.1 m (SOFTWARE)8 51 T  4.5 S (PRODUC\
T)7 44 T  4.5 S (SERVICES)8 45.3 T f4 s 318.8 391.1 m (A)1 6 T  3.3 S (variet\
y)7 26.3 T  3.3 S (of)2 7.5 T  3.3 S (service)7 28.3 T  3.4 S (options)7 
28.9 T  3.4 S (are)3 12.9 T  3.4 S (available)9 35.2 T  3.4 S (from)4 17.8 T 
 3.4 S (DIGITAL.)8 37.3 T 318.8 381.1 m (For)3 13.3 T  3.7 S (more)4 20.3 T  
3.7 S (information)11 44.1 T  3.7 S (contact)7 29 T  3.7 S (your)4 17.4 T  
3.7 S (local)5 18.3 T  3.7 S (DIGITAL)7 34.8 T  3.8 S (office.)7 23.9 T f2 s 
318.8 366.1 m (SOFTWARE)8 51 T  4.5 S (WARRANTY)8 51.8 T f4 s 318.8 351.1 m (\
Warranty)8 36.2 T  7.5 S (for)3 10.4 T  7.5 S (this)4 13.9 T  7.5 S (software\
)8 33.8 T  7.5 S (product)7 29.9 T  7.5 S (is)2 6.4 T  7.6 S (provided)8 
34.3 T  7.6 S (by)2 9.5 T 318.8 341.1 m (DIGITAL)7 34.8 T  3.7 S (with)4 
15.8 T  3.7 S (the)3 12.5 T  3.8 S (purchase)8 36.9 T  3.8 S (of)2 7.5 T  
3.8 S (a)1 5 T  3.8 S (license)7 27.8 T  3.8 S (for)3 10.4 T  3.8 S (the)3 
12.5 T  3.8 S (product)7 29.9 T 318.8 331.1 m (as)2 9.5 T  4 S (defined)7 
29.4 T  4 S (in)2 6.9 T  4 S (the)3 12.5 T  4.1 S (Software)8 35.3 T  4.1 S (\
Warranty)8 36.2 T  4.1 S (Addendum)8 43.4 T  4.1 S (of)2 7.5 T  4.1 S 
(this)4 13.9 T 318.8 321.1 m (SPD.)4 20.9 T 67.8 44.6 m  229.2 S f2 s (-)1 
2.9 T  4.5 S (3)1 5 T  4.5 S (-)1 2.9 T  229.2 S showpage
535.2 44.6 m  restore
%%Pages: 3
