%!PS-Adobe-1.0

%%Title: GEM02D$:[DUNCAN.WPSPLUS]0004172LSPD8.TMS;1

%%Creator: DECpage V3.0

%%CreationDate: 26-FEB-1990 09:07:46.24

%%Pages: (at end)

%%DocumentFonts: (atend)

%%EndComments

statusdict begin 0 setjobtimeout end

/CF /currentfont load def

/CP /currentpoint load def

/FF /findfont load def

/GR /grestore load def 

/GS /gsave load def

/LI /lineto load def

/MF /makefont load def 

/MO /moveto load def

/RL /rlineto load def

/RM /rmoveto load def

/RO /rotate load def

/SC /scale load def

/SD /setdash load def

/SE /setfont load def

/SF /scalefont load def

/SH /show load def

/ST /stroke load def

/SW /setlinewidth load def

/TR /translate load def



/BD {bind def} bind def

/DPT {FF exch SF SE}BD

/HTD{/ht exch def pop pop pop}BD

/MTCFP{false charpath flattenpath pathbbox}BD

/TCFP{true charpath flattenpath pathbbox}BD

  

% partial line up

/PLU {

 /CURSCAL CF /FontMatrix get 3 get 1000 mul def

  0 CURSCAL .5 mul RM

}BD

  

% partial line down

/PLD {

 /CURSCAL CF /FontMatrix get 3 get 1000 mul def

 0 CURSCAL -0.5 mul RM

}BD

  

/SavedX 0 def  

/SavedY 0 def  

/SavedString () def

/ShowInit

    {CP /SavedY exch def /SavedX exch def}BD

/bold

    {dup /SavedString exch def

    400 CF /FontMatrix get 3 get mul -12000 div 0 RM SH

    SavedX SavedY MO

    800 CF /FontMatrix get 3 get mul -12000 div 0 RM 

    SavedString SH

    SavedX SavedY MO

    SavedString SH

    }BD

/D1 

    {ShowInit bold}BD



% show string bold

/DPJB{

 /st 1 string def 

 /x exch def

 {st 0 3 -1 roll put st ( ) eq{x 0 RM}{st D1}ifelse}forall

}BD

% show string

/DPJ{( ) stringwidth pop sub 0 32 4 -1 roll widthshow}BD  



/DPF1

    {CP TR

    .5 .5 SC

    0 .6 DPFX mul MO SH

    .6 DPFX mul 0 MO SH

    0 0 MO 1.2 DPFX mul 1.2 DPFX mul LI ST

    GR

    .6 DPFX mul 0 RM

    }BD

  

% show fraction mono

/MDPF

    {exch

    GS

    /DPFX CF /FontMatrix get 3 get def

    DPF1

    }BD

/DPF1B

    {CP TR

    .5 .5 SC

    0 .6 DPFX mul MO D1

    .6 DPFX mul 0 MO D1

    0 0 MO 1.2 DPFX mul 1.2 DPFX mul LI ST

    GR

    .6 DPFX mul 0 RM

    }BD

  

% show fraction mono

/MDPFB

    {exch

    GS

    /DPFX CF /FontMatrix get 3 get def

    DPF1B

    }BD

  

% show fraction

/DPF{

 /CURSCAL CF /FontMatrix get 3 get 1000 mul def

 /den exch def

 /num exch def

 /regf CF def

 /frf CF [.65 0 0 .6 0 0] MF def

 GS newpath 0 0 MO /Symbol FF CURSCAL SF SE (\244) TCFP HTD GR 

 0 .4 ht mul RM frf SE num SH 0 .4 ht mul neg RM 

 /Symbol FF CURSCAL SF SE (\244) SH 

 frf SE den SH regf SE

}BD

  

% show sup/inf

/DPIS{

 /regf CF def

 /sy CP exch pop def

 /supinf CF [.65 0 0 .6 0 0] MF def 

 GS newpath 0 0 MO TCFP HTD GR 0 exch ht mul RM supinf SE SH regf SE 

 CP pop sy MO

}BD

  

% show sup

/DPS{.40 (I) DPIS}BD

  

%show inf

/DPI{dup -.15 exch DPIS}BD

  

% show mono sup

/MDPS{

 GS newpath 0 0 MO (1) MTCFP HTD GR 

 0 ht .5 mul RM SH

 0 ht -.5 mul RM

}BD

  

%show mono inf

/MDPI{

 GS newpath 0 0 MO (1) MTCFP HTD GR 

 0 ht -.5 mul RM SH

 0 ht .5 mul RM

}BD

% show mono sup

/MDPSB{

 GS newpath 0 0 MO (1) MTCFP HTD GR 

 0 ht .5 mul RM D1

 0 ht -.5 mul RM

}BD

  

%show mono inf

/MDPIB{

 GS newpath 0 0 MO (1) MTCFP HTD GR 

 0 ht -.5 mul RM D1

 0 ht .5 mul RM

}BD

  

/reencodedict 12 dict def

/ReEncode

  { reencodedict begin

    /newencoding exch def

    /newfontname exch def

    /basefontname exch def

    /basefontdict basefontname FF def

    /newfont basefontdict maxlength dict def

    basefontdict

    	{ exch dup /FID ne 

    	    {dup /Encoding eq

    		{exch dup length array copy 

    		    newfont 3 1 roll put}

	  	{ exch newfont 3 1 roll put }

	     ifelse

    	    }

	    { pop pop }

    	    ifelse

       } forall

  newfont /FontName newfontname put

  newencoding aload pop

  newencoding length 2 idiv

    {newfont /Encoding get 3 1 roll put}

    repeat

  newfontname newfont definefont pop

  end

 }BD

  

/DPMCS [

% DEC Supplemental side:

160 /.notdef

161 /exclamdown 

162 /cent 

163 /sterling 

164 /fraction 

165 /yen 

166 /.notdef

167 /section 

168 /currency 

169 /copyright 

170 /ordfeminine 

171 /guillemotleft 

172 /.notdef

173 /.notdef

174 /.notdef

175 /.notdef

176 /.notdef  % degree

177 /.notdef  % plus/minus

178 /.notdef  % superscript 2

179 /.notdef  % superscript 3

180 /.notdef

181 /.notdef  % micro

182 /paragraph 

183 /periodcentered 

184 /.notdef

185 /.notdef  % superscript 1

186 /ordmasculine 

187 /guillemotright 

188 /.notdef  % 1/4

189 /.notdef  % 1/2

190 /.notdef

191 /questiondown 

192 /Agrave 

193 /Aacute 

194 /Acircumflex 

195 /Atilde 

196 /Adieresis 

197 /Aring 

%198 /.notdef  % /AE 

198 /AE 

199 /Ccedilla 

200 /Egrave 

201 /Eacute 

202 /Ecircumflex 

203 /Edieresis 

204 /Igrave 

205 /Iacute 

206 /Icircumflex 

207 /Idieresis 

208 /.notdef

209 /Ntilde 

210 /Ograve 

211 /Oacute 

212 /Ocircumflex 

213 /Otilde 

214 /Odieresis 

%215 /.notdef  % /OE 

215 /OE 

216 /Oslash 

217 /Ugrave 

218 /Uacute 

219 /Ucircumflex 

220 /Udieresis 

221 /Ydieresis 

222 /.notdef

223 /germandbls 

224 /agrave 

225 /aacute 

226 /acircumflex 

227 /atilde 

228 /adieresis 

229 /aring 

%230 /.notdef %ae

230 /ae

231 /ccedilla 

232 /egrave 

233 /eacute 

234 /ecircumflex 

235 /edieresis 

236 /igrave 

237 /iacute 

238 /icircumflex 

239 /idieresis 

240 /.notdef

241 /ntilde 

242 /ograve 

243 /oacute 

244 /ocircumflex 

245 /otilde 

246 /odieresis 

%247 /.notdef %oe

247 /oe 

248 /oslash 

249 /ugrave 

250 /uacute 

251 /ucircumflex 

252 /udieresis 

253 /ydieresis 

254 /.notdef 

  

129 /grave 

130 /acute 

131 /circumflex 

132 /tilde 

133 /dieresis 

134 /ring 

135 /cedilla 

136 /dotlessi 

137 /macron

138 /breve

139 /dotaccent

140 /hungarumlaut

141 /ogonek

142 /caron

143 /endash

144 /emdash

145 /dagger

146 /daggerdbl

147 /bullet

148 /fi

149 /fl

150 /quotedblleft

151 /quotedblright

152 /registered

153 /trademark

154 /quotedblbase

] def

  

/cvc

{ 

( )

dup

0 

4 -1 roll

put

}BD

  

/Courier /CourierExtended DPMCS ReEncode

/ExtendedEncoding /CourierExtended FF /Encoding get def

/SymbolEncoding /Symbol FF /Encoding get def

  

/ExtendedDecoding ExtendedEncoding length dict def

ExtendedDecoding begin

0 1 ExtendedEncoding length 1 sub

{ 

dup

ExtendedEncoding exch get

exch def

}for

end

/SymbolDecoding SymbolEncoding length dict def

SymbolDecoding begin

0 1 SymbolEncoding length 1 sub

{ 

dup

SymbolEncoding exch get

exch def

}for

end

  

/BBox [0 -.25 .6 .75] def

  

/superscript

{/CourierExtended FF SE

.6667 .6667 SC

0 .2667 MO

SH

}BD

  

/diphthong

{ 

{/CourierExtended FF [.6667 0 .1786 1 0 0] MF SE}

{/CourierExtended FF [.66666667 0 0 1 0 0] MF SE}

ifelse

0 0 MO

CP TR

SH

/CourierExtended FF

[.6667 0 0 1 0 0] MF SE

.26 0 MO

SH

}BD

  

/ctrl

{/CourierExtended FF SE

.8333 .8333 SC

0 .3 MO

SH

.1371 -.3 MO

SH

}BD

  

/fraction

{/CourierExtended FF SE

.5 .5 SC

0 .6 MO

SH

.6 0 MO

SH

0 0 MO

1.2 1.2 LI

ST

}BD

  

/McsEncoding ExtendedEncoding def

McsEncoding

dup 169 /copyrightsans put

dup 176 /degree put

dup 177 /plusminus put

dup 178 /twosuper put

dup 179 /threesuper put

dup 181 /mu put

dup 185 /onesuper put

dup 188 /onefourth put

dup 189 /onehalf put

dup 198 /AE put

dup 215 /OE put

dup 230 /ae put

dup 247 /oe put

pop

  

/TcsEncoding  256 array def

32 1 94 {TcsEncoding exch dup McsEncoding exch get put} for

TcsEncoding

dup 95 /space put

dup 96 /diamond put

dup 97 /blob put

dup 98 /HT put

dup 99 /FF put

dup 100 /CR put

dup 101 /LF put

dup 102 /degree put

dup 103 /plusminus put

dup 104 /NL put

dup 105 /VT put

dup 106 /crnlr put

dup 107 /crnur put

dup 108 /crnul put

dup 109 /crnll put

dup 110 /cross put

dup 111 /scan1 put

dup 112 /scan3 put

dup 113 /scan5 put

dup 114 /scan7 put

dup 115 /scan9 put

dup 116 /tl put

dup 117 /tr put

dup 118 /tb put

dup 119 /tt put

dup 120 /vertical put

dup 121 /lessequal put

dup 122 /greaterequal put

dup 123 /pi put

dup 124 /notequal put

dup 125 /sterling put

dup 126 /periodcentered put

pop

TcsEncoding

dup 161 /radicalleft put

dup 162 /radicallefttp put

dup 163 /horizontalext put

dup 164 /integraltp put

dup 165 /integralbt put

dup 166 /verticalext put

dup 167 /bracketlefttp put

dup 168 /bracketleftbt put

dup 169 /bracketrighttp put

dup 170 /bracketrightbt put

dup 171 /bracelefttp put

dup 172 /braceleftbt put

dup 173 /bracerighttp put

dup 174 /bracerightbt put

dup 175 /braceleftmid put

dup 176 /bracerightmid put

dup 177 /sumtpleft put

dup 178 /sumbtleft put

dup 179 /sumtpvert put

dup 180 /sumbtvert put

dup 181 /sumtpright put

dup 182 /sumbtright put

dup 183 /sumrightmid put

dup 184 /questionreverse put

dup 185 /questionreverse put

dup 186 /questionreverse put

dup 187 /questionreverse put

dup 188 /lessequal put

dup 189 /notequal put

dup 190 /greaterequal put

dup 191 /integral put

dup 192 /therefore put

dup 193 /proportional put

dup 194 /infinity put

dup 195 /divide put

dup 196 /Delta put

dup 197 /gradient put

dup 198 /Phi put

dup 199 /Gamma put

dup 200 /similar put

dup 201 /approxequal put

dup 202 /Theta put

dup 203 /multiply put

dup 204 /Lambda put

dup 205 /arrowdblboth put

dup 206 /arrowdblright put

dup 207 /equivalence put

dup 208 /Pi put

dup 209 /Psi put

dup 210 /questionreverse put

dup 211 /Sigma put

dup 212 /questionreverse put

dup 213 /questionreverse put

dup 214 /radical put

dup 215 /Omega put

dup 216 /Xi put

dup 217 /Upsilon1 put

dup 218 /propersubset put

dup 219 /propersuperset put

dup 220 /intersection put

dup 221 /union put

dup 222 /logicaland put

dup 223 /logicalor put

dup 224 /logicalnot put

dup 225 /alpha put

dup 226 /beta put

dup 227 /chi put

dup 228 /delta put

dup 229 /epsilon put

dup 230 /phi put

dup 231 /gamma put

dup 232 /eta put

dup 233 /iota put

dup 234 /theta put

dup 235 /kappa put

dup 236 /lambda put

dup 237 /questionreverse put

dup 238 /nu put

dup 239 /partialdiff put

dup 240 /pi put

dup 241 /psi put

dup 242 /rho put

dup 243 /sigma put

dup 244 /tau put

dup 245 /questionreverse put

dup 246 /florin put

dup 247 /omega put

dup 248 /xi put

dup 249 /upsilon put

dup 250 /zeta put

dup 251 /arrowleft put

dup 252 /arrowup put

dup 253 /arrowright put

dup 254 /arrowdown put

pop

  

/CharStrings 61 dict def

CharStrings begin

/crnlr

{0 .25 MO

.3 .25 LI

.3 .75 LI

ST

}BD

/crnur

{0 .25 MO

.3 .25 LI

.3 -.25 LI

ST

}BD

/crnul

{.6 .25 MO

.3 .25 LI

.3 -.25 LI

ST

}BD

/crnll

{.6 .25 MO

.3 .25 LI

.3 .75 LI

ST

}BD

/cross

{0 .25 MO

.6 .25 LI

.3 .75 MO

.3 -.25 LI

ST

}BD

/scan9

{0 -.15 MO

.6 -.15 LI

ST

}BD

/scan7

{0 .05 MO

.6 .05 LI

ST

}BD

/scan5

{0 .25 MO

.6 .25 LI

ST

}BD

/scan3

{0 .45 MO

.6 .45 LI

ST

}BD

/scan1

{0 .65 MO

.6 .65 LI

ST

}BD

/tl

{.3 .75 MO

.3 -.25 LI

.6 .25 MO

.3 .25 LI

ST

}BD

/tr

{.3 .75 MO

.3 -.25 LI

0 .25 MO

.3 .25 LI

ST

}BD

/tb

{0 .25 MO

.6 .25 LI

.3 .75 MO

.3 .25 LI

ST

}BD

/tt

{0 .25 MO

.6 .25 LI

.3 -.25 MO

.3 .25 LI

ST

}BD

/vertical

{.3 .75 MO

.3 -.25 LI

ST

}BD

/radicalleft

{.3 .75 MO

.3 -.25 LI

0 .25 LI

ST

}BD

/radicallefttp

{.6 .25 MO

.3 .25 LI

.3 -.25 LI

ST

}BD

/horizontalext

{0 .25 MO

.6 .25 LI

ST

}BD

/integraltp

{.3 -.25 MO

.3 .75 .45 .75 .25 arcto pop pop pop pop

ST

.53 .67 .1 0 360 arc

fill

}BD

/integralbt

{.3 .75 MO

.3 -.25 .15 -.25 .25 arcto pop pop pop pop

ST

.08 -.17 .1 0 360 arc

fill

}BD

/verticalext

{.3 .75 MO

.3 -.25 LI

ST

}BD

/bracketlefttp

{.6 .75 MO

.3 .75 LI

.3 -.25 LI

ST

}BD

/bracketleftbt

{.3 .75 MO

.3 -.25 LI

.6 -.25 LI

ST

}BD

/bracketrighttp

{0 .75 MO

.3 .75 LI

.3 -.25 LI

ST

}BD

/bracketrightbt

{.3 .75 MO

.3 -.25 LI

0 -.25 LI

ST

}BD

/bracelefttp

{.3 -.25 MO

.3 .75 .6 .75 .5 arcto pop pop pop pop

ST

}BD

/braceleftbt

{.3 .75 MO

.3 -.25 .6 -.25 .5 arcto pop pop pop pop

ST

}BD

/bracerighttp

{.3 -.25 MO

.3 .75 0 .75 .5 arcto pop pop pop pop

ST

}BD

/bracerightbt

{.3 .75 MO

.3 -.25 0 -.25 .5 arcto pop pop pop pop

ST

}BD

/braceleftmid

{.3 .75 MO

.3 .25 .15 .25 .15 arcto pop pop pop pop

.3 -.25 MO

.3 .25 .15 .25 .15 arcto pop pop pop pop

ST

}BD

/bracerightmid

{.3 .75 MO

.3 .25 .45 .25 .15 arcto pop pop pop pop

.3 -.25 MO

.3 .25 .45 .25 .15 arcto pop pop pop pop

ST

}BD

/sumtpleft

{.6 .25 MO

.3 .25 LI

.6 -.25 LI

ST

}BD

/sumbtleft

{.6 .25 MO

.3 .25 LI

.6 .75 LI

ST

}BD

/sumtpvert

{0 .75 MO

.6 -.25 LI

ST

}BD

/sumbtvert

{0 -.25 MO

.6 .75 LI

ST

}BD

/sumtpright

{0 .25 MO

.6 .25 LI

.6 -.25 LI

ST

}BD

/sumbtright

{0 .25 MO

.6 .25 LI

.6 .75 LI

ST

}BD

/sumrightmid

{0 .75 MO

.3 .25 LI

0 -.25 LI

ST

}BD

/arrowdblboth

{.1 .1 MO

.5 .1 LI

.1 .25 MO

.5 .25 LI

.175 .325 MO

0 .175 LI

.175 .025 LI

.425 .325 MO

.6 .175 LI

.425 .025 LI

ST

}BD

/arrowdblright

{.1 .1 MO

.5 .1 LI

.1 .25 MO

.5 .25 LI

.425 .325 MO

.6 .175 LI

.425 .025 LI

ST

}BD

/arrowleft

{0 .25 MO

.6 .25 LI

.15 .4 MO

0 .25 LI

.15 .1 LI

ST

}BD

/arrowup

{.3 .5 MO

.3 0 LI

.15 .35 MO

.3 .5 LI

.45 .35 LI

ST

}BD

/arrowright

{0 .25 MO

.6 .25 LI

.45 .4 MO

.6 .25 LI

.45 .1 LI

ST

}BD

/arrowdown

{.3 .5 MO

.3 0 LI

.15 .15 MO

.3 0 LI

.45 .15 LI

ST

}BD

/blob

{0 -.25 TR

CharWidth 1 SC

6 10

false

[6 0 0 -10 0 10]

{<55 AA>}

imagemask

}BD

/questionreverse

{/CourierExtended FF SE

.6 0 MO

-1 1 SC

(?) SH

}BD

/onesuper {(1) superscript}BD

/twosuper {(2) superscript}BD

/threesuper {(3) superscript}BD

/AE {(E) (A) true diphthong}BD

/OE {(E) (O) false diphthong}BD

/ae {(e) (a) false diphthong}BD

/oe {(e) (o) false diphthong}BD

/HT {(T) (H) ctrl}BD

/FF {(F) (F) ctrl}BD

/CR {(R) (C) ctrl}BD

/LF {(F) (L) ctrl}BD

/NL {(L) (N) ctrl}BD

/VT {(T) (V) ctrl}BD

/onehalf {(2) (1) fraction}BD

/onefourth {(4) (1) fraction}BD

end

  

/BuildCharDict 3 dict def

/BuildChar

{ 

BuildCharDict begin

/char exch def

/fontdict exch def

/charname fontdict /Encoding get char get def

fontdict begin

CharWidth 0

FontBBox aload pop

setcachedevice

CharStrings charname known

{.05 SW CharStrings charname get

exec

} 

{ExtendedDecoding charname known

{/CourierExtended FF SE

ExtendedDecoding charname get

} 

{/Symbol FF SE

.8 .8 SC

SymbolDecoding charname get

} 

ifelse

cvc

0 0 MO

SH

} 

ifelse

end

end

}BD

  

/Courier-MCS 11 dict dup begin

/FontType 3 def

/FontBBox BBox def

/BuildChar /BuildChar load def

/Encoding McsEncoding def

/CharWidth .6 def

/FontMatrix [1 0 0 1 0 0] def

/UnderlineThickness 75 def

/UnderlinePosition 250 def

/StrikethroughThickness 75 def

/StrikethroughPosition -275 def

end definefont pop

  

/Courier-TECH 11 dict dup begin

/FontType 3 def

/FontBBox BBox def

/BuildChar /BuildChar load def

/Encoding TcsEncoding def

/CharWidth .6 def

/FontMatrix [1 0 0 1 0 0] def

/UnderlineThickness 75 def

/UnderlinePosition 250 def

/StrikethroughThickness 75 def

/StrikethroughPosition -275 def

end definefont pop

%%EndProlog

 /Helvetica-Bold /Helvetica-Bold-DPMCS DPMCS ReEncode /Helvetica /Helvetica-DPMCS DPMCS ReEncode /Helvetica-Oblique /Helvetica-Oblique-DPMCS DPMCS ReEncode /LOGO8  {

%!PS-Adobe-2.0

%%Title: Digital Logo Font, v1.7

%%Notice: The Digital logo is a registered trademark of Digital Equipment Corporation.

%%Creator: Ned Batchelder, DEC

%%CreationDate: 24-Apr-1989

%%DocumentNeededFonts: Symbol

%%DocumentSuppliedFonts: DEC_Logo

%%EndComments

%

%		    DIGITAL INTERNAL USE ONLY

% 



%%BeginFont: DEC_Logo

11 dict begin



/FontInfo 3 dict def

FontInfo begin

    /Notice (The Digital logo is a registered trademark of Digital Equipment Corporation.) def

    /FullName (Digital Logo) def

    /version (1.7, 24-Apr-1989) def

    end



/FontName /DEC_Logo def

/FontType 3 def				% This is a user-defined font

/FontMatrix matrix def			% Use an identity transform

/FontBBox [ 0 0 3.383 1 ] def		% Logo itself is biggest

/GapWidth .070 def			% The width of the gap between boxes

/LogoWidth 3.383 def			% The width of the logo



%

% The encoding could be initialized with "[ 256 {/.notdef} repeat ]", but that

% would require 257 free stack entries. The method used below is more

% pedestrian, but also more robust.

%



/Encoding 256 array def

0 1 255 { Encoding exch /.notdef put } for



Encoding

dup (d) 0 get /DEC-logo put		% (d) gives logo

dup (t) 0 get /smalltrademark put	% (t) gives small trademark

    (T) 0 get /largetrademark put	% (T) gives large trademark



/Work 15 dict def			% for doing work in font.



/BuildChar {

    exch begin				% Use the font dictionary

	Work begin

	    Encoding exch get		% Look up the character name

	    load			% Pull out the procedure

	    exec			% Run it.

	    end				% Work

	end				% fontdict

    } def



Work begin



/.notdef {} def



%

% - `DEC-logo' -

%

% Images a DEC logo with the lower left corner at the current origin, with a

% height of one unit, in the current color.

% 

% A tricky compacted string technique is used.

% 



/words {

	0	%  

	moveto	% !

	curveto	% "

	closepath	% #

	lineto	% $

	boxw	% %

	boxstep	% &

	translate	% '

} bind cvlit def

( mr vy! mt rQ h[ kF aw kE" Zw kG T@ q] T@ ~I" T@ AKA Zv AQi ai AQk" h[ AQi m

t AJX mr ADw"# nI AZ[! nI Avp$ |C Avp$ |C ^h$ mk ^h$ mk bl$ l` a` gc \\U _F 

\\U" VR \\T Fa cj Fa ~I" Fa ATf RS A`M `S A`M" e_ A`M je A^W nI AZ["#% !% B\\

P$  B\\P$  $#& '% !% B\\P$  B\\P$  $# ZK ^h! ZK A]p$ hO A]p$ hO ^h$# ZK AfV!

 ZK Au~$ hO Au~$ hO AfV$#& ' l[ AE~! l[ AKe fG AQX `Q AQX" [O AQX S] ANK S] 

?t" S] pa ]A nR `L nR" f_ nR l[ rg l[ yS"#  B\\P!% B\\P$% $  $# ld AWi! kG A

Yn fV A^\\ _b A^\\" T} A^[ FM AXT FM }s" FN hy V{ ax ]r ax" eL aw jl fK lL g

s" lL aN$ lL \\W gM Wg ^w Wg" Wk Wh V{ \\O V{ ^a" HO ^a$ HO WN L| Ld ]~ Lc" 

mN Lc rP RX t[ Td" vP VZ x? [^ x? _a" x? A]p$ le A]p$#& '% !% B\\P$  B\\P$  

$# ZK ^h! ZK A]p$ hO A]p$ hO ^h$# ZK AfV! ZK Au~$ hO Au~$ hO AfV$#& ' dX Aue

! Wa Aue$ Wa A^w$ Pr A^w$ Pr ATT$ Wa ATT$ Wa ld$ Wa d? [Z _B fP _C" kU _C kH

 _A ob _r" ob lz$ lj lZ kq lM jW lP" gj lU dX mR dX rF" dX ATS$ nd ATS$ nd A

^w$ dX A^w$#% !  $  B\\P$% B\\P$#& '  !  B\\P$% B\\P$% $# J{ AIx! V~ AIx$ V~

 APR ZR ASi `f ASi" jj ASj jU AOK jT AId" dF AGI dk AGM [L AEC" OI ABQ Gq }G

 Gp ph" Gq d[ P] ]z ZP ]{" dD ]z fF aE jJ cr" jJ ^z$ yb ^z$ uz dp vw ey vu j

R" vv mn vu AOX vu AOX" vv AVC sX AZH qG A[_" k] A^w d^ A_Q `f A_R" Ru A_P J

z AXU J{ AIx"# jT }j! jT uI$ jT qP ee in \\R im" Wp il UN mC UM qZ" UN ur X{

 yI \\D yq" _U z[ fv |V jT }j"#& '% !% B\\P$  B\\P$  $# ZK ^h! ZK Awb$ hO Aw

b$ hO ^h$#)

/pathstring exch def



/round-to-pixels {

    0 transform

    round exch round exch

    itransform

    pop

    } def



/DEC-logo {

    3.383 0 0 0 3.383 1 setcachedevice

    .0001 .0001 scale



    /boxw 4250 round-to-pixels def

    /boxstep 4950 round-to-pixels def



    pathstring

    {

	dup 62 gt

	{   63 and exch 6 bitshift add }

	{   dup 32 ge

	    {	32 sub words exch get exec }

	    {	pop }

	    ifelse

	    }

	ifelse

	}

    forall



    fill

    } def



%

% pct `trademark' --

%

% Borrow the sans-serif trademark symbol from /Symbol. AFM file says:

%	C 228 ; WX 786 ; N trademarksans ; B 5 293 725 673 ;

% We scale it down to pct percent of the height of the logo and superscript 

% it some, and voila!

%



/trademark {

    /s exch .380 div def

    /w s .725 mul .070 add def

    /u 1 .673 s mul sub def

    w 0 0 u w 1 setcachedevice

    /Symbol findfont s scalefont setfont

    .070 u moveto				% Superscript it

    (\344) show

    } def



% 

% These are two different trademarks (just different sizes).

%



/smalltrademark { .15 trademark } def

/largetrademark { .25 trademark } def



end						% Work dictionary



FontName					% Get the name

currentdict					% Get the font dict

end						% Close up the dict

definefont pop					% Define the font



%%EndFont



/DEC_Logo findfont 24 scalefont setfont

244 52 moveto

(dt) show

 } bind def

 save

%%Page: 1 1



0 657.04 MO
 10.00 /Courier-MCS DPT

 /save-pc$postscript-graphic save def 

56.78 654.59 TR 

 0 95.64 490.16 512.00 div 96.00 mul  sub  2  div  TR 490.16 512.00 div 490.16 512.00 div  SC 

0.00 -1 mul  526.00 -1 mul  TR 

 /showpage {} def /initmatrix {} def /initgraphics {} def /initclip {} def /erasepage {} def /copypage {} def /exitserver {} def /letter {} def /note {} def /legal {} def

%!PS-Adobe-2.0 EPSF-1.2


%%Creator:Cricket Draw 1.1


%%Title:SPD8TOP.ps


%%CreationDate:11/11/88   3:43 PM


%%DocumentFonts: Helvetica


%%BoundingBox:0 526 512 622 


%%Pages:0


%%EndComments


/vmstate save def


/$cricket 210 dict def


$cricket begin 1 -1 scale


0 -622  translate


2 setlinecap


/d /def load def


/b {bind d}bind d


/l {load d}b


/e /exch l


/x {e d}b


/C /closepath l


/CP /currentpoint l


/SH /show l


/g /gsave l


/G /grestore l


/i /if l


/I /ifelse l


/v /getinterval l


/V /putinterval l


/W /stringwidth l


/SG /setgray l


/N /newpath l


/M /moveto l


/L /lineto l


/R /rlineto l


/T /translate l


/D /dup l


/* /mul l


/+ /add l


/- /sub l


/? /div l


/ma {* +}b 


/h {D * e D ma sqrt}d


systemdict D /setpacking known D {/packstate currentpacking d D setpacking}i /pack? x


begin /settransfer load /setscreen load end 


/setscreen x /settransfer x


/dt [ currenttransfer ] cvx d 


/ds [ currentscreen D [ e ] cvx /devSpot x ] cvx d 


/jp {e [ 3 1 roll aload pop counttomark -1 roll aload pop ] cvx}b 


/settransfer {dt jp settransfer}b 


/macvec dup where not { 256 array d 


macvec 0 StandardEncoding


0 128 getinterval putinterval


macvec 16#27 /quotesingle put


macvec 16#60 /grave put


/Adieresis /Aring /Ccedilla /Eacute /Ntilde /Odieresis /Udieresis /aacute


/agrave /acircumflex /adieresis /atilde /aring /ccedilla /eacute /egrave


/ecircumflex /edieresis /iacute /igrave /icircumflex /idieresis /ntilde /oacute


/ograve /ocircumflex /odieresis /otilde /uacute /ugrave /ucircumflex /udieresis


/dagger /degree /cent /sterling /section /bullet /paragraph /germandbls


/registersans /copyrightsans /trademarksans /acute /dieresis /notequal /AE /Oslash


/infinity /plusminus /lessequal /greaterequal /yen /mu /partialdiff /summation


/product /pi /integral /ordfeminine /ordmasculine /Omega /ae /oslash


/questiondown /exclamdown /logicalnot /radical /florin /approxequal /Delta /guillemotleft


/guillemotright /ellipsis /space /Aacute /Atilde /Otilde /OE /oe


/endash /emdash /quotedblleft /quotedblright /quoteleft /quoteright /divide /lozenge


/ydieresis /Ydieresis /fraction /currency /guilsinglleft /guilsinglright /fi /fl


/daggerdbl /periodcentered /quotesinglbase /quotedblbase /perthousand


/Acircumflex /Ecircumflex /Agrave


/Edieresis /Egrave /Iacute /Icircumflex /Idieresis /Igrave /Oacute /Ocircumflex


/apple /Ograve /Uacute /Ucircumflex /Ugrave /dotlessi /circumflex /tilde


/macron /breve /dotaccent /ring /cedilla /hungarumlaut /ogonek /caron


macvec 128 128 v astore pop}{pop pop}I


/ad {+ d}b 


/sd {- d}b 


/td {* d}b 


/dd {? d}b


/c {2 ? e 2 ? e}b 


/n0 {D 0 eq {pop}}b


/m1 matrix d /m2 matrix d /m3 matrix d


/ct 0 d 


/s+ 0 d 


/po 0 d 


/ts 40 string d


/s1 (|______) d


ts 0 s1 V


/sp ( ) d


/SM {/m3 m3 currentmatrix d}b 


/RM {m3 setmatrix}b 


/dpi 72 0 matrix defaultmatrix dtransform h d


/inch {72 *}b


/cm {28.3465 *}b


/pi 3.1415923 d


/fs 256 string d 


/sh {m1 m2 copy 2 3 -1 roll sin put m2 concat}b 


/fc {T n0 {rotate}I scale n0 {sh}I}b 


/a {/ea x /sa x SM -1 * scale 0 0 1 sa ea 2 copy gt {arcn}{arc}I RM}b 


/cn {SM T x1 y1 scale 0 0 1 ct 90 * D 90 + arc /ct ct 1 ad RM}b 


/rr {/y1 x /x1 x /ct 0 d c y1 - /yr x x1 - /xr x N xr yr cn xr neg yr cn xr neg yr neg cn xr yr neg cn C}b 


/dg 


{/lc x clip rotate T /dy x /dx x


0 eq {N 


1 eq {1 10 lc ? 10{log dy * 0 e neg M dx 0 R}for lc 10 gt{dy 0 e neg M dx 0 R}i}


{lc 1 eq {0 0 e neg M dx 0 R}{/st dy lc 1 - dd 0 1 lc 1 - {st * 0 e neg M dx 0 R}for}I}I


stroke}


{1 eq {/st 0 d /inc 10 lc 1 + dd dx dy lt {/rd dx d}{/rd dy d}I


1 1 lc {/di st 1 + log 10 log ? rd td N dx di - dy di - 0 360 a C stroke /st st inc ad}for} 


{dx dy lt {/st dx lc dd}{/st dy lc dd}I lc {N dx dy 0 360 a C stroke /dx dx st sd /dy dy st sd}repeat} I


}I}b


/sb {/ea x /ia x /sa x /yr x /xr x ea sa lt{/ia ia neg d}i N sa ia ea{D /x1 e cos xr td /y1 e sin yr * neg d x1 y1 M 0 0 L}for}b


/bm {/y1 x /x1 x bitgray SG x1 y1 /md where {pop md /invertflag get not}{true}I 


[x1 0 0 y1 0 0] {currentfile picstring readhexstring pop}imagemask}b


/c1 .166667 d /c2 .833333 d /c3 .5 d


/p3 {+ c3 *}b 


/dc{/y2 x /x2 x x0 c1 * x1 c2 ma y0 c1 * y1 c2 ma x1 c2 * x2 c1 ma y1 c2 * y2 c1 ma x1 x2 p3 y1 y2 p3 curveto}b 


/mp {/x0 x1 d /y0 y1 d /x1 x2 d /y1 y2 d}b


/SPOLY_INIT


{/SPOLY_SAVE save d /cls x


/M {2 copy /y0 x /x0 x moveto /M /moveto load d}d


/L {/y1 x /x1 x x0 x1 p3 y0 y1 p3


cls {/yy y1 d /xx x1 d /C {mp xx yy dc systemdict /closepath get exec}d M}


{lineto}I /L {{dc mp}stopped {/L {pop pop}d /noerr false d}i}d}d}d


/SPOLY_END {SPOLY_SAVE restore}b


/ah {g 2 copy T 3 -1 roll - 3 1 roll e - atan rotate os 0 M hl hw R 0 hw 2 * neg R C fill G}b


/da 


{g stroke G 


g currentlinewidth D -10 * D /hl x -2 ? /os x 2 * /hw x /bp x /ep x


.2 setlinewidth 0 setlinejoin 


g flattenpath {}{}{}{} pathforall 


count 8 eq {8 4 roll}i


count 8 gt {count 4 roll mark count 8 - 1 roll cleartomark}i 


count 6 eq {6 2 roll 2 copy 8 2 roll}i


count 4 eq {4 copy}i G


N bp {4 2 roll ah}{pop pop pop pop}I ep {ah}{clear}I G}b 


/tp {sm0 transform}b 


/sfp {} d 


/op {{tp moveto}{tp lineto}{3{tp 6 2 roll}repeat curveto}{C} pathforall sfp stroke}b 


/sm0 matrix d /sm1 matrix d


/so 


{SG /eg x /tg x /yt x /xt x 


xt 0 ne yt 0 ne or {


xt abs yt abs gt {/tt xt abs d}{/tt yt abs d}I


tt 144 gt {/ct dpi 2 dd /sfp{g eofill G}d}


{tt 72 gt {/ct dpi 4 dd /sfp{g eofill G}d}


{/ct dpi 4 dd}I}I


/ig tg eg - ct ? neg d


/x1 xt ct ? neg d /y1 yt ct dd 


1 0 0 1 xt yt sm0 astore pop 


1 0 0 1 x1 y1 neg sm1 astore pop


g op G


1 1 ct{g ig * tg + SG sm0 D sm1 e concatmatrix pop op G}for}i}b


/css {T 0 0 M xsp 0 32 Txt widthshow}b


/sc 


{g /xsp x /tg x /eg x /sg x /y1 x /x1 x /Txt x


/sst dpi 4 dd /y2 y1 sst dd /x2 x1 neg sst dd


eg sg eq {/sg sg .001 sd}i


/ig eg sg - sst ? neg d 


g tg SG x1 y1 neg css 


eg ig + ig sg {SG x2 y2 css}for G 


x2 y2 css G}b 


/gbb {pathbbox /y1 x /x1 x /y2 x /x2 x /x3 x1 x2 sd /y3 y1 y2 sd}b 


/radf 


{/dn dpi 300 ? 8 * 24 ad /ig rg 255 ? dn dd


sg 255 ? SG eoclip gbb 


x2 x3 2 ? + y2 y3 2 ? + T N


x3 y3 h 2 ? D dn ? neg 1 


{0 0 3 -1 roll 0 360 arc C fill currentgray ig + SG}for}b


/dof 


{/ff x 


eoclip 180 - rotate gbb


x1 y1 T 180 rotate x3 y3 scale


0 1 255 {fs e D 255 ? ff rg * sg + round cvi put}for


1 256 8 [1 0 0 256 0 0] fs image}b


/gft {radf {{} dof}{{1 e - 9 * 1 + log 1 e -}dof}}b


/df 


{g 2 copy eq {SG clear fill}{255 * e 255 * e 1 index - /rg x /sg x /gft load e get exec}I G}b 


/oc


{/tl x /ju x /di 0 d 


g flattenpath


{/y1 x /x1 x}{/y2 x /x2 x /dx x2 x1 sd /dy y2 y1 sd /di dx D * dy D ma sqrt di ad /x1 x2 d /y1 y2 d}


{}{/y2 x /x2 x /dx x2 x1 sd /dy y2 y1 sd /di dx D * dy D ma sqrt d}pathforall


ju 0 eq{/po 0 store}i


ju 1 eq{/po di tl - 2 ? store}i


ju 2 eq{/po di tl - store}i G}b


/pt {/FM true d /os x /sr x /os os sr 0 1 v W pop 2 ? ad /pd 0 d /sl os d /ct 0 d g flattenpath {mtp}{ltp}{ctp}{cpp}pathforall G}b


/mtp {/y1 x /x1 x /x2 x1 d /y2 y1 d /ovr FM {os /FM false d}{0}I d x1 y1 transform /cpy x /cpx x}b


/ltp 


{/x3 x1 d /y3 y1 d /y1 x /x1 x /dx x1 x3 sd /dy y1 y3 sd /di dx D * dy D ma sqrt d 


/di 0 ne


{/dsx dx di ? ovr td /dsy dy di ? ovr td x3 dsx + y3 dsy + transform


/cpy x /cpx x /pd pd di ad {sl pd le {ct sr length lt{sch}{exit}I}{/ovr sl pd sd exit}I}loop}i}b


/ctp {}b 


/cpp {x2 y2 ltp x2 y2 mtp}b 


/sch 


{/ch sr ct 1 v d /ct ct 1 ad


/cw ch W pop 2 dd 


g cpx cpy itransform T dy dx atan rotate cw neg 0 M ch SH


ct sr length lt{sr ct 1 v W pop 2 ? 0 rmoveto}i


CP transform /cpy x /cpx x G


/sl sl cw ad /po po cw 2 ma store ct sr length lt{/sl sl sr ct 1 v W pop 2 ? ad}i}b


/cpd {/newslots x D length newslots + dict D 3 1 roll begin {1 index /FID ne {def}i}forall pop pop end}b


/of 


{/ui 0 d 


/pw 1000 24 dd 


/nn x 


/bn x 


ui 0 eq 


{/ui bn findfont


dup /UniqueID known 


{/UniqueID get 1 add}{pop 1}ifelse


def} if


/bfd bn findfont def 


/ct bfd maxlength 1 ad 


bfd /UniqueID known not


{/ct ct 1 ad} if


/ofd ct dict def 


bfd


{ exch dup /FID ne


{exch ofd 3 1 roll put}


{pop pop} ifelse


}forall


ofd /FontName nn put


ofd /PaintType 2 put


ofd /StrokeWidth pw put


ofd /UniqueID ui put


nn ofd definefont pop}b


/uf 


{20 dict begin


/ui x 


e /BaseFont e findfont d


ui 0 eq 


{/ui BaseFont D /UniqueID known 


{/UniqueID get 1 +}{pop 1}I d}i


/FontType 3 d


/Upos BaseFont /FontInfo 2 copy known


{get /UnderlinePosition 2 copy known


{get}{pop pop -100 }I}{ pop pop -100 }I d


/Uwid BaseFont /FontInfo 2 copy known


{get /UnderlineThickness 2 copy known


{get}{pop pop 50}I}


{pop pop 50}I d


/FontMatrix BaseFont /FontMatrix get d


/FontBBox BaseFont /FontBBox get


D 1 get Upos gt {D 1 Upos put}i d


/Encoding BaseFont /Encoding get d


/theChar 1 string d


/BuildChar


{e begin


theChar 0 3 -1 roll put


BaseFont 1000 scalefont setfont


theChar W FontBBox setcachedevice


0 0 M


theChar show


0 Upos rmoveto 0 Upos L


Uwid setlinewidth stroke


end}d


currentdict 


end


definefont pop}b


/ns {g CP m3 currentmatrix nulldevice setmatrix T 0 0 M Txt CP pop G}b 


/ft {/ftsave save d CP 3 1 roll + e T 0 0 M /show /myshow l Txt ftsave restore}b 


/ls {/Txt x 0 ft}b 


/cs {/Txt x ns 2 ? neg ft}b 


/rs {/Txt x ns neg ft}b 


/slp {/sproc x /sr x 0 1 sr length 1 - {sr e 1 v sproc}for}b 


/ss 


{/Txt x /fsave save d


CP 2 copy T 0 0 M 


/ffsave save d pop - /lw x ns /tw x /wsp lw tw sd /nsp 0 d


/show {nsp e {sp eq {1 +}i}slp /nsp x}b 


Txt 0 nsp 0 gt {wsp nsp ? +}i ffsave restore /s+ x


/myshow load D systemdict /show get ne


{D D length 1 - get cvlit /charshadow eq {[ e aload pop e pop s+ e ] cvx}i}


{pop {s+ 0 32 4 -1 roll widthshow}}I


/show x Txt fsave restore}b


/cf{D /fn x length 7 + string /ts x ts 0 s1 V ts 7 fn V /fnm ts cvn d 


FontDirectory fnm known not {fn cvn findfont 0 cpd /nfd x nfd D /FontName fnm put /Encoding macvec put fnm nfd definefont pop}i}b


 


/JoinProcs {jp}d


/fixcoordinates {fc}d


/doarc {a}d


/doroundrect {rr}d


/dograte {dg}d


/dorgrate {drg}d


/pathoffset {po}d


/pathtext {pt}d


/dostarburst {sb}d


/dobitmap {bm}d


/strokearrow {da}d


/shadow {so}d


/charshadow {sc}d


/fountain {df}d


/offsetcalc {oc}d


/MakeOutlineFont {of}d


/MakeUnderlineFont {uf}d


/leftshow {ls}d


/rightshow {rs}d


/centershow {cs}d


/fullshow {ss}d


/coordinatefont {cf}d


 


 


%-----------------------------------


%Encode PS Fonts to match Mac Fonts


(Helvetica) coordinatefont


%-----------------------------------





%----- Begin Main Program -----%





gsave % Line


0.000 1  1  0.000 257.501 84.999  fixcoordinates


newpath


-250.501 0.000  moveto


250.501 0.000 lineto


6.000 setlinewidth 0 setgray stroke


grestore





gsave  % Text Block


0.000 1  -1  0.000 108.999 47.499  fixcoordinates


/myshow /show load def


0 setgray 


-106 25 moveto


/|______Helvetica findfont 24 scalefont setfont


{


(Software) show


} leftshow


-106 0 moveto


{


(Product) show


} leftshow


-106 -25 moveto


{


(Description) show


} leftshow


grestore





%------ End Main Program ------%





end


vmstate restore





%%Trailer





%%Pages:1







 save-pc$postscript-graphic restore



0 638.54 MO
 60.00 0 RM 9.00 /Helvetica-Bold-DPMCS DPT

 (PRODUCT NAME:) 3.60 DPJ

0 638.54 MO
 146.59 0 RM 12.00 /Helvetica-Bold-DPMCS DPT

 (VAX) 33.00 DPJ 3.60 0 RM (Software) 33.00 DPJ 3.60 0 RM (Performance) 33.00 DPJ 3.60 0 RM (Monitor,) 33.00 DPJ 117.60 0 RM (SPD) 33.00 DPJ 3.60 0 RM (27.56.09) 33.00 DPJ

0 624.54 MO
 146.59 0 RM (Version) 338.72 DPJ 3.60 0 RM (3.4) 338.72 DPJ

0 599.04 MO
 60.00 0 RM 9.00 /Helvetica-Bold-DPMCS DPT

 (DESCRIPTION) 338.72 DPJ

0 599.04 MO
 312.00 0 RM 9.00 /Helvetica-DPMCS DPT

 (\223) 338.72 DPJ

0 599.04 MO
 324.37 0 RM 9.00 /Helvetica-DPMCS DPT

 (A REPORT and GRAPH component containing a level) 2.86 DPJ

0 589.04 MO
 324.37 0 RM (of detail necessary to quantify system resource utiliza-) 3.01 DPJ

0 581.04 MO
 60.00 0 RM (VAX Software Performance Monitor \(VAX SPM\) is a soft-) 3.05 DPJ

0 579.04 MO
 324.37 0 RM (tion \(CPU, memory and I/O\) and identify system per-) 3.76 DPJ

0 571.04 MO
 60.00 0 RM (ware performance management facility for VAX and) 6.82 DPJ

0 569.04 MO
 324.37 0 RM (formance bottlenecks. Proper analysis of these may) 4.67 DPJ

0 561.04 MO
 60.00 0 RM (VAXcluster systems. VAX SPM can collect, archive,) 6.74 DPJ

0 559.04 MO
 324.37 0 RM (reveal under utilized resources that can be traded) 5.65 DPJ

0 551.04 MO
 60.00 0 RM (display, analyze, report and graph performance informa-) 3.82 DPJ

0 549.04 MO
 324.37 0 RM (against a bottleneck. Graphs and reports of data col-) 3.75 DPJ

0 541.04 MO
 60.00 0 RM (tion useful in system tuning, trend analysis and workload) 3.36 DPJ

0 539.04 MO
 324.37 0 RM (lected over long periods of time show long-term trends) 2.88 DPJ

0 531.04 MO
 60.00 0 RM (forecasting. This information includes resource utilization) 3.68 DPJ

0 529.04 MO
 324.37 0 RM (in resource utilization. These are helpful in planning) 4.57 DPJ

0 521.04 MO
 60.00 0 RM (and load balance data for single node, multi-CPU, and) 4.48 DPJ

0 519.04 MO
 324.37 0 RM (future hardware acquisitions.) 3.60 DPJ

0 511.04 MO
 60.00 0 RM (VAXcluster systems. VAX SPM software is designed for) 3.84 DPJ

0 501.54 MO
 312.00 0 RM 9.00 /Helvetica-DPMCS DPT

 (\223) 3.84 DPJ

0 501.54 MO
 324.37 0 RM 9.00 /Helvetica-DPMCS DPT

 (A CHARGE component that generates a report of) 5.65 DPJ

0 501.04 MO
 60.00 0 RM (use by system managers and system programmers.) 3.60 DPJ

0 491.54 MO
 324.37 0 RM (charges based upon system and resource utilization) 4.50 DPJ

0 483.04 MO
 60.00 0 RM 9.00 /Helvetica-Oblique-DPMCS DPT

 (VAX SPM Collector Facility provides:) 3.60 DPJ

0 481.54 MO
 324.37 0 RM 9.00 /Helvetica-DPMCS DPT

 (with user specified resource pricing.) 3.60 DPJ

0 463.79 MO
 312.00 0 RM 9.00 /Helvetica-DPMCS DPT

 (\223) 3.60 DPJ

0 463.79 MO
 324.37 0 RM 9.00 /Helvetica-DPMCS DPT

 (A SYSTEM PC component that delineates CPU) 7.42 DPJ

0 462.04 MO
 60.00 0 RM 9.00 /Helvetica-DPMCS DPT

 (\223) 7.42 DPJ

0 462.04 MO
 72.37 0 RM 9.00 /Helvetica-DPMCS DPT

 (A flexible facility for collecting and archiving perform-) 3.94 DPJ

0 453.79 MO
 324.37 0 RM (usage.) 3.94 DPJ

0 452.04 MO
 72.37 0 RM (ance data. Data may be collected using a variety of) 4.22 DPJ

0 442.04 MO
 72.37 0 RM (user-specified qualifiers and parameters. The user can) 2.84 DPJ

0 436.04 MO
 312.00 0 RM 9.00 /Helvetica-DPMCS DPT

 (\223) 2.84 DPJ

0 436.04 MO
 324.37 0 RM 9.00 /Helvetica-DPMCS DPT

 (A DISK ANALYSIS component that describes disk) 5.75 DPJ

0 432.04 MO
 72.37 0 RM (start and stop data collection for all nodes in a) 6.56 DPJ

0 426.04 MO
 324.37 0 RM (volume utilization and identifies files contributing to) 5.42 DPJ

0 422.04 MO
 72.37 0 RM (VAXcluster or from remote nodes in a distributed) 6.15 DPJ

0 416.04 MO
 324.37 0 RM (disk fragmentation.) 3.60 DPJ

0 412.04 MO
 72.37 0 RM (system from a single terminal, and archive all the per-) 3.17 DPJ

0 402.04 MO
 72.37 0 RM (formance data into a single history file. Note that a) 4.67 DPJ

0 398.54 MO
 312.00 0 RM 9.00 /Helvetica-DPMCS DPT

 (\223) 4.67 DPJ

0 398.54 MO
 324.37 0 RM 9.00 /Helvetica-DPMCS DPT

 (A HOT FILES component that provides detailed file) 4.72 DPJ

0 392.04 MO
 72.37 0 RM (VAX SPM or VAX SPM Collector License is required) 3.82 DPJ

0 388.54 MO
 324.37 0 RM (level statistics necessary for disk load balancing.) 3.60 DPJ

0 382.04 MO
 72.37 0 RM (for each node where data is collected. If data is col-) 3.95 DPJ

0 372.04 MO
 72.37 0 RM (lected utilizing the VAX SPM Collector Facility, a Full) 3.76 DPJ

0 370.79 MO
 312.00 0 RM 9.00 /Helvetica-DPMCS DPT

 (\223) 3.76 DPJ

0 370.79 MO
 324.37 0 RM 9.00 /Helvetica-DPMCS DPT

 (An EVENT TRACE component that is suitable for col-) 3.25 DPJ

0 362.04 MO
 72.37 0 RM (Function VAX SPM License is required for analysis,) 4.51 DPJ

0 360.79 MO
 324.37 0 RM (lecting "custom" performance data and testing the per-) 2.88 DPJ

0 352.04 MO
 72.37 0 RM (reporting or display.) 3.60 DPJ

0 350.79 MO
 324.37 0 RM (formance of system software.) 3.60 DPJ

0 334.04 MO
 60.00 0 RM 9.00 /Helvetica-Oblique-DPMCS DPT

 (Full VAX SPM Facility provides:) 3.60 DPJ

0 333.04 MO
 312.00 0 RM 9.00 /Helvetica-Bold-DPMCS DPT

 (Features) 3.60 DPJ

0 316.04 MO
 60.00 0 RM 9.00 /Helvetica-DPMCS DPT

 (The Collector facility and diagnostic tools that include:) 3.60 DPJ

0 315.54 MO
 312.00 0 RM 9.00 /Helvetica-Oblique-DPMCS DPT

 (System Tuning) 3.60 DPJ

0 298.04 MO
 60.00 0 RM 9.00 /Helvetica-DPMCS DPT

 (\223) 3.60 DPJ

0 298.04 MO
 72.37 0 RM 9.00 /Helvetica-DPMCS DPT

 (A knowledge based interactive ANALYZER which) 6.91 DPJ

0 297.79 MO
 312.00 0 RM (VAX SPM collects, analyzes and reports performance) 5.48 DPJ

0 288.04 MO
 72.37 0 RM (detects and analyzes performance bottlenecks from) 5.21 DPJ

0 287.79 MO
 312.00 0 RM (data pertinent to analyzing and tuning a VAX system.) 5.04 DPJ

0 278.04 MO
 72.37 0 RM (data collected by the VAX SPM collector. The) 7.93 DPJ

0 277.79 MO
 312.00 0 RM (This includes: system configuration data, system parame-) 2.90 DPJ

0 268.04 MO
 72.37 0 RM (Analyzer's knowledge is gathered from VMS perform-) 3.59 DPJ

0 267.79 MO
 312.00 0 RM (ters, resource utilization statistics for CPU, I/O and) 6.92 DPJ

0 258.04 MO
 72.37 0 RM (ance analysts and is organized into decision trees.) 3.60 DPJ

0 257.79 MO
 312.00 0 RM (memory \(including swapping, paging and modified page) 4.07 DPJ

0 247.79 MO
 312.00 0 RM (writing\), devices, scheduling, locking, file system, lock) 5.49 DPJ

0 240.04 MO
 60.00 0 RM 9.00 /Helvetica-DPMCS DPT

 (\223) 5.49 DPJ

0 240.04 MO
 72.37 0 RM 9.00 /Helvetica-DPMCS DPT

 (VIDEO DISPLAYS which dynamically show a variety) 4.18 DPJ

0 237.79 MO
 312.00 0 RM (manager, SCS data and process statistics. The user can) 3.36 DPJ

0 230.04 MO
 72.37 0 RM (of performance statistics using bar charts, Kiviat plots) 3.51 DPJ

0 227.79 MO
 312.00 0 RM (specify start and stop time, sample interval and the) 6.17 DPJ

0 220.04 MO
 72.37 0 RM (and numerical data. These can display data for a) 5.63 DPJ

0 217.79 MO
 312.00 0 RM (node\(s\) for which to collect data, in addition to specific) 4.32 DPJ

0 210.04 MO
 72.37 0 RM (single node or summary information for all nodes or) 4.32 DPJ

0 207.79 MO
 312.00 0 RM (data items. Reports present the data in both tabular and) 3.54 DPJ

0 200.04 MO
 72.37 0 RM (accessible disks \(up to eight concurrently\) in a) 7.58 DPJ

0 197.79 MO
 312.00 0 RM (graphic format \(plotted against time\).) 3.60 DPJ

0 190.04 MO
 72.37 0 RM (VAXcluster system. The latter is particularly useful for) 3.44 DPJ

0 180.04 MO
 72.37 0 RM (balancing the workload across several nodes or disks.) 3.07 DPJ

0 180.04 MO
 312.00 0 RM (The Analyzer provides the ability to select a range of) 5.04 DPJ

0 170.04 MO
 72.37 0 RM (Single node data may be displayed for the currently) 4.31 DPJ

0 170.04 MO
 312.00 0 RM (VAX SPM collected data for input to the Analyzer, and) 4.32 DPJ

0 160.04 MO
 72.37 0 RM (running system or played back from a log file;) 7.32 DPJ

0 160.04 MO
 312.00 0 RM (the ability to step through the analysis displaying the) 5.48 DPJ

0 150.04 MO
 72.37 0 RM (VAXcluster system data must be from the currently) 4.94 DPJ

0 150.04 MO
 312.00 0 RM (results of each test and conclusion. The Analyzer pro-) 4.67 DPJ

0 140.04 MO
 72.37 0 RM (running system or history files.) 3.60 DPJ

0 140.04 MO
 312.00 0 RM (vides the ability to both display and change the perform-) 3.48 DPJ

0 98.54 MO


0 88.54 MO


0 78.54 MO
 496.78 0 RM 9.00 /Helvetica-Bold-DPMCS DPT

 (March) 439.48 DPJ 2.70 0 RM (1990) 439.48 DPJ

0 68.54 MO
 489.49 0 RM (AE-R419J-TE) 439.48 DPJ

0 58.54 MO


0 48.54 MO


0 38.54 MO


0 28.54 MO


0 18.54 MO


0 8.54 MO
 60.00 0 RM %%LOGO8

 LOGO8

0 8.54 MO
 0 -84.00 RM

 showpage

 restore

 save

%%Page: 2 2



0 746.54 MO
 60.00 0 RM 9.00 /Helvetica-Bold-DPMCS DPT

 (VAX) 71.36 DPJ 2.70 0 RM (Software) 71.36 DPJ 2.70 0 RM (Performance) 71.36 DPJ 2.70 0 RM (Monitor,) 71.36 DPJ 274.64 0 RM (SPD) 71.36 DPJ 2.70 0 RM (27.56.09) 71.36 DPJ

0 736.54 MO
 60.00 0 RM (Version) 440.48 DPJ 2.70 0 RM (3.4) 440.48 DPJ

0 710.54 MO
 60.00 0 RM 9.00 /Helvetica-DPMCS DPT

 (ance thresholds that were used to reach its conclusions.) 3.55 DPJ

0 710.54 MO
 312.00 0 RM 9.00 /Helvetica-Oblique-DPMCS DPT

 (Charge) 3.55 DPJ

0 700.54 MO
 60.00 0 RM 9.00 /Helvetica-DPMCS DPT

 (The user can further alter the decisions of the Analyzer to) 2.84 DPJ

0 693.04 MO
 312.00 0 RM (The Charge component reads multiple VMS accounting) 4.32 DPJ

0 690.54 MO
 60.00 0 RM (explore different possibilities based upon experience with) 3.23 DPJ

0 683.04 MO
 312.00 0 RM (files and a disk usage file to generate a single report of) 3.76 DPJ

0 680.54 MO
 60.00 0 RM (the system workload.) 3.60 DPJ

0 673.04 MO
 312.00 0 RM (the system's resource utilization. It shows the amounts) 4.56 DPJ

0 665.54 MO
 60.00 0 RM (The Analyzer also provides the ability to request more) 4.67 DPJ

0 663.04 MO
 312.00 0 RM (and monetary values of the resources consumed by each) 2.92 DPJ

0 655.54 MO
 60.00 0 RM (information on how and from what VAX SPM data it) 5.49 DPJ

0 653.04 MO
 312.00 0 RM (user on the system. The report shows quantity of re-) 5.15 DPJ

0 645.54 MO
 60.00 0 RM (reached its conclusion, and includes references to the) 4.98 DPJ

0 643.04 MO
 312.00 0 RM (sources consumed, unit prices charged for each resource) 2.91 DPJ

0 635.54 MO
 60.00 0 RM (VAX SPM reports. The Analyzer produces a report con-) 3.80 DPJ

0 633.04 MO
 312.00 0 RM (and the total price charged for that resource. The report) 3.71 DPJ

0 625.54 MO
 60.00 0 RM (taining either a suggestion for improvement or simply a) 4.18 DPJ

0 623.04 MO
 312.00 0 RM (prices and comment information are specified by the) 5.84 DPJ

0 615.54 MO
 60.00 0 RM (report that indicates no problem was found during the) 4.92 DPJ

0 613.04 MO
 312.00 0 RM (user.) 4.92 DPJ

0 605.54 MO
 60.00 0 RM (selected analysis period. This report also contains) 7.98 DPJ

0 595.54 MO
 60.00 0 RM (changes and decision modifications the user applied.) 3.60 DPJ

0 595.29 MO
 312.00 0 RM 9.00 /Helvetica-Oblique-DPMCS DPT

 (Planning for Continued System Growth) 3.60 DPJ

0 580.54 MO
 60.00 0 RM 9.00 /Helvetica-DPMCS DPT

 (The VAX SPM video displays are designed to help the) 4.26 DPJ

0 577.54 MO
 312.00 0 RM (VAX SPM collects and reports information useful to a) 5.05 DPJ

0 570.54 MO
 60.00 0 RM (user investigate performance problems on single proces-) 3.40 DPJ

0 567.54 MO
 312.00 0 RM (data operations manager in planning for additional hard-) 3.69 DPJ

0 560.54 MO
 60.00 0 RM (sors and VAXcluster systems. There are single node) 5.70 DPJ

0 557.54 MO
 312.00 0 RM (ware. Data can be archived in a history file which takes) 3.79 DPJ

0 550.54 MO
 60.00 0 RM (displays for system overview, memory, CPU, I/O and) 5.56 DPJ

0 547.54 MO
 312.00 0 RM (less disk space than the original log file\(s\). The data can) 3.29 DPJ

0 540.54 MO
 60.00 0 RM (load balance. Once a video display begins, subcom-) 5.91 DPJ

0 537.54 MO
 312.00 0 RM (be kept for a long period of time \(e.g., months or years\)) 3.62 DPJ

0 530.54 MO
 60.00 0 RM (mands may be issued to control the display and its char-) 3.24 DPJ

0 527.54 MO
 312.00 0 RM (and retrieved and printed in reports showing long term) 4.55 DPJ

0 520.54 MO
 60.00 0 RM (acteristics including: select displayed processes - top 12) 3.70 DPJ

0 517.54 MO
 312.00 0 RM (trends of resource utilizations and system behavior.) 6.98 DPJ

0 510.54 MO
 60.00 0 RM (by node, direct I/O, buffered I/O, page fault, or working) 4.15 DPJ

0 507.54 MO
 312.00 0 RM (Information similar to that used for system tuning is kept) 3.54 DPJ

0 500.54 MO
 60.00 0 RM (set size; change scaling factor; and viewing time. For) 5.11 DPJ

0 497.54 MO
 312.00 0 RM (for long term trend analysis, although typically with a) 5.42 DPJ

0 490.54 MO
 60.00 0 RM (each node \(up to eight concurrently\), VAXcluster system) 3.56 DPJ

0 487.54 MO
 312.00 0 RM (longer sample interval.) 3.60 DPJ

0 480.54 MO
 60.00 0 RM (displays show: hard and soft page faults, system and) 5.11 DPJ

0 470.54 MO
 60.00 0 RM (task CPU time, memory and CPU utilization, and I/O rate.) 2.82 DPJ

0 470.04 MO
 312.00 0 RM 9.00 /Helvetica-Bold-DPMCS DPT

 (HARDWARE REQUIREMENTS) 3.60 DPJ

0 455.54 MO
 60.00 0 RM 9.00 /Helvetica-DPMCS DPT

 (For each accessible disk \(up to eight concurrently\), the) 4.24 DPJ

0 452.29 MO
 312.00 0 RM (VAX, MicroVAX or VAXstation configuration as specified) 3.73 DPJ

0 445.54 MO
 60.00 0 RM (display shows the I/O rate and disk's response time.) 5.55 DPJ

0 442.29 MO
 312.00 0 RM (in the System Support Addendum \(SSA 27.56.09-x\).) 3.60 DPJ

0 435.54 MO
 60.00 0 RM (Multi-color displays are produced if an appropriate color) 3.99 DPJ

0 425.54 MO
 60.00 0 RM (terminal or monitor is used. The displays can be printed) 3.71 DPJ

0 424.54 MO
 312.00 0 RM 9.00 /Helvetica-Bold-DPMCS DPT

 (SOFTWARE REQUIREMENTS) 3.60 DPJ

0 415.54 MO
 60.00 0 RM 9.00 /Helvetica-DPMCS DPT

 (\(monochrome\) on an appropriate external graphics capa-) 3.23 DPJ

0 407.04 MO
 312.00 0 RM (VMS Operating System) 3.60 DPJ

0 405.54 MO
 60.00 0 RM (ble printer \(e.g., LA75\).) 3.60 DPJ

0 390.54 MO
 60.00 0 RM (The System PC component shows where CPU time is) 4.61 DPJ

0 389.29 MO
 312.00 0 RM (Refer to the System Support Addendum ) 9.15 DPJ 9.00 0 RM 9.00 /Helvetica-DPMCS DPT

 (\() 9.15 DPJ 9.00 /Helvetica-DPMCS DPT

 (SSA) 9.15 DPJ

0 380.54 MO
 60.00 0 RM (spent on a single node. The program counter and proc-) 3.82 DPJ

0 379.29 MO
 312.00 0 RM (27.56.09-x\) for availability and required versions of) 7.57 DPJ

0 370.54 MO
 60.00 0 RM (essor status longword are sampled and recorded in a log) 3.10 DPJ

0 369.29 MO
 312.00 0 RM (prerequisite/optional software.) 3.60 DPJ

0 360.54 MO
 60.00 0 RM (file. Reports delineate CPU usage by system/process ad-) 3.06 DPJ

0 351.79 MO
 312.00 0 RM 9.00 /Helvetica-Bold-DPMCS DPT

 (ORDERING INFORMATION) 3.60 DPJ

0 350.54 MO
 60.00 0 RM 9.00 /Helvetica-DPMCS DPT

 (dress space, access mode, IPL, system module, device) 3.98 DPJ

0 340.54 MO
 60.00 0 RM (driver and user process.) 3.60 DPJ

0 334.04 MO
 312.00 0 RM 9.00 /Helvetica-Oblique-DPMCS DPT

 (Full VAX SPM Facility) 3.60 DPJ

0 325.54 MO
 60.00 0 RM 9.00 /Helvetica-DPMCS DPT

 (The Event Trace component is suitable for collecting per-) 3.05 DPJ

0 316.29 MO
 312.00 0 RM (Software Licenses: QL-850A*-**) 3.60 DPJ

0 315.54 MO
 60.00 0 RM (formance data beyond the standard VAX SPM data. The) 3.36 DPJ

0 306.29 MO
 312.00 0 RM (Software Media: QA-850A*-**) 3.60 DPJ

0 305.54 MO
 60.00 0 RM (user defines trace points within the VMS Executive and) 4.05 DPJ

0 296.29 MO
 312.00 0 RM (Software Documentation: QA-850AA-GZ) 3.60 DPJ

0 295.54 MO
 60.00 0 RM (writes a data collector using subroutines supplied by the) 3.61 DPJ

0 286.29 MO
 312.00 0 RM (Software Product Services: QT-850A*-**) 3.60 DPJ

0 285.54 MO
 60.00 0 RM (component. This component also provides buffer and) 5.81 DPJ

0 275.54 MO
 60.00 0 RM (record management routines and is particularly suited to) 3.63 DPJ

0 268.79 MO
 312.00 0 RM 9.00 /Helvetica-Oblique-DPMCS DPT

 (VAX SPM Collector) 3.60 DPJ

0 265.54 MO
 60.00 0 RM 9.00 /Helvetica-DPMCS DPT

 (testing the performance of system software \(e.g., a user) 3.67 DPJ

0 255.54 MO
 60.00 0 RM (written system service or device driver\).) 3.60 DPJ

0 251.04 MO
 312.00 0 RM (Software Licenses: QL-VUPA*-**) 3.60 DPJ

0 241.04 MO
 312.00 0 RM (Software Media: QA-VUPA*-**) 3.60 DPJ

0 240.54 MO
 60.00 0 RM 9.00 /Helvetica-Oblique-DPMCS DPT

 (Disk Analysis) 3.60 DPJ

0 231.04 MO
 312.00 0 RM 9.00 /Helvetica-DPMCS DPT

 (Software Documentation: QA-VUPAA-GZ) 3.60 DPJ

0 225.54 MO
 60.00 0 RM (This component provides detailed usage information for) 4.23 DPJ

0 221.04 MO
 312.00 0 RM (Software Product Services: QT-VUPA*-**) 3.60 DPJ

0 215.54 MO
 60.00 0 RM (ODS-2 disk volumes: volume attributes, the amount of) 4.84 DPJ

0 205.54 MO
 60.00 0 RM (allocated and free space as well as an indication of how) 3.49 DPJ

0 200.79 MO
 312.00 0 RM (*) 3.49 DPJ

0 200.79 MO
 324.37 0 RM (Denotes variant fields. For additional information on) 4.84 DPJ

0 195.54 MO
 60.00 0 RM (fragmented it is, and a list of files with extension headers.) 2.89 DPJ

0 190.79 MO
 324.37 0 RM (available licenses, services and media, refer to the) 5.08 DPJ

0 180.79 MO
 324.37 0 RM (appropriate price book.) 3.60 DPJ

0 180.54 MO
 60.00 0 RM 9.00 /Helvetica-Oblique-DPMCS DPT

 (Hot Files) 3.60 DPJ

0 165.54 MO
 60.00 0 RM 9.00 /Helvetica-DPMCS DPT

 (This component provides a real time video display of) 5.30 DPJ

0 163.29 MO
 312.00 0 RM 9.00 /Helvetica-Bold-DPMCS DPT

 (SOFTWARE LICENSING) 3.60 DPJ

0 155.54 MO
 60.00 0 RM 9.00 /Helvetica-DPMCS DPT

 (detailed file statistics showing which files are being ac-) 4.36 DPJ

0 145.54 MO
 60.00 0 RM (cessed the most. The video display also includes the) 5.24 DPJ

0 145.54 MO
 312.00 0 RM (This software is furnished under the licensing provisions) 3.77 DPJ

0 135.54 MO
 60.00 0 RM (percent of I/Os that were read for these files. This com-) 3.74 DPJ

0 135.54 MO
 312.00 0 RM (of Digital Equipment Corporation's Standard Terms and) 4.32 DPJ

0 125.54 MO
 60.00 0 RM (ponent is particularly suited to the location of the files) 4.82 DPJ

0 125.54 MO
 312.00 0 RM (Conditions. For more information about Digital's licensing) 3.24 DPJ

0 115.54 MO
 60.00 0 RM (which may be moved to alleviate a disk bottleneck.) 3.60 DPJ

0 115.54 MO
 312.00 0 RM (terms and policies, contact your local Digital office.) 3.60 DPJ

0 26.54 MO
 295.99 0 RM 9.00 /Helvetica-Bold-DPMCS DPT

 (2) 3.60 DPJ

 showpage

 restore

 save

%%Page: 3 3



0 746.54 MO
 60.00 0 RM 9.00 /Helvetica-Bold-DPMCS DPT

 (VAX) 71.36 DPJ 2.70 0 RM (Software) 71.36 DPJ 2.70 0 RM (Performance) 71.36 DPJ 2.70 0 RM (Monitor,) 71.36 DPJ 274.65 0 RM (SPD) 71.36 DPJ 2.70 0 RM (27.56.09) 71.36 DPJ

0 736.54 MO
 60.00 0 RM (Version) 440.47 DPJ 2.70 0 RM (3.4) 440.47 DPJ

0 710.54 MO
 60.00 0 RM (LICENSE MANAGEMENT FACILITY SUPPORT) 3.60 DPJ

0 710.54 MO
 312.00 0 RM 9.00 /Helvetica-DPMCS DPT

 (For more information about Digital's licensing terms and) 3.85 DPJ

0 700.54 MO
 312.00 0 RM (policies, contact your local Digital office.) 3.60 DPJ

0 694.79 MO
 60.00 0 RM (This layered product supports the VMS License) 9.65 DPJ

0 684.79 MO
 60.00 0 RM (Management Facility.) 3.60 DPJ

0 683.79 MO
 312.00 0 RM 9.00 /Helvetica-Bold-DPMCS DPT

 (SOFTWARE PRODUCT SERVICES) 3.60 DPJ

0 669.29 MO
 60.00 0 RM 9.00 /Helvetica-DPMCS DPT

 (License units for this product are allocated on a CPU-) 4.60 DPJ

0 667.04 MO
 312.00 0 RM (A variety of service options are available from Digital. For) 2.99 DPJ

0 659.29 MO
 60.00 0 RM (capacity basis.) 3.60 DPJ

0 657.04 MO
 312.00 0 RM (more information, contact your local Digital office.) 3.60 DPJ

0 643.54 MO
 60.00 0 RM (For more information on the License Management) 7.90 DPJ

0 640.29 MO
 312.00 0 RM 9.00 /Helvetica-Bold-DPMCS DPT

 (SOFTWARE WARRANTY) 3.60 DPJ

0 633.54 MO
 60.00 0 RM 9.00 /Helvetica-DPMCS DPT

 (Facility, refer to the VMS Operating System Software) 5.49 DPJ

0 623.54 MO
 312.00 0 RM (Warranty for this software product is provided by Digital) 3.93 DPJ

0 623.54 MO
 60.00 0 RM (Product Description \(SPD 25.01.xx\) or the License) 7.65 DPJ

0 613.54 MO
 312.00 0 RM (with the purchase of a license for the product as defined) 3.39 DPJ

0 613.54 MO
 60.00 0 RM (Management Facility manual of the VMS Operating) 7.15 DPJ

0 603.54 MO
 312.00 0 RM (in the Software Warranty Addendum of this SPD.) 3.60 DPJ

0 603.54 MO
 60.00 0 RM (System documentation set.) 3.60 DPJ

0 590.79 MO
 60.00 0 RM 7.00 /Helvetica-DPMCS DPT

 (__________________) 3.60 DPJ

0 576.79 MO
 0 4.00 RM 0 -4.00 RM

0 576.79 MO
 72.00 0 RM 7.00 /Symbol DPT

 (\342) 2.80 DPJ 7.00 /Helvetica-DPMCS DPT

 ( The DIGITAL Logo is a registered trademark of Digital Equipment Corporation.) 2.80 DPJ

0 568.79 MO
 72.00 0 RM 7.00 /Symbol DPT

 (\344) 2.80 DPJ 7.00 /Helvetica-DPMCS DPT

 ( MicroVAX, PRO, VAX, VAX SPM, VAXstation, VAXserver, VMS, and VT are trademarks of Digital Equipment Corporation.) 2.80 DPJ

0 26.54 MO
 295.99 0 RM 9.00 /Helvetica-Bold-DPMCS DPT

 (3) 2.80 DPJ 0 -36.00 RM

 showpage

 restore

%%Trailer

%%Pages: 3

%%DocumentFonts: Courier-MCS %LOGO8 Helvetica-DPMCS Helvetica-Bold-DPMCS Helvetica-Oblique-DPMCS Symbol 

%!Font Name                     Font No   Charset

%!/Courier-MCS                  1         ASCII

%!%%LOGO8                       108       ASCII

%!/Helvetica-DPMCS              200       ASCII

%!/Helvetica-Bold-DPMCS         220       ASCII

%!/Helvetica-Oblique-DPMCS      240       ASCII

%!/Symbol                       5         PUBL

%!/Helvetica-DPMCS              200       PUBL


