%!PS-Adobe-1.0

%%Title: GEM03D$:[DUNNIGAN.WPSPLUS]000277SPD8.TMS;1

%%Creator: DECpage V3.0

%%CreationDate: 26-DEC-1989 11:21:16.70

%%Pages: (at end)

%%DocumentFonts: (atend)

%%EndComments

statusdict begin 0 setjobtimeout end

/CF /currentfont load def

/CP /currentpoint load def

/FF /findfont load def

/GR /grestore load def 

/GS /gsave load def

/LI /lineto load def

/MF /makefont load def 

/MO /moveto load def

/RL /rlineto load def

/RM /rmoveto load def

/RO /rotate load def

/SC /scale load def

/SD /setdash load def

/SE /setfont load def

/SF /scalefont load def

/SH /show load def

/ST /stroke load def

/SW /setlinewidth load def

/TR /translate load def



/BD {bind def} bind def

/DPT {FF exch SF SE}BD

/HTD{/ht exch def pop pop pop}BD

/MTCFP{false charpath flattenpath pathbbox}BD

/TCFP{true charpath flattenpath pathbbox}BD

  

% partial line up

/PLU {

 /CURSCAL CF /FontMatrix get 3 get 1000 mul def

  0 CURSCAL .5 mul RM

}BD

  

% partial line down

/PLD {

 /CURSCAL CF /FontMatrix get 3 get 1000 mul def

 0 CURSCAL -0.5 mul RM

}BD

  

/SavedX 0 def  

/SavedY 0 def  

/SavedString () def

/ShowInit

    {CP /SavedY exch def /SavedX exch def}BD

/bold

    {dup /SavedString exch def

    400 CF /FontMatrix get 3 get mul -12000 div 0 RM SH

    SavedX SavedY MO

    800 CF /FontMatrix get 3 get mul -12000 div 0 RM 

    SavedString SH

    SavedX SavedY MO

    SavedString SH

    }BD

/D1 

    {ShowInit bold}BD



% show string bold

/DPJB{

 /st 1 string def 

 /x exch def

 {st 0 3 -1 roll put st ( ) eq{x 0 RM}{st D1}ifelse}forall

}BD

% show string

/DPJ{( ) stringwidth pop sub 0 32 4 -1 roll widthshow}BD  



/DPF1

    {CP TR

    .5 .5 SC

    0 .6 DPFX mul MO SH

    .6 DPFX mul 0 MO SH

    0 0 MO 1.2 DPFX mul 1.2 DPFX mul LI ST

    GR

    .6 DPFX mul 0 RM

    }BD

  

% show fraction mono

/MDPF

    {exch

    GS

    /DPFX CF /FontMatrix get 3 get def

    DPF1

    }BD

/DPF1B

    {CP TR

    .5 .5 SC

    0 .6 DPFX mul MO D1

    .6 DPFX mul 0 MO D1

    0 0 MO 1.2 DPFX mul 1.2 DPFX mul LI ST

    GR

    .6 DPFX mul 0 RM

    }BD

  

% show fraction mono

/MDPFB

    {exch

    GS

    /DPFX CF /FontMatrix get 3 get def

    DPF1B

    }BD

  

% show fraction

/DPF{

 /CURSCAL CF /FontMatrix get 3 get 1000 mul def

 /den exch def

 /num exch def

 /regf CF def

 /frf CF [.65 0 0 .6 0 0] MF def

 GS newpath 0 0 MO /Symbol FF CURSCAL SF SE (\244) TCFP HTD GR 

 0 .4 ht mul RM frf SE num SH 0 .4 ht mul neg RM 

 /Symbol FF CURSCAL SF SE (\244) SH 

 frf SE den SH regf SE

}BD

  

% show sup/inf

/DPIS{

 /regf CF def

 /sy CP exch pop def

 /supinf CF [.65 0 0 .6 0 0] MF def 

 GS newpath 0 0 MO TCFP HTD GR 0 exch ht mul RM supinf SE SH regf SE 

 CP pop sy MO

}BD

  

% show sup

/DPS{.40 (I) DPIS}BD

  

%show inf

/DPI{dup -.15 exch DPIS}BD

  

% show mono sup

/MDPS{

 GS newpath 0 0 MO (1) MTCFP HTD GR 

 0 ht .5 mul RM SH

 0 ht -.5 mul RM

}BD

  

%show mono inf

/MDPI{

 GS newpath 0 0 MO (1) MTCFP HTD GR 

 0 ht -.5 mul RM SH

 0 ht .5 mul RM

}BD

% show mono sup

/MDPSB{

 GS newpath 0 0 MO (1) MTCFP HTD GR 

 0 ht .5 mul RM D1

 0 ht -.5 mul RM

}BD

  

%show mono inf

/MDPIB{

 GS newpath 0 0 MO (1) MTCFP HTD GR 

 0 ht -.5 mul RM D1

 0 ht .5 mul RM

}BD

  

/reencodedict 12 dict def

/ReEncode

  { reencodedict begin

    /newencoding exch def

    /newfontname exch def

    /basefontname exch def

    /basefontdict basefontname FF def

    /newfont basefontdict maxlength dict def

    basefontdict

    	{ exch dup /FID ne 

    	    {dup /Encoding eq

    		{exch dup length array copy 

    		    newfont 3 1 roll put}

	  	{ exch newfont 3 1 roll put }

	     ifelse

    	    }

	    { pop pop }

    	    ifelse

       } forall

  newfont /FontName newfontname put

  newencoding aload pop

  newencoding length 2 idiv

    {newfont /Encoding get 3 1 roll put}

    repeat

  newfontname newfont definefont pop

  end

 }BD

  

/DPMCS [

% DEC Supplemental side:

160 /.notdef

161 /exclamdown 

162 /cent 

163 /sterling 

164 /fraction 

165 /yen 

166 /.notdef

167 /section 

168 /currency 

169 /copyright 

170 /ordfeminine 

171 /guillemotleft 

172 /.notdef

173 /.notdef

174 /.notdef

175 /.notdef

176 /.notdef  % degree

177 /.notdef  % plus/minus

178 /.notdef  % superscript 2

179 /.notdef  % superscript 3

180 /.notdef

181 /.notdef  % micro

182 /paragraph 

183 /periodcentered 

184 /.notdef

185 /.notdef  % superscript 1

186 /ordmasculine 

187 /guillemotright 

188 /.notdef  % 1/4

189 /.notdef  % 1/2

190 /.notdef

191 /questiondown 

192 /Agrave 

193 /Aacute 

194 /Acircumflex 

195 /Atilde 

196 /Adieresis 

197 /Aring 

%198 /.notdef  % /AE 

198 /AE 

199 /Ccedilla 

200 /Egrave 

201 /Eacute 

202 /Ecircumflex 

203 /Edieresis 

204 /Igrave 

205 /Iacute 

206 /Icircumflex 

207 /Idieresis 

208 /.notdef

209 /Ntilde 

210 /Ograve 

211 /Oacute 

212 /Ocircumflex 

213 /Otilde 

214 /Odieresis 

%215 /.notdef  % /OE 

215 /OE 

216 /Oslash 

217 /Ugrave 

218 /Uacute 

219 /Ucircumflex 

220 /Udieresis 

221 /Ydieresis 

222 /.notdef

223 /germandbls 

224 /agrave 

225 /aacute 

226 /acircumflex 

227 /atilde 

228 /adieresis 

229 /aring 

%230 /.notdef %ae

230 /ae

231 /ccedilla 

232 /egrave 

233 /eacute 

234 /ecircumflex 

235 /edieresis 

236 /igrave 

237 /iacute 

238 /icircumflex 

239 /idieresis 

240 /.notdef

241 /ntilde 

242 /ograve 

243 /oacute 

244 /ocircumflex 

245 /otilde 

246 /odieresis 

%247 /.notdef %oe

247 /oe 

248 /oslash 

249 /ugrave 

250 /uacute 

251 /ucircumflex 

252 /udieresis 

253 /ydieresis 

254 /.notdef 

  

129 /grave 

130 /acute 

131 /circumflex 

132 /tilde 

133 /dieresis 

134 /ring 

135 /cedilla 

136 /dotlessi 

137 /macron

138 /breve

139 /dotaccent

140 /hungarumlaut

141 /ogonek

142 /caron

143 /endash

144 /emdash

145 /dagger

146 /daggerdbl

147 /bullet

148 /fi

149 /fl

150 /quotedblleft

151 /quotedblright

152 /registered

153 /trademark

154 /quotedblbase

] def

  

/cvc

{ 

( )

dup

0 

4 -1 roll

put

}BD

  

/Courier /CourierExtended DPMCS ReEncode

/ExtendedEncoding /CourierExtended FF /Encoding get def

/SymbolEncoding /Symbol FF /Encoding get def

  

/ExtendedDecoding ExtendedEncoding length dict def

ExtendedDecoding begin

0 1 ExtendedEncoding length 1 sub

{ 

dup

ExtendedEncoding exch get

exch def

}for

end

/SymbolDecoding SymbolEncoding length dict def

SymbolDecoding begin

0 1 SymbolEncoding length 1 sub

{ 

dup

SymbolEncoding exch get

exch def

}for

end

  

/BBox [0 -.25 .6 .75] def

  

/superscript

{/CourierExtended FF SE

.6667 .6667 SC

0 .2667 MO

SH

}BD

  

/diphthong

{ 

{/CourierExtended FF [.6667 0 .1786 1 0 0] MF SE}

{/CourierExtended FF [.66666667 0 0 1 0 0] MF SE}

ifelse

0 0 MO

CP TR

SH

/CourierExtended FF

[.6667 0 0 1 0 0] MF SE

.26 0 MO

SH

}BD

  

/ctrl

{/CourierExtended FF SE

.8333 .8333 SC

0 .3 MO

SH

.1371 -.3 MO

SH

}BD

  

/fraction

{/CourierExtended FF SE

.5 .5 SC

0 .6 MO

SH

.6 0 MO

SH

0 0 MO

1.2 1.2 LI

ST

}BD

  

/McsEncoding ExtendedEncoding def

McsEncoding

dup 169 /copyrightsans put

dup 176 /degree put

dup 177 /plusminus put

dup 178 /twosuper put

dup 179 /threesuper put

dup 181 /mu put

dup 185 /onesuper put

dup 188 /onefourth put

dup 189 /onehalf put

dup 198 /AE put

dup 215 /OE put

dup 230 /ae put

dup 247 /oe put

pop

  

/TcsEncoding  256 array def

32 1 94 {TcsEncoding exch dup McsEncoding exch get put} for

TcsEncoding

dup 95 /space put

dup 96 /diamond put

dup 97 /blob put

dup 98 /HT put

dup 99 /FF put

dup 100 /CR put

dup 101 /LF put

dup 102 /degree put

dup 103 /plusminus put

dup 104 /NL put

dup 105 /VT put

dup 106 /crnlr put

dup 107 /crnur put

dup 108 /crnul put

dup 109 /crnll put

dup 110 /cross put

dup 111 /scan1 put

dup 112 /scan3 put

dup 113 /scan5 put

dup 114 /scan7 put

dup 115 /scan9 put

dup 116 /tl put

dup 117 /tr put

dup 118 /tb put

dup 119 /tt put

dup 120 /vertical put

dup 121 /lessequal put

dup 122 /greaterequal put

dup 123 /pi put

dup 124 /notequal put

dup 125 /sterling put

dup 126 /periodcentered put

pop

TcsEncoding

dup 161 /radicalleft put

dup 162 /radicallefttp put

dup 163 /horizontalext put

dup 164 /integraltp put

dup 165 /integralbt put

dup 166 /verticalext put

dup 167 /bracketlefttp put

dup 168 /bracketleftbt put

dup 169 /bracketrighttp put

dup 170 /bracketrightbt put

dup 171 /bracelefttp put

dup 172 /braceleftbt put

dup 173 /bracerighttp put

dup 174 /bracerightbt put

dup 175 /braceleftmid put

dup 176 /bracerightmid put

dup 177 /sumtpleft put

dup 178 /sumbtleft put

dup 179 /sumtpvert put

dup 180 /sumbtvert put

dup 181 /sumtpright put

dup 182 /sumbtright put

dup 183 /sumrightmid put

dup 184 /questionreverse put

dup 185 /questionreverse put

dup 186 /questionreverse put

dup 187 /questionreverse put

dup 188 /lessequal put

dup 189 /notequal put

dup 190 /greaterequal put

dup 191 /integral put

dup 192 /therefore put

dup 193 /proportional put

dup 194 /infinity put

dup 195 /divide put

dup 196 /Delta put

dup 197 /gradient put

dup 198 /Phi put

dup 199 /Gamma put

dup 200 /similar put

dup 201 /approxequal put

dup 202 /Theta put

dup 203 /multiply put

dup 204 /Lambda put

dup 205 /arrowdblboth put

dup 206 /arrowdblright put

dup 207 /equivalence put

dup 208 /Pi put

dup 209 /Psi put

dup 210 /questionreverse put

dup 211 /Sigma put

dup 212 /questionreverse put

dup 213 /questionreverse put

dup 214 /radical put

dup 215 /Omega put

dup 216 /Xi put

dup 217 /Upsilon1 put

dup 218 /propersubset put

dup 219 /propersuperset put

dup 220 /intersection put

dup 221 /union put

dup 222 /logicaland put

dup 223 /logicalor put

dup 224 /logicalnot put

dup 225 /alpha put

dup 226 /beta put

dup 227 /chi put

dup 228 /delta put

dup 229 /epsilon put

dup 230 /phi put

dup 231 /gamma put

dup 232 /eta put

dup 233 /iota put

dup 234 /theta put

dup 235 /kappa put

dup 236 /lambda put

dup 237 /questionreverse put

dup 238 /nu put

dup 239 /partialdiff put

dup 240 /pi put

dup 241 /psi put

dup 242 /rho put

dup 243 /sigma put

dup 244 /tau put

dup 245 /questionreverse put

dup 246 /florin put

dup 247 /omega put

dup 248 /xi put

dup 249 /upsilon put

dup 250 /zeta put

dup 251 /arrowleft put

dup 252 /arrowup put

dup 253 /arrowright put

dup 254 /arrowdown put

pop

  

/CharStrings 61 dict def

CharStrings begin

/crnlr

{0 .25 MO

.3 .25 LI

.3 .75 LI

ST

}BD

/crnur

{0 .25 MO

.3 .25 LI

.3 -.25 LI

ST

}BD

/crnul

{.6 .25 MO

.3 .25 LI

.3 -.25 LI

ST

}BD

/crnll

{.6 .25 MO

.3 .25 LI

.3 .75 LI

ST

}BD

/cross

{0 .25 MO

.6 .25 LI

.3 .75 MO

.3 -.25 LI

ST

}BD

/scan9

{0 -.15 MO

.6 -.15 LI

ST

}BD

/scan7

{0 .05 MO

.6 .05 LI

ST

}BD

/scan5

{0 .25 MO

.6 .25 LI

ST

}BD

/scan3

{0 .45 MO

.6 .45 LI

ST

}BD

/scan1

{0 .65 MO

.6 .65 LI

ST

}BD

/tl

{.3 .75 MO

.3 -.25 LI

.6 .25 MO

.3 .25 LI

ST

}BD

/tr

{.3 .75 MO

.3 -.25 LI

0 .25 MO

.3 .25 LI

ST

}BD

/tb

{0 .25 MO

.6 .25 LI

.3 .75 MO

.3 .25 LI

ST

}BD

/tt

{0 .25 MO

.6 .25 LI

.3 -.25 MO

.3 .25 LI

ST

}BD

/vertical

{.3 .75 MO

.3 -.25 LI

ST

}BD

/radicalleft

{.3 .75 MO

.3 -.25 LI

0 .25 LI

ST

}BD

/radicallefttp

{.6 .25 MO

.3 .25 LI

.3 -.25 LI

ST

}BD

/horizontalext

{0 .25 MO

.6 .25 LI

ST

}BD

/integraltp

{.3 -.25 MO

.3 .75 .45 .75 .25 arcto pop pop pop pop

ST

.53 .67 .1 0 360 arc

fill

}BD

/integralbt

{.3 .75 MO

.3 -.25 .15 -.25 .25 arcto pop pop pop pop

ST

.08 -.17 .1 0 360 arc

fill

}BD

/verticalext

{.3 .75 MO

.3 -.25 LI

ST

}BD

/bracketlefttp

{.6 .75 MO

.3 .75 LI

.3 -.25 LI

ST

}BD

/bracketleftbt

{.3 .75 MO

.3 -.25 LI

.6 -.25 LI

ST

}BD

/bracketrighttp

{0 .75 MO

.3 .75 LI

.3 -.25 LI

ST

}BD

/bracketrightbt

{.3 .75 MO

.3 -.25 LI

0 -.25 LI

ST

}BD

/bracelefttp

{.3 -.25 MO

.3 .75 .6 .75 .5 arcto pop pop pop pop

ST

}BD

/braceleftbt

{.3 .75 MO

.3 -.25 .6 -.25 .5 arcto pop pop pop pop

ST

}BD

/bracerighttp

{.3 -.25 MO

.3 .75 0 .75 .5 arcto pop pop pop pop

ST

}BD

/bracerightbt

{.3 .75 MO

.3 -.25 0 -.25 .5 arcto pop pop pop pop

ST

}BD

/braceleftmid

{.3 .75 MO

.3 .25 .15 .25 .15 arcto pop pop pop pop

.3 -.25 MO

.3 .25 .15 .25 .15 arcto pop pop pop pop

ST

}BD

/bracerightmid

{.3 .75 MO

.3 .25 .45 .25 .15 arcto pop pop pop pop

.3 -.25 MO

.3 .25 .45 .25 .15 arcto pop pop pop pop

ST

}BD

/sumtpleft

{.6 .25 MO

.3 .25 LI

.6 -.25 LI

ST

}BD

/sumbtleft

{.6 .25 MO

.3 .25 LI

.6 .75 LI

ST

}BD

/sumtpvert

{0 .75 MO

.6 -.25 LI

ST

}BD

/sumbtvert

{0 -.25 MO

.6 .75 LI

ST

}BD

/sumtpright

{0 .25 MO

.6 .25 LI

.6 -.25 LI

ST

}BD

/sumbtright

{0 .25 MO

.6 .25 LI

.6 .75 LI

ST

}BD

/sumrightmid

{0 .75 MO

.3 .25 LI

0 -.25 LI

ST

}BD

/arrowdblboth

{.1 .1 MO

.5 .1 LI

.1 .25 MO

.5 .25 LI

.175 .325 MO

0 .175 LI

.175 .025 LI

.425 .325 MO

.6 .175 LI

.425 .025 LI

ST

}BD

/arrowdblright

{.1 .1 MO

.5 .1 LI

.1 .25 MO

.5 .25 LI

.425 .325 MO

.6 .175 LI

.425 .025 LI

ST

}BD

/arrowleft

{0 .25 MO

.6 .25 LI

.15 .4 MO

0 .25 LI

.15 .1 LI

ST

}BD

/arrowup

{.3 .5 MO

.3 0 LI

.15 .35 MO

.3 .5 LI

.45 .35 LI

ST

}BD

/arrowright

{0 .25 MO

.6 .25 LI

.45 .4 MO

.6 .25 LI

.45 .1 LI

ST

}BD

/arrowdown

{.3 .5 MO

.3 0 LI

.15 .15 MO

.3 0 LI

.45 .15 LI

ST

}BD

/blob

{0 -.25 TR

CharWidth 1 SC

6 10

false

[6 0 0 -10 0 10]

{<55 AA>}

imagemask

}BD

/questionreverse

{/CourierExtended FF SE

.6 0 MO

-1 1 SC

(?) SH

}BD

/onesuper {(1) superscript}BD

/twosuper {(2) superscript}BD

/threesuper {(3) superscript}BD

/AE {(E) (A) true diphthong}BD

/OE {(E) (O) false diphthong}BD

/ae {(e) (a) false diphthong}BD

/oe {(e) (o) false diphthong}BD

/HT {(T) (H) ctrl}BD

/FF {(F) (F) ctrl}BD

/CR {(R) (C) ctrl}BD

/LF {(F) (L) ctrl}BD

/NL {(L) (N) ctrl}BD

/VT {(T) (V) ctrl}BD

/onehalf {(2) (1) fraction}BD

/onefourth {(4) (1) fraction}BD

end

  

/BuildCharDict 3 dict def

/BuildChar

{ 

BuildCharDict begin

/char exch def

/fontdict exch def

/charname fontdict /Encoding get char get def

fontdict begin

CharWidth 0

FontBBox aload pop

setcachedevice

CharStrings charname known

{.05 SW CharStrings charname get

exec

} 

{ExtendedDecoding charname known

{/CourierExtended FF SE

ExtendedDecoding charname get

} 

{/Symbol FF SE

.8 .8 SC

SymbolDecoding charname get

} 

ifelse

cvc

0 0 MO

SH

} 

ifelse

end

end

}BD

  

/Courier-MCS 11 dict dup begin

/FontType 3 def

/FontBBox BBox def

/BuildChar /BuildChar load def

/Encoding McsEncoding def

/CharWidth .6 def

/FontMatrix [1 0 0 1 0 0] def

/UnderlineThickness 75 def

/UnderlinePosition 250 def

/StrikethroughThickness 75 def

/StrikethroughPosition -275 def

end definefont pop

  

/Courier-TECH 11 dict dup begin

/FontType 3 def

/FontBBox BBox def

/BuildChar /BuildChar load def

/Encoding TcsEncoding def

/CharWidth .6 def

/FontMatrix [1 0 0 1 0 0] def

/UnderlineThickness 75 def

/UnderlinePosition 250 def

/StrikethroughThickness 75 def

/StrikethroughPosition -275 def

end definefont pop

%%EndProlog

 /Helvetica-Bold /Helvetica-Bold-DPMCS DPMCS ReEncode /Helvetica /Helvetica-DPMCS DPMCS ReEncode% SPD (8.5*11") 'software' logo.

% Aidan Killian ESDC Galway 14/05/86.

% Amended to position logo to left margin on 12-Aug-1986

% at ESDC Galway (AK/MS).

/LOGO8A {

save						% Save current environment



/digital-font /Helvetica-Bold findfont 

[35 34 div .65 mul 0 0 .75 0 0] makefont def



/box-width 35 34 div .405 mul def

/box-pitch box-width .85 div def



/digital-box { 

  gsave 

    box-pitch box-width sub 2 div -.225 rmoveto

    box-width 0 rlineto 

    0 1 rlineto box-width neg 0 rlineto 

    closepath fill 

  grestore 

  gsave

    dup stringwidth pop box-pitch exch sub 2 div 0 rmoveto 

    1 setgray 

    show

  grestore

  box-pitch 0 rmoveto

} def 



/digital_logo {

  % draws digital logo with left baseline point at current point with

  % specified height using current color for boxes and white letters 

  % and moves current point in x direction by about 3.433 times height



  dup scale 

  digital-font setfont 

  0 1 6 {(digital) exch 1 getinterval digital-box} for 

} def 



/sw 1 def					% Stroke width / 2



/std 68 def					% Start Displ.



/bl 60 def					% Char Levels

/cbl bl sw add def

/ol bl 18.4 add def

/xl bl 36.8 add def

/cxl xl sw sub def

/wl xl sw add sw add def

/tl bl 59.5 add def

/ctl tl sw sub def

/dl xl 10.5 add def

/rll bl 14 sub def



/cr ol bl sub sw sub def			% Sub-char Radii

/s1r 10 def

/s2r 8 def

/fr 9.1 def

/rr 12.4 def



/el bl 19.3 add def				% Sub-char Levels

/e2l bl 10.3 add def

/s1l cbl s1r add def

/s2l cxl s2r sub def

/s3l bl 19.8 add def



/sd std s1r add sw add def			% Char Displ.

/od std 42.5 add def

/fd std 66 add def

/td std 86.5 add def

/wd std 102 add def

/ad std 168 add def

/rd std 194 add def

/ed std 221.3 add def

/end cr cr add ed add def



/f2d fd 6 sub def				% Sub-char Displ.

/t2d td 7.7 sub def

/w2d wd 26 add def

/w3d wd 52 add def

/a2d ad cr add 0.4 sub def



/dsz 15.9 def

/bsw 18 def

/bd wd 375.5 add def



sw sw add setlinewidth

} def

/LOGO8B {

newpath

sd s2l s2r 0 180 arc 

sd s2r sub s2l 5 sub sd 3.6 sub s3l 1 add sd s3l curveto 

sd 3.6 add s3l 1 sub sd s1r add s1l 5 add sd s1r add s1l curveto 

sd s1l s1r 0 180 arcn stroke



od ol cr 0 360 arc stroke



fd cbl moveto 

fd ctl td ctl fr arcto pop pop pop pop 

f2d cxl moveto 

fd fr add cxl lineto stroke



td bl 1 add moveto 

td tl lineto 

t2d cxl moveto 

td fr add cxl lineto stroke



gsave

  td cbl moveto 

  td xl lineto 

  ad xl lineto 

  ad cbl lineto clip newpath



  wd xl moveto 

  wd cbl lineto 

  w2d wl lineto 

  w2d cbl lineto 

  w3d wl lineto stroke

grestore



gsave

  a2d bl moveto 

  a2d xl lineto 

  wd xl lineto 

  wd bl lineto clip newpath



  ad ol cr 0 365 arc stroke

grestore



gsave

  a2d sw add cbl moveto 

  a2d sw sub cbl lineto 

  ad ol cr 300 60 arc 

  a2d sw sub xl lineto 

  a2d sw add xl lineto clip newpath



  a2d cbl moveto 

  a2d xl lineto stroke

grestore



rd cbl moveto 

rd xl lineto 

rd cbl moveto 

rd cxl ed cxl rr arcto pop pop pop pop stroke



gsave

  rd bl moveto 

  rd xl lineto 

  end xl lineto 

  end el sw sub lineto

  ed el sw sub lineto 

  ed e2l lineto 

  end e2l lineto 

  end bl lineto clip newpath



  ed ol cr 0 360 arc 

  ed cr sub el moveto 

  ed cr add el lineto stroke

grestore



gsave

  wd sw sub dl moveto dsz digital_logo

grestore



bsw setlinewidth



wd sw sub rll moveto 

bd rll lineto stroke



restore						% Restore previous environment

} def

/LOGO8 { LOGO8A LOGO8B} def

 save

%%Page: 1 1



0 657.04 MO
 10.00 /Courier-MCS DPT

 /save-pc$postscript-graphic save def 

56.78 654.59 TR 

 0 95.64 490.16 512.00 div 96.00 mul  sub  2  div  TR 490.16 512.00 div 490.16 512.00 div  SC 

0.00 -1 mul  526.00 -1 mul  TR 

 /showpage {} def /initmatrix {} def /initgraphics {} def /initclip {} def /erasepage {} def /copypage {} def /exitserver {} def /letter {} def /note {} def /legal {} def

%!PS-Adobe-2.0 EPSF-1.2


%%Creator:Cricket Draw 1.1


%%Title:SPD8TOP.ps


%%CreationDate:11/11/88   3:43 PM


%%DocumentFonts: Helvetica


%%BoundingBox:0 526 512 622 


%%Pages:0


%%EndComments


/vmstate save def


/$cricket 210 dict def


$cricket begin 1 -1 scale


0 -622  translate


2 setlinecap


/d /def load def


/b {bind d}bind d


/l {load d}b


/e /exch l


/x {e d}b


/C /closepath l


/CP /currentpoint l


/SH /show l


/g /gsave l


/G /grestore l


/i /if l


/I /ifelse l


/v /getinterval l


/V /putinterval l


/W /stringwidth l


/SG /setgray l


/N /newpath l


/M /moveto l


/L /lineto l


/R /rlineto l


/T /translate l


/D /dup l


/* /mul l


/+ /add l


/- /sub l


/? /div l


/ma {* +}b 


/h {D * e D ma sqrt}d


systemdict D /setpacking known D {/packstate currentpacking d D setpacking}i /pack? x


begin /settransfer load /setscreen load end 


/setscreen x /settransfer x


/dt [ currenttransfer ] cvx d 


/ds [ currentscreen D [ e ] cvx /devSpot x ] cvx d 


/jp {e [ 3 1 roll aload pop counttomark -1 roll aload pop ] cvx}b 


/settransfer {dt jp settransfer}b 


/macvec dup where not { 256 array d 


macvec 0 StandardEncoding


0 128 getinterval putinterval


macvec 16#27 /quotesingle put


macvec 16#60 /grave put


/Adieresis /Aring /Ccedilla /Eacute /Ntilde /Odieresis /Udieresis /aacute


/agrave /acircumflex /adieresis /atilde /aring /ccedilla /eacute /egrave


/ecircumflex /edieresis /iacute /igrave /icircumflex /idieresis /ntilde /oacute


/ograve /ocircumflex /odieresis /otilde /uacute /ugrave /ucircumflex /udieresis


/dagger /degree /cent /sterling /section /bullet /paragraph /germandbls


/registersans /copyrightsans /trademarksans /acute /dieresis /notequal /AE /Oslash


/infinity /plusminus /lessequal /greaterequal /yen /mu /partialdiff /summation


/product /pi /integral /ordfeminine /ordmasculine /Omega /ae /oslash


/questiondown /exclamdown /logicalnot /radical /florin /approxequal /Delta /guillemotleft


/guillemotright /ellipsis /space /Aacute /Atilde /Otilde /OE /oe


/endash /emdash /quotedblleft /quotedblright /quoteleft /quoteright /divide /lozenge


/ydieresis /Ydieresis /fraction /currency /guilsinglleft /guilsinglright /fi /fl


/daggerdbl /periodcentered /quotesinglbase /quotedblbase /perthousand


/Acircumflex /Ecircumflex /Agrave


/Edieresis /Egrave /Iacute /Icircumflex /Idieresis /Igrave /Oacute /Ocircumflex


/apple /Ograve /Uacute /Ucircumflex /Ugrave /dotlessi /circumflex /tilde


/macron /breve /dotaccent /ring /cedilla /hungarumlaut /ogonek /caron


macvec 128 128 v astore pop}{pop pop}I


/ad {+ d}b 


/sd {- d}b 


/td {* d}b 


/dd {? d}b


/c {2 ? e 2 ? e}b 


/n0 {D 0 eq {pop}}b


/m1 matrix d /m2 matrix d /m3 matrix d


/ct 0 d 


/s+ 0 d 


/po 0 d 


/ts 40 string d


/s1 (|______) d


ts 0 s1 V


/sp ( ) d


/SM {/m3 m3 currentmatrix d}b 


/RM {m3 setmatrix}b 


/dpi 72 0 matrix defaultmatrix dtransform h d


/inch {72 *}b


/cm {28.3465 *}b


/pi 3.1415923 d


/fs 256 string d 


/sh {m1 m2 copy 2 3 -1 roll sin put m2 concat}b 


/fc {T n0 {rotate}I scale n0 {sh}I}b 


/a {/ea x /sa x SM -1 * scale 0 0 1 sa ea 2 copy gt {arcn}{arc}I RM}b 


/cn {SM T x1 y1 scale 0 0 1 ct 90 * D 90 + arc /ct ct 1 ad RM}b 


/rr {/y1 x /x1 x /ct 0 d c y1 - /yr x x1 - /xr x N xr yr cn xr neg yr cn xr neg yr neg cn xr yr neg cn C}b 


/dg 


{/lc x clip rotate T /dy x /dx x


0 eq {N 


1 eq {1 10 lc ? 10{log dy * 0 e neg M dx 0 R}for lc 10 gt{dy 0 e neg M dx 0 R}i}


{lc 1 eq {0 0 e neg M dx 0 R}{/st dy lc 1 - dd 0 1 lc 1 - {st * 0 e neg M dx 0 R}for}I}I


stroke}


{1 eq {/st 0 d /inc 10 lc 1 + dd dx dy lt {/rd dx d}{/rd dy d}I


1 1 lc {/di st 1 + log 10 log ? rd td N dx di - dy di - 0 360 a C stroke /st st inc ad}for} 


{dx dy lt {/st dx lc dd}{/st dy lc dd}I lc {N dx dy 0 360 a C stroke /dx dx st sd /dy dy st sd}repeat} I


}I}b


/sb {/ea x /ia x /sa x /yr x /xr x ea sa lt{/ia ia neg d}i N sa ia ea{D /x1 e cos xr td /y1 e sin yr * neg d x1 y1 M 0 0 L}for}b


/bm {/y1 x /x1 x bitgray SG x1 y1 /md where {pop md /invertflag get not}{true}I 


[x1 0 0 y1 0 0] {currentfile picstring readhexstring pop}imagemask}b


/c1 .166667 d /c2 .833333 d /c3 .5 d


/p3 {+ c3 *}b 


/dc{/y2 x /x2 x x0 c1 * x1 c2 ma y0 c1 * y1 c2 ma x1 c2 * x2 c1 ma y1 c2 * y2 c1 ma x1 x2 p3 y1 y2 p3 curveto}b 


/mp {/x0 x1 d /y0 y1 d /x1 x2 d /y1 y2 d}b


/SPOLY_INIT


{/SPOLY_SAVE save d /cls x


/M {2 copy /y0 x /x0 x moveto /M /moveto load d}d


/L {/y1 x /x1 x x0 x1 p3 y0 y1 p3


cls {/yy y1 d /xx x1 d /C {mp xx yy dc systemdict /closepath get exec}d M}


{lineto}I /L {{dc mp}stopped {/L {pop pop}d /noerr false d}i}d}d}d


/SPOLY_END {SPOLY_SAVE restore}b


/ah {g 2 copy T 3 -1 roll - 3 1 roll e - atan rotate os 0 M hl hw R 0 hw 2 * neg R C fill G}b


/da 


{g stroke G 


g currentlinewidth D -10 * D /hl x -2 ? /os x 2 * /hw x /bp x /ep x


.2 setlinewidth 0 setlinejoin 


g flattenpath {}{}{}{} pathforall 


count 8 eq {8 4 roll}i


count 8 gt {count 4 roll mark count 8 - 1 roll cleartomark}i 


count 6 eq {6 2 roll 2 copy 8 2 roll}i


count 4 eq {4 copy}i G


N bp {4 2 roll ah}{pop pop pop pop}I ep {ah}{clear}I G}b 


/tp {sm0 transform}b 


/sfp {} d 


/op {{tp moveto}{tp lineto}{3{tp 6 2 roll}repeat curveto}{C} pathforall sfp stroke}b 


/sm0 matrix d /sm1 matrix d


/so 


{SG /eg x /tg x /yt x /xt x 


xt 0 ne yt 0 ne or {


xt abs yt abs gt {/tt xt abs d}{/tt yt abs d}I


tt 144 gt {/ct dpi 2 dd /sfp{g eofill G}d}


{tt 72 gt {/ct dpi 4 dd /sfp{g eofill G}d}


{/ct dpi 4 dd}I}I


/ig tg eg - ct ? neg d


/x1 xt ct ? neg d /y1 yt ct dd 


1 0 0 1 xt yt sm0 astore pop 


1 0 0 1 x1 y1 neg sm1 astore pop


g op G


1 1 ct{g ig * tg + SG sm0 D sm1 e concatmatrix pop op G}for}i}b


/css {T 0 0 M xsp 0 32 Txt widthshow}b


/sc 


{g /xsp x /tg x /eg x /sg x /y1 x /x1 x /Txt x


/sst dpi 4 dd /y2 y1 sst dd /x2 x1 neg sst dd


eg sg eq {/sg sg .001 sd}i


/ig eg sg - sst ? neg d 


g tg SG x1 y1 neg css 


eg ig + ig sg {SG x2 y2 css}for G 


x2 y2 css G}b 


/gbb {pathbbox /y1 x /x1 x /y2 x /x2 x /x3 x1 x2 sd /y3 y1 y2 sd}b 


/radf 


{/dn dpi 300 ? 8 * 24 ad /ig rg 255 ? dn dd


sg 255 ? SG eoclip gbb 


x2 x3 2 ? + y2 y3 2 ? + T N


x3 y3 h 2 ? D dn ? neg 1 


{0 0 3 -1 roll 0 360 arc C fill currentgray ig + SG}for}b


/dof 


{/ff x 


eoclip 180 - rotate gbb


x1 y1 T 180 rotate x3 y3 scale


0 1 255 {fs e D 255 ? ff rg * sg + round cvi put}for


1 256 8 [1 0 0 256 0 0] fs image}b


/gft {radf {{} dof}{{1 e - 9 * 1 + log 1 e -}dof}}b


/df 


{g 2 copy eq {SG clear fill}{255 * e 255 * e 1 index - /rg x /sg x /gft load e get exec}I G}b 


/oc


{/tl x /ju x /di 0 d 


g flattenpath


{/y1 x /x1 x}{/y2 x /x2 x /dx x2 x1 sd /dy y2 y1 sd /di dx D * dy D ma sqrt di ad /x1 x2 d /y1 y2 d}


{}{/y2 x /x2 x /dx x2 x1 sd /dy y2 y1 sd /di dx D * dy D ma sqrt d}pathforall


ju 0 eq{/po 0 store}i


ju 1 eq{/po di tl - 2 ? store}i


ju 2 eq{/po di tl - store}i G}b


/pt {/FM true d /os x /sr x /os os sr 0 1 v W pop 2 ? ad /pd 0 d /sl os d /ct 0 d g flattenpath {mtp}{ltp}{ctp}{cpp}pathforall G}b


/mtp {/y1 x /x1 x /x2 x1 d /y2 y1 d /ovr FM {os /FM false d}{0}I d x1 y1 transform /cpy x /cpx x}b


/ltp 


{/x3 x1 d /y3 y1 d /y1 x /x1 x /dx x1 x3 sd /dy y1 y3 sd /di dx D * dy D ma sqrt d 


/di 0 ne


{/dsx dx di ? ovr td /dsy dy di ? ovr td x3 dsx + y3 dsy + transform


/cpy x /cpx x /pd pd di ad {sl pd le {ct sr length lt{sch}{exit}I}{/ovr sl pd sd exit}I}loop}i}b


/ctp {}b 


/cpp {x2 y2 ltp x2 y2 mtp}b 


/sch 


{/ch sr ct 1 v d /ct ct 1 ad


/cw ch W pop 2 dd 


g cpx cpy itransform T dy dx atan rotate cw neg 0 M ch SH


ct sr length lt{sr ct 1 v W pop 2 ? 0 rmoveto}i


CP transform /cpy x /cpx x G


/sl sl cw ad /po po cw 2 ma store ct sr length lt{/sl sl sr ct 1 v W pop 2 ? ad}i}b


/cpd {/newslots x D length newslots + dict D 3 1 roll begin {1 index /FID ne {def}i}forall pop pop end}b


/of 


{/ui 0 d 


/pw 1000 24 dd 


/nn x 


/bn x 


ui 0 eq 


{/ui bn findfont


dup /UniqueID known 


{/UniqueID get 1 add}{pop 1}ifelse


def} if


/bfd bn findfont def 


/ct bfd maxlength 1 ad 


bfd /UniqueID known not


{/ct ct 1 ad} if


/ofd ct dict def 


bfd


{ exch dup /FID ne


{exch ofd 3 1 roll put}


{pop pop} ifelse


}forall


ofd /FontName nn put


ofd /PaintType 2 put


ofd /StrokeWidth pw put


ofd /UniqueID ui put


nn ofd definefont pop}b


/uf 


{20 dict begin


/ui x 


e /BaseFont e findfont d


ui 0 eq 


{/ui BaseFont D /UniqueID known 


{/UniqueID get 1 +}{pop 1}I d}i


/FontType 3 d


/Upos BaseFont /FontInfo 2 copy known


{get /UnderlinePosition 2 copy known


{get}{pop pop -100 }I}{ pop pop -100 }I d


/Uwid BaseFont /FontInfo 2 copy known


{get /UnderlineThickness 2 copy known


{get}{pop pop 50}I}


{pop pop 50}I d


/FontMatrix BaseFont /FontMatrix get d


/FontBBox BaseFont /FontBBox get


D 1 get Upos gt {D 1 Upos put}i d


/Encoding BaseFont /Encoding get d


/theChar 1 string d


/BuildChar


{e begin


theChar 0 3 -1 roll put


BaseFont 1000 scalefont setfont


theChar W FontBBox setcachedevice


0 0 M


theChar show


0 Upos rmoveto 0 Upos L


Uwid setlinewidth stroke


end}d


currentdict 


end


definefont pop}b


/ns {g CP m3 currentmatrix nulldevice setmatrix T 0 0 M Txt CP pop G}b 


/ft {/ftsave save d CP 3 1 roll + e T 0 0 M /show /myshow l Txt ftsave restore}b 


/ls {/Txt x 0 ft}b 


/cs {/Txt x ns 2 ? neg ft}b 


/rs {/Txt x ns neg ft}b 


/slp {/sproc x /sr x 0 1 sr length 1 - {sr e 1 v sproc}for}b 


/ss 


{/Txt x /fsave save d


CP 2 copy T 0 0 M 


/ffsave save d pop - /lw x ns /tw x /wsp lw tw sd /nsp 0 d


/show {nsp e {sp eq {1 +}i}slp /nsp x}b 


Txt 0 nsp 0 gt {wsp nsp ? +}i ffsave restore /s+ x


/myshow load D systemdict /show get ne


{D D length 1 - get cvlit /charshadow eq {[ e aload pop e pop s+ e ] cvx}i}


{pop {s+ 0 32 4 -1 roll widthshow}}I


/show x Txt fsave restore}b


/cf{D /fn x length 7 + string /ts x ts 0 s1 V ts 7 fn V /fnm ts cvn d 


FontDirectory fnm known not {fn cvn findfont 0 cpd /nfd x nfd D /FontName fnm put /Encoding macvec put fnm nfd definefont pop}i}b


 


/JoinProcs {jp}d


/fixcoordinates {fc}d


/doarc {a}d


/doroundrect {rr}d


/dograte {dg}d


/dorgrate {drg}d


/pathoffset {po}d


/pathtext {pt}d


/dostarburst {sb}d


/dobitmap {bm}d


/strokearrow {da}d


/shadow {so}d


/charshadow {sc}d


/fountain {df}d


/offsetcalc {oc}d


/MakeOutlineFont {of}d


/MakeUnderlineFont {uf}d


/leftshow {ls}d


/rightshow {rs}d


/centershow {cs}d


/fullshow {ss}d


/coordinatefont {cf}d


 


 


%-----------------------------------


%Encode PS Fonts to match Mac Fonts


(Helvetica) coordinatefont


%-----------------------------------





%----- Begin Main Program -----%





gsave % Line


0.000 1  1  0.000 257.501 84.999  fixcoordinates


newpath


-250.501 0.000  moveto


250.501 0.000 lineto


6.000 setlinewidth 0 setgray stroke


grestore





gsave  % Text Block


0.000 1  -1  0.000 108.999 47.499  fixcoordinates


/myshow /show load def


0 setgray 


-106 25 moveto


/|______Helvetica findfont 24 scalefont setfont


{


(Software) show


} leftshow


-106 0 moveto


{


(Product) show


} leftshow


-106 -25 moveto


{


(Description) show


} leftshow


grestore





%------ End Main Program ------%





end


vmstate restore





%%Trailer





%%Pages:1







 save-pc$postscript-graphic restore



0 638.54 MO
 60.00 0 RM 9.00 /Helvetica-Bold-DPMCS DPT

 (PRODUCT NAME:) 3.60 DPJ

0 638.54 MO
 146.59 0 RM 12.00 /Helvetica-Bold-DPMCS DPT

 (DECvoice) 39.32 DPJ 3.60 0 RM (Software,) 39.32 DPJ 3.60 0 RM (Version) 39.32 DPJ 3.60 0 RM (1.1) 39.32 DPJ 142.91 0 RM (SPD) 39.32 DPJ 3.60 0 RM (29.97.01) 39.32 DPJ

0 611.04 MO
 60.00 0 RM 9.00 /Helvetica-Bold-DPMCS DPT

 (DESCRIPTION) 39.32 DPJ

0 611.04 MO
 312.00 0 RM 9.00 /Helvetica-DPMCS DPT

 (basis.) 39.32 DPJ

0 595.29 MO
 60.00 0 RM (DECvoice Software is a software package containing the) 3.34 DPJ

0 595.04 MO
 312.00 0 RM 9.00 /Helvetica-Bold-DPMCS DPT

 (HARDWARE REQUIREMENTS) 3.60 DPJ

0 585.29 MO
 60.00 0 RM 9.00 /Helvetica-DPMCS DPT

 (microcode and software necessary to provide a program-) 3.13 DPJ

0 579.04 MO
 312.00 0 RM (VAX, MicroVAX or VAXstation configuration as specified) 3.73 DPJ

0 575.29 MO
 60.00 0 RM (ming interface for the DECvoice DTC04-AA module.) 6.57 DPJ

0 569.04 MO
 312.00 0 RM (in the System Support Addendum \(SSA 29.97.01-x\).) 3.60 DPJ

0 565.29 MO
 60.00 0 RM (DECvoice includes microcode subsystems for performing) 3.29 DPJ

0 555.29 MO
 60.00 0 RM (various voice-related tasks including text-to-speech) 9.48 DPJ

0 553.04 MO
 312.00 0 RM 9.00 /Helvetica-Bold-DPMCS DPT

 (SOFTWARE REQUIREMENTS *) 3.60 DPJ

0 545.29 MO
 60.00 0 RM 9.00 /Helvetica-DPMCS DPT

 (synthesis, speaker independent isolated word speech) 6.18 DPJ

0 536.79 MO
 312.00 0 RM 9.00 /Helvetica-DPMCS DPT

 (\223) 6.18 DPJ

0 536.79 MO
 318.35 0 RM 9.00 /Helvetica-DPMCS DPT

 (VMS Operating System) 3.60 DPJ

0 535.29 MO
 60.00 0 RM (recognition, digitized voice storage and playback and) 5.98 DPJ

0 525.29 MO
 60.00 0 RM (North American telephony control functions. DECvoice) 5.48 DPJ

0 520.79 MO
 312.00 0 RM (*) 5.48 DPJ

0 520.79 MO
 318.35 0 RM (Refer to the System Support Addendum for availability) 3.79 DPJ

0 515.29 MO
 60.00 0 RM (Software also supports a separately licensed continuous) 3.73 DPJ

0 510.79 MO
 318.35 0 RM (and required versions of prerequisite/optional software) 4.31 DPJ

0 505.29 MO
 60.00 0 RM (word recognizer.) 3.60 DPJ

0 500.79 MO
 318.35 0 RM (\(SSA 29.97.01-x\).) 3.60 DPJ

0 489.29 MO
 60.00 0 RM (The text-to-speech subsystem support is comparable to) 4.23 DPJ

0 484.79 MO
 312.00 0 RM 9.00 /Helvetica-Bold-DPMCS DPT

 (OPTIONAL SOFTWARE) 3.60 DPJ

0 479.29 MO
 60.00 0 RM 9.00 /Helvetica-DPMCS DPT

 (the DECtalk family of speech synthesizers. The digitized) 3.63 DPJ

0 469.29 MO
 60.00 0 RM (speech subsystem supports encoding at 64 kilobits per) 4.41 DPJ

0 468.79 MO
 312.00 0 RM (DECvoice Continuous Word Automatic Speech) 13.61 DPJ

0 459.29 MO
 60.00 0 RM (second \(Kbps\) u-LAW, 64Kbps A-LAW, 32 Kbps ADPCM) 3.13 DPJ

0 458.79 MO
 312.00 0 RM (Recognition Software V1.1) 3.60 DPJ

0 449.29 MO
 60.00 0 RM (and 16 Kbps sub-band. The isolated word recognition) 5.20 DPJ

0 442.54 MO
 312.00 0 RM (A separate license is required for this product. The bi-) 4.54 DPJ

0 439.29 MO
 60.00 0 RM (software, licensed as part of the base kit, and the con-) 4.14 DPJ

0 432.54 MO
 312.00 0 RM (naries and documentation for this product are integrated) 3.70 DPJ

0 429.29 MO
 60.00 0 RM (tinuous word recognition software, licensed seperately,) 5.18 DPJ

0 422.54 MO
 312.00 0 RM (into the DECvoice Software media kit and the DECvoice) 3.55 DPJ

0 419.29 MO
 60.00 0 RM (are optimized for native speakers of American English.) 4.56 DPJ

0 412.54 MO
 312.00 0 RM (Software documentation kit respectively.) 3.60 DPJ

0 409.29 MO
 60.00 0 RM (The telephony subsystem fully complies with the applica-) 3.27 DPJ

0 399.29 MO
 60.00 0 RM (ble telephony regulations of the United States and) 7.20 DPJ

0 396.54 MO
 312.00 0 RM 9.00 /Helvetica-Bold-DPMCS DPT

 (ORDERING INFORMATION) 3.60 DPJ

0 389.29 MO
 60.00 0 RM 9.00 /Helvetica-DPMCS DPT

 (Canada. The DECvoice is registered with the United) 5.91 DPJ

0 380.54 MO
 312.00 0 RM (Software Licenses: QL-VFUA*-**) 3.60 DPJ

0 379.29 MO
 60.00 0 RM (States Federal Communications Commission and the) 6.38 DPJ

0 370.54 MO
 312.00 0 RM (Software Media: QA-VFUA*-**) 3.60 DPJ

0 369.29 MO
 60.00 0 RM (Canadian Department of Communications.) 3.60 DPJ

0 360.54 MO
 312.00 0 RM (Software Documentation: QA-VFUAA-GZ) 3.60 DPJ

0 353.54 MO
 60.00 0 RM (Both the isolated word recognition subsystem voice rec-) 3.84 DPJ

0 350.54 MO
 312.00 0 RM (Software Product Services: QT-VFUA*-**) 3.60 DPJ

0 343.54 MO
 60.00 0 RM (ognition standard templates and the optional continuous) 3.98 DPJ

0 334.54 MO
 312.00 0 RM (Continuous Word Recognizer Licenses: QL-YFCA*-**) 3.60 DPJ

0 333.54 MO
 60.00 0 RM (word recognition subsystem voice recognition templates) 4.28 DPJ

0 324.54 MO
 312.00 0 RM (Continuous Word Recognizer Services: QT-YFCA*-**) 3.60 DPJ

0 323.54 MO
 60.00 0 RM (contain speaker independent recognition support for the) 4.06 DPJ

0 313.54 MO
 60.00 0 RM (digits zero through nine, and the words "yes," "no," and) 3.90 DPJ

0 308.29 MO
 312.00 0 RM (*) 3.90 DPJ

0 308.29 MO
 318.35 0 RM (Denotes variant fields. For additional information on) 5.84 DPJ

0 303.54 MO
 60.00 0 RM (often used as a substitute for zero, "oh". Tools are pro-) 3.90 DPJ

0 298.29 MO
 318.35 0 RM (available licenses, services and media, refer to the ap-) 3.57 DPJ

0 293.54 MO
 60.00 0 RM (vided to allow the creation of site and application specific) 3.15 DPJ

0 288.29 MO
 318.35 0 RM (propriate price book.) 3.60 DPJ

0 283.54 MO
 60.00 0 RM (isolated word templates.) 3.60 DPJ

0 272.29 MO
 312.00 0 RM 9.00 /Helvetica-Bold-DPMCS DPT

 (SOFTWARE LICENSING) 3.60 DPJ

0 267.54 MO
 60.00 0 RM (SOURCE CODE INFORMATION) 3.60 DPJ

0 256.29 MO
 312.00 0 RM 9.00 /Helvetica-DPMCS DPT

 (A license is required for the base product. The base) 5.38 DPJ

0 251.54 MO
 60.00 0 RM (The following DECvoice source code modules are pro-) 4.56 DPJ

0 246.29 MO
 312.00 0 RM (product is licensed by a traditional license. The list of) 4.93 DPJ

0 241.54 MO
 60.00 0 RM (vided on magnetic distribution media:) 3.60 DPJ

0 236.29 MO
 312.00 0 RM (processors currently supported and applicable processor) 3.68 DPJ

0 226.29 MO
 312.00 0 RM (restrictions is located in the System Support Addendum.) 3.70 DPJ

0 226.04 MO
 60.00 0 RM 9.00 /Helvetica-DPMCS DPT

 (\223) 3.70 DPJ

0 226.04 MO
 66.35 0 RM 9.00 /Helvetica-DPMCS DPT

 (Versions of utilities and prototype application programs.) 3.26 DPJ

0 216.04 MO
 66.35 0 RM (These source code modules are intended to demon-) 4.93 DPJ

0 210.04 MO
 312.00 0 RM (The Continuous Word Recognizer License is required, in) 3.41 DPJ

0 206.04 MO
 66.35 0 RM (strate and assist customers in their implementations of) 3.72 DPJ

0 200.04 MO
 312.00 0 RM (addition to the base DECvoice software license, if the) 4.92 DPJ

0 196.04 MO
 66.35 0 RM (various voice technologies. These modules are supplied) 2.84 DPJ

0 190.04 MO
 312.00 0 RM (Continuous Word Recognition capabilities are to be util-) 3.99 DPJ

0 186.04 MO
 66.35 0 RM (without warranties.) 3.60 DPJ

0 180.04 MO
 312.00 0 RM (ized. The Continuous Word Recognizer product is li-) 5.92 DPJ

0 170.04 MO
 60.00 0 RM (Digital provides these source modules on an ) 4.86 DPJ 9.00 /Helvetica-Bold-DPMCS DPT

 (``AS IS'') 4.86 DPJ

0 170.04 MO
 312.00 0 RM 9.00 /Helvetica-DPMCS DPT

 (censed as an Activity License.) 3.60 DPJ

0 98.54 MO
 479.76 0 RM 9.00 /Helvetica-Bold-DPMCS DPT

 (December) 422.46 DPJ 2.70 0 RM (1989) 422.46 DPJ

0 88.54 MO
 488.50 0 RM (AE-LZ25B-TE) 422.46 DPJ

0 78.54 MO


0 68.54 MO


0 58.54 MO


0 48.54 MO


0 38.54 MO


0 28.54 MO
 60.00 0 RM %%LOGO8

 LOGO8

0 28.54 MO
 0 -84.00 RM

 showpage

 restore

 save

%%Page: 2 2



0 746.54 MO
 60.00 0 RM 9.00 /Helvetica-Bold-DPMCS DPT

 (DECvoice) 76.10 DPJ 2.70 0 RM (Software,) 76.10 DPJ 2.70 0 RM (Version) 76.10 DPJ 2.70 0 RM (1.1) 76.10 DPJ 293.63 0 RM (SPD) 76.10 DPJ 2.70 0 RM (29.97.01) 76.10 DPJ

0 710.54 MO
 60.00 0 RM 9.00 /Helvetica-DPMCS DPT

 (This software is furnished under the licensing provisions) 3.77 DPJ

0 710.54 MO
 312.00 0 RM (Word Recognizer license provides a predetermined) 7.98 DPJ

0 700.54 MO
 60.00 0 RM (of Digital Equipment Corporation's Standard Terms and) 4.32 DPJ

0 700.54 MO
 312.00 0 RM (number of units, and thus a predetermined number of) 4.92 DPJ

0 690.54 MO
 60.00 0 RM (Conditions. For more information about Digital's licensing) 3.24 DPJ

0 690.54 MO
 312.00 0 RM (simultaneous activities of the product. As each activity of) 3.36 DPJ

0 680.54 MO
 60.00 0 RM (terms and policies, contact your local Digital office.) 3.60 DPJ

0 680.54 MO
 312.00 0 RM (the Continuous Word Recognizer is terminated, the units) 3.41 DPJ

0 670.54 MO
 312.00 0 RM (are returned for use by another application.) 3.60 DPJ

0 664.54 MO
 60.00 0 RM 9.00 /Helvetica-Bold-DPMCS DPT

 (LICENSE MANAGEMENT FACILITY SUPPORT) 3.60 DPJ

0 655.54 MO
 312.00 0 RM 9.00 /Helvetica-DPMCS DPT

 (For more information on the License Management) 7.90 DPJ

0 648.54 MO
 60.00 0 RM (This layered product supports the VMS License) 9.65 DPJ

0 645.54 MO
 312.00 0 RM (Facility, refer to the VMS Operating System Software) 5.49 DPJ

0 638.54 MO
 60.00 0 RM (Management Facility.) 3.60 DPJ

0 635.54 MO
 312.00 0 RM (Product Description \(SPD 25.01.xx\) or the License) 7.65 DPJ

0 625.54 MO
 312.00 0 RM (Management Facility manual of the VMS Operating) 7.15 DPJ

0 622.54 MO
 60.00 0 RM (The DECvoice software base product, including the iso-) 3.99 DPJ

0 615.54 MO
 312.00 0 RM (System documentation set.) 3.60 DPJ

0 612.54 MO
 60.00 0 RM (lated word recognizer, is licensed by a traditional license.) 3.11 DPJ

0 600.54 MO
 312.00 0 RM (For more information about Digital's licensing terms and) 3.84 DPJ

0 596.54 MO
 60.00 0 RM (License units for the base product are allocated on a) 5.04 DPJ

0 590.54 MO
 312.00 0 RM (policies, contact your local Digital office.) 3.60 DPJ

0 586.54 MO
 60.00 0 RM (CPU-capacity basis; the license is processed tiered.) 3.60 DPJ

0 575.54 MO
 312.00 0 RM 9.00 /Helvetica-Bold-DPMCS DPT

 (SOFTWARE PRODUCT SERVICES) 3.60 DPJ

0 570.54 MO
 60.00 0 RM 9.00 /Helvetica-DPMCS DPT

 (The license for the Continuous Word Recognizer is an) 4.55 DPJ

0 560.54 MO
 60.00 0 RM (activity license.) 3.60 DPJ

0 560.54 MO
 312.00 0 RM (A variety of service options are available from Digital. For) 2.99 DPJ

0 550.54 MO
 312.00 0 RM (more information, contact your local Digital office.) 3.60 DPJ

0 544.54 MO
 60.00 0 RM (Access to the Continuous Word Recognizer capabilities) 4.32 DPJ

0 535.54 MO
 312.00 0 RM 9.00 /Helvetica-Bold-DPMCS DPT

 (SOFTWARE WARRANTY) 3.60 DPJ

0 534.54 MO
 60.00 0 RM 9.00 /Helvetica-DPMCS DPT

 (is based on the number of simiultaneous activities of the) 3.43 DPJ

0 524.54 MO
 60.00 0 RM (recognizer. The Continuous Word Recognizer software) 5.08 DPJ

0 520.54 MO
 312.00 0 RM (Warranty for this software product is provided by Digital) 3.93 DPJ

0 514.54 MO
 60.00 0 RM (requires a certain number of license units \(one hundred\)) 3.55 DPJ

0 510.54 MO
 312.00 0 RM (with the purchase of a license for the product as defined) 3.39 DPJ

0 504.54 MO
 60.00 0 RM (per activity, regardless of processor. The Continuous) 6.07 DPJ

0 500.54 MO
 312.00 0 RM (in the Software Warranty Addendum of this SPD.) 3.60 DPJ

0 486.04 MO
 60.00 0 RM 7.00 /Helvetica-DPMCS DPT

 (__________________) 3.60 DPJ

0 472.04 MO
 0 4.00 RM 0 -4.00 RM

0 472.04 MO
 72.00 0 RM (The DIGITAL Logo is a registered trademark of Digital Equipment Corporation.) 2.80 DPJ

0 458.04 MO
 72.00 0 RM (VAX, VMS, MicroVAX, VAXstation, VAXserver and DECvoice are trademarks of Digital Equipment Corporation.) 2.80 DPJ

0 26.54 MO
 296.00 0 RM 9.00 /Helvetica-Bold-DPMCS DPT

 (2) 2.80 DPJ 0 -36.00 RM

 showpage

 restore

%%Trailer

%%Pages: 2

%%DocumentFonts: Courier-MCS %LOGO8 Helvetica-DPMCS Helvetica-Bold-DPMCS 

%!Font Name                     Font No   Charset

%!/Courier-MCS                  1         ASCII

%!%%LOGO8                       108       ASCII

%!/Helvetica-DPMCS              200       ASCII

%!/Helvetica-Bold-DPMCS         220       ASCII

%!/Helvetica-DPMCS              200       PUBL


