%!PS-Adobe-1.0
%%Title: GEM02D$:[DUNCAN.WPSPLUS]0002962LSPD8.TMS;1
%%Creator: DECpage V3.0
%%CreationDate: 19-OCT-1989 10:34:08.46
%%Pages: (at end)
%%DocumentFonts: (atend)
%%EndComments
statusdict begin 0 setjobtimeout end
/CF /currentfont load def
/CP /currentpoint load def
/FF /findfont load def
/GR /grestore load def 
/GS /gsave load def
/LI /lineto load def
/MF /makefont load def 
/MO /moveto load def
/RL /rlineto load def
/RM /rmoveto load def
/RO /rotate load def
/SC /scale load def
/SD /setdash load def
/SE /setfont load def
/SF /scalefont load def
/SH /show load def
/ST /stroke load def
/SW /setlinewidth load def
/TR /translate load def

/BD {bind def} bind def
/DPT {FF exch SF SE}BD
/HTD{/ht exch def pop pop pop}BD
/MTCFP{false charpath flattenpath pathbbox}BD
/TCFP{true charpath flattenpath pathbbox}BD
  
% partial line up
/PLU {
 /CURSCAL CF /FontMatrix get 3 get 1000 mul def
  0 CURSCAL .5 mul RM
}BD
  
% partial line down
/PLD {
 /CURSCAL CF /FontMatrix get 3 get 1000 mul def
 0 CURSCAL -0.5 mul RM
}BD
  
/SavedX 0 def  
/SavedY 0 def  
/SavedString () def
/ShowInit
    {CP /SavedY exch def /SavedX exch def}BD
/bold
    {dup /SavedString exch def
    400 CF /FontMatrix get 3 get mul -12000 div 0 RM SH
    SavedX SavedY MO
    800 CF /FontMatrix get 3 get mul -12000 div 0 RM 
    SavedString SH
    SavedX SavedY MO
    SavedString SH
    }BD
/D1 
    {ShowInit bold}BD

% show string bold
/DPJB{
 /st 1 string def 
 /x exch def
 {st 0 3 -1 roll put st ( ) eq{x 0 RM}{st D1}ifelse}forall
}BD
% show string
/DPJ{( ) stringwidth pop sub 0 32 4 -1 roll widthshow}BD  

/DPF1
    {CP TR
    .5 .5 SC
    0 .6 DPFX mul MO SH
    .6 DPFX mul 0 MO SH
    0 0 MO 1.2 DPFX mul 1.2 DPFX mul LI ST
    GR
    .6 DPFX mul 0 RM
    }BD
  
% show fraction mono
/MDPF
    {exch
    GS
    /DPFX CF /FontMatrix get 3 get def
    DPF1
    }BD
/DPF1B
    {CP TR
    .5 .5 SC
    0 .6 DPFX mul MO D1
    .6 DPFX mul 0 MO D1
    0 0 MO 1.2 DPFX mul 1.2 DPFX mul LI ST
    GR
    .6 DPFX mul 0 RM
    }BD
  
% show fraction mono
/MDPFB
    {exch
    GS
    /DPFX CF /FontMatrix get 3 get def
    DPF1B
    }BD
  
% show fraction
/DPF{
 /CURSCAL CF /FontMatrix get 3 get 1000 mul def
 /den exch def
 /num exch def
 /regf CF def
 /frf CF [.65 0 0 .6 0 0] MF def
 GS newpath 0 0 MO /Symbol FF CURSCAL SF SE (\244) TCFP HTD GR 
 0 .4 ht mul RM frf SE num SH 0 .4 ht mul neg RM 
 /Symbol FF CURSCAL SF SE (\244) SH 
 frf SE den SH regf SE
}BD
  
% show sup/inf
/DPIS{
 /regf CF def
 /sy CP exch pop def
 /supinf CF [.65 0 0 .6 0 0] MF def 
 GS newpath 0 0 MO TCFP HTD GR 0 exch ht mul RM supinf SE SH regf SE 
 CP pop sy MO
}BD
  
% show sup
/DPS{.40 (I) DPIS}BD
  
%show inf
/DPI{dup -.15 exch DPIS}BD
  
% show mono sup
/MDPS{
 GS newpath 0 0 MO (1) MTCFP HTD GR 
 0 ht .5 mul RM SH
 0 ht -.5 mul RM
}BD
  
%show mono inf
/MDPI{
 GS newpath 0 0 MO (1) MTCFP HTD GR 
 0 ht -.5 mul RM SH
 0 ht .5 mul RM
}BD
% show mono sup
/MDPSB{
 GS newpath 0 0 MO (1) MTCFP HTD GR 
 0 ht .5 mul RM D1
 0 ht -.5 mul RM
}BD
  
%show mono inf
/MDPIB{
 GS newpath 0 0 MO (1) MTCFP HTD GR 
 0 ht -.5 mul RM D1
 0 ht .5 mul RM
}BD
  
/reencodedict 12 dict def
/ReEncode
  { reencodedict begin
    /newencoding exch def
    /newfontname exch def
    /basefontname exch def
    /basefontdict basefontname FF def
    /newfont basefontdict maxlength dict def
    basefontdict
    	{ exch dup /FID ne 
    	    {dup /Encoding eq
    		{exch dup length array copy 
    		    newfont 3 1 roll put}
	  	{ exch newfont 3 1 roll put }
	     ifelse
    	    }
	    { pop pop }
    	    ifelse
       } forall
  newfont /FontName newfontname put
  newencoding aload pop
  newencoding length 2 idiv
    {newfont /Encoding get 3 1 roll put}
    repeat
  newfontname newfont definefont pop
  end
 }BD
  
/DPMCS [
% DEC Supplemental side:
160 /.notdef
161 /exclamdown 
162 /cent 
163 /sterling 
164 /fraction 
165 /yen 
166 /.notdef
167 /section 
168 /currency 
169 /copyright 
170 /ordfeminine 
171 /guillemotleft 
172 /.notdef
173 /.notdef
174 /.notdef
175 /.notdef
176 /.notdef  % degree
177 /.notdef  % plus/minus
178 /.notdef  % superscript 2
179 /.notdef  % superscript 3
180 /.notdef
181 /.notdef  % micro
182 /paragraph 
183 /periodcentered 
184 /.notdef
185 /.notdef  % superscript 1
186 /ordmasculine 
187 /guillemotright 
188 /.notdef  % 1/4
189 /.notdef  % 1/2
190 /.notdef
191 /questiondown 
192 /Agrave 
193 /Aacute 
194 /Acircumflex 
195 /Atilde 
196 /Adieresis 
197 /Aring 
%198 /.notdef  % /AE 
198 /AE 
199 /Ccedilla 
200 /Egrave 
201 /Eacute 
202 /Ecircumflex 
203 /Edieresis 
204 /Igrave 
205 /Iacute 
206 /Icircumflex 
207 /Idieresis 
208 /.notdef
209 /Ntilde 
210 /Ograve 
211 /Oacute 
212 /Ocircumflex 
213 /Otilde 
214 /Odieresis 
%215 /.notdef  % /OE 
215 /OE 
216 /Oslash 
217 /Ugrave 
218 /Uacute 
219 /Ucircumflex 
220 /Udieresis 
221 /Ydieresis 
222 /.notdef
223 /germandbls 
224 /agrave 
225 /aacute 
226 /acircumflex 
227 /atilde 
228 /adieresis 
229 /aring 
%230 /.notdef %ae
230 /ae
231 /ccedilla 
232 /egrave 
233 /eacute 
234 /ecircumflex 
235 /edieresis 
236 /igrave 
237 /iacute 
238 /icircumflex 
239 /idieresis 
240 /.notdef
241 /ntilde 
242 /ograve 
243 /oacute 
244 /ocircumflex 
245 /otilde 
246 /odieresis 
%247 /.notdef %oe
247 /oe 
248 /oslash 
249 /ugrave 
250 /uacute 
251 /ucircumflex 
252 /udieresis 
253 /ydieresis 
254 /.notdef 
  
129 /grave 
130 /acute 
131 /circumflex 
132 /tilde 
133 /dieresis 
134 /ring 
135 /cedilla 
136 /dotlessi 
137 /macron
138 /breve
139 /dotaccent
140 /hungarumlaut
141 /ogonek
142 /caron
143 /endash
144 /emdash
145 /dagger
146 /daggerdbl
147 /bullet
148 /fi
149 /fl
150 /quotedblleft
151 /quotedblright
152 /registered
153 /trademark
154 /quotedblbase
] def
  
/cvc
{ 
( )
dup
0 
4 -1 roll
put
}BD
  
/Courier /CourierExtended DPMCS ReEncode
/ExtendedEncoding /CourierExtended FF /Encoding get def
/SymbolEncoding /Symbol FF /Encoding get def
  
/ExtendedDecoding ExtendedEncoding length dict def
ExtendedDecoding begin
0 1 ExtendedEncoding length 1 sub
{ 
dup
ExtendedEncoding exch get
exch def
}for
end
/SymbolDecoding SymbolEncoding length dict def
SymbolDecoding begin
0 1 SymbolEncoding length 1 sub
{ 
dup
SymbolEncoding exch get
exch def
}for
end
  
/BBox [0 -.25 .6 .75] def
  
/superscript
{/CourierExtended FF SE
.6667 .6667 SC
0 .2667 MO
SH
}BD
  
/diphthong
{ 
{/CourierExtended FF [.6667 0 .1786 1 0 0] MF SE}
{/CourierExtended FF [.66666667 0 0 1 0 0] MF SE}
ifelse
0 0 MO
CP TR
SH
/CourierExtended FF
[.6667 0 0 1 0 0] MF SE
.26 0 MO
SH
}BD
  
/ctrl
{/CourierExtended FF SE
.8333 .8333 SC
0 .3 MO
SH
.1371 -.3 MO
SH
}BD
  
/fraction
{/CourierExtended FF SE
.5 .5 SC
0 .6 MO
SH
.6 0 MO
SH
0 0 MO
1.2 1.2 LI
ST
}BD
  
/McsEncoding ExtendedEncoding def
McsEncoding
dup 169 /copyrightsans put
dup 176 /degree put
dup 177 /plusminus put
dup 178 /twosuper put
dup 179 /threesuper put
dup 181 /mu put
dup 185 /onesuper put
dup 188 /onefourth put
dup 189 /onehalf put
dup 198 /AE put
dup 215 /OE put
dup 230 /ae put
dup 247 /oe put
pop
  
/TcsEncoding  256 array def
32 1 94 {TcsEncoding exch dup McsEncoding exch get put} for
TcsEncoding
dup 95 /space put
dup 96 /diamond put
dup 97 /blob put
dup 98 /HT put
dup 99 /FF put
dup 100 /CR put
dup 101 /LF put
dup 102 /degree put
dup 103 /plusminus put
dup 104 /NL put
dup 105 /VT put
dup 106 /crnlr put
dup 107 /crnur put
dup 108 /crnul put
dup 109 /crnll put
dup 110 /cross put
dup 111 /scan1 put
dup 112 /scan3 put
dup 113 /scan5 put
dup 114 /scan7 put
dup 115 /scan9 put
dup 116 /tl put
dup 117 /tr put
dup 118 /tb put
dup 119 /tt put
dup 120 /vertical put
dup 121 /lessequal put
dup 122 /greaterequal put
dup 123 /pi put
dup 124 /notequal put
dup 125 /sterling put
dup 126 /periodcentered put
pop
TcsEncoding
dup 161 /radicalleft put
dup 162 /radicallefttp put
dup 163 /horizontalext put
dup 164 /integraltp put
dup 165 /integralbt put
dup 166 /verticalext put
dup 167 /bracketlefttp put
dup 168 /bracketleftbt put
dup 169 /bracketrighttp put
dup 170 /bracketrightbt put
dup 171 /bracelefttp put
dup 172 /braceleftbt put
dup 173 /bracerighttp put
dup 174 /bracerightbt put
dup 175 /braceleftmid put
dup 176 /bracerightmid put
dup 177 /sumtpleft put
dup 178 /sumbtleft put
dup 179 /sumtpvert put
dup 180 /sumbtvert put
dup 181 /sumtpright put
dup 182 /sumbtright put
dup 183 /sumrightmid put
dup 184 /questionreverse put
dup 185 /questionreverse put
dup 186 /questionreverse put
dup 187 /questionreverse put
dup 188 /lessequal put
dup 189 /notequal put
dup 190 /greaterequal put
dup 191 /integral put
dup 192 /therefore put
dup 193 /proportional put
dup 194 /infinity put
dup 195 /divide put
dup 196 /Delta put
dup 197 /gradient put
dup 198 /Phi put
dup 199 /Gamma put
dup 200 /similar put
dup 201 /approxequal put
dup 202 /Theta put
dup 203 /multiply put
dup 204 /Lambda put
dup 205 /arrowdblboth put
dup 206 /arrowdblright put
dup 207 /equivalence put
dup 208 /Pi put
dup 209 /Psi put
dup 210 /questionreverse put
dup 211 /Sigma put
dup 212 /questionreverse put
dup 213 /questionreverse put
dup 214 /radical put
dup 215 /Omega put
dup 216 /Xi put
dup 217 /Upsilon1 put
dup 218 /propersubset put
dup 219 /propersuperset put
dup 220 /intersection put
dup 221 /union put
dup 222 /logicaland put
dup 223 /logicalor put
dup 224 /logicalnot put
dup 225 /alpha put
dup 226 /beta put
dup 227 /chi put
dup 228 /delta put
dup 229 /epsilon put
dup 230 /phi put
dup 231 /gamma put
dup 232 /eta put
dup 233 /iota put
dup 234 /theta put
dup 235 /kappa put
dup 236 /lambda put
dup 237 /questionreverse put
dup 238 /nu put
dup 239 /partialdiff put
dup 240 /pi put
dup 241 /psi put
dup 242 /rho put
dup 243 /sigma put
dup 244 /tau put
dup 245 /questionreverse put
dup 246 /florin put
dup 247 /omega put
dup 248 /xi put
dup 249 /upsilon put
dup 250 /zeta put
dup 251 /arrowleft put
dup 252 /arrowup put
dup 253 /arrowright put
dup 254 /arrowdown put
pop
  
/CharStrings 61 dict def
CharStrings begin
/crnlr
{0 .25 MO
.3 .25 LI
.3 .75 LI
ST
}BD
/crnur
{0 .25 MO
.3 .25 LI
.3 -.25 LI
ST
}BD
/crnul
{.6 .25 MO
.3 .25 LI
.3 -.25 LI
ST
}BD
/crnll
{.6 .25 MO
.3 .25 LI
.3 .75 LI
ST
}BD
/cross
{0 .25 MO
.6 .25 LI
.3 .75 MO
.3 -.25 LI
ST
}BD
/scan9
{0 -.15 MO
.6 -.15 LI
ST
}BD
/scan7
{0 .05 MO
.6 .05 LI
ST
}BD
/scan5
{0 .25 MO
.6 .25 LI
ST
}BD
/scan3
{0 .45 MO
.6 .45 LI
ST
}BD
/scan1
{0 .65 MO
.6 .65 LI
ST
}BD
/tl
{.3 .75 MO
.3 -.25 LI
.6 .25 MO
.3 .25 LI
ST
}BD
/tr
{.3 .75 MO
.3 -.25 LI
0 .25 MO
.3 .25 LI
ST
}BD
/tb
{0 .25 MO
.6 .25 LI
.3 .75 MO
.3 .25 LI
ST
}BD
/tt
{0 .25 MO
.6 .25 LI
.3 -.25 MO
.3 .25 LI
ST
}BD
/vertical
{.3 .75 MO
.3 -.25 LI
ST
}BD
/radicalleft
{.3 .75 MO
.3 -.25 LI
0 .25 LI
ST
}BD
/radicallefttp
{.6 .25 MO
.3 .25 LI
.3 -.25 LI
ST
}BD
/horizontalext
{0 .25 MO
.6 .25 LI
ST
}BD
/integraltp
{.3 -.25 MO
.3 .75 .45 .75 .25 arcto pop pop pop pop
ST
.53 .67 .1 0 360 arc
fill
}BD
/integralbt
{.3 .75 MO
.3 -.25 .15 -.25 .25 arcto pop pop pop pop
ST
.08 -.17 .1 0 360 arc
fill
}BD
/verticalext
{.3 .75 MO
.3 -.25 LI
ST
}BD
/bracketlefttp
{.6 .75 MO
.3 .75 LI
.3 -.25 LI
ST
}BD
/bracketleftbt
{.3 .75 MO
.3 -.25 LI
.6 -.25 LI
ST
}BD
/bracketrighttp
{0 .75 MO
.3 .75 LI
.3 -.25 LI
ST
}BD
/bracketrightbt
{.3 .75 MO
.3 -.25 LI
0 -.25 LI
ST
}BD
/bracelefttp
{.3 -.25 MO
.3 .75 .6 .75 .5 arcto pop pop pop pop
ST
}BD
/braceleftbt
{.3 .75 MO
.3 -.25 .6 -.25 .5 arcto pop pop pop pop
ST
}BD
/bracerighttp
{.3 -.25 MO
.3 .75 0 .75 .5 arcto pop pop pop pop
ST
}BD
/bracerightbt
{.3 .75 MO
.3 -.25 0 -.25 .5 arcto pop pop pop pop
ST
}BD
/braceleftmid
{.3 .75 MO
.3 .25 .15 .25 .15 arcto pop pop pop pop
.3 -.25 MO
.3 .25 .15 .25 .15 arcto pop pop pop pop
ST
}BD
/bracerightmid
{.3 .75 MO
.3 .25 .45 .25 .15 arcto pop pop pop pop
.3 -.25 MO
.3 .25 .45 .25 .15 arcto pop pop pop pop
ST
}BD
/sumtpleft
{.6 .25 MO
.3 .25 LI
.6 -.25 LI
ST
}BD
/sumbtleft
{.6 .25 MO
.3 .25 LI
.6 .75 LI
ST
}BD
/sumtpvert
{0 .75 MO
.6 -.25 LI
ST
}BD
/sumbtvert
{0 -.25 MO
.6 .75 LI
ST
}BD
/sumtpright
{0 .25 MO
.6 .25 LI
.6 -.25 LI
ST
}BD
/sumbtright
{0 .25 MO
.6 .25 LI
.6 .75 LI
ST
}BD
/sumrightmid
{0 .75 MO
.3 .25 LI
0 -.25 LI
ST
}BD
/arrowdblboth
{.1 .1 MO
.5 .1 LI
.1 .25 MO
.5 .25 LI
.175 .325 MO
0 .175 LI
.175 .025 LI
.425 .325 MO
.6 .175 LI
.425 .025 LI
ST
}BD
/arrowdblright
{.1 .1 MO
.5 .1 LI
.1 .25 MO
.5 .25 LI
.425 .325 MO
.6 .175 LI
.425 .025 LI
ST
}BD
/arrowleft
{0 .25 MO
.6 .25 LI
.15 .4 MO
0 .25 LI
.15 .1 LI
ST
}BD
/arrowup
{.3 .5 MO
.3 0 LI
.15 .35 MO
.3 .5 LI
.45 .35 LI
ST
}BD
/arrowright
{0 .25 MO
.6 .25 LI
.45 .4 MO
.6 .25 LI
.45 .1 LI
ST
}BD
/arrowdown
{.3 .5 MO
.3 0 LI
.15 .15 MO
.3 0 LI
.45 .15 LI
ST
}BD
/blob
{0 -.25 TR
CharWidth 1 SC
6 10
false
[6 0 0 -10 0 10]
{<55 AA>}
imagemask
}BD
/questionreverse
{/CourierExtended FF SE
.6 0 MO
-1 1 SC
(?) SH
}BD
/onesuper {(1) superscript}BD
/twosuper {(2) superscript}BD
/threesuper {(3) superscript}BD
/AE {(E) (A) true diphthong}BD
/OE {(E) (O) false diphthong}BD
/ae {(e) (a) false diphthong}BD
/oe {(e) (o) false diphthong}BD
/HT {(T) (H) ctrl}BD
/FF {(F) (F) ctrl}BD
/CR {(R) (C) ctrl}BD
/LF {(F) (L) ctrl}BD
/NL {(L) (N) ctrl}BD
/VT {(T) (V) ctrl}BD
/onehalf {(2) (1) fraction}BD
/onefourth {(4) (1) fraction}BD
end
  
/BuildCharDict 3 dict def
/BuildChar
{ 
BuildCharDict begin
/char exch def
/fontdict exch def
/charname fontdict /Encoding get char get def
fontdict begin
CharWidth 0
FontBBox aload pop
setcachedevice
CharStrings charname known
{.05 SW CharStrings charname get
exec
} 
{ExtendedDecoding charname known
{/CourierExtended FF SE
ExtendedDecoding charname get
} 
{/Symbol FF SE
.8 .8 SC
SymbolDecoding charname get
} 
ifelse
cvc
0 0 MO
SH
} 
ifelse
end
end
}BD
  
/Courier-MCS 11 dict dup begin
/FontType 3 def
/FontBBox BBox def
/BuildChar /BuildChar load def
/Encoding McsEncoding def
/CharWidth .6 def
/FontMatrix [1 0 0 1 0 0] def
/UnderlineThickness 75 def
/UnderlinePosition 250 def
/StrikethroughThickness 75 def
/StrikethroughPosition -275 def
end definefont pop
  
/Courier-TECH 11 dict dup begin
/FontType 3 def
/FontBBox BBox def
/BuildChar /BuildChar load def
/Encoding TcsEncoding def
/CharWidth .6 def
/FontMatrix [1 0 0 1 0 0] def
/UnderlineThickness 75 def
/UnderlinePosition 250 def
/StrikethroughThickness 75 def
/StrikethroughPosition -275 def
end definefont pop
%%EndProlog
 /Helvetica-Bold /Helvetica-Bold-DPMCS DPMCS ReEncode /Helvetica /Helvetica-DPMCS DPMCS ReEncode /Helvetica-Oblique /Helvetica-Oblique-DPMCS DPMCS ReEncode% SPD (8.5*11") 'software' logo.
% Aidan Killian ESDC Galway 14/05/86.
% Amended to position logo to left margin on 12-Aug-1986
% at ESDC Galway (AK/MS).
/LOGO8A {
save						% Save current environment

/digital-font /Helvetica-Bold findfont 
[35 34 div .65 mul 0 0 .75 0 0] makefont def

/box-width 35 34 div .405 mul def
/box-pitch box-width .85 div def

/digital-box { 
  gsave 
    box-pitch box-width sub 2 div -.225 rmoveto
    box-width 0 rlineto 
    0 1 rlineto box-width neg 0 rlineto 
    closepath fill 
  grestore 
  gsave
    dup stringwidth pop box-pitch exch sub 2 div 0 rmoveto 
    1 setgray 
    show
  grestore
  box-pitch 0 rmoveto
} def 

/digital_logo {
  % draws digital logo with left baseline point at current point with
  % specified height using current color for boxes and white letters 
  % and moves current point in x direction by about 3.433 times height

  dup scale 
  digital-font setfont 
  0 1 6 {(digital) exch 1 getinterval digital-box} for 
} def 

/sw 1 def					% Stroke width / 2

/std 68 def					% Start Displ.

/bl 60 def					% Char Levels
/cbl bl sw add def
/ol bl 18.4 add def
/xl bl 36.8 add def
/cxl xl sw sub def
/wl xl sw add sw add def
/tl bl 59.5 add def
/ctl tl sw sub def
/dl xl 10.5 add def
/rll bl 14 sub def

/cr ol bl sub sw sub def			% Sub-char Radii
/s1r 10 def
/s2r 8 def
/fr 9.1 def
/rr 12.4 def

/el bl 19.3 add def				% Sub-char Levels
/e2l bl 10.3 add def
/s1l cbl s1r add def
/s2l cxl s2r sub def
/s3l bl 19.8 add def

/sd std s1r add sw add def			% Char Displ.
/od std 42.5 add def
/fd std 66 add def
/td std 86.5 add def
/wd std 102 add def
/ad std 168 add def
/rd std 194 add def
/ed std 221.3 add def
/end cr cr add ed add def

/f2d fd 6 sub def				% Sub-char Displ.
/t2d td 7.7 sub def
/w2d wd 26 add def
/w3d wd 52 add def
/a2d ad cr add 0.4 sub def

/dsz 15.9 def
/bsw 18 def
/bd wd 375.5 add def

sw sw add setlinewidth
} def
/LOGO8B {
newpath
sd s2l s2r 0 180 arc 
sd s2r sub s2l 5 sub sd 3.6 sub s3l 1 add sd s3l curveto 
sd 3.6 add s3l 1 sub sd s1r add s1l 5 add sd s1r add s1l curveto 
sd s1l s1r 0 180 arcn stroke

od ol cr 0 360 arc stroke

fd cbl moveto 
fd ctl td ctl fr arcto pop pop pop pop 
f2d cxl moveto 
fd fr add cxl lineto stroke

td bl 1 add moveto 
td tl lineto 
t2d cxl moveto 
td fr add cxl lineto stroke

gsave
  td cbl moveto 
  td xl lineto 
  ad xl lineto 
  ad cbl lineto clip newpath

  wd xl moveto 
  wd cbl lineto 
  w2d wl lineto 
  w2d cbl lineto 
  w3d wl lineto stroke
grestore

gsave
  a2d bl moveto 
  a2d xl lineto 
  wd xl lineto 
  wd bl lineto clip newpath

  ad ol cr 0 365 arc stroke
grestore

gsave
  a2d sw add cbl moveto 
  a2d sw sub cbl lineto 
  ad ol cr 300 60 arc 
  a2d sw sub xl lineto 
  a2d sw add xl lineto clip newpath

  a2d cbl moveto 
  a2d xl lineto stroke
grestore

rd cbl moveto 
rd xl lineto 
rd cbl moveto 
rd cxl ed cxl rr arcto pop pop pop pop stroke

gsave
  rd bl moveto 
  rd xl lineto 
  end xl lineto 
  end el sw sub lineto
  ed el sw sub lineto 
  ed e2l lineto 
  end e2l lineto 
  end bl lineto clip newpath

  ed ol cr 0 360 arc 
  ed cr sub el moveto 
  ed cr add el lineto stroke
grestore

gsave
  wd sw sub dl moveto dsz digital_logo
grestore

bsw setlinewidth

wd sw sub rll moveto 
bd rll lineto stroke

restore						% Restore previous environment
} def
/LOGO8 { LOGO8A LOGO8B} def
 save
%%Page: 1 1

0 657.04 MO
 10.00 /Courier-MCS DPT
 /save-pc$postscript-graphic save def 
56.78 654.59 TR 
 0 95.64 490.16 512.00 div 96.00 mul  sub  2  div  TR 490.16 512.00 div 490.16 512.00 div  SC 
0.00 -1 mul  634.00 -1 mul  TR 
 /showpage {} def /initmatrix {} def /initgraphics {} def /initclip {} def /erasepage {} def /copypage {} def /exitserver {} def /letter {} def /note {} def /legal {} def
%!PS-Adobe-2.0 EPSF-1.2

%%Creator:Cricket Draw 1.1

%%Title:ssa8top.ps

%%CreationDate:11/11/88   4:34 PM

%%DocumentFonts: Helvetica

%%BoundingBox:0 634 512 730 

%%Pages:0

%%EndComments

/vmstate save def

/$cricket 210 dict def

$cricket begin 1 -1 scale

0 -730  translate

2 setlinecap

/d /def load def

/b {bind d}bind d

/l {load d}b

/e /exch l

/x {e d}b

/C /closepath l

/CP /currentpoint l

/SH /show l

/g /gsave l

/G /grestore l

/i /if l

/I /ifelse l

/v /getinterval l

/V /putinterval l

/W /stringwidth l

/SG /setgray l

/N /newpath l

/M /moveto l

/L /lineto l

/R /rlineto l

/T /translate l

/D /dup l

/* /mul l

/+ /add l

/- /sub l

/? /div l

/ma {* +}b 

/h {D * e D ma sqrt}d

systemdict D /setpacking known D {/packstate currentpacking d D setpacking}i /pack? x

begin /settransfer load /setscreen load end 

/setscreen x /settransfer x

/dt [ currenttransfer ] cvx d 

/ds [ currentscreen D [ e ] cvx /devSpot x ] cvx d 

/jp {e [ 3 1 roll aload pop counttomark -1 roll aload pop ] cvx}b 

/settransfer {dt jp settransfer}b 

/macvec dup where not { 256 array d 

macvec 0 StandardEncoding

0 128 getinterval putinterval

macvec 16#27 /quotesingle put

macvec 16#60 /grave put

/Adieresis /Aring /Ccedilla /Eacute /Ntilde /Odieresis /Udieresis /aacute

/agrave /acircumflex /adieresis /atilde /aring /ccedilla /eacute /egrave

/ecircumflex /edieresis /iacute /igrave /icircumflex /idieresis /ntilde /oacute

/ograve /ocircumflex /odieresis /otilde /uacute /ugrave /ucircumflex /udieresis

/dagger /degree /cent /sterling /section /bullet /paragraph /germandbls

/registersans /copyrightsans /trademarksans /acute /dieresis /notequal /AE /Oslash

/infinity /plusminus /lessequal /greaterequal /yen /mu /partialdiff /summation

/product /pi /integral /ordfeminine /ordmasculine /Omega /ae /oslash

/questiondown /exclamdown /logicalnot /radical /florin /approxequal /Delta /guillemotleft

/guillemotright /ellipsis /space /Aacute /Atilde /Otilde /OE /oe

/endash /emdash /quotedblleft /quotedblright /quoteleft /quoteright /divide /lozenge

/ydieresis /Ydieresis /fraction /currency /guilsinglleft /guilsinglright /fi /fl

/daggerdbl /periodcentered /quotesinglbase /quotedblbase /perthousand

/Acircumflex /Ecircumflex /Agrave

/Edieresis /Egrave /Iacute /Icircumflex /Idieresis /Igrave /Oacute /Ocircumflex

/apple /Ograve /Uacute /Ucircumflex /Ugrave /dotlessi /circumflex /tilde

/macron /breve /dotaccent /ring /cedilla /hungarumlaut /ogonek /caron

macvec 128 128 v astore pop}{pop pop}I

/ad {+ d}b 

/sd {- d}b 

/td {* d}b 

/dd {? d}b

/c {2 ? e 2 ? e}b 

/n0 {D 0 eq {pop}}b

/m1 matrix d /m2 matrix d /m3 matrix d

/ct 0 d 

/s+ 0 d 

/po 0 d 

/ts 40 string d

/s1 (|______) d

ts 0 s1 V

/sp ( ) d

/SM {/m3 m3 currentmatrix d}b 

/RM {m3 setmatrix}b 

/dpi 72 0 matrix defaultmatrix dtransform h d

/inch {72 *}b

/cm {28.3465 *}b

/pi 3.1415923 d

/fs 256 string d 

/sh {m1 m2 copy 2 3 -1 roll sin put m2 concat}b 

/fc {T n0 {rotate}I scale n0 {sh}I}b 

/a {/ea x /sa x SM -1 * scale 0 0 1 sa ea 2 copy gt {arcn}{arc}I RM}b 

/cn {SM T x1 y1 scale 0 0 1 ct 90 * D 90 + arc /ct ct 1 ad RM}b 

/rr {/y1 x /x1 x /ct 0 d c y1 - /yr x x1 - /xr x N xr yr cn xr neg yr cn xr neg yr neg cn xr yr neg cn C}b 

/dg 

{/lc x clip rotate T /dy x /dx x

0 eq {N 

1 eq {1 10 lc ? 10{log dy * 0 e neg M dx 0 R}for lc 10 gt{dy 0 e neg M dx 0 R}i}

{lc 1 eq {0 0 e neg M dx 0 R}{/st dy lc 1 - dd 0 1 lc 1 - {st * 0 e neg M dx 0 R}for}I}I

stroke}

{1 eq {/st 0 d /inc 10 lc 1 + dd dx dy lt {/rd dx d}{/rd dy d}I

1 1 lc {/di st 1 + log 10 log ? rd td N dx di - dy di - 0 360 a C stroke /st st inc ad}for} 

{dx dy lt {/st dx lc dd}{/st dy lc dd}I lc {N dx dy 0 360 a C stroke /dx dx st sd /dy dy st sd}repeat} I

}I}b

/sb {/ea x /ia x /sa x /yr x /xr x ea sa lt{/ia ia neg d}i N sa ia ea{D /x1 e cos xr td /y1 e sin yr * neg d x1 y1 M 0 0 L}for}b

/bm {/y1 x /x1 x bitgray SG x1 y1 /md where {pop md /invertflag get not}{true}I 

[x1 0 0 y1 0 0] {currentfile picstring readhexstring pop}imagemask}b

/c1 .166667 d /c2 .833333 d /c3 .5 d

/p3 {+ c3 *}b 

/dc{/y2 x /x2 x x0 c1 * x1 c2 ma y0 c1 * y1 c2 ma x1 c2 * x2 c1 ma y1 c2 * y2 c1 ma x1 x2 p3 y1 y2 p3 curveto}b 

/mp {/x0 x1 d /y0 y1 d /x1 x2 d /y1 y2 d}b

/SPOLY_INIT

{/SPOLY_SAVE save d /cls x

/M {2 copy /y0 x /x0 x moveto /M /moveto load d}d

/L {/y1 x /x1 x x0 x1 p3 y0 y1 p3

cls {/yy y1 d /xx x1 d /C {mp xx yy dc systemdict /closepath get exec}d M}

{lineto}I /L {{dc mp}stopped {/L {pop pop}d /noerr false d}i}d}d}d

/SPOLY_END {SPOLY_SAVE restore}b

/ah {g 2 copy T 3 -1 roll - 3 1 roll e - atan rotate os 0 M hl hw R 0 hw 2 * neg R C fill G}b

/da 

{g stroke G 

g currentlinewidth D -10 * D /hl x -2 ? /os x 2 * /hw x /bp x /ep x

.2 setlinewidth 0 setlinejoin 

g flattenpath {}{}{}{} pathforall 

count 8 eq {8 4 roll}i

count 8 gt {count 4 roll mark count 8 - 1 roll cleartomark}i 

count 6 eq {6 2 roll 2 copy 8 2 roll}i

count 4 eq {4 copy}i G

N bp {4 2 roll ah}{pop pop pop pop}I ep {ah}{clear}I G}b 

/tp {sm0 transform}b 

/sfp {} d 

/op {{tp moveto}{tp lineto}{3{tp 6 2 roll}repeat curveto}{C} pathforall sfp stroke}b 

/sm0 matrix d /sm1 matrix d

/so 

{SG /eg x /tg x /yt x /xt x 

xt 0 ne yt 0 ne or {

xt abs yt abs gt {/tt xt abs d}{/tt yt abs d}I

tt 144 gt {/ct dpi 2 dd /sfp{g eofill G}d}

{tt 72 gt {/ct dpi 4 dd /sfp{g eofill G}d}

{/ct dpi 4 dd}I}I

/ig tg eg - ct ? neg d

/x1 xt ct ? neg d /y1 yt ct dd 

1 0 0 1 xt yt sm0 astore pop 

1 0 0 1 x1 y1 neg sm1 astore pop

g op G

1 1 ct{g ig * tg + SG sm0 D sm1 e concatmatrix pop op G}for}i}b

/css {T 0 0 M xsp 0 32 Txt widthshow}b

/sc 

{g /xsp x /tg x /eg x /sg x /y1 x /x1 x /Txt x

/sst dpi 4 dd /y2 y1 sst dd /x2 x1 neg sst dd

eg sg eq {/sg sg .001 sd}i

/ig eg sg - sst ? neg d 

g tg SG x1 y1 neg css 

eg ig + ig sg {SG x2 y2 css}for G 

x2 y2 css G}b 

/gbb {pathbbox /y1 x /x1 x /y2 x /x2 x /x3 x1 x2 sd /y3 y1 y2 sd}b 

/radf 

{/dn dpi 300 ? 8 * 24 ad /ig rg 255 ? dn dd

sg 255 ? SG eoclip gbb 

x2 x3 2 ? + y2 y3 2 ? + T N

x3 y3 h 2 ? D dn ? neg 1 

{0 0 3 -1 roll 0 360 arc C fill currentgray ig + SG}for}b

/dof 

{/ff x 

eoclip 180 - rotate gbb

x1 y1 T 180 rotate x3 y3 scale

0 1 255 {fs e D 255 ? ff rg * sg + round cvi put}for

1 256 8 [1 0 0 256 0 0] fs image}b

/gft {radf {{} dof}{{1 e - 9 * 1 + log 1 e -}dof}}b

/df 

{g 2 copy eq {SG clear fill}{255 * e 255 * e 1 index - /rg x /sg x /gft load e get exec}I G}b 

/oc

{/tl x /ju x /di 0 d 

g flattenpath

{/y1 x /x1 x}{/y2 x /x2 x /dx x2 x1 sd /dy y2 y1 sd /di dx D * dy D ma sqrt di ad /x1 x2 d /y1 y2 d}

{}{/y2 x /x2 x /dx x2 x1 sd /dy y2 y1 sd /di dx D * dy D ma sqrt d}pathforall

ju 0 eq{/po 0 store}i

ju 1 eq{/po di tl - 2 ? store}i

ju 2 eq{/po di tl - store}i G}b

/pt {/FM true d /os x /sr x /os os sr 0 1 v W pop 2 ? ad /pd 0 d /sl os d /ct 0 d g flattenpath {mtp}{ltp}{ctp}{cpp}pathforall G}b

/mtp {/y1 x /x1 x /x2 x1 d /y2 y1 d /ovr FM {os /FM false d}{0}I d x1 y1 transform /cpy x /cpx x}b

/ltp 

{/x3 x1 d /y3 y1 d /y1 x /x1 x /dx x1 x3 sd /dy y1 y3 sd /di dx D * dy D ma sqrt d 

/di 0 ne

{/dsx dx di ? ovr td /dsy dy di ? ovr td x3 dsx + y3 dsy + transform

/cpy x /cpx x /pd pd di ad {sl pd le {ct sr length lt{sch}{exit}I}{/ovr sl pd sd exit}I}loop}i}b

/ctp {}b 

/cpp {x2 y2 ltp x2 y2 mtp}b 

/sch 

{/ch sr ct 1 v d /ct ct 1 ad

/cw ch W pop 2 dd 

g cpx cpy itransform T dy dx atan rotate cw neg 0 M ch SH

ct sr length lt{sr ct 1 v W pop 2 ? 0 rmoveto}i

CP transform /cpy x /cpx x G

/sl sl cw ad /po po cw 2 ma store ct sr length lt{/sl sl sr ct 1 v W pop 2 ? ad}i}b

/cpd {/newslots x D length newslots + dict D 3 1 roll begin {1 index /FID ne {def}i}forall pop pop end}b

/of 

{/ui 0 d 

/pw 1000 24 dd 

/nn x 

/bn x 

ui 0 eq 

{/ui bn findfont

dup /UniqueID known 

{/UniqueID get 1 add}{pop 1}ifelse

def} if

/bfd bn findfont def 

/ct bfd maxlength 1 ad 

bfd /UniqueID known not

{/ct ct 1 ad} if

/ofd ct dict def 

bfd

{ exch dup /FID ne

{exch ofd 3 1 roll put}

{pop pop} ifelse

}forall

ofd /FontName nn put

ofd /PaintType 2 put

ofd /StrokeWidth pw put

ofd /UniqueID ui put

nn ofd definefont pop}b

/uf 

{20 dict begin

/ui x 

e /BaseFont e findfont d

ui 0 eq 

{/ui BaseFont D /UniqueID known 

{/UniqueID get 1 +}{pop 1}I d}i

/FontType 3 d

/Upos BaseFont /FontInfo 2 copy known

{get /UnderlinePosition 2 copy known

{get}{pop pop -100 }I}{ pop pop -100 }I d

/Uwid BaseFont /FontInfo 2 copy known

{get /UnderlineThickness 2 copy known

{get}{pop pop 50}I}

{pop pop 50}I d

/FontMatrix BaseFont /FontMatrix get d

/FontBBox BaseFont /FontBBox get

D 1 get Upos gt {D 1 Upos put}i d

/Encoding BaseFont /Encoding get d

/theChar 1 string d

/BuildChar

{e begin

theChar 0 3 -1 roll put

BaseFont 1000 scalefont setfont

theChar W FontBBox setcachedevice

0 0 M

theChar show

0 Upos rmoveto 0 Upos L

Uwid setlinewidth stroke

end}d

currentdict 

end

definefont pop}b

/ns {g CP m3 currentmatrix nulldevice setmatrix T 0 0 M Txt CP pop G}b 

/ft {/ftsave save d CP 3 1 roll + e T 0 0 M /show /myshow l Txt ftsave restore}b 

/ls {/Txt x 0 ft}b 

/cs {/Txt x ns 2 ? neg ft}b 

/rs {/Txt x ns neg ft}b 

/slp {/sproc x /sr x 0 1 sr length 1 - {sr e 1 v sproc}for}b 

/ss 

{/Txt x /fsave save d

CP 2 copy T 0 0 M 

/ffsave save d pop - /lw x ns /tw x /wsp lw tw sd /nsp 0 d

/show {nsp e {sp eq {1 +}i}slp /nsp x}b 

Txt 0 nsp 0 gt {wsp nsp ? +}i ffsave restore /s+ x

/myshow load D systemdict /show get ne

{D D length 1 - get cvlit /charshadow eq {[ e aload pop e pop s+ e ] cvx}i}

{pop {s+ 0 32 4 -1 roll widthshow}}I

/show x Txt fsave restore}b

/cf{D /fn x length 7 + string /ts x ts 0 s1 V ts 7 fn V /fnm ts cvn d 

FontDirectory fnm known not {fn cvn findfont 0 cpd /nfd x nfd D /FontName fnm put /Encoding macvec put fnm nfd definefont pop}i}b

 

/JoinProcs {jp}d

/fixcoordinates {fc}d

/doarc {a}d

/doroundrect {rr}d

/dograte {dg}d

/dorgrate {drg}d

/pathoffset {po}d

/pathtext {pt}d

/dostarburst {sb}d

/dobitmap {bm}d

/strokearrow {da}d

/shadow {so}d

/charshadow {sc}d

/fountain {df}d

/offsetcalc {oc}d

/MakeOutlineFont {of}d

/MakeUnderlineFont {uf}d

/leftshow {ls}d

/rightshow {rs}d

/centershow {cs}d

/fullshow {ss}d

/coordinatefont {cf}d

 

 

%-----------------------------------

%Encode PS Fonts to match Mac Fonts

(Helvetica) coordinatefont

%-----------------------------------



%----- Begin Main Program -----%



gsave  % Text Block

0.000 1  -1  0.000 108.999 47.499  fixcoordinates

/myshow /show load def

0 setgray 

-106 25 moveto

/|______Helvetica findfont 24 scalefont setfont

{

(System) show

} leftshow

-106 0 moveto

{

(Support) show

} leftshow

-106 -25 moveto

{

(Addendum) show

} leftshow

grestore



gsave % Line

0.000 1  1  0.000 257.997 92.499  fixcoordinates

newpath

-252.000 0.000  moveto

252.000 0.000 lineto

3.000 setlinewidth 0 setgray stroke

grestore



gsave % Line

0.000 1  1  0.000 257.999 85.499  fixcoordinates

newpath

-250.501 0.000  moveto

250.501 0.000 lineto

5.000 setlinewidth 0 setgray stroke

grestore



%------ End Main Program ------%



end

vmstate restore



%%Trailer



%%Pages:1




 save-pc$postscript-graphic restore

0 638.54 MO
 60.00 0 RM 9.00 /Helvetica-Bold-DPMCS DPT
 (PRODUCT NAME:) 3.60 DPJ
0 638.54 MO
 146.59 0 RM 12.00 /Helvetica-Bold-DPMCS DPT
 (X25router) 42.16 DPJ 3.60 0 RM (2000,) 42.16 DPJ 3.60 0 RM (Version) 42.16 DPJ 3.60 0 RM (1.1) 42.16 DPJ 154.24 0 RM (SSA) 42.16 DPJ 3.60 0 RM (28.86.01-A) 42.16 DPJ
0 624.54 MO
 146.59 0 RM (\(Formerly X25router\)) 4.80 DPJ
0 599.04 MO
 60.00 0 RM 9.00 /Helvetica-Bold-DPMCS DPT
 (HARDWARE REQUIREMENTS) 3.60 DPJ
0 599.04 MO
 312.00 0 RM 9.00 /Helvetica-DPMCS DPT
 (MicroVAX:) 3.60 DPJ
0 599.04 MO
 370.77 0 RM (MicroVAX II, MicroVAX 2000, MicroVAX) 5.80 DPJ
0 589.04 MO
 370.77 0 RM (3100, MicroVAX 3300, MicroVAX 3400,) 6.41 DPJ
0 583.79 MO
 60.00 0 RM 9.00 /Helvetica-Oblique-DPMCS DPT
 (Processors Supported \(VMS Load Host Systems\)) 3.60 DPJ
0 579.04 MO
 370.77 0 RM 9.00 /Helvetica-DPMCS DPT
 (MicroVAX 3500, MicroVAX 3600,) 16.06 DPJ
0 569.29 MO
 60.00 0 RM (VAX:) 16.06 DPJ
0 569.29 MO
 87.84 0 RM (VAX 6000 Model 200 Series) 3.60 DPJ
0 569.04 MO
 370.77 0 RM (MicroVAX 3800, MicroVAX 3900) 3.60 DPJ
0 559.29 MO
 87.84 0 RM (VAX 6000 Model 300 Series) 3.60 DPJ
0 554.29 MO
 312.00 0 RM (VAXstation:) 3.60 DPJ
0 554.29 MO
 370.77 0 RM (VAXstation II, VAXstation 2000,) 18.05 DPJ
0 549.29 MO
 87.84 0 RM (VAX 6000 Model 400 Series) 3.60 DPJ
0 544.29 MO
 370.77 0 RM (VAXstation 3100, VAXstation 3200,) 13.05 DPJ
0 534.54 MO
 87.84 0 RM (VAX 8200, VAX 8250, VAX 8300, VAX 8350, VAX) 3.00 DPJ
0 534.29 MO
 370.77 0 RM (VAXstation 3500, VAXstation 3520,) 3.60 DPJ
0 524.54 MO
 87.84 0 RM (8500, VAX 8530, VAX 8550, VAX 8600, VAX) 6.00 DPJ
0 519.29 MO
 312.00 0 RM (VAXserver:) 6.00 DPJ
0 519.29 MO
 370.77 0 RM (VAXserver 3100, VAXserver 3300,) 14.05 DPJ
0 514.54 MO
 87.84 0 RM (8650, VAX 8700, VAX 8800, VAX 8810, VAX) 6.00 DPJ
0 509.29 MO
 370.77 0 RM (VAXserver 3400, VAXserver 3500,) 14.05 DPJ
0 504.54 MO
 87.84 0 RM (8820, VAX 8830, VAX 8840, VAX 8842, VAX) 6.00 DPJ
0 499.29 MO
 370.77 0 RM (VAXserver 3600, VAXserver 3602,) 14.05 DPJ
0 494.54 MO
 87.84 0 RM (8974, VAX 8978) 3.60 DPJ
0 489.29 MO
 370.77 0 RM (VAXserver 3800, VAXserver 3900,) 3.60 DPJ
0 479.54 MO
 87.84 0 RM (VAX-11/730, VAX-11/750, VAX-11/780, VAX-11/) 5.85 DPJ
0 474.54 MO
 370.77 0 RM (VAXserver 6000-210, VAXserver 6000-) 7.89 DPJ
0 469.54 MO
 87.84 0 RM (785) 7.89 DPJ
0 464.54 MO
 370.77 0 RM (310, VAXserver 6000-410, VAXserver) 9.72 DPJ
0 454.54 MO
 60.00 0 RM (MicroVAX:) 9.72 DPJ
0 454.54 MO
 118.77 0 RM (MicroVAX II, MicroVAX 2000, MicroVAX) 5.79 DPJ
0 454.54 MO
 370.77 0 RM (6000-420) 5.79 DPJ
0 444.54 MO
 118.77 0 RM (3100, MicroVAX 3300, MicroVAX 3400,) 6.41 DPJ
0 439.54 MO
 312.00 0 RM 9.00 /Helvetica-Oblique-DPMCS DPT
 (Processors Not Supported \(ULTRIX-32 Load Host) 8.98 DPJ
0 434.54 MO
 118.77 0 RM 9.00 /Helvetica-DPMCS DPT
 (MicroVAX 3500, MicroVAX 3600,) 16.06 DPJ
0 429.54 MO
 312.00 0 RM 9.00 /Helvetica-Oblique-DPMCS DPT
 (Systems\)) 16.06 DPJ
0 424.54 MO
 118.77 0 RM 9.00 /Helvetica-DPMCS DPT
 (MicroVAX 3800, MicroVAX 3900) 3.60 DPJ
0 415.29 MO
 312.00 0 RM (VAX:) 3.60 DPJ
0 415.29 MO
 339.84 0 RM (VAX-11/725, VAX-11/730, VAX-11/782) 3.60 DPJ
0 409.79 MO
 60.00 0 RM (VAXstation:) 3.60 DPJ
0 409.79 MO
 118.77 0 RM (VAXstation II, VAXstation 2000,) 18.05 DPJ
0 400.54 MO
 312.00 0 RM (MicroVAX:) 18.05 DPJ
0 400.54 MO
 370.77 0 RM (MicroVAX I) 3.60 DPJ
0 399.79 MO
 118.77 0 RM (VAXstation 3100, VAXstation 3200,) 13.04 DPJ
0 389.79 MO
 118.77 0 RM (VAXstation 3500, VAXstation 3520,) 13.05 DPJ
0 385.54 MO
 312.00 0 RM (VAXstation:) 13.05 DPJ
0 385.54 MO
 370.77 0 RM (VAXstation I) 3.60 DPJ
0 379.79 MO
 118.77 0 RM (VAXstation 3540, VAXstation 8000) 3.60 DPJ
0 370.79 MO
 312.00 0 RM (DECstation:) 3.60 DPJ
0 370.79 MO
 370.77 0 RM (DECstation 2100, DECstation 3100,) 12.39 DPJ
0 364.79 MO
 60.00 0 RM (VAXserver:) 12.39 DPJ
0 364.79 MO
 118.77 0 RM (VAXserver 3100, VAXserver 3300,) 14.05 DPJ
0 360.79 MO
 370.77 0 RM (DECstation 3100S) 3.60 DPJ
0 354.79 MO
 118.77 0 RM (VAXserver 3400, VAXserver 3500,) 14.05 DPJ
0 345.79 MO
 312.00 0 RM (DECsystem:) 14.05 DPJ
0 345.79 MO
 370.77 0 RM (DECsystem 3100, DECsystem 5400,) 11.06 DPJ
0 344.79 MO
 118.77 0 RM (VAXserver 3600, VAXserver 3602,) 14.05 DPJ
0 335.79 MO
 370.77 0 RM (DECsystem 5810, DECsystem 5820) 3.60 DPJ
0 334.79 MO
 118.77 0 RM (VAXserver 3800, VAXserver 3900) 3.60 DPJ
0 321.04 MO
 312.00 0 RM 9.00 /Helvetica-Oblique-DPMCS DPT
 (Processor Restrictions \(VMS and ULTRIX-32 Load Host) 3.90 DPJ
0 319.79 MO
 118.77 0 RM 9.00 /Helvetica-DPMCS DPT
 (VAXserver 6000-210, VAXserver 6000-) 7.89 DPJ
0 311.04 MO
 312.00 0 RM 9.00 /Helvetica-Oblique-DPMCS DPT
 (Systems\)) 7.89 DPJ
0 309.79 MO
 118.77 0 RM 9.00 /Helvetica-DPMCS DPT
 (310, VAXserver 6000-410, VAXserver) 9.72 DPJ
0 299.79 MO
 118.77 0 RM (6000-420) 9.72 DPJ
0 295.54 MO
 312.00 0 RM (A TK50 tape drive is required for standalone MicroVAX) 4.17 DPJ
0 285.54 MO
 312.00 0 RM (2000 and VAXstation 2000 systems.) 3.60 DPJ
0 285.04 MO
 60.00 0 RM 9.00 /Helvetica-Oblique-DPMCS DPT
 (Processors Not Supported \(VMS Load Host Systems\)) 3.60 DPJ
0 270.54 MO
 60.00 0 RM 9.00 /Helvetica-DPMCS DPT
 (VAX:) 3.60 DPJ
0 270.54 MO
 87.84 0 RM (VAX-11/725, VAX-11/782) 3.60 DPJ
0 270.04 MO
 312.00 0 RM (Each load host on which the X25router 2000 software is) 3.54 DPJ
0 260.04 MO
 312.00 0 RM (installed must contain:) 3.60 DPJ
0 255.79 MO
 60.00 0 RM (MicroVAX:) 3.60 DPJ
0 255.79 MO
 118.77 0 RM (MicroVAX I) 3.60 DPJ
0 245.79 MO
 312.00 0 RM 9.00 /Helvetica-DPMCS DPT
 (\223) 3.60 DPJ
0 245.79 MO
 324.37 0 RM 9.00 /Helvetica-DPMCS DPT
 (A valid system configuration for the relevant operating) 3.22 DPJ
0 240.79 MO
 60.00 0 RM (VAXstation:) 3.22 DPJ
0 240.79 MO
 118.77 0 RM (VAXstation I) 3.60 DPJ
0 235.79 MO
 324.37 0 RM (system and for the appropriate DECnet product \(refer) 3.50 DPJ
0 225.79 MO
 324.37 0 RM (to the DECnet and appropriate operating system) 6.92 DPJ
0 225.29 MO
 60.00 0 RM 9.00 /Helvetica-Oblique-DPMCS DPT
 (Processors Supported \(ULTRIX-32 Load Host Systems\)) 4.28 DPJ
0 215.79 MO
 324.37 0 RM 9.00 /Helvetica-DPMCS DPT
 (SPDs\).) 4.28 DPJ
0 211.04 MO
 60.00 0 RM (VAX:) 4.28 DPJ
0 211.04 MO
 87.84 0 RM (VAX 6000-210, VAX 6000-220, VAX 6000-310,) 5.71 DPJ
0 201.04 MO
 87.84 0 RM (VAX 6000-320, VAX 6000-410, VAX 6000-420) 3.60 DPJ
0 200.79 MO
 312.00 0 RM 9.00 /Helvetica-DPMCS DPT
 (\223) 3.60 DPJ
0 200.79 MO
 324.37 0 RM 9.00 /Helvetica-DPMCS DPT
 (A supported connection on the same LAN as the) 5.75 DPJ
0 190.79 MO
 324.37 0 RM (X25router 2000.) 3.60 DPJ
0 186.04 MO
 87.84 0 RM (VAX 8200, VAX 8250, VAX 8300, VAX 8350, VAX) 3.00 DPJ
0 176.04 MO
 87.84 0 RM (8500, VAX 8530, VAX 8550, VAX 8600, VAX) 6.00 DPJ
0 176.04 MO
 312.00 0 RM 9.00 /Helvetica-DPMCS DPT
 (\223) 6.00 DPJ
0 176.04 MO
 324.37 0 RM 9.00 /Helvetica-DPMCS DPT
 (An appropriate device available to read the software) 4.22 DPJ
0 166.04 MO
 87.84 0 RM (8650, VAX 8700, VAX 8800, VAX 8810, VAX) 6.00 DPJ
0 166.04 MO
 324.37 0 RM (during installation:) 3.60 DPJ
0 156.04 MO
 87.84 0 RM (8820) 3.60 DPJ
0 151.04 MO
 312.00 0 RM 9.00 /Helvetica-DPMCS DPT
 (\223) 3.60 DPJ
0 151.04 MO
 324.37 0 RM 9.00 /Helvetica-DPMCS DPT
 (MT9 MAGNETIC tape drive or TK50 magnetic tape) 4.79 DPJ
0 141.04 MO
 87.84 0 RM (VAX-11/750, VAX-11/780, VAX-11/785) 3.60 DPJ
0 141.04 MO
 324.37 0 RM (drive) 3.60 DPJ
0 98.54 MO
 479.27 0 RM 9.00 /Helvetica-Bold-DPMCS DPT
 (November) 421.97 DPJ 2.70 0 RM (1989) 421.97 DPJ
0 88.54 MO
 485.51 0 RM (AE-MA48B-TE) 421.97 DPJ
0 78.54 MO

0 68.54 MO

0 58.54 MO

0 48.54 MO

0 38.54 MO

0 28.54 MO
 60.00 0 RM %%LOGO8
 LOGO8
0 28.54 MO
 0 -84.00 RM
 showpage
 restore
 save
%%Page: 2 2

0 746.54 MO
 60.00 0 RM 9.00 /Helvetica-Bold-DPMCS DPT
 (X25router) 78.23 DPJ 2.70 0 RM (2000,) 78.23 DPJ 2.70 0 RM (Version) 78.23 DPJ 2.70 0 RM (1.1) 78.23 DPJ 302.12 0 RM (SSA) 78.23 DPJ 2.70 0 RM (28.86.01-A) 78.23 DPJ
0 736.54 MO
 60.00 0 RM (\(Formerly X25router\)) 3.60 DPJ
0 710.54 MO
 60.00 0 RM (Other Hardware Required) 3.60 DPJ
0 710.54 MO
 312.00 0 RM 9.00 /Helvetica-Oblique-DPMCS DPT
 (Disk space requirements for ULTRIX-32 Operating) 8.59 DPJ
0 700.54 MO
 312.00 0 RM (Systems:) 8.59 DPJ
0 694.54 MO
 60.00 0 RM 9.00 /Helvetica-DPMCS DPT
 (The X25router 2000 software requires the DEC) 9.82 DPJ
0 685.54 MO
 312.00 0 RM (Disk space required for installation:) 3.60 DPJ
0 684.54 MO
 60.00 0 RM (MicroServer \(DEMSA\) or DEC MicroServer-SP \(DEMSB\)) 3.40 DPJ
0 674.54 MO
 60.00 0 RM (hardware unit, available as follows:) 3.60 DPJ
0 670.29 MO
 432.64 0 RM (1,750 Kbytes) 3.60 DPJ
0 658.29 MO
 60.00 0 RM 9.00 /Helvetica-DPMCS DPT
 (\223) 3.60 DPJ
0 658.29 MO
 72.37 0 RM 9.00 /Helvetica-DPMCS DPT
 (DEMSA-AA for use with 120 V AC power supplies) 3.60 DPJ
0 654.79 MO
 312.00 0 RM (Disk space required for use \(permanent\):) 3.60 DPJ
0 642.04 MO
 60.00 0 RM 9.00 /Helvetica-DPMCS DPT
 (\223) 3.60 DPJ
0 642.04 MO
 72.37 0 RM 9.00 /Helvetica-DPMCS DPT
 (DEMSA-AB for use with 240 V AC power supplies) 3.60 DPJ
0 639.54 MO
 432.64 0 RM (4,500 Kbytes) 3.60 DPJ
0 626.04 MO
 60.00 0 RM 9.00 /Helvetica-DPMCS DPT
 (\223) 3.60 DPJ
0 626.04 MO
 72.37 0 RM 9.00 /Helvetica-DPMCS DPT
 (DEMSB-AA for use with 120 V AC power supplies) 3.60 DPJ
0 624.04 MO
 312.00 0 RM (These values refer to the disk space required on the) 5.21 DPJ
0 614.04 MO
 312.00 0 RM (system disk. The sizes are approximate; actual sizes may) 2.80 DPJ
0 609.79 MO
 60.00 0 RM 9.00 /Helvetica-DPMCS DPT
 (\223) 2.80 DPJ
0 609.79 MO
 72.37 0 RM 9.00 /Helvetica-DPMCS DPT
 (DEMSB-AB for use with 240 V AC power supplies) 3.60 DPJ
0 604.04 MO
 312.00 0 RM (vary depending on the user's system environment, con-) 4.05 DPJ
0 594.04 MO
 312.00 0 RM (figuration, and software options. The space indicated for) 3.70 DPJ
0 593.79 MO
 60.00 0 RM (The DEC MicroServer and DEC MicroServer-SP have a) 3.85 DPJ
0 584.04 MO
 312.00 0 RM (permanent occupancy includes disk space that should be) 3.05 DPJ
0 583.79 MO
 60.00 0 RM (built-in LAN controller, however, a suitable connection to) 3.56 DPJ
0 574.04 MO
 312.00 0 RM (reserved to receive one up-line dump.) 3.60 DPJ
0 573.79 MO
 60.00 0 RM (connect to the customer's LAN is necessary, together) 5.20 DPJ
0 563.79 MO
 60.00 0 RM (with any necessary extension cables.) 3.60 DPJ
0 558.29 MO
 312.00 0 RM 9.00 /Helvetica-Bold-DPMCS DPT
 (CLUSTER ENVIRONMENT) 3.60 DPJ
0 547.54 MO
 60.00 0 RM 9.00 /Helvetica-DPMCS DPT
 (The DEC MicroServer and DEC MicroServer-SP use) 6.16 DPJ
0 542.79 MO
 312.00 0 RM 9.00 /Helvetica-Oblique-DPMCS DPT
 (VMS Systems Only) 3.60 DPJ
0 537.54 MO
 60.00 0 RM 9.00 /Helvetica-DPMCS DPT
 (adapter cables to provide the necessary interchange cir-) 3.63 DPJ
0 527.54 MO
 60.00 0 RM (cuits at the appropriate electrical interface types and ISO) 3.23 DPJ
0 527.04 MO
 312.00 0 RM (This layered product is fully supported when installed on) 3.55 DPJ
0 517.54 MO
 60.00 0 RM (standard connections for each synchronous line. A cable) 3.41 DPJ
0 517.04 MO
 312.00 0 RM (any valid and licensed VAXcluster* configuration without) 3.81 DPJ
0 507.54 MO
 60.00 0 RM (is needed for each line used. The following table shows) 3.76 DPJ
0 507.04 MO
 312.00 0 RM (restrictions. The HARDWARE REQUIREMENTS sections) 3.11 DPJ
0 497.54 MO
 60.00 0 RM (the cable numbers for each of the electrical interface) 5.36 DPJ
0 497.04 MO
 312.00 0 RM (of this product's Software Product Description and) 7.90 DPJ
0 487.54 MO
 60.00 0 RM (types. Note that the MicroServer-SP is provided with a) 4.49 DPJ
0 487.04 MO
 312.00 0 RM (System Support Addendum detail any special hardware) 4.23 DPJ
0 477.54 MO
 60.00 0 RM (V.28/V.24 cable as standard.) 3.60 DPJ
0 477.04 MO
 312.00 0 RM (required by this product.) 3.60 DPJ
0 462.04 MO
 312.00 0 RM (*) 3.60 DPJ
0 462.04 MO
 324.37 0 RM (V5.x VAXcluster configurations are fully described in) 4.34 DPJ
0 461.54 MO
 142.44 0 RM 9.00 /Helvetica-Bold-DPMCS DPT
 (Adapter Cables) 3.60 DPJ
0 452.04 MO
 324.37 0 RM 9.00 /Helvetica-DPMCS DPT
 (the VAXcluster Software Product Description) 12.76 DPJ
0 445.29 MO
 60.00 0 RM 9.00 /Helvetica-Bold-DPMCS DPT
 (Electrical Interface) 3.60 DPJ
0 445.29 MO
 193.02 0 RM (Adapter) 3.60 DPJ
0 445.29 MO
 242.51 0 RM (Connector/) 3.60 DPJ
0 442.04 MO
 324.37 0 RM 9.00 /Helvetica-DPMCS DPT
 (\(29.78.xx\) and include CI, Ethernet, and Mixed) 8.17 DPJ
0 435.29 MO
 87.84 0 RM 9.00 /Helvetica-Bold-DPMCS DPT
 (Type) 8.17 DPJ
0 435.29 MO
 193.02 0 RM (Cable) 8.17 DPJ
0 435.29 MO
 242.51 0 RM (pinpoint) 8.17 DPJ
0 432.04 MO
 324.37 0 RM 9.00 /Helvetica-DPMCS DPT
 (Interconnect configurations.) 3.60 DPJ
0 419.04 MO
 60.00 0 RM (CCITT) 3.60 DPJ
0 419.04 MO
 118.77 0 RM (EIA-RS232-C/D) 3.60 DPJ
0 419.04 MO
 193.02 0 RM (BS19D-02) 3.60 DPJ
0 419.04 MO
 242.51 0 RM (ISO 2110) 3.60 DPJ
0 416.54 MO
 312.00 0 RM (Note that the configuration procedure needs to be exe-) 4.23 DPJ
0 409.04 MO
 60.00 0 RM (V.28/V.24) 4.23 DPJ
0 406.54 MO
 312.00 0 RM (cuted on each node that you require to be a load host.) 3.98 DPJ
0 393.04 MO
 60.00 0 RM (CCITT V.10) 3.60 DPJ
0 393.04 MO
 118.77 0 RM (EIA-RS423/449) 3.60 DPJ
0 393.04 MO
 193.02 0 RM (BC19E-02) 3.60 DPJ
0 393.04 MO
 242.51 0 RM (ISO 4902) 3.60 DPJ
0 391.04 MO
 312.00 0 RM 9.00 /Helvetica-Bold-DPMCS DPT
 (SOFTWARE REQUIREMENTS) 3.60 DPJ
0 376.79 MO
 60.00 0 RM 9.00 /Helvetica-DPMCS DPT
 (CCITT) 3.60 DPJ
0 376.79 MO
 118.77 0 RM (EIA-RS422/449) 3.60 DPJ
0 376.79 MO
 193.02 0 RM (BC19B-02) 3.60 DPJ
0 376.79 MO
 242.51 0 RM (ISO 4902) 3.60 DPJ
0 375.29 MO
 312.00 0 RM (The X25router 2000 needs at least one ULTRIX, VMS or) 3.21 DPJ
0 366.79 MO
 60.00 0 RM (V.36/X.27) 3.21 DPJ
0 365.29 MO
 312.00 0 RM (MicroVMS system to act as a load host and dump) 6.27 DPJ
0 356.79 MO
 60.00 0 RM (V.11) 6.27 DPJ
0 355.29 MO
 312.00 0 RM (receiver.) 6.27 DPJ
0 340.79 MO
 60.00 0 RM (CCITT V.35) 3.60 DPJ
0 340.79 MO
 193.02 0 RM (BC19F-02) 3.60 DPJ
0 340.79 MO
 242.51 0 RM (ISO 2593) 3.60 DPJ
0 339.54 MO
 312.00 0 RM 9.00 /Helvetica-Oblique-DPMCS DPT
 (For each VMS and MicroVMS System acting as a load) 4.16 DPJ
0 330.79 MO
 60.00 0 RM 9.00 /Helvetica-DPMCS DPT
 (CCITT X.21 {1980}) 3.60 DPJ
0 329.54 MO
 312.00 0 RM 9.00 /Helvetica-Oblique-DPMCS DPT
 (host or dump receiver:) 3.60 DPJ
0 320.79 MO
 60.00 0 RM 9.00 /Helvetica-DPMCS DPT
 (\(Leased services\)) 3.60 DPJ
0 320.79 MO
 193.02 0 RM (BC19C-02) 3.60 DPJ
0 320.79 MO
 242.51 0 RM (ISO 4903) 3.60 DPJ
0 314.54 MO
 312.00 0 RM 9.00 /Helvetica-DPMCS DPT
 (\223) 3.60 DPJ
0 314.54 MO
 324.37 0 RM 9.00 /Helvetica-DPMCS DPT
 (VMS Operating System V4.7 - V5.2) 3.60 DPJ
0 304.54 MO
 60.00 0 RM (The BS19D-02 cable provides the V.28/V.24 \(RS232-D\)) 4.06 DPJ
0 299.04 MO
 324.37 0 RM (or) 4.06 DPJ
0 294.54 MO
 60.00 0 RM (interface, but is supplied with an adapter that allows it to) 3.39 DPJ
0 284.54 MO
 60.00 0 RM (be used for RS232-C as well.) 3.60 DPJ
0 283.79 MO
 324.37 0 RM (MicroVMS Operating System V4.7 - V5.2) 3.60 DPJ
0 268.54 MO
 60.00 0 RM 9.00 /Helvetica-Bold-DPMCS DPT
 (Block Space Requirements) 3.60 DPJ
0 268.29 MO
 312.00 0 RM 9.00 /Helvetica-DPMCS DPT
 (\223) 3.60 DPJ
0 268.29 MO
 324.37 0 RM 9.00 /Helvetica-DPMCS DPT
 (DECnet-VAX V4.7 - V5.2) 3.60 DPJ
0 253.04 MO
 312.00 0 RM 9.00 /Helvetica-Oblique-DPMCS DPT
 (For each ULTRIX System acting as a load host or dump) 3.39 DPJ
0 252.29 MO
 60.00 0 RM (Block space requirements \(Block Cluster Size = 1\) For) 4.46 DPJ
0 243.04 MO
 312.00 0 RM (receiver:) 4.46 DPJ
0 242.29 MO
 60.00 0 RM (VMS and Micro VMS Operating Systems:) 3.60 DPJ
0 227.79 MO
 312.00 0 RM 9.00 /Helvetica-DPMCS DPT
 (\223) 3.60 DPJ
0 227.79 MO
 324.37 0 RM 9.00 /Helvetica-DPMCS DPT
 (ULTRIX-32 Operating System V3.0 - V3.1) 3.60 DPJ
0 226.04 MO
 149.71 0 RM 9.00 /Helvetica-Bold-DPMCS DPT
 (Without TRACE) 3.60 DPJ
0 226.04 MO
 227.04 0 RM (With TRACE) 3.60 DPJ
0 212.29 MO
 324.37 0 RM 9.00 /Helvetica-DPMCS DPT
 (or) 3.60 DPJ
0 209.79 MO
 60.00 0 RM (Disk space required) 3.60 DPJ
0 199.79 MO
 60.00 0 RM (for installation:) 3.60 DPJ
0 197.04 MO
 324.37 0 RM (ULTRIX Worksystem Software V2.0 - V2.1) 3.60 DPJ
0 189.79 MO
 149.71 0 RM (2,000 blocks) 3.60 DPJ
0 189.79 MO
 227.04 0 RM (2,700 blocks) 3.60 DPJ
0 187.04 MO
 324.37 0 RM (\(including the ULTMOP subset\)) 3.60 DPJ
0 179.79 MO
 149.71 0 RM (\(1,024\) Kbytes\)) 3.60 DPJ
0 179.79 MO
 227.04 0 RM (\(1,382 Kbytes\)) 3.60 DPJ
0 171.54 MO
 312.00 0 RM 9.00 /Helvetica-DPMCS DPT
 (\223) 3.60 DPJ
0 171.54 MO
 324.37 0 RM 9.00 /Helvetica-DPMCS DPT
 (DECnet-ULTRIX V3.0 - V3.1) 3.60 DPJ
0 163.54 MO
 60.00 0 RM (Disk space required) 3.60 DPJ
0 156.29 MO
 312.00 0 RM 9.00 /Helvetica-Oblique-DPMCS DPT
 (VMS Tailoring Classes \(VMS Systems Only\)) 3.60 DPJ
0 153.54 MO
 60.00 0 RM 9.00 /Helvetica-DPMCS DPT
 (for use \(permanent\):) 3.60 DPJ
0 143.54 MO
 149.71 0 RM (7,000 blocks) 3.60 DPJ
0 143.54 MO
 227.04 0 RM (7,700 blocks) 3.60 DPJ
0 140.54 MO
 312.00 0 RM (For VMS V5.x systems, the following VMS classes are) 4.43 DPJ
0 133.54 MO
 149.71 0 RM (\(3,584 Kbytes\)) 3.60 DPJ
0 133.54 MO
 227.04 0 RM (\(3,942 Kbytes\)) 3.60 DPJ
0 130.54 MO
 312.00 0 RM (required for full functionality of this layered product:) 3.60 DPJ
0 117.54 MO

0 114.79 MO
 312.00 0 RM (VMS Required Saveset) 3.60 DPJ
0 104.79 MO
 312.00 0 RM (Network Support) 3.60 DPJ
0 101.29 MO

0 89.04 MO
 312.00 0 RM (For more information on VMS classes and tailoring, refer) 3.30 DPJ
0 85.29 MO

0 79.04 MO
 312.00 0 RM (to the VMS Operating System Software Product) 9.40 DPJ
0 69.04 MO

0 69.04 MO
 312.00 0 RM (Description \(SPD 25.01.xx\).) 3.60 DPJ
0 26.54 MO
 295.99 0 RM 9.00 /Helvetica-Bold-DPMCS DPT
 (2) 3.60 DPJ
 showpage
 restore
 save
%%Page: 3 3

0 746.54 MO
 60.00 0 RM 9.00 /Helvetica-Bold-DPMCS DPT
 (X25router) 78.23 DPJ 2.70 0 RM (2000,) 78.23 DPJ 2.70 0 RM (Version) 78.23 DPJ 2.70 0 RM (1.1) 78.23 DPJ 302.12 0 RM (SSA) 78.23 DPJ 2.70 0 RM (28.86.01-A) 78.23 DPJ
0 736.54 MO
 60.00 0 RM (\(Formerly X25router\)) 3.60 DPJ
0 710.54 MO
 60.00 0 RM 9.00 /Helvetica-Oblique-DPMCS DPT
 (MicroVMS Tailoring \(VMS Systems Only\)) 3.60 DPJ
0 710.54 MO
 312.00 0 RM 9.00 /Helvetica-Bold-DPMCS DPT
 (DISTRIBUTION MEDIA) 3.60 DPJ
0 695.04 MO
 312.00 0 RM 9.00 /Helvetica-Oblique-DPMCS DPT
 (For ULTRIX, VMS and MicroVMS Systems acting as a) 4.36 DPJ
0 694.54 MO
 60.00 0 RM 9.00 /Helvetica-DPMCS DPT
 (For MicroVMS V4.x systems, the following components) 4.49 DPJ
0 685.04 MO
 312.00 0 RM 9.00 /Helvetica-Oblique-DPMCS DPT
 (load host:) 3.60 DPJ
0 684.54 MO
 60.00 0 RM 9.00 /Helvetica-DPMCS DPT
 (of MicroVMS are required for full functionality of this) 5.74 DPJ
0 674.54 MO
 60.00 0 RM (product:) 5.74 DPJ
0 670.79 MO
 312.00 0 RM (Tape:) 5.74 DPJ
0 670.79 MO
 339.84 0 RM (9-track 1600 BPI Magtape \(PE\), TK50 Streaming) 4.01 DPJ
0 660.79 MO
 339.84 0 RM (Tape.) 4.01 DPJ
0 658.54 MO
 60.00 0 RM 9.00 /Helvetica-DPMCS DPT
 (\223) 4.01 DPJ
0 658.54 MO
 72.37 0 RM 9.00 /Helvetica-DPMCS DPT
 (Base System) 3.60 DPJ
0 645.54 MO
 312.00 0 RM 9.00 /Helvetica-Bold-DPMCS DPT
 (ORDERING INFORMATION) 3.60 DPJ
0 642.54 MO
 60.00 0 RM (OPTIONAL SOFTWARE) 3.60 DPJ
0 630.04 MO
 312.00 0 RM 9.00 /Helvetica-Oblique-DPMCS DPT
 (For VMS and MicroVMS Load Hosts:) 3.60 DPJ
0 626.54 MO
 60.00 0 RM (For VMS Systems Only) 3.60 DPJ
0 614.54 MO
 312.00 0 RM 9.00 /Helvetica-DPMCS DPT
 (Software Licenses: QL-VIAA*-**) 3.60 DPJ
0 610.54 MO
 60.00 0 RM (To use any of the host-to-host or terminal-host capabili-) 3.92 DPJ
0 604.54 MO
 312.00 0 RM (Software Media: QA-VIAA*-**) 3.60 DPJ
0 600.54 MO
 60.00 0 RM (ties of an X.25 link from the X25router 2000, a VAX P.S.I.) 2.80 DPJ
0 594.54 MO
 312.00 0 RM (Software Documentation: QA-VIAAA-GZ) 3.60 DPJ
0 590.54 MO
 60.00 0 RM (Access product must be installed on all DECnet nodes) 4.42 DPJ
0 584.54 MO
 312.00 0 RM (Software Product Services: QT-VIAA*-**) 3.60 DPJ
0 580.54 MO
 60.00 0 RM (requiring such access. This additional software is not) 5.56 DPJ
0 570.54 MO
 60.00 0 RM (necessary to use DDCMP or DECnet DLM circuits.) 3.60 DPJ
0 569.04 MO
 312.00 0 RM 9.00 /Helvetica-Oblique-DPMCS DPT
 (For ULTRIX Load Hosts:) 3.60 DPJ
0 554.54 MO
 60.00 0 RM 9.00 /Helvetica-DPMCS DPT
 (The following Version of VAX P.S.I. Access is supported:) 3.17 DPJ
0 553.79 MO
 312.00 0 RM (Software Licenses: QL-VIAA*-**) 3.60 DPJ
0 543.79 MO
 312.00 0 RM (Software Media: QA-VIAA*-**) 3.60 DPJ
0 538.54 MO
 60.00 0 RM 9.00 /Helvetica-DPMCS DPT
 (\223) 3.60 DPJ
0 538.54 MO
 72.37 0 RM 9.00 /Helvetica-DPMCS DPT
 (VAX P.S.I. Access V4.2) 3.60 DPJ
0 533.79 MO
 312.00 0 RM (Software Documentation: QA-VIAAB-GZ) 3.60 DPJ
0 523.79 MO
 312.00 0 RM (Software Product Services: QT-VIAA*-**) 3.60 DPJ
0 522.54 MO
 60.00 0 RM 9.00 /Helvetica-Bold-DPMCS DPT
 (GROWTH CONSIDERATIONS) 3.60 DPJ
0 509.29 MO
 312.00 0 RM 9.00 /Helvetica-DPMCS DPT
 (*) 3.60 DPJ
0 509.29 MO
 324.37 0 RM (Denotes variant fields. For additional information on) 4.84 DPJ
0 506.54 MO
 60.00 0 RM (The minimum hardware/software requirements for any) 5.69 DPJ
0 499.29 MO
 324.37 0 RM (available licenses, services and media, refer to the) 5.08 DPJ
0 496.54 MO
 60.00 0 RM (future version of this product may be different from the) 4.26 DPJ
0 489.29 MO
 324.37 0 RM (appropriate price book.) 3.60 DPJ
0 486.54 MO
 60.00 0 RM (requirements of the current version.) 3.60 DPJ
0 474.04 MO
 312.00 0 RM (The above information is valid at the time of release.) 5.10 DPJ
0 470.54 MO

0 464.04 MO
 312.00 0 RM (Please contact your local Digital office for the most up-to-) 2.99 DPJ
0 454.54 MO

0 454.04 MO
 312.00 0 RM (date information.) 3.60 DPJ
0 439.79 MO
 60.00 0 RM 7.00 /Helvetica-DPMCS DPT
 (__________________) 3.60 DPJ
0 425.79 MO
 0 4.00 RM 0 -4.00 RM
0 425.79 MO
 72.00 0 RM 7.00 /Symbol DPT
 (\342) 2.80 DPJ 7.00 /Helvetica-DPMCS DPT
 ( The DIGITAL Logo is a registered trademark of Digital Equipment Corporation.) 2.80 DPJ
0 417.79 MO
 72.00 0 RM 7.00 /Symbol DPT
 (\344) 3.26 DPJ 7.00 /Helvetica-DPMCS DPT
 ( DEC, DECnet, DECstation, DECsystem, VAX, MicroVAx, ULTRIX, VAXstation and VAXserver are trademarks of Digital Equipment Corporation.) 3.26 DPJ
0 26.54 MO
 296.00 0 RM 9.00 /Helvetica-Bold-DPMCS DPT
 (3) 3.26 DPJ 0 -36.00 RM
 showpage
 restore
%%Trailer
%%Pages: 3
%%DocumentFonts: Courier-MCS %LOGO8 Helvetica-DPMCS Helvetica-Bold-DPMCS Helvetica-Oblique-DPMCS Symbol 
%!Font Name                     Font No   Charset
%!/Courier-MCS                  1         ASCII
%!%%LOGO8                       108       ASCII
%!/Helvetica-DPMCS              200       ASCII
%!/Helvetica-Bold-DPMCS         220       ASCII
%!/Helvetica-Oblique-DPMCS      240       ASCII
%!/Symbol                       5         PUBL
%!/Helvetica-DPMCS              200       PUBL

