%!PS-Adobe-2.0
%%Creator: VAX DOCUMENT V1.2
%%+Copyright (c) 1986,1987,1988,1989 DIGITAL EQUIPMENT CORPORATION.  
%%+All Rights Reserved.
%%DocumentFonts: (atend)
%%Pages: (atend)
%%EndComments
/DEC_DVC$dict where {					%FIND DICTIONARY
  pop
}{ %else
  /DEC_DVC$dict 300 dict def
} ifelse 
/BeginDVC$PSDoc {					%BEGIN DOCUMENT
  vmstatus pop pop 0 eq {
    DEC_DVC$dict begin  InitializeState
  }{ %else
    /DVC$PSJob save def  DEC_DVC$dict begin  InitializeState
    /DVC$PSFonts save def
  } ifelse
} def
/EndDVC$PSDoc {						%END DOCUMENT
% --- Preserving current page count ---
 /DEC$EDMS_MAKE_FILM where { pop Currentpagecount } if
  vmstatus pop pop 0 eq {
    end
  }{ %else
    DVC$PSFonts restore  end  DVC$PSJob restore
  } ifelse
  /DEC$EDMS_MAKE_FILM where { pop /Currentpagecount exch def } if
} def
%
DEC_DVC$dict begin
%
mark					% CREATE ISOLatin1 ENCODING
/ISOLatin1
  8#000 1 8#054 {StandardEncoding exch get} for 
  /minus
  8#056 1 8#217 {StandardEncoding exch get} for 
  /dotlessi 
  8#301 1 8#317 {StandardEncoding exch get} for 
  /space /exclamdown /cent /sterling /currency /yen /brokenbar /section 
  /dieresis /copyright /ordfeminine /guillemotleft /logicalnot /hyphen 
  /registered /macron /degree /plusminus /twosuperior /threesuperior /acute 
  /mu /paragraph /periodcentered /cedilla /onesuperior /ordmasculine 
  /guillemotright /onequarter /onehalf /threequarters /questiondown /Agrave 
  /Aacute /Acircumflex /Atilde /Adieresis /Aring /AE /Ccedilla /Egrave /Eacute 
  /Ecircumflex /Edieresis /Igrave /Iacute /Icircumflex /Idieresis /Eth /Ntilde 
  /Ograve /Oacute /Ocircumflex /Otilde /Odieresis /multiply /Oslash /Ugrave 
  /Uacute /Ucircumflex /Udieresis /Yacute /Thorn /germandbls /agrave /aacute 
  /acircumflex /atilde /adieresis /aring /ae /ccedilla /egrave /eacute 
  /ecircumflex /edieresis /igrave /iacute /icircumflex /idieresis /eth /ntilde
  /ograve /oacute /ocircumflex /otilde /odieresis /divide /oslash /ugrave 
  /uacute /ucircumflex /udieresis /yacute /thorn /ydieresis 
  /ISOLatin1 where not {256 array astore def} if 
cleartomark
%
/DECMCS ISOLatin1 256 array copy def
mark						% CREATE DECMCS ENCODING
  8#240 8#244 8#246 8#254 8#255 8#256 8#257 8#264 
  8#270 8#276 8#320 8#336 8#360 8#376 8#377
  counttomark
  {DECMCS exch /.notdef put} repeat		% STACK NOW CONTAINS MARK
  8#250 /currency   8#327 /OE   8#335 /Ydieresis   8#367 /oe   8#375 /ydieresis
  counttomark -1 bitshift			% DIVIDE BY 2
  {DECMCS 3 1 roll put} repeat			% STACK NOW CONTAINS MARK
cleartomark
%
/DOCPSE DECMCS 256 array copy def 
mark						% CREATE DOCPSE ENCODING
  8#055 /hyphen
  8#201 /bullet    8#202 /emdash     8#203 /endash    8#204 /dagger
  8#205 /daggerdbl 8#206 /registered 8#207 /trademark %8#210 /Delta
  8#211 /fi        8#212 /fl
  counttomark -1 bitshift			% DIVIDE BY 2
  {DOCPSE 3 1 roll put} repeat			% STACK NOW CONTAINS MARK
cleartomark
%
/reencodedict 10 dict def			%Local storage for "ReENCODE"
/ReENCODE {		% /basefont /newfont encoding ReENCODE
    /newencoding exch def	%ARG: NAME OF ENCODING VECTOR
    /newfontname exch def	%ARG: NEW NAME FOR FONT AFTER RE-ENCODING
    findfont
    /basefontdict exch def	%ARG: NAME OF FONT TO BE RE-ENCODED
    basefontdict maxlength dict begin	%CREATE AND OPEN NEW DICT
	basefontdict {		%COPY ENTRIES FROM BASE FONT DICT TO NEW ONE
	    1 index /FID ne {
		def		%IF NOT THE ONE WE'RE ENCODING, JUST COPY PTRS
	    } { %else
		pop pop		%IGNORE FID AND ENCODING FOR ONE WE'RE ENCODING
	    } ifelse
	} forall
	/FontName newfontname def	%DEFINE NEW NAME 
	/Encoding newencoding def	%DEFINE NEW ENCODING VECTOR
	newfontname currentdict definefont	%TURN IT INTO A PS FONT
	pop			%IGNORE MODIFIED DICT RETURNED BY DEFINEFONT
    end
} bind def
%
/cvsstr 64 string def
/tempmatrix matrix def
%
/BP {							% BEGIN PAGE
  /Magnification exch def
  /Currentpagecount where
   { pop /Currentpagecount Currentpagecount 1 add def } if
  /DVC$PSPage save def
} def
%
/EP {DVC$PSPage restore} def				% END PAGE
%
/XP {				% EXIT PAGE (TEMPORARILY) TO ADD FONTS/CHARS
  % SAVE CURRENT POINT AND COLOR INFORMATION SO IT CAN BE RESET LATER
  currentrgbcolor Colorsused
  /Xpos where {pop Xpos} {0} ifelse
  /Ypos where {pop Ypos} {0} ifelse
  /currentpoint cvx stopped {0 0 moveto currentpoint} if 
  /DVC$PSPage where {pop DVC$PSPage restore} if
  moveto
  /Ypos exch def  /Xpos exch def
  /Colorsused exch def setrgbcolor
} def
%
/RP {/DVC$PSPage save def} def		% RESUME PAGE
%
/PF {GlobalMode  LocalMode} def			% PURGE FONTS TO RECLAIM MEMORY
%
/GlobalMode {		% SWITCH TO BASE SAVE/RESTORE LEVEL, SAVING STATE
  PortraitMode  PaperWidth  PaperHeight  PxlResolution  Resolution 
  Magnification Ymax        Xorigin      Yorigin        RasterScaleFactor
  % SAVE CURRENTPOINT INFORMATION TO RESET LATER
  /currentpoint cvx stopped {0 0 moveto currentpoint} if 
  /DVC$PSPage where {pop DVC$PSPage restore} if
  DVC$PSFonts restore  RecoverState
} def
%
/RecoverState {					% PRESERVE STATE AT BASE LEVEL
  12 copy
  /Ypos exch def           /Xpos exch def        /RasterScaleFactor exch def
  /Yorigin exch def        /Xorigin exch def     /Ymax exch def
  /Magnification exch def  /Resolution exch def  /PxlResolution exch def
  /PaperHeight exch def    /PaperWidth exch def  /PortraitMode exch def
  DoInitialScaling
  PortraitMode not {PaperWidth 0 SetupLandscape} if
  Xpos Ypos moveto
} def
%
/InitializeState {		% INITIALIZE STATE VARIABLES TO DEFAULT VALUES
  /Resolution 3600 def  /PxlResolution 300 def
  /RasterScaleFactor PxlResolution Resolution div def
  /PortraitMode true def  /PaperHeight 11 Resolution mul def
  /PaperWidth 8.5 Resolution mul def  /Ymax PaperHeight def
  /Magnification 1000 def  /Xorigin 0 def  /Yorigin 0 def
  /Xpos 0 def  /Ypos 0 def  /InitialMatrix matrix currentmatrix def
  /DEC$EDMS_MAKE_FILM where		% if we are making film...
   { pop				% ..clean up the stack
     54 54 translate			% ..make room for the "film information"
   } if
  /Colorsused 0 def
} def
%
/LocalMode {		% SWITCH FROM BASE SAVE/RESTORE LEVEL, RESTORING STATE
  /Ypos exch def  /Xpos exch def  /RasterScaleFactor exch def
  /Yorigin exch def  /Xorigin exch def  /Ymax exch def
  /Magnification exch def  /Resolution exch def  /PxlResolution exch def
  /PaperHeight exch def  /PaperWidth exch def  /PortraitMode exch def
  DoInitialScaling
  PortraitMode not {PaperWidth 0 SetupLandscape} if
  Xpos Ypos moveto
  /DVC$PSFonts save def  /DVC$PSPage save def
} def
%							% ABBREVIATIONS 
/S /show load def
/SV /save load def
/RST /restore load def
/Yadjust {Ymax exch sub} def
%
/SXY {		% (x,y) POSITION ABSOLUTE, JUST SET Xpos & Ypos, DON'T MOVE
  Yadjust  /Ypos exch def /Xpos exch def
} def
%
/XY {						% (x,y) POSITION ABSOLUTE
  Yadjust  2 copy /Ypos exch def /Xpos exch def  moveto
} def
%
/X {						% (x,0) POSITION ABSOLUTE
  currentpoint exch pop   2 copy /Ypos exch def /Xpos exch def  moveto
} def
%
/Y {						% (0,y) POSITION ABSOLUTE 
  currentpoint pop exch Yadjust  2 copy
  /Ypos exch def /Xpos exch def  moveto
} def
%
/xy {						% (x,y) POSITION RELATIVE
  neg rmoveto  currentpoint /Ypos exch def /Xpos exch def
} def
%
/x {						% (x,0) POSITION RELATIVE
  0 rmoveto  currentpoint /Ypos exch def /Xpos exch def
} def
%
/y {						% (0,y) POSITION RELATIVE
  0 exch neg rmoveto  currentpoint /Ypos exch def /Xpos exch def
} def
%
/R {						% DRAW A RULE
  /ht exch def  /wd exch def   gsave
% 0 setgray
  currentpoint  newpath  moveto
  0 ht rlineto  wd 0 rlineto
  0 ht neg rlineto  wd neg 0 rlineto
  closepath fill  grestore  wd 0 rmoveto
  currentpoint /Ypos exch def /Xpos exch def
} def
%
/RES {		% <PXL-file resolution(pix/inch)> <resolution(pix/inch)> RES
  /Resolution exch def  /PxlResolution exch def
  /RasterScaleFactor PxlResolution Resolution div def
  DoInitialScaling
} def
%
/DoInitialScaling {					% DO INITIAL SCALING
  InitialMatrix setmatrix  72 Resolution div dup scale
} def
%
/PM {		% <paper-height(pix)> <paper-width(pix)> PM
  XP
    /PaperWidth exch def  /PaperHeight exch def
    /Ymax PaperHeight def /PortraitMode true def
    DoInitialScaling
  RP
} def  
%
/SetupLandscape {translate  90 rotate} def
/LM {		% <paper-height(pix)> <paper-width(pix)> LM 
  XP
    /PaperWidth exch def  /PaperHeight exch def
    /Ymax PaperWidth def  /PortraitMode false def
    DoInitialScaling PaperWidth 0 SetupLandscape
  RP
} def  
%
/MAG {						% CHANGE MAGNIFICATION SETTING
  XP  /Magnification exch def  RP
} def
%
/SPB {		%  <xoffset><yoffset>SPB - BEGIN "\SPECIAL" MODE
  Yadjust /Yorigin exch def /Xorigin exch def
  currentrgbcolor Colorsused
  GlobalMode Xorigin Yorigin translate
  Resolution 72 div dup scale			% RESTORE DEFAULT SCALING
  Magnification 1000 div dup scale		% ADJUST FOR ANY MAGNIFICATION
  /Xpos Xpos 72 Resolution div mul 1000 Magnification div mul def
  /Ypos Ypos 72 Resolution div mul 1000 Magnification div mul def
  /spsavobj save def	%SAVE STATE & STACK DEPTH FOR CLEANUP AFTER FIGURE
  /showpage {} def	%DISABLE DURING FIGURE; `RESTORE' WILL BLOW DEF AWAY
  mark
} def
%
/SPE {		% SPE - END "\SPECIAL" MODE
  cleartomark
  spsavobj restore 
  1000 Magnification div dup scale	% UN-ADJUST FOR ANY MAGNIFICATION
  72 Resolution div dup scale		% RESTORE DEFAULT INTERNAL SCALING
  LocalMode
  setrgbcolor /Colorsused exch def
} def
%
/PP
%
% If DEC$EDMS_MAKE_FILM is defined, it will add the crop & alignment marks,
% and the document name, page number, & ink color identifiers to the page.
%
% Formal Arguments:	None
%
% Referenced Variables: DocumentName
%			Colorsused
%			Currentpagecount
% 			DEC$EDMS_MAKE_FILM
%
% Referenced Procedures: AlignMark
%
% Side Effects: Leaves the current font as Helvetica 8 point.
%		Creates the variable "junkstr".
%
{ /DEC$EDMS_MAKE_FILM where					% if making film...
  { pop 2 DEC$EDMS_SEPARATE_COLORS exp cvi Colorsused and 0 ne	% and if the correct separation
    { /Helvetica findfont 400 scalefont setfont
      20 setlinewidth 0 setgray
      PaperWidth 150 add PaperHeight 100 add moveto		% show the ink color
      (Ink: ) show Colornames DEC$EDMS_SEPARATE_COLORS get show
      PaperWidth 150 add PaperHeight 600 add moveto
      (Page: ) show						% show the page number
      /junkstr 4 string def /TotalPages where
      { pop Currentpagecount junkstr cvs show ( of ) show
        TotalPages junkstr cvs show } if
      150 PaperHeight 100 add moveto				% show the document name
      (Document: ) show DocumentName show
      150 -500 moveto 						% show ownership text
      (This film is the property of Digital Equipment Corporation) show stroke
      /DEC$EDMS_SUPPRESS_CROPMARKS where { pop } {		% draw the crop marks
      PaperWidth PaperHeight moveto				% Upper Right
      1800 0 rlineto -1800 0 rmoveto 0 1800 rlineto
      PaperWidth 0 moveto					% Lower Right
      1800 0 rlineto -1800 0 rmoveto 0 -1800 rlineto
      0 0 moveto						% Lower Left
      -1800 0 rlineto 1800 0 rmoveto 0 -1800 rlineto
      0 PaperHeight moveto					% Upper Left
      -1800 0 rlineto 1800 0 rmoveto 0 1800 rlineto
      stroke } ifelse
      /DEC$EDMS_SUPPRESS_REGMARKS where { pop } {		% draw the registration marks
      gsave							% Top Center
        PaperWidth 2 div PaperHeight
	 /DEC$EDMS_POSITION_REGMARKS where
	  { pop DEC$EDMS_POSITION_REGMARKS -50 mul add } if
	 translate AlignMark
      grestore
      gsave							% Right Center
        PaperWidth
	 /DEC$EDMS_POSITION_REGMARKS where
	  { pop DEC$EDMS_POSITION_REGMARKS -50 mul add } if
	  PaperHeight 2 div translate AlignMark
      grestore
      gsave							% Bottom Center
        PaperWidth 2 div 0
	 /DEC$EDMS_POSITION_REGMARKS where
	  { pop DEC$EDMS_POSITION_REGMARKS 50 mul add } if
	 translate AlignMark
      grestore
      gsave							% Left Center
        0
	 /DEC$EDMS_POSITION_REGMARKS where
	  { pop DEC$EDMS_POSITION_REGMARKS 50 mul add } if
	 PaperHeight 2 div translate AlignMark
      grestore
      } ifelse
   } if
 } if
 showpage
} def
/CLRP {erasepage} def
%
/DMF {		%  /font-name <point-size(pix)> DMF
  /psz exch def  /nam exch def  nam findfont psz scalefont setfont
} def
%
/concatnam {	%  /abcd (xxx) concatnam  ==> /abcdxxx
  /xxx exch def  /nam exch def
  /namstr nam cvsstr cvs def
  /newnam namstr length xxx length add string def
  newnam 0 namstr putinterval
  newnam namstr length xxx putinterval
  newnam cvn 
} def
%
/strip {	%  /abcdef 2 strip ==> /cdef
  /num exch def  /nam exch def
  /namstr nam cvsstr cvs def
  /newlen namstr length num sub def
  namstr num newlen getinterval  cvn
} def
%		ROUTINES TO HANDLE PACKING/UNPACKING NUMBERS
/PackHW {	% <target> <pos> <num> PackHW --> <new target>
  /num exch def  /pos exch def  /target exch def
  num 16#0000FFFF and 1 pos sub 16 mul bitshift  target or
} def
/PackByte {	% <target> <pos> <num> PackByte --> <new target>
  /num exch def  /pos exch def  /target exch def
  num 16#000000FF and 3 pos sub 8 mul bitshift   target or
} def
/UnpkHW {	%  <pos> <num> UnpkHW --> <unpacked value>
  /num exch def  /pos exch def
  num 1 pos sub -16 mul bitshift 16#0000FFFF and
  dup 16#00007FFF gt {16#00010000 sub} if
} def
/UnpkByte {	%  <pos> <num> UnpkByte --> <unpacked value>
  /num exch def  /pos exch def
  num 3 pos sub -8 mul bitshift 16#000000FF and
  dup 16#0000007F gt {16#00000100 sub} if
} def
%
/DPSF {		% /procname size /fontname DPSF
    findfont exch scalefont
    [ exch /setfont cvx ] cvx def
} bind def
%
/PXLBuildCharDict 17 dict def
/CMEncodingArray 256 array def
0 1 255 {CMEncodingArray exch dup cvsstr cvs cvn put} for
/RasterConvert {RasterScaleFactor div} def
/TransformBBox {
  aload pop
  /BB-ury exch def  /BB-urx exch def  /BB-lly exch def  /BB-llx exch def
  [ BB-llx RasterConvert BB-lly RasterConvert 
    BB-urx RasterConvert BB-ury RasterConvert ]
} def
/RunLengthToRasters {
  % none yet
} def
/GenerateRasters {			% GENERATE RASTERS FOR "IMAGEMASK"
  rasters  runlength 1 eq {RunLengthToRasters} if
} def
%
/int-dict-name {int (-dict) concatnam} def
/int-dict {int (-dict) concatnam cvx load} def
%
/DefinePXLFont {
	%  <int-font-name><ext-font-name><pt-sz(pix)><PXL mag><num-chars>...
	%  ...[llx lly urx ury]<newfont-fg>DefinePXLFont
  /newfont exch def  /bb exch def      /num exch def  /psz exch def
  /dsz exch def      /pxlmag exch def  /ext exch def  /int exch def
  /fnam ext (-) concatnam pxlmag cvsstr cvs concatnam def
  newfont not {
    int-dict-name 13 dict def
    int-dict begin
      /FontType 3 def  /FontMatrix [ 1 dsz div 0 0 1 dsz div 0 0 ] def
      /FontBBox bb TransformBBox def  /Encoding CMEncodingArray def
      /CharDict 1 dict def  CharDict begin  /Char-Info num array def  end
      /BuildChar {
        PXLBuildCharDict begin
          /char exch def  /fontdict exch def
          fontdict /CharDict get /Char-Info get char get aload pop
          /rasters exch def  /PackedWord1 exch def
          0 PackedWord1 UnpkHW 16#7FFF ne {
	    /PackedWord2 exch def  /wx 0 PackedWord1 UnpkHW def
            /rows 2 PackedWord1 UnpkByte def  /cols 3 PackedWord1 UnpkByte def
            /llx 0 PackedWord2 UnpkByte def   /lly 1 PackedWord2 UnpkByte def
            /urx 2 PackedWord2 UnpkByte def   /ury 3 PackedWord2 UnpkByte def
	  }{ %else
	    /PackedWord2 exch def  /PackedWord3 exch def  /PackedWord4 exch def
            /wx 1 PackedWord1 UnpkHW def    /rows 0 PackedWord2 UnpkHW def
            /cols 1 PackedWord2 UnpkHW def  /llx 0 PackedWord3 UnpkHW def
            /lly 1 PackedWord3 UnpkHW def   /urx 0 PackedWord4 UnpkHW def
            /ury 1 PackedWord4 UnpkHW def
          } ifelse
          rows 0 lt {
	    /rows rows neg def /runlength 1 def
	  }{ %else
	    /runlength 0 def
	  } ifelse
          wx 0
          llx RasterConvert lly RasterConvert 
          urx RasterConvert ury RasterConvert setcachedevice
          rows 0 ne {
	    gsave
	      cols rows true  RasterScaleFactor 
              0 0 RasterScaleFactor neg llx .5 add neg ury .5 add 
              tempmatrix astore  GenerateRasters imagemask
            grestore
          } if
        end
      } def
    end
    fnam int-dict definefont pop 
  } if 
  int-dict-name fnam findfont psz scalefont def
  currentdict int [ int-dict /setfont cvx ] cvx put
} def 
/PXLF { true  DefinePXLFont} def	% SIGNAL THAT FONT IS ALREADY LOADED
/PXLNF {false  DefinePXLFont} def	% SIGNAL THAT FONT IS NOT ALREADY LOADED
%
/PXLC {	% <int-font-name><code><wx><llx><lly><urx><ury>...
	% ...<rows><cols><runlength><rasters>PXLC
  /rasters exch def  /runlength exch def  /cols exch def  /rows exch def
  /ury exch def      /urx exch def        /lly exch def   /llx exch def
  /wx exch def       /code exch def       /int exch def
  % SEE IF LONG OR SHORT FORMAT IS REQUIRED
  true cols CKSZ rows CKSZ ury CKSZ urx CKSZ lly CKSZ llx CKSZ 
  TackRunLengthToRows {
    int-dict /CharDict get /Char-Info get code 
    [ 0 0 llx PackByte 1 lly PackByte 2 urx PackByte 3 ury PackByte
      0 0 wx PackHW 2 rows PackByte 3 cols PackByte rasters ] put
  }{ %else
    int-dict /CharDict get /Char-Info get code 
    [ 0 0 urx PackHW 1 ury PackHW   0 0 llx PackHW 1 lly PackHW
      0 0 rows PackHW 1 cols PackHW 0 0 16#7FFF PackHW 1 wx PackHW rasters ] put
  } ifelse
} def
%
/CKSZ {abs 127 le and} def
/TackRunLengthToRows {runlength 0 ne {/rows rows neg def} if} def
%
/PLOTC {
  % <wx><dsz><psz><llx><lly><urx><ury><rows><cols><runlength><rasters>PLOTC
  /rasters exch def  /runlength exch def  /cols exch def  /rows exch def
  /ury exch def      /urx exch def        /lly exch def   /llx exch def
  /psz exch def      /dsz exch def        /wx exch def
  % "PLOT" A CHARACTER'S RASTER PATTERN
  rows 0 ne {
    gsave
      currentpoint translate  psz dsz div dup scale
      cols rows true  RasterScaleFactor 0 0 RasterScaleFactor 
      neg llx .5 add neg ury .5 add  tempmatrix astore
      GenerateRasters imagemask
    grestore
  } if
  wx x
} def
%
/AlignMark
%
% This procedure draws an alignment mark centered on the coordinate system
% origin. If the variable DEC$EDMS_SEPARATE_COLORS = 0 then a "positive"
% alignment mark is drawn. If DEC$EDMS_SEPARATE_COLORS <> 0 then a "negative"
% alignment mark is drawn. 
%
% Formal Arguments: NONE
%
% Referenced Variables: DEC$EDMS_SEPARATE_COLORS
%
% Referenced Procedures: NONE
%
% Side Effects: NONE
%
{ DEC$EDMS_SEPARATE_COLORS 0 eq
  { 0 0 300 0 360 arc
    0 -450 moveto 0 450 lineto -450 0 moveto 450 0 lineto stroke }
  { 0 0 450 0 360 arc fill 1 setgray 0 0 300 0 360 arc 
    0 -450 moveto 0 450 lineto -450 0 moveto 450 0 lineto stroke 0 setgray }
  ifelse
} bind def
/SC
% If not making film, the following procedure sets the current color using the
% RGB color model. If making film, the procedure notes the "color pass" and,
% if the specified color index matches the color pass, subsequent marks are
% written in black. If the specified color index does not match the color pass,
% marks are written in white. Use of colors on individual pages is also tracked
% to allow pages that don't use a particular color to be suppressed on that
% color pass (by the code in the /PP routine).
%
% Formal Arguments: color index (on stack)
%
% Referenced Variables: Colorsused
%			DEC$EDMS_SEPARATE_COLORS
%			DEC$EDMS_SUPPRESS_COLOR
%
% Referenced Procedures: NONE
%
% Side Effects: Modifies the variable Colorsused to record use of the color.
%
{ /DEC$EDMS_SUPPRESS_COLOR where		% if suppressing color
  { pop 0 setgray pop }				% .then set "color" to Black 
  { /DEC$EDMS_SEPARATE_COLORS where		% .else if separating colors
    { pop dup DEC$EDMS_SEPARATE_COLORS eq	% ..and if on this color pass
      { 0 setgray /Colorsused Colorsused	% ...then write black (do write)
        2 3 index exp cvi or def }		% ...and note use of the "color"
      { 1 setgray } ifelse pop }		% ...else write white (don't write)
    { DEC$EDMS_Colorarray exch get aload			% ..else get the PMS color value
      pop setrgbcolor } ifelse			% ..approximations and set them
  } ifelse
} def
end  %DEC_DVC$dict
%%EndProlog
%%BeginSetup
BeginDVC$PSDoc
CLRP 300 3600 RES
% DefineFont:F149 Category:10 PointSize:11
/NewCenturySchlbk-Bold /NewCenturySchlbk-Bold@DOCPSE DOCPSE ReENCODE
/F149 550.0 /NewCenturySchlbk-Bold@DOCPSE DPSF
% DefineFont:F148 Category:10 PointSize:11
/NewCenturySchlbk-Italic /NewCenturySchlbk-Italic@DOCPSE DOCPSE ReENCODE
/F148 550.0 /NewCenturySchlbk-Italic@DOCPSE DPSF
% DefineFont:F147 Category:10 PointSize:11
/NewCenturySchlbk-Roman /NewCenturySchlbk-Roman@DOCPSE DOCPSE ReENCODE
/F147 550.0 /NewCenturySchlbk-Roman@DOCPSE DPSF
% DefineFont:F36 Category:10 PointSize:10
/Helvetica-Bold /Helvetica-Bold@DOCPSE DOCPSE ReENCODE
/F36 500.0 /Helvetica-Bold@DOCPSE DPSF
% DefineFont:F24 Category:10 PointSize:14
/F24 700.0 /Helvetica-Bold@DOCPSE DPSF
/DEC$EDMS_SUPPRESS_COLOR true def
/DEC$EDMS_ColorCount 4 def
/DEC$EDMS_Colornames {
  (Color-1) (Color-2) (Color-3) (Color-4)
  DEC$EDMS_ColorCount array astore } def
/DEC$EDMS_Colorarray {
  0 0 0 1 4 array astore  %color 0 CMYK array
  0 0 0 1 4 array astore  %color 1 CMYK array
  0 0 0 1 4 array astore  %color 2 CMYK array
  0 0 0 1 4 array astore  %color 3 CMYK array
  DEC$EDMS_ColorCount array astore } def
/DVC$PSFonts save def
%%EndSetup
%
%%Page: 1 1
%%BeginPageSetup
%%EndPageSetup
%%PageCustomColors: (atend)
%%BeginCustomColor: 0
0 SC
1000 BP 39600 30600 PM 0 0 XY
5891 Y 10698 X F24(V)S -52 x(AX)S 300 x(Xway)S 300 x(V1.2)S 300 x
(Cover)S 299 x(Letter)S 7535 Y 11884 X F149(Ord)S 2 x(er)S 245 x
(No.:)S 369 x(A)S -50 x(V)S -51 x(-PDZ)S 2 x(T)S -31 x(A-TE)S 9528 Y 
3899 X F147(Enclosed)S 216 x(is)S 218 x(the)S 218 x(V)S -62 x(AX)S
218 x(Xway)S 218 x(V)S -51 x(ersion)S 217 x(1.2)S 218 x(Kit.)S 350 x
(The)S 218 x(kit)S 218 x(includ)S -2 x(es)S 218 x(documentation)S 
217 x(and)S 217 x(software)S 647 y 3899 X(for)S 183 x(V)S -61 x(AX)S
182 x(Xway)S -61 x(.)S 11172 Y 3899 X(The)S 219 x(kit)S 218 x
(contains)S 218 x(\211xes)S 219 x(to)S 219 x(problems)S 217 x(found)S
219 x(in)S 218 x(V1.1A)S 218 x(and)S 217 x(additi)S -2 x(onal)S 218 x
(features)S 219 x(documented)S 218 x(in)S 647 y 3899 X(the)S 182 x 
F148(V)S -61 x(AX)S 183 x(Xway)S 182 x(V1.2)S 182 x(Release)S 184 x
(Notes)S 182 x F147(which)S 183 x(may)S 182 x(be)S 183 x(found)S 
182 x(on-line,)S 182 x(in)S 182 x(the)S 183 x(insta)S -2 x(llation)S
182 x(kit.)S 12815 Y 3899 X(The)S 183 x(kit)S 182 x(contains)S 182 x
(the)S 182 x(following)S 182 x(items:)S 897 y 3899 X(\201)S 714 x
(This)S 182 x(cover)S 184 x(letter)S 897 y 3899 X(\201)S 714 x(The)S
183 x(V)S -51 x(ersion)S 182 x(1.2)S 182 x(install)S -2 x(ation)S 
182 x(media)S 896 y 3899 X(\201)S 714 x F148(V)S -61 x(AX)S 182 x
(Xway)S 182 x(V1.2)S 182 x(Installation)S 183 x(Guide)S 16601 Y 
3899 X F147(T)S -50 x(o)S 183 x(insta)S -2 x(ll)S 182 x(the)S 183 x
(kit,)S 183 x(plea)S -2 x(se)S 183 x(follow)S 182 x(the)S 183 x
(procedure)S 182 x(in)S 182 x(the)S 183 x F148(V)S -61 x(AX)S 182 x
(Xway)S 182 x(V1.2)S 182 x(Installation)S 183 x(Guide)S F147(.)S 
17598 Y 3899 X(Highlights)S 182 x(of)S 183 x(V)S -51 x(ersion)S 182 x
(1.2)S 182 x(include)S 181 x(the)S 183 x(following:)S 896 y 3899 X
(\201)S 714 x(V)S -61 x(AX)S 182 x(Xway)S 182 x(now)S 183 x
(supports)S 181 x(DECalc)S 182 x(V3.1)S 182 x(input)S 182 x(and)S 
181 x(output)S 182 x(\211les.)S 897 y 3899 X(\201)S 714 x(V)S -61 x
(AX)S 182 x(Xway)S 182 x(now)S 183 x(uses)S 182 x(the)S 182 x
(License)S 183 x(Management)S 182 x(Facility)S 182 x(\(LM)S 2 x
(F\).)S 896 y 3899 X(\201)S 714 x(V)S -61 x(AX)S 182 x(Xway)S 182 x
(now)S 183 x(provides)S 182 x(better)S 182 x(recovery)S 184 x(from)S
184 x("unsupp)S -2 x(orted)S 183 x(record)S 183 x(type")S 182 x
(errors.)S 897 y 3899 X(\201)S 714 x(V)S -61 x(AX)S 197 x(Xway)S 
198 x(now)S 199 x(provides)S 197 x(supp)S -2 x(ort)S 199 x(for)S 
199 x(ADA)S 198 x(and)S 197 x(BASIC)S 197 x(programming)S 198 x
(using)S 197 x(the)S 198 x(callabl)S -2 x(e)S 648 y 4945 X
(interface)S 183 x(routines.)S 896 y 3899 X(\201)S 714 x(V)S -61 x
(AX)S 182 x(Xway)S 182 x(V1.2)S 182 x(provides)S 182 x(two)S 183 x
(new)S 183 x(calla)S -2 x(ble)S 182 x(interface)S 183 x(routines.)S
897 y 3899 X(\201)S 714 x(V)S -61 x(AX)S 235 x(Xway)S 237 x(V1.2)S
235 x(provides)S 236 x(two)S 236 x(examples)S 236 x(for)S 237 x
(programming)S 236 x(using)S 236 x(the)S 236 x(callab)S -2 x(le)S 
236 x(interface)S 647 y 4945 X(routines.)S 25368 Y 3899 X(See)S 162 x
(the)S 162 x F148(V)S -61 x(AX)S 161 x(Xway)S 162 x(V1.2)S 161 x
(Release)S 163 x(Notes)S 162 x F147(for)S 162 x(details)S 160 x
(about)S 162 x(these)S 161 x(highlights)S 161 x(and)S 160 x(for)S 
163 x(information)S 648 y 3899 X(about)S 231 x(changes)S 231 x(and)S
230 x(new)S 232 x(features,)S 244 x(resolved)S 231 x(problems,)S 
243 x(problems)S 230 x(and)S 231 x(restrictions)S 231 x(and)S 230 x
(docu-)S 648 y 3899 X(mentation)S 182 x(changes)S 182 x(in)S 182 x
(V)S -51 x(ersion)S 182 x(1.2.)S 37373 Y 26934 X F36(1)S
%%EndCustomColor 0
PP
EP
%%PageTrailer: 
%%PageCustomColors: 0 
%%Trailer
EndDVC$PSDoc
%%DocumentFonts: NewCenturySchlbk-Bold NewCenturySchlbk-Italic 
%%+NewCenturySchlbk-Roman Helvetica-Bold
%%Pages 1
%%DocumentCustomColors: 0 
